*Vertices 300
*Edges
1 22
1 27
1 50
1 85
1 98
1 141
1 150
1 208
1 216
1 234
1 242
1 268
2 17
2 51
2 165
2 189
2 226
2 271
3 14
3 15
3 18
3 43
3 49
3 91
3 99
3 125
3 136
3 151
3 180
3 206
3 227
3 273
3 286
4 29
4 35
4 65
4 81
4 93
4 185
4 189
4 218
4 239
4 276
4 287
5 11
5 75
5 184
5 186
5 218
6 41
6 82
6 114
6 122
6 125
6 143
6 159
6 204
6 208
6 227
6 251
7 44
7 55
7 79
7 101
7 203
7 263
7 277
8 42
8 66
8 75
8 77
8 79
8 88
8 149
8 167
8 263
9 18
9 26
9 49
9 120
9 123
9 152
9 247
10 38
10 124
10 233
11 27
11 35
11 66
11 75
11 76
11 104
11 113
11 184
11 239
11 247
12 96
12 248
13 49
13 62
13 68
13 92
13 99
13 147
13 199
13 234
13 288
14 49
14 96
14 136
14 264
15 40
15 58
15 81
15 134
15 158
16 19
16 55
16 85
16 93
16 145
16 151
16 195
16 220
16 236
17 25
17 27
17 49
17 74
17 127
17 141
17 157
17 165
17 182
17 200
17 244
17 260
17 298
18 49
18 123
18 125
18 299
19 125
19 259
20 67
20 78
20 142
20 205
20 229
20 273
21 42
21 63
21 105
21 110
21 222
22 27
22 55
22 85
22 173
22 237
22 243
23 39
23 45
23 52
23 70
23 109
23 119
23 121
23 133
23 157
23 203
23 220
24 31
24 35
24 54
24 67
24 92
24 124
24 140
24 178
24 180
25 104
25 140
25 141
25 167
25 191
26 43
26 49
26 70
26 83
26 134
26 139
26 247
26 257
26 279
27 41
27 46
27 50
27 54
27 104
27 141
27 151
27 226
27 227
27 246
27 263
28 46
28 64
28 88
28 200
28 228
28 246
28 287
28 293
29 61
29 65
29 128
29 251
30 146
30 238
30 241
30 265
31 35
31 57
31 115
31 116
31 141
31 143
31 164
31 217
31 281
31 293
32 38
32 80
32 141
32 153
32 167
32 227
32 274
32 288
33 50
33 84
33 102
33 129
33 130
33 143
33 179
33 185
33 190
33 199
33 262
34 37
34 49
34 54
34 58
34 107
34 133
34 142
34 150
34 223
34 225
35 44
35 54
35 61
35 93
35 100
35 113
35 129
35 145
35 231
36 68
36 105
37 107
37 264
38 64
38 67
38 80
38 86
38 87
38 107
38 124
38 141
38 210
39 166
39 197
39 220
40 41
40 50
40 56
40 107
40 124
40 205
40 236
40 247
40 280
41 50
41 90
41 95
41 105
41 120
41 174
41 176
41 227
42 45
42 73
42 77
42 188
42 205
42 279
43 57
43 134
43 141
44 55
44 61
44 64
44 82
44 101
44 203
44 251
45 56
45 70
45 72
45 73
45 161
45 227
45 240
45 241
45 262
45 294
46 77
46 88
46 104
46 111
46 152
46 164
46 181
46 228
46 233
46 287
48 131
48 168
48 200
48 202
48 204
48 268
48 282
49 58
49 99
49 134
49 170
49 180
49 197
49 298
50 65
50 78
50 84
50 104
50 120
50 174
50 273
50 280
51 103
51 153
51 176
51 254
51 264
51 287
51 295
52 119
52 196
52 299
53 99
53 250
53 253
54 83
54 118
54 119
54 123
54 133
54 191
54 220
54 290
55 85
55 226
55 247
55 270
56 72
56 132
56 143
56 285
56 290
57 141
57 279
58 75
58 81
58 134
58 143
58 217
59 60
59 143
59 169
59 230
59 291
60 66
60 126
60 155
61 82
61 98
61 100
61 116
61 119
61 120
61 142
61 170
61 197
61 205
61 259
61 274
62 79
62 92
62 186
62 231
62 251
63 166
63 197
64 262
64 264
64 280
64 282
64 294
65 80
65 81
65 128
65 265
66 70
66 71
66 75
66 115
66 133
66 149
67 87
67 98
67 104
67 142
67 162
67 238
67 276
68 92
68 108
68 130
68 181
68 182
68 244
68 280
69 98
69 132
69 137
69 147
69 189
69 190
69 238
69 285
70 134
70 257
70 297
71 114
71 115
71 156
71 237
71 274
72 143
72 146
72 154
72 218
72 231
73 96
73 173
73 202
73 214
73 215
73 289
74 89
74 141
74 145
74 148
74 161
74 187
75 143
75 149
75 184
75 195
76 135
76 173
76 234
76 237
76 283
76 294
77 88
77 207
78 137
78 174
78 229
78 255
78 278
79 92
79 98
79 174
79 226
79 251
80 86
80 153
80 168
80 256
80 258
81 114
81 210
81 244
81 271
82 96
82 115
82 139
82 222
83 118
83 123
83 139
83 294
84 102
84 126
84 198
84 222
84 230
85 89
85 107
85 160
85 204
85 211
85 282
86 124
86 153
86 162
86 179
86 190
86 280
87 128
87 149
87 241
87 251
88 93
88 111
88 127
88 145
88 186
88 207
88 234
89 107
89 128
89 148
89 204
90 212
90 245
90 294
91 198
91 235
91 242
91 274
91 293
92 120
92 140
92 156
92 183
92 209
92 249
93 145
93 198
93 253
93 273
93 275
94 265
95 105
95 120
95 173
95 201
95 230
95 269
96 114
96 139
96 164
96 198
96 208
96 237
96 274
96 280
96 288
97 118
97 154
97 158
97 202
97 206
97 242
98 104
98 142
98 144
98 150
98 165
98 177
98 267
98 285
99 129
99 177
99 178
99 180
99 181
99 250
100 110
100 120
100 156
100 231
100 237
101 112
101 169
101 196
101 205
101 258
101 263
102 121
102 122
102 139
102 174
102 196
102 223
103 126
103 144
103 198
103 273
103 276
103 296
104 131
104 164
104 202
104 238
105 110
105 294
106 135
106 164
106 284
107 124
107 128
107 190
107 201
107 213
108 132
108 137
108 155
108 182
108 244
108 246
108 270
108 282
109 121
109 263
109 283
109 296
110 120
110 145
110 177
110 193
110 216
110 265
111 127
111 162
111 185
112 221
112 284
113 131
113 136
113 156
113 160
113 193
113 210
113 239
113 253
113 291
114 130
114 143
114 195
114 204
114 211
114 235
114 260
115 282
116 120
116 127
116 141
116 248
116 285
117 128
117 135
117 136
117 140
117 192
117 248
118 160
118 242
118 290
119 133
119 203
119 219
119 245
119 269
119 275
120 140
120 222
120 241
120 285
121 139
121 157
121 183
121 246
121 267
122 125
122 211
122 214
122 218
123 188
123 231
125 217
125 255
125 299
126 144
126 169
126 287
127 202
127 222
127 237
127 253
128 129
128 161
128 214
128 267
129 141
129 155
129 181
129 210
129 239
129 247
130 143
130 165
130 181
130 239
130 248
130 263
130 269
130 272
130 289
131 136
131 172
131 223
131 296
132 137
132 164
132 183
132 192
132 263
132 294
133 220
134 139
134 243
134 291
135 140
135 206
136 186
136 191
136 248
136 256
137 147
137 181
138 146
138 215
138 258
138 297
140 179
140 183
140 249
140 250
140 253
140 266
140 296
141 164
141 212
141 296
142 236
143 146
143 203
143 214
143 217
143 222
143 224
143 236
143 277
144 194
144 207
145 148
145 162
145 203
145 225
145 251
145 273
145 276
145 283
146 265
147 161
147 211
147 213
148 149
148 155
148 229
148 234
148 249
148 284
149 153
149 159
149 182
150 208
150 242
150 267
150 268
151 203
151 216
151 221
151 226
151 227
151 248
151 263
151 292
152 157
152 159
152 184
152 188
152 196
152 211
152 233
154 179
154 209
154 238
154 249
155 196
155 213
155 218
155 239
155 247
155 248
156 204
156 237
157 199
157 242
157 247
157 251
157 279
158 163
158 169
158 209
158 216
158 222
159 160
159 176
159 259
159 291
160 177
160 181
160 203
160 214
160 216
160 259
160 264
160 289
160 291
161 173
161 188
161 213
161 225
161 232
162 190
162 225
162 229
162 243
163 177
163 284
164 168
164 175
164 178
164 208
165 178
165 208
165 235
165 261
165 267
166 199
166 264
166 282
166 284
167 235
167 288
167 299
167 300
168 202
168 236
168 264
168 265
169 219
169 222
169 287
170 219
170 284
170 298
171 240
172 215
172 250
172 255
173 182
173 184
173 195
173 213
173 218
173 231
173 237
173 271
174 183
174 196
174 205
175 208
175 210
175 235
175 236
175 255
175 299
176 197
177 201
177 216
177 224
178 180
178 198
178 202
178 208
178 214
178 242
178 268
178 272
178 288
179 210
179 238
179 249
180 182
180 214
180 244
180 258
181 202
181 285
181 291
182 199
182 213
182 256
182 274
182 288
183 198
183 213
183 220
183 241
184 189
184 195
184 221
184 233
184 277
185 221
185 253
185 259
185 274
187 217
187 219
187 263
187 298
188 196
188 232
190 199
190 213
190 221
190 225
190 256
190 274
191 238
192 226
192 282
192 292
192 295
193 265
194 263
194 282
194 295
195 200
195 237
195 298
196 213
196 218
196 256
197 214
197 269
197 295
198 220
198 241
199 202
199 221
199 234
199 242
199 251
199 261
199 264
199 273
199 274
199 279
200 247
200 298
201 224
201 264
201 270
202 214
202 234
202 291
203 214
203 227
203 239
203 249
204 224
204 259
204 261
204 268
205 236
206 244
206 259
207 211
207 297
207 299
208 256
208 261
208 274
208 288
209 212
209 300
211 233
211 240
211 299
212 218
212 233
213 218
213 220
213 256
214 260
214 267
214 272
214 280
215 285
216 226
216 289
216 292
219 298
220 296
221 274
223 226
223 296
224 264
224 268
224 269
224 277
224 278
225 229
225 232
225 291
226 227
226 296
229 232
229 273
229 276
229 290
230 231
230 239
231 239
231 243
232 284
233 240
233 277
235 255
235 265
235 267
235 299
235 300
237 280
238 265
238 291
239 264
239 272
241 254
244 271
244 273
245 275
246 293
247 260
247 267
247 290
248 256
249 250
249 266
253 259
253 260
253 269
254 281
255 299
256 261
257 295
258 281
258 297
259 269
259 271
259 274
260 267
260 275
261 273
263 269
263 298
264 291
264 296
265 300
267 300
268 280
271 274
274 277
274 278
274 288
274 293
276 290
277 278
277 293
278 283
278 295
281 300
282 295
284 298
286 290
287 294
293 295
293 300
295 300
299 300
*Classes
1
1
1
1
1
1
1
1
1
1
1
1
1
1
1
1
1
1
1
1
1
1
1
1
1
1
1
1
1
1
1
1
1
1
1
1
1
1
1
1
1
1
1
1
1
1
1
1
1
1
1
1
1
1
1
1
1
1
1
1
1
1
1
1
1
1
1
1
1
1
1
1
1
1
1
1
1
1
1
1
1
1
1
1
1
1
1
1
1
1
1
1
1
1
1
1
1
1
1
1
1
1
1
1
1
1
1
1
1
1
1
1
1
1
1
1
1
1
1
1
1
1
1
1
1
1
1
1
1
1
1
1
1
1
1
1
1
1
1
1
1
1
1
1
1
1
1
1
1
1
2
2
2
2
2
2
2
2
2
2
2
2
2
2
2
2
2
2
2
2
2
2
2
2
2
2
2
2
2
2
2
2
2
2
2
2
2
2
2
2
2
2
2
2
2
2
2
2
2
2
2
2
2
2
2
2
2
2
2
2
2
2
2
2
2
2
2
2
2
2
2
2
2
2
2
2
2
2
2
2
2
2
2
2
2
2
2
2
2
2
2
2
2
2
2
2
2
2
2
2
2
2
2
2
2
2
2
2
2
2
2
2
2
2
2
2
2
2
2
2
2
2
2
2
2
2
2
2
2
2
2
2
2
2
2
2
2
2
2
2
2
2
2
2
2
2
2
2
2
2
