*Vertices 300
*Edges
1 7
1 27
1 40
1 66
1 75
1 106
1 119
1 193
2 17
2 51
2 80
2 197
2 198
2 224
2 233
2 239
3 57
3 104
3 117
3 136
3 199
3 251
3 297
4 29
4 45
4 49
4 127
4 130
4 144
4 153
4 159
4 190
4 224
4 234
4 239
4 249
4 253
4 293
5 39
5 44
5 53
5 102
5 143
6 11
6 65
6 72
6 82
6 99
6 169
6 174
6 250
6 272
7 66
7 70
7 75
7 109
7 119
7 124
7 130
7 212
8 9
8 34
8 49
8 72
8 78
8 82
8 102
8 147
8 164
8 183
8 216
8 226
8 243
8 244
8 250
9 33
9 72
9 78
9 147
9 218
10 39
10 101
10 152
10 280
11 28
11 32
11 42
11 93
11 99
11 106
11 123
11 132
11 135
11 149
11 181
11 196
11 205
11 216
11 249
11 280
12 25
12 110
12 188
12 193
12 245
12 254
13 69
13 80
13 91
13 125
13 143
14 30
14 85
14 248
14 272
14 296
15 35
15 42
15 90
15 112
15 113
15 123
15 147
15 149
15 153
15 169
15 255
15 269
16 26
16 47
16 112
16 138
16 140
16 211
16 212
16 238
17 51
17 72
17 73
17 138
17 190
17 211
17 261
17 265
17 293
18 97
18 150
18 161
19 51
19 55
19 63
19 127
19 136
19 146
19 167
19 202
20 57
20 60
20 70
20 125
20 150
20 232
20 252
21 26
22 58
22 104
22 149
22 200
22 226
22 232
22 257
22 287
23 27
23 30
23 36
23 41
23 53
23 61
23 65
23 108
23 148
23 166
23 170
23 173
23 203
23 262
24 61
24 75
24 101
24 110
24 131
24 168
24 193
24 228
24 246
25 108
25 110
25 128
25 217
25 289
26 47
26 74
26 93
26 105
26 140
26 161
26 178
26 206
26 222
26 267
26 287
27 30
27 71
27 108
27 125
27 170
28 31
28 36
28 45
28 53
28 79
28 112
28 123
28 135
28 156
28 176
28 188
28 214
28 247
28 264
28 298
29 49
29 68
29 99
29 173
29 192
29 221
29 233
29 299
30 32
30 55
30 82
30 85
30 150
30 278
30 279
31 54
31 223
31 247
32 42
32 46
32 52
32 82
32 86
32 93
32 95
32 104
32 114
32 131
32 146
32 150
32 202
32 231
32 232
32 285
33 44
33 54
33 129
33 142
33 147
33 166
33 170
33 211
33 223
33 228
33 257
33 291
34 52
34 63
34 64
34 72
34 77
34 102
34 103
34 143
34 157
34 206
34 300
35 90
36 48
36 76
36 80
36 84
36 109
36 113
36 148
36 180
36 188
36 196
36 211
36 248
36 277
37 84
37 115
37 135
37 143
37 165
37 251
38 111
38 120
38 187
38 207
38 268
38 295
39 101
40 45
40 67
40 68
40 88
40 104
40 119
40 124
40 128
40 144
40 167
40 203
40 212
40 223
40 238
40 270
41 47
41 65
41 72
41 82
41 87
41 115
41 142
41 156
41 169
41 173
41 244
41 255
41 260
41 291
42 43
42 47
42 48
42 53
42 63
42 86
42 93
42 98
42 105
42 128
42 140
42 152
42 156
42 164
42 190
42 206
42 244
42 255
42 294
43 48
43 63
43 211
44 49
44 54
44 102
44 121
44 170
44 173
44 215
44 230
45 74
45 140
45 144
45 167
45 205
45 219
45 280
45 281
46 61
46 63
46 113
46 150
46 157
46 211
46 219
46 256
47 105
47 110
47 112
47 115
47 128
47 145
47 212
47 270
48 60
48 63
48 96
48 140
48 148
48 187
48 211
48 226
48 243
49 72
49 126
49 181
49 299
50 60
50 70
50 87
50 91
50 107
50 111
50 172
50 190
50 202
50 272
50 291
50 298
51 80
51 125
51 145
51 161
51 175
51 195
51 209
51 217
51 243
52 57
52 61
52 64
52 93
52 125
52 164
52 220
52 222
52 255
53 61
53 63
53 102
53 104
53 105
53 112
53 120
53 162
53 165
53 190
53 246
53 260
54 67
54 124
54 130
54 234
54 276
55 76
55 82
55 127
55 136
55 146
55 159
55 165
55 223
56 108
56 162
57 64
57 93
57 106
57 125
57 211
57 234
57 257
58 81
58 95
58 149
58 196
58 233
58 283
58 285
59 127
59 290
60 150
60 185
60 198
60 239
60 241
60 256
61 65
61 107
61 110
61 113
61 131
61 145
61 148
61 154
61 156
61 169
61 246
61 248
61 255
62 81
62 96
62 192
62 274
63 64
63 86
63 105
63 147
63 148
63 150
63 167
63 275
63 280
64 76
64 105
64 147
64 158
64 185
64 206
64 213
64 220
64 222
64 240
64 277
65 115
65 156
65 199
65 222
65 251
65 294
66 70
66 78
66 121
66 134
66 202
66 215
66 285
66 287
66 295
67 88
67 124
67 138
67 141
67 144
67 153
67 154
67 201
67 207
67 291
67 299
68 128
68 192
68 222
68 242
68 281
69 164
69 182
69 204
69 268
70 78
70 111
70 121
70 134
70 146
70 150
70 154
70 165
70 171
70 224
70 230
70 292
71 117
71 125
71 202
71 275
72 78
72 82
72 138
72 211
72 253
73 79
73 84
73 164
73 248
73 261
74 81
74 95
74 127
74 131
74 140
74 144
74 155
74 227
74 235
74 280
75 122
75 131
75 168
75 174
75 180
75 270
75 278
76 82
76 146
76 147
76 150
76 162
76 266
76 296
77 143
77 298
77 300
78 90
78 173
78 174
78 177
78 216
78 227
78 234
78 254
78 276
79 84
79 134
79 135
79 155
79 178
79 243
79 266
79 280
80 84
80 106
80 109
80 125
80 145
80 166
80 196
80 283
80 290
81 89
81 96
81 161
81 214
81 241
81 253
81 280
81 295
82 85
82 93
82 129
82 142
82 147
82 151
82 285
83 87
83 253
83 259
83 265
84 135
84 143
84 290
85 95
85 114
85 217
85 223
86 175
86 230
86 232
86 234
86 249
86 261
86 276
87 91
87 115
87 148
87 203
87 211
87 253
87 266
88 124
88 221
88 248
88 272
89 92
89 161
89 188
89 214
89 234
89 253
90 117
90 123
90 174
90 196
90 217
91 143
91 174
91 202
91 211
91 230
91 272
91 291
91 294
92 101
92 165
92 188
92 240
93 105
93 110
93 114
93 128
93 131
93 132
93 152
93 153
93 156
93 168
93 205
93 267
94 179
95 114
95 140
95 199
95 204
95 244
95 270
95 282
96 124
96 128
96 187
96 202
96 223
96 228
97 218
98 116
98 128
98 140
98 211
99 124
99 149
99 173
99 200
99 206
99 219
99 221
99 250
99 272
100 122
100 137
100 163
100 195
100 209
100 215
100 217
100 297
101 131
101 165
101 187
101 251
101 290
102 104
102 120
102 121
102 173
102 230
102 250
103 141
104 117
104 120
104 124
104 130
104 136
104 138
104 141
104 211
104 236
104 287
105 190
105 222
105 283
106 121
106 125
106 132
106 167
106 203
106 246
107 113
107 142
107 162
107 240
107 274
107 283
107 294
108 128
108 191
108 192
108 227
109 130
109 148
109 189
109 245
109 267
109 268
110 128
110 145
110 198
110 238
110 278
111 118
111 154
111 228
111 286
111 295
112 137
112 149
112 162
112 202
112 211
112 233
112 238
112 254
112 264
112 282
113 147
113 154
113 207
113 215
113 219
113 246
113 247
113 269
113 285
114 140
114 145
114 150
114 217
115 135
115 143
115 145
115 244
116 154
116 222
116 230
117 202
117 248
117 254
117 297
118 169
118 205
119 193
119 205
119 206
119 215
119 221
119 231
119 256
119 284
120 215
120 285
121 132
121 134
121 150
121 267
122 127
122 155
122 180
122 205
122 217
122 254
122 289
123 227
123 249
123 261
123 293
124 130
124 185
124 201
124 221
124 271
124 273
124 288
126 206
126 239
126 300
127 138
127 155
127 185
127 233
127 236
128 184
128 193
128 198
128 209
128 222
128 255
128 278
128 281
128 294
129 142
129 228
129 272
129 279
130 131
130 144
130 186
130 234
130 239
130 278
131 145
131 184
131 199
131 200
131 227
131 251
131 281
132 158
132 187
132 191
133 165
133 225
133 248
133 258
133 271
134 186
134 257
135 145
135 156
135 169
136 138
136 141
136 169
136 185
136 223
136 293
137 195
138 144
138 151
138 154
138 165
138 169
138 185
138 211
138 233
138 239
138 282
139 189
140 186
140 257
140 266
140 271
140 287
141 168
142 240
142 246
142 279
142 291
143 237
144 151
144 153
144 223
144 260
144 277
145 217
145 238
145 298
146 150
146 162
146 233
146 290
146 296
147 179
147 223
147 259
147 269
147 276
148 177
148 199
148 203
148 248
148 283
148 289
149 226
149 254
149 283
150 171
150 247
151 256
151 260
151 276
151 285
151 298
152 156
152 170
152 199
152 221
152 246
152 248
152 254
152 265
152 278
153 181
153 185
153 193
153 240
153 255
153 257
153 259
153 285
153 292
153 298
154 165
154 182
154 189
154 194
154 207
154 222
154 230
154 231
154 237
154 268
154 296
155 171
155 205
155 249
155 266
156 169
156 170
156 199
157 195
157 201
157 219
157 281
158 198
158 222
158 224
159 176
159 181
159 190
159 196
159 203
159 214
159 223
159 255
159 285
159 287
160 170
160 197
160 228
160 289
161 195
161 206
161 209
162 165
162 230
162 233
162 235
162 293
163 184
163 202
163 297
164 180
164 183
164 217
164 233
164 235
164 244
164 248
164 269
164 271
165 174
165 214
165 230
165 233
165 251
165 253
165 270
165 287
165 292
165 293
166 170
166 238
166 239
166 241
166 245
166 270
167 203
167 232
167 246
167 265
167 272
167 274
167 281
167 295
168 186
168 189
168 267
169 205
170 278
171 247
171 266
173 193
173 233
173 240
173 300
174 177
174 181
174 187
174 199
174 226
174 251
174 254
175 247
176 193
176 198
176 214
176 287
176 288
176 289
176 300
177 181
177 203
177 284
178 200
178 208
178 289
179 215
179 226
179 243
179 285
179 292
180 211
180 216
180 269
181 196
181 240
182 207
182 222
182 231
182 248
182 268
183 235
183 244
183 269
184 199
184 202
184 233
185 193
185 213
185 239
185 240
185 269
185 280
185 288
186 189
186 254
186 276
186 285
187 202
187 205
187 219
187 228
187 241
187 251
187 254
187 264
188 234
189 237
190 203
190 207
190 214
190 249
190 273
190 300
191 218
191 233
191 235
191 244
191 271
191 291
192 227
192 271
193 240
193 265
193 273
193 300
194 237
195 201
195 209
196 215
196 255
196 276
196 285
197 250
197 289
198 224
198 241
198 250
198 288
198 289
198 293
199 203
199 243
199 251
200 289
201 285
201 292
201 294
202 233
202 234
202 275
203 214
203 252
203 275
203 281
203 283
203 300
204 246
204 297
205 219
205 249
206 221
207 213
207 251
207 253
207 280
208 219
208 289
209 219
209 281
210 213
211 250
211 257
212 238
213 216
213 269
213 280
214 223
214 226
214 236
214 243
214 251
214 253
214 287
214 288
215 231
215 277
215 285
216 243
216 280
216 295
217 218
217 285
217 298
218 244
219 281
221 234
221 271
224 233
224 241
224 257
224 289
224 293
225 261
226 243
226 251
226 290
226 292
227 271
228 286
230 238
230 270
230 287
230 296
231 232
231 248
232 265
233 235
233 266
233 275
233 279
233 282
233 287
233 294
234 257
234 275
234 276
234 285
234 290
235 279
235 280
235 294
236 243
236 264
236 287
237 296
238 270
238 283
239 269
239 293
241 264
242 280
243 264
243 290
244 255
244 271
244 283
244 291
245 268
246 252
246 257
246 272
246 274
246 297
247 298
248 265
248 271
248 272
248 276
248 278
248 295
249 288
249 289
249 298
250 289
251 253
252 270
252 274
252 283
254 276
254 278
255 291
256 284
257 274
257 275
257 287
257 291
257 293
261 293
262 290
265 272
265 295
266 287
267 273
270 283
272 276
273 300
274 283
274 287
275 276
275 283
275 290
276 285
276 298
280 295
283 289
284 297
285 292
285 294
285 295
285 298
288 289
288 300
291 298
*Classes
1
1
1
1
1
1
1
1
1
1
1
1
1
1
1
1
1
1
1
1
1
1
1
1
1
1
1
1
1
1
1
1
1
1
1
1
1
1
1
1
1
1
1
1
1
1
1
1
1
1
1
1
1
1
1
1
1
1
1
1
1
1
1
1
1
1
1
1
1
1
1
1
1
1
1
1
1
1
1
1
1
1
1
1
1
1
1
1
1
1
1
1
1
1
1
1
1
1
1
1
1
1
1
1
1
1
1
1
1
1
1
1
1
1
1
1
1
1
1
1
1
1
1
1
1
1
1
1
1
1
1
1
1
1
1
1
1
1
1
1
1
1
1
1
1
1
1
1
1
1
2
2
2
2
2
2
2
2
2
2
2
2
2
2
2
2
2
2
2
2
2
2
2
2
2
2
2
2
2
2
2
2
2
2
2
2
2
2
2
2
2
2
2
2
2
2
2
2
2
2
2
2
2
2
2
2
2
2
2
2
2
2
2
2
2
2
2
2
2
2
2
2
2
2
2
2
2
2
2
2
2
2
2
2
2
2
2
2
2
2
2
2
2
2
2
2
2
2
2
2
2
2
2
2
2
2
2
2
2
2
2
2
2
2
2
2
2
2
2
2
2
2
2
2
2
2
2
2
2
2
2
2
2
2
2
2
2
2
2
2
2
2
2
2
2
2
2
2
2
2
