*Vertices 300
*Edges
1 9
1 47
1 82
1 102
1 119
2 131
2 182
3 16
3 43
3 78
3 85
3 139
3 225
3 264
3 297
4 6
4 10
4 28
4 42
4 111
4 113
4 129
4 143
4 152
4 165
4 175
4 250
4 279
4 292
5 62
5 85
5 88
5 125
5 131
5 261
5 296
6 28
6 32
6 70
6 113
6 120
6 132
6 143
6 165
6 252
6 298
7 41
7 46
7 68
7 113
7 203
7 235
7 275
8 12
8 32
8 54
8 126
8 153
9 11
9 34
9 40
9 97
9 119
9 142
9 246
10 42
10 61
10 223
10 249
10 261
11 13
11 28
11 75
11 97
11 106
11 127
11 180
12 13
12 32
12 112
12 199
12 247
12 286
13 32
13 131
13 154
13 161
13 178
13 234
13 295
14 129
14 131
14 236
14 292
15 186
15 259
15 287
16 56
16 115
16 124
16 183
16 199
16 216
16 224
16 226
17 55
17 141
17 217
17 226
17 244
17 258
17 299
18 34
18 47
18 78
18 82
18 130
19 48
19 55
19 89
19 186
19 213
19 255
20 21
20 52
20 64
20 67
20 124
20 276
20 277
21 52
21 216
21 222
22 35
22 53
22 57
22 62
22 93
22 120
22 132
22 154
22 198
22 281
23 134
23 186
23 217
23 232
23 245
23 248
23 255
24 75
24 97
24 152
24 158
24 239
25 45
25 149
25 190
25 198
25 267
26 35
26 40
26 130
26 143
26 235
26 260
27 219
27 262
28 106
28 113
28 153
28 204
28 236
28 250
28 252
28 293
29 101
29 110
29 121
29 133
29 139
29 238
29 259
30 66
30 168
30 185
30 218
30 220
30 225
30 243
30 257
31 69
31 122
32 51
32 99
32 140
32 199
32 286
33 36
33 40
33 70
33 120
33 143
33 152
33 164
33 199
33 263
33 292
34 37
34 75
34 84
34 97
34 119
35 40
35 127
35 130
35 132
35 160
35 235
35 253
36 40
36 71
36 86
36 116
36 144
36 171
36 176
36 182
36 190
36 274
36 276
36 278
36 283
36 284
36 286
37 66
37 76
37 89
37 92
37 97
37 165
37 176
37 254
37 278
37 281
38 54
38 141
38 156
38 168
38 170
38 179
38 198
38 214
38 218
38 243
38 256
38 276
38 298
39 58
39 130
39 213
39 255
39 260
39 264
40 69
40 91
40 124
40 143
40 235
41 44
41 68
41 72
41 147
41 204
41 279
42 61
42 82
42 123
42 150
42 215
42 224
42 245
42 256
43 78
43 82
43 85
43 107
43 195
43 295
44 147
44 205
44 220
44 236
45 111
45 149
46 68
46 108
46 136
46 206
46 218
46 251
46 254
47 61
47 78
47 82
47 116
47 169
47 223
47 233
48 70
48 89
48 107
48 180
48 200
48 263
48 274
49 70
49 120
49 122
49 161
49 169
49 173
49 211
49 271
49 274
49 295
50 56
50 151
50 249
51 146
51 254
51 271
52 79
52 100
52 217
52 235
52 244
52 277
52 288
53 77
53 132
53 160
53 227
53 231
53 242
53 295
54 126
54 129
54 132
54 134
54 141
54 160
54 226
54 256
54 294
55 226
55 265
55 274
56 112
56 145
56 151
56 160
56 165
56 192
56 197
56 211
56 218
56 240
56 245
56 255
56 299
57 84
57 93
57 100
57 123
57 133
57 145
57 157
57 178
57 197
57 292
58 99
58 110
58 121
58 134
58 192
58 194
58 283
59 84
59 117
59 118
59 140
59 169
59 293
60 209
60 218
60 221
60 268
61 85
61 151
61 241
62 74
62 75
62 88
62 93
62 125
62 131
62 171
62 180
62 184
62 199
62 246
62 255
62 265
62 294
63 99
63 107
63 113
63 148
63 157
63 258
63 272
64 67
64 85
64 91
64 176
65 67
65 122
65 145
65 147
65 283
66 78
66 89
66 102
66 115
66 152
66 220
66 257
66 260
66 282
67 85
67 91
67 130
67 146
67 172
67 175
67 176
67 214
67 232
67 246
68 103
68 112
68 125
68 204
68 254
69 91
69 122
69 124
70 120
70 169
70 199
70 263
70 274
71 82
71 86
71 157
71 195
71 242
71 295
72 155
72 219
72 242
72 254
73 162
73 245
73 253
73 260
74 84
74 114
74 178
74 180
74 270
74 295
75 84
75 97
75 131
75 207
75 255
75 298
76 92
76 104
76 186
77 132
77 174
77 209
77 229
77 231
77 234
77 253
77 294
78 79
78 82
78 85
78 89
78 139
78 223
78 228
78 264
78 295
79 100
79 128
79 134
79 139
79 162
79 208
79 242
79 260
79 268
79 296
80 95
80 219
80 289
81 148
81 171
81 251
81 289
82 116
82 242
82 245
83 112
83 197
83 231
83 242
84 93
84 97
84 114
84 125
84 190
86 190
86 199
86 267
87 122
87 145
87 208
87 299
88 118
88 125
88 135
88 144
88 160
88 167
88 186
88 190
88 192
88 253
88 272
88 286
89 92
89 102
89 176
89 235
89 254
89 260
90 257
91 110
91 121
91 124
91 157
91 243
91 246
92 97
92 157
92 186
92 210
93 100
93 105
93 120
93 125
93 141
93 168
93 210
93 227
93 241
93 294
94 155
94 174
94 229
95 153
95 206
95 213
96 203
96 211
96 259
96 264
96 269
96 292
97 119
97 142
97 185
97 211
97 213
97 280
98 190
98 253
98 264
98 268
98 286
99 113
99 134
99 135
99 140
99 218
100 123
100 198
100 300
101 118
101 123
101 140
101 152
101 161
101 212
101 253
101 259
101 262
101 266
102 117
102 169
102 185
103 105
103 112
103 139
103 145
105 155
105 165
105 287
106 117
106 262
107 113
107 148
107 180
107 226
107 251
107 253
107 272
108 136
108 172
108 197
108 198
108 216
108 270
108 281
109 152
109 286
110 121
110 134
110 167
110 243
110 254
110 257
110 268
111 129
111 152
111 240
111 276
112 122
112 125
112 145
112 258
112 261
113 143
113 169
113 203
113 235
113 239
113 259
114 178
114 217
114 261
115 124
115 286
115 296
116 125
116 144
116 169
116 171
116 173
116 182
116 187
116 256
116 274
117 134
117 136
117 155
117 236
117 257
117 300
118 140
118 169
118 270
118 281
118 293
118 294
118 299
120 170
120 202
121 158
121 222
122 145
122 233
122 248
122 286
122 290
123 144
123 150
123 185
123 218
123 256
124 289
125 128
125 134
125 173
125 182
125 204
125 248
127 165
127 175
127 180
127 234
127 253
128 134
128 157
128 158
128 175
128 180
128 208
128 228
128 242
128 246
128 252
128 268
129 141
129 144
129 163
129 176
129 200
129 205
129 236
129 244
129 262
129 288
130 174
130 175
130 181
130 205
130 232
130 235
131 161
131 195
131 257
131 295
131 296
132 134
132 141
132 194
132 198
132 227
133 178
133 197
133 263
134 136
134 138
134 159
134 176
134 184
134 192
134 214
134 282
135 140
135 243
135 281
135 296
136 182
136 236
136 259
137 155
137 241
138 192
138 221
138 248
139 153
139 217
139 245
139 284
139 296
140 165
140 168
140 180
140 207
140 246
140 265
140 281
141 163
141 293
141 299
142 282
143 199
143 283
143 287
144 150
144 176
145 192
145 197
145 232
145 249
145 299
146 162
146 188
146 254
146 260
146 294
147 190
147 200
147 205
147 241
147 275
147 292
148 157
148 189
148 196
148 204
148 259
148 289
149 187
149 252
149 267
150 185
150 199
150 251
150 256
151 157
151 184
151 245
151 261
151 283
151 287
152 160
152 212
152 237
152 283
153 169
153 181
153 188
153 198
153 201
153 210
153 215
153 217
153 227
153 235
153 236
153 240
153 270
153 276
153 288
154 160
154 226
154 237
154 251
154 257
154 281
154 283
155 163
155 166
155 174
155 186
155 242
156 228
156 267
156 298
157 172
157 176
157 189
157 240
157 276
157 284
157 287
157 295
158 188
158 229
158 234
158 246
158 257
159 195
159 198
159 214
159 223
159 227
159 250
159 279
159 282
160 163
160 219
160 237
160 272
160 285
161 173
161 178
161 185
161 212
161 237
161 265
161 276
162 168
162 179
162 187
162 260
162 275
163 200
163 219
163 242
164 191
164 282
165 171
165 199
165 203
165 207
165 211
165 267
165 295
166 197
166 242
167 182
167 184
167 192
167 205
167 231
167 255
167 291
168 179
168 180
168 227
169 179
169 194
169 210
169 215
169 216
169 226
169 246
169 251
169 276
170 242
171 211
171 274
172 176
172 262
172 273
173 185
173 212
173 220
173 265
173 275
175 217
175 224
175 228
175 234
175 235
175 252
175 262
175 268
175 288
176 262
176 295
177 179
177 263
178 240
179 180
179 182
179 218
179 227
179 249
179 290
180 203
180 206
180 262
180 288
181 187
181 191
181 247
181 276
182 187
182 211
182 232
182 263
182 266
182 284
182 291
182 299
183 199
183 200
183 201
183 216
183 218
183 224
183 276
183 284
183 288
183 289
183 290
184 192
184 245
184 294
185 251
186 208
186 262
186 288
187 198
188 213
188 215
188 234
188 235
188 257
188 270
188 288
188 294
189 191
189 216
189 276
189 280
189 287
190 244
190 286
191 227
191 247
191 273
191 280
191 282
191 296
192 194
192 203
192 205
192 236
192 245
192 255
192 274
193 281
194 198
194 203
194 211
194 214
194 231
194 241
194 246
194 274
194 299
195 199
195 210
195 223
195 228
195 270
195 282
195 285
195 295
196 249
196 250
196 270
196 294
197 198
198 203
198 214
198 231
198 240
198 246
198 258
199 246
199 267
199 295
200 201
200 223
200 228
200 233
200 235
200 238
200 239
200 244
200 252
200 267
201 217
201 235
201 238
201 239
201 289
203 211
203 253
203 270
203 294
205 224
205 255
205 287
206 254
206 262
206 266
207 250
207 279
208 251
208 268
208 277
209 276
209 284
210 223
210 246
210 251
210 270
210 294
211 213
211 269
211 299
212 240
212 266
212 276
212 283
213 255
213 269
213 294
215 217
215 235
215 251
216 221
216 229
216 246
216 265
216 292
217 226
217 228
217 235
217 246
217 261
217 264
217 276
218 231
218 241
218 243
218 249
218 290
220 287
221 229
221 231
221 265
222 271
222 278
223 228
224 245
224 284
225 255
225 267
225 278
226 246
226 251
227 240
227 276
227 282
228 252
229 231
229 241
230 261
230 287
231 241
231 244
231 258
231 283
231 285
231 291
231 299
232 276
232 284
233 244
233 252
233 258
234 300
235 260
235 261
236 292
237 251
237 265
237 272
237 285
238 259
239 289
240 258
240 276
241 290
243 290
244 252
244 258
244 264
244 286
244 291
246 265
247 280
247 282
247 296
249 261
249 271
250 279
250 282
251 277
251 281
252 264
252 293
254 266
254 278
254 279
254 282
255 269
255 278
258 299
261 283
262 288
264 281
265 277
269 296
270 294
270 295
271 278
271 288
271 289
272 296
273 282
276 284
280 282
281 283
281 292
281 296
283 285
283 296
284 290
286 296
288 289
289 290
291 299
292 296
*Classes
1
1
1
1
1
1
1
1
1
1
1
1
1
1
1
1
1
1
1
1
1
1
1
1
1
1
1
1
1
1
1
1
1
1
1
1
1
1
1
1
1
1
1
1
1
1
1
1
1
1
1
1
1
1
1
1
1
1
1
1
1
1
1
1
1
1
1
1
1
1
1
1
1
1
1
1
1
1
1
1
1
1
1
1
1
1
1
1
1
1
1
1
1
1
1
1
1
1
1
1
1
1
1
1
1
1
1
1
1
1
1
1
1
1
1
1
1
1
1
1
1
1
1
1
1
1
1
1
1
1
1
1
1
1
1
1
1
1
1
1
1
1
1
1
1
1
1
1
1
1
2
2
2
2
2
2
2
2
2
2
2
2
2
2
2
2
2
2
2
2
2
2
2
2
2
2
2
2
2
2
2
2
2
2
2
2
2
2
2
2
2
2
2
2
2
2
2
2
2
2
2
2
2
2
2
2
2
2
2
2
2
2
2
2
2
2
2
2
2
2
2
2
2
2
2
2
2
2
2
2
2
2
2
2
2
2
2
2
2
2
2
2
2
2
2
2
2
2
2
2
2
2
2
2
2
2
2
2
2
2
2
2
2
2
2
2
2
2
2
2
2
2
2
2
2
2
2
2
2
2
2
2
2
2
2
2
2
2
2
2
2
2
2
2
2
2
2
2
2
2
