*Vertices 300
*Edges
1 15
1 21
1 22
1 28
1 30
1 55
1 56
1 62
1 65
1 91
1 144
1 167
1 173
1 180
1 202
1 218
1 256
1 285
2 13
2 41
2 82
2 136
2 216
2 228
3 30
3 60
3 61
3 73
3 81
3 96
3 104
3 110
3 120
3 145
3 167
3 217
3 232
4 14
4 25
4 72
4 191
4 197
4 265
5 9
5 24
5 46
5 58
5 82
5 107
5 129
5 159
5 173
5 187
5 261
6 20
6 22
6 29
6 32
6 35
6 50
6 119
6 143
6 158
6 164
6 174
6 198
6 266
7 80
7 85
7 127
7 154
7 195
7 214
7 230
7 232
8 52
8 83
8 101
8 147
8 148
8 162
8 227
8 241
8 244
8 265
8 266
9 18
9 41
9 55
9 235
9 280
10 25
10 154
10 174
10 191
10 195
10 281
10 287
11 34
11 66
11 74
11 85
11 117
11 128
11 154
11 157
11 184
11 221
11 233
11 255
11 285
12 14
12 45
12 72
12 83
12 105
12 109
12 130
12 204
12 209
12 235
12 263
12 264
12 268
13 23
13 31
13 39
13 41
13 43
13 51
13 55
13 58
13 67
13 68
13 92
13 116
13 135
13 163
13 171
13 182
13 227
13 253
13 299
14 72
14 83
14 157
14 202
14 252
14 289
14 300
15 172
15 173
16 125
16 248
16 284
16 288
17 42
17 47
17 52
17 53
17 78
17 85
17 94
17 104
17 122
17 162
17 219
17 241
17 269
18 25
18 44
18 45
18 55
18 107
18 143
18 235
18 252
19 71
19 106
19 283
19 289
20 50
20 61
20 106
20 116
20 135
20 158
20 161
20 198
20 201
20 298
21 25
21 28
21 48
21 191
21 254
22 35
22 50
22 101
22 180
22 220
22 233
22 300
23 38
23 43
23 51
23 58
23 66
23 141
23 145
23 174
23 178
23 227
23 248
23 262
23 266
23 281
23 285
23 295
23 299
24 156
24 159
24 209
25 130
25 153
25 191
25 203
25 225
25 235
26 60
26 80
26 164
26 206
26 217
26 252
26 266
26 272
26 286
27 43
27 45
27 76
27 90
27 105
27 107
27 142
27 178
27 256
27 259
27 261
28 33
28 93
28 94
28 120
28 144
28 154
29 76
29 255
30 57
30 60
30 64
30 65
30 121
30 206
30 209
31 44
31 62
31 75
31 85
31 88
31 118
31 174
31 175
31 189
31 249
32 50
32 87
32 118
32 131
32 143
32 247
32 249
32 281
32 299
33 34
33 36
33 63
33 88
33 120
33 125
33 127
33 169
33 212
33 227
34 60
34 88
34 169
34 212
35 50
35 64
35 131
35 140
35 220
35 222
35 229
35 234
35 253
35 261
36 71
36 88
36 92
36 100
36 112
36 161
36 203
36 204
37 43
37 83
37 104
37 159
37 278
37 296
37 297
38 44
38 139
38 146
38 255
38 272
38 277
39 51
39 68
39 98
39 168
39 169
39 171
39 290
40 86
40 103
40 110
40 154
40 192
40 208
40 249
40 259
41 49
41 62
41 139
41 146
41 243
42 52
42 61
42 78
42 94
43 53
43 55
43 68
43 109
43 112
43 182
43 278
43 299
44 98
44 107
44 115
44 138
44 149
44 176
44 200
44 238
44 277
44 279
45 67
45 89
45 107
45 109
45 153
45 181
45 230
45 238
45 247
46 144
46 261
47 53
47 55
47 77
47 85
47 124
47 158
47 243
47 270
48 52
48 56
48 239
48 286
48 288
49 62
49 98
49 129
49 242
49 294
50 66
50 89
50 124
50 131
50 143
50 177
50 185
50 235
50 265
51 79
51 163
51 186
51 216
51 227
51 238
51 253
51 265
52 61
52 227
52 239
52 252
52 287
53 57
53 94
53 113
53 151
53 162
53 199
53 212
54 111
54 119
54 136
54 137
54 154
54 228
55 85
55 122
55 133
55 143
55 176
55 183
55 192
55 218
55 230
55 261
55 280
56 168
56 180
56 185
56 211
56 224
56 228
56 265
57 209
57 245
57 247
58 98
58 137
58 158
58 182
58 184
58 203
58 261
58 285
58 295
59 63
59 97
59 161
59 162
59 240
59 246
59 275
60 73
60 110
60 120
60 286
61 71
61 84
61 106
61 123
61 171
61 181
61 195
61 198
61 252
61 290
62 77
62 85
62 91
62 139
62 154
62 186
62 225
62 256
63 96
63 98
63 125
63 127
63 129
63 146
63 210
63 212
63 246
64 118
64 175
65 127
65 130
65 225
65 262
65 264
65 271
66 82
66 107
66 136
66 140
66 166
66 174
66 184
67 71
67 89
67 107
67 150
67 234
67 247
68 98
68 116
68 188
68 219
69 76
69 89
69 98
69 134
69 170
69 171
69 181
69 184
69 199
69 220
69 254
69 297
70 96
70 141
70 145
70 184
70 188
71 88
71 106
71 127
71 130
71 150
73 81
73 93
73 113
73 178
73 201
74 92
74 128
74 133
74 159
74 210
74 218
74 253
75 85
75 92
75 104
75 221
75 254
75 296
76 110
76 223
76 297
77 85
77 98
77 109
77 146
77 179
77 243
77 288
78 135
78 153
78 215
78 235
79 114
79 171
79 265
79 289
79 292
80 168
80 172
80 224
80 266
81 82
81 107
81 129
81 232
82 94
82 107
82 136
82 166
82 263
82 264
83 108
83 118
83 147
83 199
83 235
83 283
83 291
84 106
84 133
84 187
84 196
84 198
84 206
84 272
84 290
85 91
85 92
85 100
85 104
85 127
85 128
85 189
85 248
86 103
86 114
86 194
86 244
87 199
87 204
88 106
88 118
88 127
88 206
88 210
88 249
89 98
89 107
89 131
89 138
89 142
89 153
89 220
89 254
89 291
90 142
90 261
90 273
91 167
92 100
92 104
92 180
92 203
92 206
92 253
92 286
93 151
93 172
93 212
93 230
93 266
94 256
94 284
95 176
95 220
95 253
95 277
96 142
96 145
96 181
96 189
96 227
96 277
97 102
97 121
97 134
97 144
97 162
97 228
97 236
98 109
98 115
98 129
98 138
98 158
98 177
98 185
98 214
98 260
98 300
99 155
99 226
99 287
99 293
100 282
101 135
101 147
101 233
101 288
102 128
102 280
103 164
103 177
103 293
105 113
105 178
105 183
105 240
105 258
105 268
106 119
106 120
106 123
106 126
106 150
106 187
106 193
106 195
106 252
106 268
107 129
107 136
107 140
107 166
108 147
108 162
108 200
108 203
108 209
109 112
109 138
109 147
109 177
109 199
109 230
109 263
109 300
110 130
110 192
110 212
111 149
111 228
112 211
112 224
112 234
113 120
113 181
113 201
113 212
113 224
113 237
114 163
114 168
114 171
114 194
114 225
114 279
114 298
115 189
115 232
115 266
116 127
116 135
116 198
116 213
116 218
116 227
116 230
116 253
116 270
116 272
117 128
117 138
118 209
118 221
118 235
118 249
119 126
119 193
119 196
119 223
119 249
119 268
120 193
120 217
121 194
121 206
121 277
122 133
122 192
123 131
123 169
123 296
124 128
124 155
124 157
124 165
124 203
124 243
125 205
125 246
126 162
126 187
126 203
126 208
126 219
126 224
126 240
126 249
127 146
127 159
127 182
127 192
127 197
127 210
127 220
127 229
127 253
127 262
127 282
128 133
128 154
128 157
128 183
128 198
128 285
129 138
129 205
129 214
129 271
129 287
130 191
131 148
131 177
131 178
131 289
131 293
133 212
133 258
133 272
134 144
135 147
135 188
135 204
135 230
135 239
135 270
136 145
136 181
136 235
137 196
137 261
138 205
138 214
138 300
139 142
139 146
139 200
140 172
140 222
140 229
140 279
141 188
141 228
141 246
141 295
142 181
142 259
143 218
143 230
143 261
143 263
143 291
144 161
144 202
144 208
144 256
144 267
144 285
144 288
144 297
145 248
145 294
146 193
146 246
146 276
146 282
146 288
147 199
147 288
147 300
148 178
148 207
149 218
150 190
150 297
151 153
151 197
151 208
151 212
151 247
151 292
151 300
152 274
152 291
153 191
153 235
153 256
153 292
154 157
154 172
154 179
154 195
154 202
154 213
154 228
154 259
154 285
155 159
155 194
155 203
155 227
155 276
156 159
156 244
156 260
157 174
157 252
158 185
158 201
158 260
158 265
159 192
159 201
159 210
159 227
159 232
159 245
159 247
159 259
159 261
159 277
160 177
160 193
160 211
160 240
160 246
160 283
160 286
160 290
161 162
161 173
161 203
161 204
161 252
162 169
162 171
162 173
162 185
162 197
162 209
162 218
162 240
162 246
162 252
162 253
162 265
162 275
163 216
163 239
163 265
163 273
163 285
163 298
164 252
165 182
165 254
165 300
166 171
166 200
166 210
166 221
166 234
166 246
167 217
167 219
168 179
168 200
168 210
168 212
168 216
168 224
168 228
168 259
169 193
169 218
169 225
169 227
169 236
170 184
170 199
170 274
171 197
171 199
171 210
171 234
171 252
171 253
171 269
171 290
171 295
171 297
172 179
172 180
172 202
172 203
173 177
173 184
173 187
173 188
173 210
173 223
173 243
173 252
173 267
173 278
173 283
173 288
173 289
174 177
174 287
174 295
175 193
175 201
175 207
175 226
175 227
175 242
175 258
175 272
175 277
175 291
176 181
176 230
176 238
176 254
176 262
176 283
177 193
177 243
177 289
177 293
177 296
177 297
178 234
178 266
178 277
178 281
179 213
179 271
179 274
179 282
179 285
179 290
179 297
180 218
181 254
182 197
182 230
182 281
182 285
182 300
183 192
184 187
184 203
184 221
184 291
185 197
185 265
186 209
187 196
187 206
187 219
187 289
188 239
188 289
189 241
189 258
189 272
190 202
190 261
190 279
191 230
191 297
192 230
192 232
192 241
192 272
192 275
193 225
193 226
193 236
193 289
193 294
194 201
194 219
194 227
194 241
194 258
194 279
195 200
195 221
195 232
197 265
198 261
198 290
199 220
199 223
199 269
199 297
200 221
200 228
200 232
201 206
201 226
201 227
201 298
202 203
202 204
202 208
202 225
202 249
202 300
203 204
203 208
203 221
203 286
204 232
204 235
204 263
204 264
205 215
205 257
206 220
206 227
206 251
206 253
206 268
207 214
207 226
207 237
207 250
208 219
208 240
208 249
208 292
209 235
209 253
210 212
210 216
210 237
210 247
210 256
210 259
210 278
210 288
211 251
211 286
211 290
212 247
212 272
212 288
212 292
212 300
213 219
213 232
213 270
214 217
214 218
214 225
214 232
214 233
214 240
214 250
214 258
214 264
214 271
215 237
217 225
217 244
217 252
217 258
217 272
218 227
218 233
219 241
219 250
219 266
219 279
220 253
220 258
220 259
220 295
222 264
222 270
223 254
223 257
223 278
223 290
224 240
224 263
226 277
227 244
227 259
227 277
227 291
227 299
229 234
229 236
229 247
229 262
229 279
229 299
230 234
230 262
230 297
232 240
232 257
232 264
233 255
234 236
234 242
234 261
234 272
234 277
236 294
236 299
237 288
238 251
238 283
239 286
239 287
239 298
240 264
240 274
240 290
241 266
241 272
241 289
242 272
243 267
243 297
244 265
245 247
245 278
246 286
247 249
247 279
247 292
248 280
248 284
249 279
251 268
252 286
253 265
253 286
254 296
255 277
256 259
257 278
258 272
258 295
259 271
259 277
260 296
261 273
262 271
263 277
264 271
266 295
267 282
270 271
270 290
271 290
274 285
274 290
277 279
277 291
278 290
280 284
280 286
281 287
284 286
285 288
285 297
286 290
289 297
292 295
*Classes
1
1
1
1
1
1
1
1
1
1
1
1
1
1
1
1
1
1
1
1
1
1
1
1
1
1
1
1
1
1
1
1
1
1
1
1
1
1
1
1
1
1
1
1
1
1
1
1
1
1
1
1
1
1
1
1
1
1
1
1
1
1
1
1
1
1
1
1
1
1
1
1
1
1
1
1
1
1
1
1
1
1
1
1
1
1
1
1
1
1
1
1
1
1
1
1
1
1
1
1
1
1
1
1
1
1
1
1
1
1
1
1
1
1
1
1
1
1
1
1
1
1
1
1
1
1
1
1
1
1
1
1
1
1
1
1
1
1
1
1
1
1
1
1
1
1
1
1
1
1
2
2
2
2
2
2
2
2
2
2
2
2
2
2
2
2
2
2
2
2
2
2
2
2
2
2
2
2
2
2
2
2
2
2
2
2
2
2
2
2
2
2
2
2
2
2
2
2
2
2
2
2
2
2
2
2
2
2
2
2
2
2
2
2
2
2
2
2
2
2
2
2
2
2
2
2
2
2
2
2
2
2
2
2
2
2
2
2
2
2
2
2
2
2
2
2
2
2
2
2
2
2
2
2
2
2
2
2
2
2
2
2
2
2
2
2
2
2
2
2
2
2
2
2
2
2
2
2
2
2
2
2
2
2
2
2
2
2
2
2
2
2
2
2
2
2
2
2
2
2
