*Vertices 300
*Edges
1 8
1 9
1 15
1 20
1 52
1 75
1 100
1 156
1 238
1 286
2 11
2 24
2 54
2 57
2 85
2 109
2 116
2 143
2 246
2 248
2 280
3 5
3 60
3 61
3 69
3 98
3 101
3 118
3 120
3 167
3 191
3 222
3 229
3 282
4 11
4 27
4 69
4 110
4 141
4 145
4 163
4 266
4 285
4 289
5 54
5 60
5 98
5 104
5 110
5 131
5 167
5 168
5 209
5 227
5 259
5 289
6 84
6 109
6 122
6 250
6 252
6 253
7 24
7 43
7 50
7 79
7 105
7 168
7 184
7 215
7 255
7 269
7 280
8 9
8 12
8 23
8 29
8 36
8 54
8 83
8 88
8 115
8 116
8 125
8 156
8 165
8 194
8 215
8 228
8 230
8 280
8 289
9 29
9 82
9 123
9 136
9 138
9 232
10 14
10 98
10 122
10 128
10 146
10 150
10 218
10 246
10 277
10 285
11 14
11 24
11 52
11 54
11 57
11 71
11 79
11 92
11 168
11 189
11 266
11 280
12 23
12 36
12 38
12 41
12 50
12 62
12 69
12 80
12 100
12 138
12 172
12 183
12 194
12 244
12 251
12 255
12 285
13 101
13 169
13 198
13 254
13 265
14 15
14 40
14 53
14 62
14 71
14 83
14 92
14 100
14 122
14 129
14 156
14 165
14 203
14 217
14 223
14 231
14 245
15 20
15 99
15 100
15 106
15 231
15 299
16 22
16 24
16 52
16 66
16 88
16 107
16 111
16 118
16 119
16 154
16 221
17 208
17 248
17 297
18 74
18 111
18 126
18 147
18 181
18 218
18 230
18 234
18 272
18 292
19 49
19 58
19 71
19 83
19 95
19 146
19 156
19 217
20 50
20 57
20 68
20 104
20 115
20 122
20 169
20 210
20 245
20 291
20 292
21 45
21 60
21 83
21 99
21 103
21 115
21 125
21 128
21 136
21 159
21 171
21 176
21 177
21 193
21 195
21 235
21 273
21 280
21 294
21 296
22 24
22 32
22 41
22 52
22 66
22 80
22 106
22 111
22 118
22 135
22 161
22 194
22 249
23 29
23 36
23 41
23 48
23 69
23 70
23 97
23 105
23 116
23 121
23 131
23 165
23 178
23 203
23 283
24 255
24 280
25 147
25 150
26 29
26 33
26 44
26 46
26 51
26 56
26 86
26 123
26 155
26 160
26 161
26 172
26 185
26 192
26 203
26 250
26 271
26 293
26 294
26 298
27 38
27 107
27 113
27 141
27 145
27 194
27 218
27 234
27 276
28 66
28 93
28 131
28 134
28 148
28 166
28 169
28 189
28 190
28 199
28 211
28 232
28 243
28 247
28 256
28 272
29 52
29 57
29 68
29 70
29 80
29 106
29 155
29 198
29 215
29 230
29 256
30 90
30 139
30 171
30 190
30 232
31 129
31 219
31 232
31 252
32 33
32 52
32 96
32 204
32 272
33 57
33 58
33 73
33 108
33 123
33 131
33 132
33 133
33 152
33 153
33 161
33 194
33 212
33 224
33 259
33 266
33 272
33 280
34 74
34 105
34 126
35 41
35 79
35 82
35 130
35 149
35 194
36 74
36 99
36 178
36 189
36 219
36 246
36 291
37 38
37 54
37 68
37 72
37 107
37 119
37 136
37 162
37 172
37 214
37 236
37 239
37 272
37 295
38 55
38 107
38 135
38 194
38 276
39 45
39 171
39 229
39 280
40 60
40 87
40 100
40 103
40 105
40 138
40 147
40 216
40 223
40 242
40 248
40 263
41 63
41 80
41 95
41 130
41 131
41 158
41 190
41 194
41 203
41 216
41 236
41 252
42 64
42 69
42 81
42 106
42 153
42 167
42 206
42 213
42 237
42 254
42 259
42 264
42 292
43 105
43 167
43 174
43 209
43 216
43 222
43 234
43 262
43 298
43 300
44 46
44 52
44 121
44 152
44 194
44 196
44 207
44 271
44 274
44 298
45 46
45 50
45 83
45 134
45 136
45 151
45 156
45 162
45 177
45 216
45 227
46 83
46 106
46 155
46 158
46 176
46 198
46 277
46 297
47 93
47 137
47 153
47 158
47 209
48 165
48 179
48 203
48 211
48 273
48 287
49 68
49 105
49 161
49 181
49 184
49 211
49 228
49 283
49 295
50 56
50 77
50 83
50 99
50 129
50 138
50 157
50 160
50 168
50 172
50 177
50 180
50 195
50 203
50 232
50 280
50 291
50 292
51 56
51 82
51 122
51 283
52 57
52 137
52 157
52 160
52 161
52 204
52 207
52 245
52 256
52 267
52 296
53 77
53 122
53 155
53 186
53 226
53 231
54 62
54 64
54 72
54 98
54 106
54 121
54 136
54 171
54 285
55 200
55 235
56 63
56 122
56 147
56 150
56 172
56 180
56 184
56 192
56 215
56 230
56 256
56 259
56 269
56 291
57 71
57 74
57 133
57 137
57 189
57 194
57 242
57 243
57 245
57 252
57 288
57 296
58 62
58 146
58 211
58 212
58 240
58 258
59 180
59 266
59 278
60 73
60 87
60 121
60 145
60 147
60 168
60 186
60 223
60 230
60 242
60 257
61 76
61 109
61 118
61 170
61 276
61 286
62 74
62 80
62 112
62 122
62 240
62 244
62 252
62 288
63 117
63 140
63 141
63 147
63 162
63 204
63 219
63 229
63 236
63 240
63 241
63 259
63 298
64 106
64 153
64 189
64 214
64 285
65 118
65 246
65 262
65 273
65 287
66 80
66 93
66 107
66 169
66 193
66 215
66 235
66 247
66 274
67 219
68 80
68 102
68 162
68 181
68 233
68 240
68 288
69 81
69 96
69 110
69 146
69 162
69 196
69 222
69 229
69 252
70 106
70 108
70 131
70 141
71 135
71 194
71 217
72 108
72 136
72 266
72 296
73 80
73 83
73 101
73 152
73 170
73 186
73 198
73 213
73 217
73 282
74 105
74 111
74 112
74 284
74 291
75 100
75 126
75 190
75 202
75 262
75 284
75 299
76 118
76 159
76 248
76 276
77 115
77 128
77 155
77 168
77 174
77 203
77 256
78 84
79 82
79 92
79 99
79 168
79 170
79 253
80 101
80 102
81 146
82 96
82 103
82 120
82 138
82 143
82 224
83 121
83 122
83 134
83 136
83 155
83 156
83 168
83 177
83 180
83 217
83 249
83 292
84 103
84 122
85 114
85 158
85 299
86 98
86 129
86 137
86 146
86 172
86 271
87 120
87 133
87 138
87 160
87 172
87 190
87 191
87 267
88 94
88 116
88 130
88 142
88 168
88 189
88 194
88 198
88 298
89 104
89 110
90 109
90 145
90 151
90 175
90 208
90 218
90 257
90 266
90 291
91 159
92 100
92 129
92 169
92 185
92 213
92 236
92 263
92 267
92 268
93 125
93 134
93 139
93 148
93 199
93 256
93 274
94 140
94 157
94 168
94 262
94 263
94 270
95 156
95 179
95 184
95 211
95 216
95 228
96 97
96 103
96 131
96 141
96 148
96 162
96 180
96 185
96 196
96 283
96 287
96 298
97 283
98 106
98 121
98 129
98 146
99 125
99 136
99 170
99 176
99 177
99 187
99 219
99 233
99 273
99 280
99 292
99 299
100 107
100 112
100 152
100 191
100 217
100 237
100 251
100 275
100 290
101 118
101 144
101 146
101 156
101 158
101 170
101 191
101 198
101 200
101 215
102 167
102 205
102 228
102 233
102 254
103 149
103 176
103 180
103 248
103 293
104 110
104 131
104 153
104 210
104 226
105 216
105 231
105 283
105 288
106 110
106 121
106 137
106 141
106 155
106 161
106 206
106 213
106 247
106 264
107 142
107 194
107 235
107 238
108 188
108 189
108 227
109 116
109 170
109 173
109 199
109 253
109 257
109 294
110 145
110 159
110 161
110 163
110 167
110 206
110 248
110 277
110 288
110 289
110 297
111 119
111 146
111 209
111 250
111 275
111 299
112 121
112 134
112 175
112 212
112 214
112 234
112 251
113 127
113 155
113 174
113 242
114 220
114 290
115 128
115 131
115 144
115 156
115 186
115 193
115 213
115 281
116 127
116 139
116 143
116 173
116 199
116 204
116 219
116 220
116 224
116 232
116 289
116 290
116 294
116 298
117 138
117 140
117 141
117 174
117 298
118 136
118 164
118 170
118 246
119 144
119 150
119 167
119 197
119 200
119 215
119 254
119 295
120 138
120 258
120 282
121 128
121 131
121 134
121 152
121 166
121 197
121 213
121 224
121 232
121 233
121 279
121 295
122 133
122 193
122 231
122 245
122 252
122 284
123 130
123 132
123 133
123 136
123 194
123 280
124 233
124 270
124 273
125 171
125 177
125 195
125 273
126 181
126 199
126 230
126 234
126 262
126 284
127 143
127 150
127 174
128 163
128 229
128 233
129 168
129 236
129 262
129 263
130 149
130 194
130 231
130 236
130 272
131 149
131 152
131 153
131 169
131 174
131 185
131 193
131 232
132 250
132 272
133 160
133 161
133 165
133 172
133 203
133 212
133 223
133 237
133 280
133 288
134 155
134 169
134 175
134 177
134 179
134 199
134 242
134 243
134 274
134 296
135 156
135 160
135 165
135 187
135 190
135 194
135 231
135 283
135 284
136 137
136 164
136 242
136 296
137 195
137 209
137 247
137 267
137 271
138 141
138 164
138 172
138 195
138 225
138 232
138 258
138 290
138 291
139 148
139 178
139 212
139 219
139 237
139 259
139 298
140 229
140 247
140 276
141 174
141 185
141 224
141 232
141 234
141 268
141 278
142 158
142 198
142 202
142 299
143 220
143 224
143 236
143 258
143 268
143 294
144 156
144 194
144 215
144 244
144 293
145 147
145 152
145 208
145 218
145 225
145 234
145 250
145 289
146 157
146 211
146 250
146 258
147 150
147 192
147 215
147 219
147 230
147 293
148 177
148 274
148 298
149 176
149 185
149 213
149 214
149 223
150 155
150 200
150 217
150 230
150 293
151 202
151 216
151 244
151 299
152 157
152 178
152 182
152 191
152 196
152 201
152 225
152 250
152 269
152 273
152 290
153 158
153 175
153 210
153 273
155 161
155 166
155 169
155 186
155 189
155 195
155 200
155 201
155 203
155 213
155 226
155 242
155 265
155 269
155 279
156 167
156 177
156 194
156 203
156 205
156 228
156 232
156 244
156 253
156 256
156 289
157 168
157 214
157 237
157 250
157 253
157 263
157 267
157 300
158 198
158 200
158 210
158 223
158 225
159 163
159 178
159 248
159 263
159 283
159 294
160 190
160 203
160 220
160 267
161 167
161 181
161 250
161 277
162 167
162 174
162 186
162 188
162 214
162 219
162 227
162 232
162 240
162 244
162 281
162 288
162 293
163 229
163 283
163 293
165 172
165 203
165 231
165 258
165 283
165 288
166 183
166 189
166 194
166 242
166 272
167 174
167 175
167 191
167 200
167 203
167 206
167 211
167 228
167 254
167 262
167 280
167 300
168 214
168 246
168 253
168 262
168 289
168 300
169 198
169 211
169 236
170 243
170 271
171 191
172 187
172 223
172 239
172 276
172 288
173 204
173 207
174 232
174 245
174 280
174 284
174 298
174 300
175 228
175 234
175 251
175 266
175 273
175 277
176 214
176 223
176 277
177 193
177 274
177 281
177 290
178 185
178 230
178 237
178 246
178 250
178 263
178 273
178 283
178 292
179 209
179 211
179 248
180 192
180 203
180 223
180 242
180 266
180 281
180 292
181 186
181 231
181 241
181 262
181 277
181 279
182 225
183 242
183 244
183 249
183 275
183 277
184 186
184 198
184 203
184 211
184 213
184 215
184 228
184 255
184 295
185 225
185 233
185 240
185 263
185 273
185 293
186 213
186 215
186 260
186 265
186 272
186 279
186 281
186 282
186 287
187 194
187 215
187 240
187 273
187 288
189 195
189 199
189 201
189 206
189 242
189 250
189 291
190 232
191 216
191 251
191 264
191 282
192 206
192 276
192 281
192 290
194 200
194 203
194 207
194 228
194 231
194 256
194 271
194 272
194 287
194 296
195 228
195 240
195 249
195 254
195 260
195 288
196 274
197 279
198 200
198 202
198 215
199 238
199 294
200 206
200 241
200 254
200 256
201 207
201 235
201 249
201 260
201 290
201 291
202 253
202 299
203 211
203 217
203 223
203 242
203 252
203 296
203 300
204 207
204 238
204 240
204 241
204 298
205 228
205 239
205 253
205 256
205 276
205 283
205 289
206 239
206 281
206 286
207 221
207 290
208 225
208 238
208 261
208 272
208 289
208 297
209 275
211 254
212 259
212 266
213 215
213 224
213 237
213 260
213 263
213 264
213 287
213 295
214 223
214 227
214 234
214 251
214 272
214 285
215 219
215 256
216 244
218 261
218 272
218 296
219 237
219 246
219 254
219 255
221 235
221 300
222 261
223 225
223 252
223 288
224 268
224 272
225 230
225 248
225 250
225 251
225 259
225 261
225 263
225 269
225 270
225 280
225 292
225 300
228 232
228 254
228 256
228 273
228 274
228 277
229 269
230 270
230 292
231 253
231 272
231 279
231 283
232 265
232 274
232 290
233 263
233 270
233 299
234 242
234 258
234 263
234 287
235 294
235 300
236 252
237 264
238 240
238 241
238 288
239 276
239 281
240 288
241 254
241 298
242 244
242 263
242 269
242 296
243 271
244 251
244 256
244 285
244 293
245 252
245 284
246 248
246 262
247 297
248 263
249 275
249 288
250 253
251 300
253 273
253 283
253 287
254 255
254 264
255 265
256 291
259 261
259 269
259 278
259 285
260 264
260 285
263 265
263 287
263 295
264 292
265 276
266 277
269 280
269 300
272 273
272 287
273 280
273 287
274 292
277 297
281 287
281 290
283 286
288 289
289 294
289 297
294 300
*Classes
1
1
1
1
1
1
1
1
1
1
1
1
1
1
1
1
1
1
1
1
1
1
1
1
1
1
1
1
1
1
1
1
1
1
1
1
1
1
1
1
1
1
1
1
1
1
1
1
1
1
1
1
1
1
1
1
1
1
1
1
1
1
1
1
1
1
1
1
1
1
1
1
1
1
1
1
1
1
1
1
1
1
1
1
1
1
1
1
1
1
1
1
1
1
1
1
1
1
1
1
1
1
1
1
1
1
1
1
1
1
1
1
1
1
1
1
1
1
1
1
1
1
1
1
1
1
1
1
1
1
1
1
1
1
1
1
1
1
1
1
1
1
1
1
1
1
1
1
1
1
2
2
2
2
2
2
2
2
2
2
2
2
2
2
2
2
2
2
2
2
2
2
2
2
2
2
2
2
2
2
2
2
2
2
2
2
2
2
2
2
2
2
2
2
2
2
2
2
2
2
2
2
2
2
2
2
2
2
2
2
2
2
2
2
2
2
2
2
2
2
2
2
2
2
2
2
2
2
2
2
2
2
2
2
2
2
2
2
2
2
2
2
2
2
2
2
2
2
2
2
2
2
2
2
2
2
2
2
2
2
2
2
2
2
2
2
2
2
2
2
2
2
2
2
2
2
2
2
2
2
2
2
2
2
2
2
2
2
2
2
2
2
2
2
2
2
2
2
2
2
