*Vertices 300
*Edges
1 4
1 5
1 35
1 39
1 71
1 73
1 118
1 247
1 277
2 35
2 78
2 120
2 128
2 133
2 139
2 140
2 250
2 275
3 60
4 39
4 46
4 50
4 65
4 71
4 88
4 116
4 119
4 126
4 138
4 143
4 150
4 247
4 279
4 284
4 293
5 21
5 35
5 61
5 85
5 93
5 127
5 138
5 144
5 157
5 187
5 230
5 296
6 66
6 106
6 108
6 165
7 38
7 104
7 197
8 73
8 109
8 162
8 179
8 189
8 223
8 269
9 22
9 40
9 107
9 111
9 113
9 115
9 193
9 198
9 205
9 224
9 230
10 17
10 52
10 58
10 77
10 90
10 109
10 117
10 124
10 138
10 244
11 91
11 106
11 118
11 174
11 190
11 251
11 272
12 31
12 43
12 127
12 145
12 238
12 246
12 293
13 27
13 47
13 68
13 85
13 147
13 180
13 190
13 226
13 229
14 74
14 115
14 150
14 227
14 290
15 21
15 88
15 99
15 110
15 143
15 161
15 186
15 191
15 220
15 231
15 240
16 31
16 75
16 103
16 136
16 236
16 281
17 73
17 109
17 173
17 177
17 183
17 220
17 270
18 47
18 83
18 84
18 89
18 133
18 139
18 248
19 82
19 148
19 151
19 230
19 234
19 255
20 27
20 47
20 68
20 133
20 137
20 179
20 248
20 285
21 38
21 47
21 53
21 55
21 59
21 65
21 88
21 102
21 104
21 119
21 122
21 127
21 131
21 141
21 144
21 236
21 247
22 46
22 91
22 113
23 53
23 188
23 229
23 238
23 250
23 276
24 233
24 261
24 298
25 38
25 47
25 53
25 78
25 108
25 128
25 133
25 139
26 94
26 98
26 121
26 228
26 269
26 278
27 47
27 219
27 237
27 254
27 257
27 279
28 36
28 54
28 108
28 143
28 250
29 63
29 102
29 103
29 120
29 141
29 182
29 206
29 254
29 272
29 300
30 78
30 178
30 272
30 298
30 299
31 36
31 57
31 75
31 80
31 119
31 127
31 149
31 250
31 266
31 270
32 43
32 99
32 218
32 236
32 281
32 290
33 41
33 67
33 96
33 107
33 113
33 163
33 180
33 187
34 69
34 96
34 113
34 134
34 135
34 169
34 218
34 219
35 37
35 61
35 93
35 120
35 128
36 66
36 108
36 149
36 161
37 120
37 196
37 221
37 229
37 291
38 53
38 55
38 72
38 88
38 104
38 112
38 122
38 128
38 133
38 233
39 40
39 52
39 56
39 58
39 79
39 119
39 138
39 150
39 154
39 157
39 231
39 286
40 41
40 79
40 107
40 114
40 115
40 134
40 180
40 195
40 218
40 280
41 42
41 44
41 66
41 67
41 94
41 152
41 268
41 279
42 67
42 102
42 108
42 200
42 237
42 259
42 277
43 145
43 177
43 198
44 67
44 76
44 100
44 105
44 135
44 265
44 266
45 157
45 297
46 50
46 65
46 116
46 138
46 248
46 281
47 83
47 84
47 89
47 109
47 133
47 141
47 163
48 61
48 83
48 222
49 60
49 72
49 74
49 89
49 93
49 117
49 144
49 146
49 147
49 160
49 174
49 247
49 282
50 65
50 90
50 164
50 196
51 143
51 288
51 292
52 58
52 84
52 103
52 109
52 127
52 133
52 136
52 197
53 72
53 91
53 118
53 189
53 195
53 223
53 269
53 293
54 143
54 185
54 250
54 268
55 61
55 88
55 107
55 141
55 172
55 293
56 91
56 92
56 100
56 150
57 149
57 164
57 188
58 67
58 92
58 94
58 102
58 108
58 142
58 150
58 171
58 182
58 188
58 286
59 119
59 122
59 151
59 179
59 264
60 72
60 89
60 112
60 144
60 185
60 287
61 67
61 83
61 85
61 120
61 132
61 174
61 187
61 254
61 278
62 86
62 100
62 155
62 187
62 215
62 217
63 102
63 184
63 220
63 234
63 249
65 88
65 96
65 124
65 143
65 288
66 95
66 102
66 108
66 133
66 206
66 235
67 85
67 94
67 98
67 101
67 135
67 232
67 251
67 252
68 138
69 78
69 113
69 174
69 180
70 101
70 226
70 254
70 279
70 290
71 138
72 93
72 126
72 147
72 153
72 180
72 300
73 77
73 80
73 91
73 109
73 117
73 118
73 130
74 146
74 184
74 192
74 221
74 229
74 279
75 80
75 116
75 119
75 122
75 130
75 224
75 227
75 239
76 82
76 91
76 105
76 150
77 117
77 226
78 128
78 141
79 214
79 232
79 260
80 118
80 185
80 188
80 216
80 277
81 108
81 142
81 243
81 259
81 286
82 105
82 156
82 200
82 223
83 93
83 132
83 141
83 201
83 223
83 233
84 85
84 89
84 108
84 139
84 177
85 94
85 101
85 139
85 199
85 229
86 144
86 258
86 288
86 296
87 128
87 141
87 230
87 253
88 99
88 110
88 131
88 143
88 144
88 200
89 112
90 115
90 124
90 137
90 162
90 196
90 222
90 225
91 105
91 118
91 150
91 157
91 162
91 268
91 289
91 291
92 94
92 104
92 121
92 129
92 244
93 117
93 162
93 192
93 223
93 270
94 98
94 121
94 129
94 142
94 199
94 200
94 250
95 108
96 107
96 113
96 143
97 107
97 114
97 126
97 231
97 237
97 266
98 171
99 211
99 234
99 235
99 236
100 206
100 270
101 103
101 120
101 131
101 139
101 257
102 108
102 141
103 116
103 120
103 136
103 139
103 152
103 254
104 105
104 113
104 125
104 129
104 177
104 300
105 113
105 135
105 191
105 200
105 219
105 270
105 287
106 165
106 216
106 280
107 153
107 243
108 133
108 176
108 200
108 212
108 226
108 268
109 133
109 162
109 191
109 195
109 223
110 159
110 174
110 245
110 256
111 113
111 122
111 147
111 213
111 283
111 300
112 152
112 174
112 179
112 233
112 262
113 119
113 125
113 172
113 202
113 297
114 299
115 124
115 241
115 264
115 266
115 275
115 300
116 136
116 169
117 118
117 197
117 216
117 238
117 294
118 130
118 152
118 178
118 266
118 290
119 122
119 125
120 139
120 162
120 242
120 272
120 295
121 186
121 216
121 264
122 131
122 144
122 147
122 181
122 211
122 230
122 234
122 263
123 256
124 217
124 219
124 247
126 138
126 147
126 160
127 133
127 138
127 139
127 157
127 179
127 187
127 226
127 268
128 132
128 140
128 141
128 192
128 197
128 275
129 134
129 144
129 178
130 273
131 139
131 197
131 243
132 141
132 163
132 297
133 139
133 157
133 177
133 179
133 198
133 280
134 135
134 144
134 184
134 193
134 222
134 243
134 280
135 218
135 221
135 231
135 279
138 207
138 220
138 224
138 227
138 287
139 140
139 148
139 159
139 173
139 246
140 194
140 210
140 220
141 191
141 259
143 226
143 250
145 166
145 212
145 213
146 199
146 231
146 266
148 248
149 159
150 191
150 193
150 270
151 225
151 274
151 281
152 158
152 266
152 267
152 291
153 203
153 221
153 257
153 262
153 274
153 275
153 281
153 282
154 203
154 214
154 227
154 231
154 244
154 254
154 281
154 282
155 186
155 263
155 298
156 157
156 175
156 185
156 211
157 185
157 211
158 237
158 267
159 189
160 210
160 249
161 163
161 167
161 258
161 268
161 270
162 175
162 233
162 264
162 269
162 275
163 203
163 270
163 293
163 296
164 168
164 227
164 252
164 263
164 290
165 191
165 226
165 236
165 239
165 242
165 255
165 288
165 293
166 266
166 281
167 169
167 190
167 258
168 227
169 180
169 190
169 217
169 239
169 260
169 262
170 218
171 256
171 274
172 217
172 223
173 185
173 257
173 261
175 211
175 251
175 275
177 181
177 220
177 261
177 272
177 292
178 179
178 273
179 238
179 246
180 193
180 218
180 239
180 260
180 262
181 183
181 220
181 261
181 272
181 283
182 186
182 187
182 222
182 223
182 226
182 244
182 247
182 295
183 232
183 248
183 256
183 283
185 211
185 225
185 238
185 261
186 212
186 247
186 263
186 299
187 221
187 226
187 252
187 278
187 289
188 195
188 212
188 244
188 254
188 263
189 192
190 233
190 237
190 242
190 258
190 262
190 269
191 204
191 232
191 255
191 263
191 267
191 271
191 272
191 283
192 233
192 249
193 261
193 262
193 273
195 299
196 199
197 231
197 241
197 271
197 289
197 290
198 259
199 215
199 224
199 227
200 223
200 259
201 205
201 214
201 217
201 251
202 255
203 225
203 238
203 270
203 282
204 255
204 288
205 214
205 245
205 276
206 236
208 209
208 277
209 243
209 277
209 278
209 287
211 225
212 263
212 299
214 217
214 231
214 232
214 246
214 251
214 261
214 283
215 228
216 243
216 296
217 231
217 232
217 246
217 258
219 225
219 256
219 276
219 290
220 232
220 261
220 272
220 292
221 236
221 257
221 261
221 279
221 281
221 284
222 247
222 299
224 248
225 238
225 246
225 249
225 274
225 276
225 282
225 283
226 244
226 286
226 289
226 293
226 295
227 239
227 282
229 239
229 242
230 242
230 257
230 258
230 268
230 270
231 268
231 271
231 289
232 255
232 256
232 264
232 272
232 283
233 242
233 249
233 258
233 269
233 296
235 245
235 250
236 239
236 266
236 281
237 267
238 246
238 261
238 282
238 296
239 242
239 260
239 262
239 281
239 288
240 260
240 262
240 272
240 278
241 264
241 283
242 257
242 270
242 276
243 278
244 254
244 297
244 298
245 276
246 257
246 261
246 287
248 278
249 274
250 299
251 286
252 269
252 290
253 265
254 282
254 298
255 267
256 283
257 261
257 284
257 297
258 268
260 262
261 273
261 292
262 278
263 290
263 299
264 275
264 282
264 283
266 281
268 289
269 282
271 272
272 292
274 281
274 283
275 276
275 282
275 296
276 282
276 290
277 286
277 287
277 295
277 297
278 293
278 296
281 283
282 296
284 288
285 293
286 287
286 295
286 297
289 293
293 296
*Classes
1
1
1
1
1
1
1
1
1
1
1
1
1
1
1
1
1
1
1
1
1
1
1
1
1
1
1
1
1
1
1
1
1
1
1
1
1
1
1
1
1
1
1
1
1
1
1
1
1
1
1
1
1
1
1
1
1
1
1
1
1
1
1
1
1
1
1
1
1
1
1
1
1
1
1
1
1
1
1
1
1
1
1
1
1
1
1
1
1
1
1
1
1
1
1
1
1
1
1
1
1
1
1
1
1
1
1
1
1
1
1
1
1
1
1
1
1
1
1
1
1
1
1
1
1
1
1
1
1
1
1
1
1
1
1
1
1
1
1
1
1
1
1
1
1
1
1
1
1
1
2
2
2
2
2
2
2
2
2
2
2
2
2
2
2
2
2
2
2
2
2
2
2
2
2
2
2
2
2
2
2
2
2
2
2
2
2
2
2
2
2
2
2
2
2
2
2
2
2
2
2
2
2
2
2
2
2
2
2
2
2
2
2
2
2
2
2
2
2
2
2
2
2
2
2
2
2
2
2
2
2
2
2
2
2
2
2
2
2
2
2
2
2
2
2
2
2
2
2
2
2
2
2
2
2
2
2
2
2
2
2
2
2
2
2
2
2
2
2
2
2
2
2
2
2
2
2
2
2
2
2
2
2
2
2
2
2
2
2
2
2
2
2
2
2
2
2
2
2
2
