*Vertices 300
*Edges
1 59
1 98
1 125
1 140
1 166
1 167
1 241
2 32
2 80
2 93
2 135
2 150
2 176
2 187
2 198
2 230
2 232
2 256
2 259
3 47
3 58
3 85
3 109
3 117
3 143
3 157
3 176
3 197
3 204
3 230
3 239
3 241
3 271
4 46
4 51
4 90
4 110
4 224
4 228
4 230
4 236
4 250
4 254
4 281
4 282
4 283
4 286
5 99
5 155
5 184
5 188
5 245
5 257
6 9
6 23
6 76
6 111
6 165
6 188
6 189
6 198
6 201
6 213
6 234
6 255
6 259
7 145
7 195
7 206
7 214
8 45
8 121
8 147
8 191
8 204
8 233
8 280
8 298
9 23
9 42
9 108
9 137
9 170
9 242
9 266
10 60
10 94
10 118
10 168
10 193
10 222
10 267
11 114
11 146
12 21
12 27
12 42
12 57
12 83
12 102
12 104
12 114
12 152
12 161
12 180
12 185
12 299
13 16
13 20
13 179
13 211
13 273
14 29
14 44
14 63
14 67
14 69
14 73
14 109
14 162
14 175
14 181
14 246
14 256
14 286
15 131
15 181
15 200
15 202
15 232
15 286
16 38
16 76
16 95
16 96
16 101
16 107
16 118
16 123
16 154
16 178
16 248
17 22
17 24
17 31
17 60
17 61
17 65
17 84
17 96
17 110
17 125
17 156
17 158
17 162
17 187
17 216
17 256
17 289
18 109
18 126
18 217
18 268
18 276
19 102
19 104
19 110
19 163
19 209
19 243
19 264
19 267
19 274
19 281
20 56
20 139
20 156
20 176
20 266
20 277
20 284
21 27
21 72
21 79
21 92
21 99
21 114
21 123
21 130
21 216
21 229
22 31
22 51
22 59
22 86
22 95
22 96
22 97
22 105
22 124
22 125
22 164
22 171
22 179
22 221
23 37
23 43
23 45
23 69
23 76
23 79
23 81
23 83
23 98
23 108
23 111
23 112
23 131
23 149
23 167
23 187
23 276
24 131
24 182
24 256
25 44
25 51
25 82
25 182
25 258
26 51
26 101
26 150
26 246
26 266
26 272
26 283
27 59
27 77
27 189
28 42
28 76
28 112
28 128
28 156
28 165
28 170
28 196
28 211
28 217
28 232
28 285
29 44
29 67
29 138
29 175
29 217
29 250
30 41
30 82
30 106
30 117
30 122
30 142
30 222
31 46
31 60
31 139
31 163
31 195
31 230
31 236
32 38
32 69
32 75
32 117
32 132
32 137
32 173
32 197
32 198
32 227
32 237
32 239
32 251
32 283
33 162
33 192
33 203
33 215
33 247
34 68
34 92
34 140
34 165
34 201
34 216
34 280
35 53
35 160
35 180
35 203
35 215
35 218
35 220
35 276
35 299
36 55
36 61
36 70
36 132
36 154
36 187
36 202
37 45
37 68
37 81
37 108
37 228
38 69
38 76
38 81
38 132
38 154
38 171
38 189
38 227
38 248
38 253
38 282
39 66
39 115
39 116
39 228
39 248
39 295
40 41
40 98
40 106
40 125
40 145
40 210
40 252
40 254
40 274
41 128
41 133
41 142
41 164
41 199
41 200
41 209
41 222
41 231
41 241
41 243
41 256
42 56
42 83
42 104
42 123
42 128
42 161
42 170
42 211
42 275
42 299
43 48
43 77
43 131
43 149
43 162
43 164
43 210
43 230
43 285
43 296
44 97
44 142
44 181
44 195
44 252
44 254
44 258
45 68
45 95
45 108
45 133
45 228
46 110
46 139
46 241
47 58
47 109
47 188
47 207
47 234
47 242
47 246
47 253
47 275
48 88
48 95
48 162
48 231
48 278
48 298
49 132
49 145
49 245
49 258
49 285
50 85
50 149
50 171
50 186
50 262
50 297
51 57
51 86
51 102
51 124
51 131
51 149
51 178
51 183
51 228
51 240
51 248
51 262
51 280
51 283
52 220
52 240
53 181
53 194
53 218
53 259
53 276
54 72
54 291
55 84
55 143
55 179
55 195
55 247
55 259
55 267
55 289
56 70
56 73
56 86
56 123
56 166
56 197
56 216
56 270
56 284
57 102
57 131
57 135
57 195
57 214
57 227
57 274
58 90
58 96
58 134
58 143
58 150
58 239
58 299
59 92
59 97
59 137
59 140
59 169
59 185
59 229
60 110
60 112
60 116
60 120
60 128
60 144
60 163
60 193
60 283
61 132
61 171
61 187
61 223
61 265
61 278
62 119
62 280
63 69
63 93
63 119
63 139
63 140
63 143
63 146
63 155
63 158
63 185
63 229
63 268
64 85
64 139
64 141
64 149
64 156
64 177
64 238
64 280
64 282
64 286
64 297
65 74
65 79
65 89
65 110
65 111
65 147
65 241
65 265
66 85
66 115
66 156
66 170
66 182
66 224
66 253
67 129
67 137
67 187
67 193
67 224
67 225
67 231
67 241
67 250
67 266
67 276
67 278
67 283
68 92
68 95
68 161
68 207
68 216
68 286
69 119
69 132
69 155
69 167
69 171
69 173
69 187
69 189
69 203
69 215
69 230
70 123
70 153
70 216
70 233
70 244
71 93
71 135
71 163
71 182
71 184
71 207
71 217
71 223
71 272
72 124
72 135
72 150
72 187
72 199
72 201
72 229
72 256
72 273
72 293
73 75
73 162
73 213
73 238
73 242
74 88
74 111
74 196
74 213
75 82
75 111
75 113
75 142
75 172
75 206
75 214
75 218
75 227
75 238
75 243
76 79
76 128
77 164
78 128
78 225
78 244
79 156
79 165
79 184
79 187
79 229
79 265
80 230
80 232
80 239
80 242
81 98
81 104
81 189
81 218
81 239
81 242
81 268
81 277
81 286
81 291
81 297
82 86
82 87
82 111
82 115
82 117
82 181
82 189
82 238
82 242
83 84
83 149
83 171
83 179
83 219
83 237
83 279
83 299
83 300
84 143
84 169
85 109
85 111
85 123
85 169
85 199
85 212
85 239
85 241
85 259
85 297
86 95
86 176
86 177
86 200
86 209
86 223
86 284
87 117
87 173
87 189
87 282
88 95
88 127
88 138
88 139
88 196
89 110
89 191
90 120
90 131
90 142
90 187
90 194
90 197
90 218
90 231
90 270
91 98
91 148
91 167
91 213
91 242
92 108
92 123
92 140
92 175
92 188
92 216
92 243
92 269
92 273
93 129
93 137
93 150
93 163
93 223
94 107
94 113
94 139
94 153
94 168
94 184
94 200
94 209
94 224
94 249
94 267
94 286
95 96
95 105
95 141
95 176
96 97
96 150
96 171
96 174
96 180
96 189
96 191
96 223
97 107
97 118
97 137
97 143
97 146
97 195
97 270
97 300
98 103
98 125
98 141
98 167
98 222
98 286
98 291
99 122
99 130
99 142
99 155
99 186
99 210
99 245
99 257
100 125
100 148
100 159
100 214
101 129
101 156
101 260
101 266
101 277
102 104
102 129
102 131
102 135
102 161
102 182
102 262
102 264
102 274
102 296
103 154
103 217
103 220
103 222
103 225
103 292
104 110
104 180
104 268
104 269
105 139
105 141
105 164
105 191
105 209
105 243
105 264
106 186
106 228
106 246
106 252
106 254
106 266
106 286
107 118
107 146
107 168
107 195
107 243
107 249
108 140
108 175
108 273
108 279
109 117
109 197
109 215
109 217
109 298
110 111
110 128
110 154
110 156
110 241
111 142
111 172
111 188
111 201
111 213
111 214
111 227
111 265
112 116
112 156
112 158
112 166
112 208
112 232
112 255
112 259
113 154
113 194
113 209
113 218
113 240
113 283
113 285
113 286
113 294
114 163
114 229
115 188
115 209
115 283
115 295
116 149
116 244
116 252
116 260
116 261
117 122
117 181
117 237
117 239
117 242
117 258
118 163
118 199
118 243
119 183
119 216
119 248
119 280
120 265
121 147
121 240
121 265
121 300
122 130
122 182
122 239
122 242
122 258
122 280
122 285
122 294
123 171
123 183
123 229
123 249
124 150
124 159
124 160
125 145
125 159
125 179
125 274
126 139
126 191
126 194
126 289
127 259
127 280
127 298
128 133
128 143
128 144
128 154
128 196
128 211
128 212
128 228
128 252
128 254
128 267
128 285
129 130
129 137
129 153
129 156
129 198
129 224
129 244
129 250
129 260
129 261
129 262
130 210
130 261
131 162
131 182
131 195
131 235
131 270
131 296
132 189
132 278
132 285
133 191
133 199
133 277
134 155
134 186
134 201
134 208
134 228
134 245
134 247
135 137
135 198
135 264
135 273
136 137
136 150
136 168
136 241
136 242
136 249
136 275
137 168
137 173
137 266
138 258
138 297
139 141
139 148
139 155
139 164
139 195
139 206
139 209
139 255
140 216
140 229
141 232
141 286
141 295
141 297
142 155
142 201
143 146
143 177
143 201
143 205
143 211
143 239
143 247
143 259
143 267
143 289
144 267
145 159
145 245
145 259
146 152
146 172
146 185
146 205
146 221
146 233
146 270
147 240
147 265
148 159
148 191
148 209
148 213
148 250
148 276
149 165
149 171
149 177
149 195
149 276
149 280
150 160
150 198
150 204
150 209
150 242
150 272
150 275
150 281
151 179
151 267
152 166
152 173
152 178
152 190
152 270
152 288
153 161
153 168
153 171
153 174
153 235
153 244
153 287
153 293
154 160
154 163
154 187
154 220
154 272
154 294
155 165
155 201
155 211
155 221
155 247
155 260
155 296
156 157
156 158
156 165
156 174
156 182
156 198
156 201
156 246
156 253
156 262
156 268
156 280
156 284
157 210
157 230
157 251
157 272
157 300
158 198
158 225
158 243
158 244
158 268
158 300
160 187
160 281
160 299
161 169
161 174
161 185
161 188
161 207
162 210
162 216
162 231
162 294
163 184
163 230
163 240
163 243
163 272
164 191
164 200
164 209
164 281
165 171
165 174
165 201
165 203
165 212
165 214
165 215
165 227
165 232
165 249
165 251
165 253
165 280
165 284
166 167
166 173
166 214
166 274
166 288
167 235
167 291
168 217
168 249
168 287
169 185
170 242
171 174
171 183
171 195
171 210
171 223
172 200
172 209
172 283
173 183
173 186
173 189
173 221
173 228
173 240
173 251
173 272
173 283
174 210
174 211
174 223
174 249
174 251
174 280
174 291
175 246
175 298
176 177
176 182
176 217
176 230
176 231
176 241
176 256
176 257
176 266
177 179
177 181
177 202
177 203
177 215
177 223
177 232
177 267
177 286
178 197
178 199
178 230
178 248
178 270
178 272
178 293
179 247
180 220
181 233
181 236
181 238
181 242
181 259
181 286
182 210
182 217
182 225
182 241
182 253
183 186
183 198
183 248
183 252
183 254
183 294
184 200
184 237
184 245
184 247
184 300
185 204
185 207
186 220
186 228
186 262
186 291
187 194
187 201
187 224
187 230
187 231
187 244
187 253
188 207
188 209
188 214
188 245
188 267
189 251
189 282
190 247
190 270
190 284
191 291
193 212
193 224
193 226
193 239
193 295
193 296
193 297
194 289
195 206
197 227
197 240
197 264
197 270
197 277
198 248
198 259
199 243
199 269
199 293
200 209
200 242
201 296
202 286
203 215
204 223
204 267
204 271
204 298
207 209
207 223
207 276
207 286
209 232
209 263
209 281
210 230
210 236
210 254
211 232
211 247
211 258
211 280
211 286
212 215
212 221
212 241
212 267
212 281
212 283
212 295
213 214
213 242
213 278
214 267
214 274
214 280
215 245
215 265
215 290
215 298
215 300
217 225
217 244
217 300
218 242
218 246
218 285
220 240
220 272
220 292
221 233
221 241
221 251
221 290
223 298
224 230
224 241
224 250
224 253
224 268
224 269
224 272
224 276
224 286
225 228
225 244
225 283
225 300
227 240
227 264
227 270
228 286
230 231
230 236
230 240
230 244
230 251
230 265
230 272
230 300
231 241
231 244
231 294
231 295
232 286
233 270
233 286
234 253
235 244
235 265
235 291
235 296
236 286
237 300
238 242
238 257
238 286
239 282
239 295
239 296
239 297
240 272
240 283
241 266
241 278
241 295
242 286
243 269
243 272
244 265
244 287
244 296
245 247
245 259
245 290
246 266
248 254
248 272
248 294
249 291
250 272
250 276
251 271
252 254
252 260
255 259
256 257
256 266
258 280
258 285
259 280
260 277
262 280
262 299
263 298
265 300
266 285
267 281
268 269
268 276
269 276
270 277
270 293
271 288
272 293
275 281
275 299
280 298
281 286
282 297
285 292
289 299
290 291
*Classes
1
1
1
1
1
1
1
1
1
1
1
1
1
1
1
1
1
1
1
1
1
1
1
1
1
1
1
1
1
1
1
1
1
1
1
1
1
1
1
1
1
1
1
1
1
1
1
1
1
1
1
1
1
1
1
1
1
1
1
1
1
1
1
1
1
1
1
1
1
1
1
1
1
1
1
1
1
1
1
1
1
1
1
1
1
1
1
1
1
1
1
1
1
1
1
1
1
1
1
1
1
1
1
1
1
1
1
1
1
1
1
1
1
1
1
1
1
1
1
1
1
1
1
1
1
1
1
1
1
1
1
1
1
1
1
1
1
1
1
1
1
1
1
1
1
1
1
1
1
1
2
2
2
2
2
2
2
2
2
2
2
2
2
2
2
2
2
2
2
2
2
2
2
2
2
2
2
2
2
2
2
2
2
2
2
2
2
2
2
2
2
2
2
2
2
2
2
2
2
2
2
2
2
2
2
2
2
2
2
2
2
2
2
2
2
2
2
2
2
2
2
2
2
2
2
2
2
2
2
2
2
2
2
2
2
2
2
2
2
2
2
2
2
2
2
2
2
2
2
2
2
2
2
2
2
2
2
2
2
2
2
2
2
2
2
2
2
2
2
2
2
2
2
2
2
2
2
2
2
2
2
2
2
2
2
2
2
2
2
2
2
2
2
2
2
2
2
2
2
2
