*Vertices 300
*Edges
1 2
1 19
1 64
1 78
1 85
1 91
1 128
1 130
1 139
1 163
1 200
1 297
2 19
2 31
2 45
2 53
2 85
2 93
2 104
2 119
2 129
2 173
2 234
2 281
3 183
4 28
4 278
5 23
5 30
5 155
5 160
5 162
5 290
5 296
6 106
6 116
6 192
6 202
6 227
6 233
6 267
7 12
7 18
7 37
7 56
7 77
7 80
7 124
7 134
7 214
7 218
7 246
7 248
8 14
8 16
8 63
8 83
8 118
8 135
8 142
8 147
8 174
8 194
8 240
8 271
9 57
9 58
9 59
9 75
9 103
9 114
9 140
9 150
9 194
10 16
10 112
10 124
10 140
10 249
10 257
10 270
10 271
11 23
11 27
11 29
11 58
11 74
11 79
11 80
11 81
11 82
11 108
11 113
11 116
11 166
11 174
11 182
11 194
11 204
11 229
11 242
12 14
12 37
12 38
12 46
12 72
12 74
12 116
12 119
12 124
12 144
13 74
13 76
13 77
13 137
13 144
14 38
14 116
14 135
14 144
14 147
14 228
14 237
15 51
15 54
15 135
15 154
15 161
15 188
15 199
15 216
15 231
15 235
15 247
16 51
16 58
16 59
16 70
16 112
16 118
16 184
16 200
16 214
16 217
16 227
16 277
16 287
17 71
18 53
18 56
18 61
18 110
18 124
18 141
19 21
19 35
19 45
19 52
19 53
19 67
19 86
19 105
19 111
19 134
19 139
19 147
19 197
19 212
19 247
20 115
20 162
20 274
20 275
20 292
21 32
21 35
21 45
21 48
21 73
21 86
21 90
21 147
21 172
21 182
22 81
22 156
22 223
22 265
22 282
22 290
23 29
23 116
23 155
23 192
23 222
24 55
24 215
25 80
25 86
25 115
26 34
26 44
26 95
26 105
26 137
26 143
26 276
27 35
27 44
27 66
27 80
27 108
27 125
27 203
27 254
27 261
28 191
28 216
28 255
28 256
28 279
29 74
29 108
29 113
30 158
30 176
30 265
31 89
32 70
32 83
32 85
32 101
32 125
32 149
32 174
32 193
33 40
33 69
33 76
33 80
33 98
33 108
33 109
33 133
33 159
33 189
33 203
34 89
34 202
34 206
34 241
34 298
35 48
35 53
35 65
35 66
35 90
35 100
35 104
35 123
35 125
35 147
35 177
35 256
35 268
36 47
36 53
36 66
36 126
36 232
36 247
36 282
37 56
37 57
37 61
37 75
37 103
37 119
37 134
37 144
37 219
37 239
37 263
37 281
37 285
38 119
38 131
38 144
38 202
38 224
38 230
38 267
38 283
39 45
39 73
39 95
39 126
40 67
40 177
40 184
40 203
40 225
40 236
40 266
41 64
41 67
41 99
41 104
41 139
41 161
41 289
42 115
42 149
42 214
42 217
42 282
43 245
44 64
44 84
44 87
44 137
44 165
44 203
45 73
45 86
45 145
45 187
46 66
46 74
46 109
46 131
46 135
46 144
46 177
46 209
46 215
46 217
46 300
47 53
47 62
47 66
47 117
47 188
47 232
47 263
48 50
48 65
48 82
48 89
48 100
48 122
48 125
48 132
48 176
48 208
48 213
48 228
49 58
49 107
49 122
49 124
49 177
49 229
49 233
49 300
50 58
50 97
50 117
50 162
50 167
50 204
50 213
50 249
50 287
50 299
51 118
51 134
51 235
51 239
51 247
51 256
51 294
52 111
52 134
52 139
52 147
53 66
53 122
53 124
53 126
53 147
53 235
53 247
54 70
54 135
54 149
54 157
54 247
55 159
55 191
55 215
56 59
56 61
56 77
56 103
56 132
56 248
56 251
57 103
57 284
58 59
58 62
58 118
58 124
58 127
58 166
58 179
58 217
58 240
58 248
58 249
58 256
58 271
58 293
59 61
59 71
59 114
59 127
59 132
59 150
59 190
60 87
60 120
60 159
60 183
60 192
60 216
60 251
60 261
61 94
61 110
61 122
61 127
61 132
61 212
61 218
62 77
62 80
62 108
62 115
62 117
62 160
62 222
62 249
63 72
63 83
63 109
63 142
63 187
64 78
64 82
64 87
64 104
64 146
64 161
64 166
64 189
64 203
64 205
64 255
64 289
64 292
65 82
65 89
65 120
65 136
65 146
65 155
65 165
65 175
65 215
65 220
66 85
66 91
66 131
66 198
67 81
67 139
67 142
67 188
67 203
67 217
67 226
67 271
68 106
68 126
68 155
68 192
68 277
69 76
69 87
69 102
69 109
69 123
69 137
69 152
69 155
69 179
69 183
69 192
69 221
69 281
70 98
70 99
70 115
70 118
70 147
70 149
70 173
70 179
70 194
71 74
71 127
71 144
71 212
71 223
71 224
71 236
71 297
72 206
72 244
73 284
74 81
74 82
74 83
74 109
74 144
74 188
74 253
75 103
75 129
75 146
75 288
76 88
76 109
76 137
77 80
77 134
77 180
77 190
77 270
77 279
77 289
78 81
78 104
78 123
78 146
78 189
78 219
78 268
78 274
78 290
79 105
79 108
79 145
79 180
79 215
79 252
80 108
80 110
80 115
80 169
80 190
80 272
81 83
81 84
81 113
81 142
81 144
81 149
81 290
81 294
81 298
82 87
82 104
82 156
82 188
82 209
82 257
83 142
83 149
83 164
83 177
83 187
83 216
83 220
84 113
84 133
84 163
84 172
84 185
84 188
84 253
84 263
84 277
85 91
85 103
85 125
85 168
85 171
85 179
85 220
85 236
85 281
85 291
86 145
86 157
86 158
86 174
86 215
86 269
86 275
87 95
87 146
87 192
87 197
87 221
88 118
88 121
88 134
88 260
88 292
89 100
89 164
89 172
89 213
89 223
89 228
89 244
90 95
90 96
90 125
90 143
90 152
90 215
90 218
90 256
90 294
91 163
91 200
91 274
92 114
92 170
92 200
92 291
93 129
93 168
93 173
93 175
94 101
94 105
94 145
94 275
95 105
95 126
95 143
95 161
95 215
95 296
96 133
96 167
96 176
96 215
96 236
96 269
97 133
97 175
97 181
97 182
97 204
97 231
97 236
97 295
98 99
98 108
98 115
98 161
99 286
100 123
100 132
101 105
101 125
101 207
101 255
102 284
103 267
103 297
104 123
104 129
104 146
104 167
104 172
104 184
105 137
105 143
105 145
105 150
105 176
105 197
106 127
106 174
106 233
106 250
106 266
107 124
107 183
107 241
107 274
108 110
108 120
108 133
108 153
108 183
108 189
108 211
108 297
108 298
109 142
109 144
109 169
109 183
109 204
109 209
109 225
109 243
110 124
110 141
110 249
110 262
110 296
111 147
111 243
111 290
112 176
112 242
113 116
113 133
113 221
113 263
114 140
114 161
114 170
114 238
114 280
114 291
115 151
115 235
115 243
115 267
116 133
116 166
116 182
116 235
117 130
117 215
117 300
118 121
118 134
118 147
118 149
118 161
118 164
118 194
118 235
119 124
119 129
119 164
119 167
120 142
120 146
120 176
120 183
120 197
120 215
120 220
121 123
121 134
121 139
121 206
121 220
121 222
121 243
121 264
121 299
122 124
122 132
122 225
122 236
122 254
122 257
123 155
123 179
123 268
124 126
124 132
124 145
124 171
124 183
124 232
124 237
124 257
124 267
125 179
125 244
125 261
126 176
126 270
126 287
126 296
126 300
127 212
127 233
127 266
127 277
128 229
128 288
129 173
129 300
130 215
130 240
130 267
130 297
131 135
131 264
131 265
132 136
132 201
132 236
132 272
132 291
132 299
133 176
133 202
133 215
133 244
133 245
134 139
134 152
134 163
134 179
134 181
134 188
134 240
134 246
134 263
135 173
135 208
135 216
135 230
135 260
135 261
135 270
135 283
136 146
136 215
136 290
136 299
137 145
137 202
137 285
137 290
137 298
138 225
138 242
138 280
138 284
139 142
139 179
139 264
139 293
140 163
140 178
140 180
140 185
140 218
140 238
140 242
140 296
141 174
141 178
142 149
142 198
142 217
142 243
142 271
142 289
143 162
143 189
143 195
143 209
144 192
144 225
144 232
144 263
145 150
145 156
145 160
145 176
145 219
146 151
146 236
146 261
146 290
147 149
147 155
147 233
148 175
148 238
148 251
148 256
148 262
148 286
149 171
149 244
149 260
149 292
149 300
150 154
150 165
150 247
151 160
151 185
151 197
151 224
151 229
151 251
151 286
151 290
151 291
152 157
152 163
152 167
152 188
152 205
152 213
152 216
152 233
152 242
152 284
152 295
153 264
153 270
153 288
154 166
154 199
154 203
154 211
154 235
154 266
154 273
155 168
155 179
155 189
155 296
156 205
156 244
156 267
156 284
157 187
157 233
157 284
158 180
159 179
159 181
159 189
159 191
159 273
159 275
160 185
160 197
160 251
161 177
161 181
161 201
161 202
161 210
161 216
161 231
161 250
161 264
161 268
161 269
162 189
162 206
162 243
162 296
163 180
163 188
163 233
163 247
163 252
164 196
165 167
165 202
165 203
165 215
165 225
165 244
165 247
165 264
165 285
166 198
166 203
166 218
166 225
166 282
167 215
167 249
167 284
167 285
168 179
168 181
168 182
168 188
168 202
168 203
168 204
168 225
168 231
168 250
168 254
168 267
168 272
168 276
169 175
169 183
169 223
169 240
169 276
169 282
170 175
170 176
170 203
170 210
170 213
170 224
170 244
170 259
170 275
170 280
170 297
171 232
171 287
171 300
172 228
173 208
173 234
173 248
174 178
174 182
174 202
174 250
174 275
175 183
175 220
175 259
176 203
176 224
176 244
176 273
176 275
176 288
177 215
177 216
177 261
177 263
177 269
177 300
178 182
178 217
178 260
178 269
178 274
178 283
178 294
179 189
179 234
179 256
179 276
179 284
180 252
181 225
181 231
181 268
182 188
182 207
182 225
182 260
182 267
182 274
182 283
183 209
183 240
183 276
183 298
184 197
184 214
184 229
185 237
185 296
186 232
186 239
187 252
188 217
188 225
188 247
188 283
189 275
190 198
190 203
190 216
190 249
190 261
191 193
192 201
192 263
192 281
193 194
193 234
193 248
193 256
194 234
195 211
198 218
198 267
198 276
198 289
199 266
200 272
201 216
201 226
201 233
201 261
201 263
201 278
202 210
202 215
202 250
202 251
202 264
203 208
203 220
203 225
203 261
203 288
203 291
204 272
205 213
205 242
205 267
205 284
205 295
206 243
206 244
206 247
206 253
207 274
208 216
208 220
208 248
208 261
210 213
210 224
210 250
210 284
211 273
211 277
211 299
212 222
212 252
213 250
213 284
215 216
215 263
215 269
215 281
215 284
215 285
216 233
216 256
216 261
217 219
217 225
217 282
217 283
218 267
219 222
219 223
219 257
219 282
219 285
219 290
220 226
220 236
220 260
220 261
220 269
220 273
220 295
220 297
221 245
222 252
222 257
222 264
222 268
223 236
223 245
223 276
223 282
224 230
224 238
224 244
224 246
224 286
224 297
224 299
225 247
225 254
225 261
225 270
225 274
225 280
226 260
226 261
226 269
226 273
226 278
226 279
227 233
229 288
230 246
231 238
231 241
231 256
232 239
233 256
234 235
234 248
234 256
234 290
235 267
235 276
235 277
235 290
236 245
236 247
237 286
238 241
238 256
238 258
238 280
238 297
239 285
239 294
239 298
240 241
240 264
240 268
240 271
240 276
240 297
241 257
241 258
241 267
241 271
241 276
241 280
241 297
241 298
242 270
242 284
242 296
243 244
244 247
244 253
244 267
246 269
246 294
246 299
247 293
248 270
248 271
250 269
251 276
251 298
252 257
254 270
256 262
256 279
256 284
256 296
257 277
257 280
257 282
257 299
258 271
258 277
258 299
259 268
260 295
261 297
262 293
262 296
264 268
264 270
265 290
266 277
267 274
267 276
267 277
269 273
269 281
269 285
269 294
270 271
270 288
270 289
270 291
270 293
270 296
271 276
272 291
273 278
277 287
277 299
278 279
284 295
285 298
288 291
293 295
293 296
*Classes
1
1
1
1
1
1
1
1
1
1
1
1
1
1
1
1
1
1
1
1
1
1
1
1
1
1
1
1
1
1
1
1
1
1
1
1
1
1
1
1
1
1
1
1
1
1
1
1
1
1
1
1
1
1
1
1
1
1
1
1
1
1
1
1
1
1
1
1
1
1
1
1
1
1
1
1
1
1
1
1
1
1
1
1
1
1
1
1
1
1
1
1
1
1
1
1
1
1
1
1
1
1
1
1
1
1
1
1
1
1
1
1
1
1
1
1
1
1
1
1
1
1
1
1
1
1
1
1
1
1
1
1
1
1
1
1
1
1
1
1
1
1
1
1
1
1
1
1
1
1
2
2
2
2
2
2
2
2
2
2
2
2
2
2
2
2
2
2
2
2
2
2
2
2
2
2
2
2
2
2
2
2
2
2
2
2
2
2
2
2
2
2
2
2
2
2
2
2
2
2
2
2
2
2
2
2
2
2
2
2
2
2
2
2
2
2
2
2
2
2
2
2
2
2
2
2
2
2
2
2
2
2
2
2
2
2
2
2
2
2
2
2
2
2
2
2
2
2
2
2
2
2
2
2
2
2
2
2
2
2
2
2
2
2
2
2
2
2
2
2
2
2
2
2
2
2
2
2
2
2
2
2
2
2
2
2
2
2
2
2
2
2
2
2
2
2
2
2
2
2
