*Vertices 300
*Edges
1 24
1 28
1 112
1 121
1 151
1 239
1 269
2 27
2 68
2 115
2 116
2 246
2 260
3 10
3 21
3 29
3 34
3 39
3 62
3 72
3 81
3 104
3 139
3 165
3 235
4 41
4 117
4 217
4 288
5 40
5 57
5 95
5 231
6 11
6 108
6 221
6 225
6 262
7 12
7 21
7 75
7 84
7 98
7 168
7 283
7 295
8 42
8 121
8 207
9 12
9 22
9 95
9 107
9 110
9 120
9 152
10 17
10 22
10 31
10 64
10 67
10 111
10 113
10 145
10 148
10 152
10 179
10 202
10 235
10 259
11 81
11 82
11 93
11 99
11 115
11 153
11 227
11 232
11 271
11 294
12 21
12 54
12 75
12 96
12 103
12 105
12 107
12 110
12 150
13 37
13 54
13 66
13 69
13 117
13 159
13 167
13 288
13 290
14 50
14 62
14 115
14 217
15 45
15 65
15 102
15 122
15 123
15 132
15 147
15 183
15 200
15 235
16 26
16 37
16 39
16 97
16 114
16 117
16 127
16 129
16 141
16 152
16 156
16 182
16 291
17 22
17 31
17 60
17 91
17 200
17 256
18 162
18 191
19 31
19 110
19 193
19 286
20 45
20 47
20 68
20 104
20 166
20 208
20 238
21 39
21 75
21 97
21 113
21 151
21 191
22 31
22 43
22 60
22 63
22 95
22 127
22 209
22 277
23 153
23 197
23 264
24 107
24 151
24 200
24 204
24 214
24 272
25 203
25 208
25 259
26 39
26 41
26 49
26 94
26 114
26 117
26 118
26 253
27 88
27 116
27 186
27 238
27 256
27 269
28 112
28 123
28 125
28 215
28 232
28 234
29 56
29 80
29 138
29 139
29 251
29 255
29 284
30 87
30 206
30 279
31 67
31 91
31 99
31 181
31 233
31 285
32 45
32 61
32 82
32 92
32 93
32 111
32 123
32 124
32 128
32 181
32 203
32 251
32 253
32 281
33 36
33 48
33 75
33 82
33 135
33 168
33 187
33 200
33 226
33 245
34 39
34 44
34 81
34 130
34 139
34 157
34 187
34 200
34 223
34 245
35 43
35 127
35 143
35 150
35 198
35 224
36 104
36 168
36 275
37 41
37 42
37 67
37 117
37 121
37 129
37 144
37 192
37 201
37 258
38 57
38 149
38 158
39 104
39 105
39 117
39 139
39 144
39 146
39 276
40 56
40 57
40 95
40 101
40 108
40 113
40 120
40 125
40 144
40 146
40 219
40 274
41 49
41 58
41 64
41 67
41 72
41 75
41 103
41 117
41 136
41 164
41 218
41 219
42 48
42 64
42 117
42 188
42 225
42 233
43 44
43 72
43 95
43 127
43 142
43 160
43 206
43 272
44 62
44 72
44 81
44 127
44 140
44 142
44 160
45 104
45 108
45 111
45 177
45 235
46 108
46 142
46 225
46 244
47 245
47 246
47 269
48 54
48 110
48 118
48 148
48 226
49 72
49 103
49 117
49 118
49 158
49 188
49 265
49 288
50 76
50 80
50 222
51 59
51 106
51 130
51 198
51 205
51 241
51 281
52 207
52 236
52 267
52 276
52 300
53 84
53 124
53 125
53 172
53 257
53 274
54 69
54 78
54 89
54 110
54 111
54 118
54 134
54 145
54 243
54 251
54 259
54 274
55 67
55 115
55 129
55 242
55 299
56 57
56 113
56 138
56 192
56 219
56 248
56 264
56 287
57 67
57 78
57 101
57 110
57 113
57 120
57 151
57 174
57 231
58 59
58 63
58 67
58 124
58 164
58 196
58 206
58 300
59 86
59 106
59 124
59 131
59 135
59 141
59 273
59 289
60 63
60 155
61 103
61 116
61 128
61 221
61 292
62 105
62 115
62 139
62 142
62 163
63 140
63 142
63 192
63 257
64 117
64 148
64 185
64 231
65 68
65 95
65 96
65 97
65 98
65 102
65 120
65 137
65 168
66 107
66 165
66 167
66 221
66 288
67 97
67 99
67 113
67 129
67 139
67 218
67 289
68 102
68 140
68 167
68 204
68 208
68 253
69 117
70 71
70 84
70 122
70 167
71 102
71 122
71 176
71 212
71 278
72 190
72 270
73 99
73 123
73 133
73 161
73 220
73 261
73 275
73 284
74 79
74 119
74 134
74 157
74 223
74 225
74 238
74 295
75 80
75 97
75 103
75 110
75 151
75 168
75 185
75 193
76 78
76 80
76 89
76 107
76 110
76 297
77 146
77 186
77 189
77 209
77 268
77 296
78 110
78 111
78 115
78 163
78 298
79 119
79 295
80 89
80 185
80 212
80 280
81 86
81 99
81 115
81 130
81 232
81 243
81 253
82 93
82 281
83 124
83 126
83 174
84 98
84 134
84 141
84 154
84 192
84 228
84 274
85 90
85 175
85 228
85 242
86 99
86 106
86 159
86 222
86 246
87 171
89 182
89 226
89 243
89 253
91 181
91 213
91 222
91 225
91 259
92 124
92 131
92 141
92 148
93 111
93 221
93 281
93 287
94 186
94 195
94 213
94 216
94 286
95 99
95 102
95 109
95 120
95 133
95 151
95 223
95 226
95 228
95 250
96 97
96 102
96 113
96 126
96 137
96 141
96 216
96 266
97 113
97 129
97 243
97 270
97 280
98 102
98 131
98 135
98 241
98 250
98 272
98 294
99 151
99 208
99 275
101 217
101 261
102 122
102 123
102 176
102 251
102 269
103 116
103 117
103 237
103 290
104 158
104 238
105 144
105 146
105 150
105 198
106 109
106 138
106 208
106 213
106 222
106 237
106 283
106 288
106 289
106 294
107 110
107 193
108 111
108 144
108 229
108 249
109 231
109 243
110 111
110 115
110 118
110 157
111 124
111 145
111 234
112 139
112 287
113 145
113 174
113 223
114 125
114 172
114 199
115 116
115 130
115 133
115 194
115 206
115 299
116 272
117 121
117 180
117 235
117 242
117 287
119 164
119 184
119 268
119 286
120 187
120 246
120 249
121 239
121 290
121 300
123 124
123 128
123 133
123 166
123 267
123 278
124 158
124 180
124 276
124 283
124 293
125 254
125 259
125 274
126 131
126 141
126 250
127 298
128 281
129 174
129 206
129 222
129 295
130 133
131 135
131 136
131 141
131 158
131 190
131 217
131 265
132 165
132 168
132 205
133 191
133 203
133 250
133 265
133 269
134 154
134 166
134 274
135 161
135 187
135 188
135 222
136 191
136 294
137 155
137 163
137 171
137 245
138 170
139 196
139 247
140 142
140 204
140 215
140 257
140 292
141 152
141 156
141 251
142 198
142 224
143 150
143 235
144 146
144 201
144 216
144 237
144 250
144 270
144 288
145 148
145 177
145 185
146 189
146 262
146 272
147 155
148 184
148 233
148 251
148 255
148 293
149 195
149 212
149 217
150 240
151 208
151 278
151 283
151 295
152 181
152 182
152 192
152 195
152 202
152 213
152 229
152 247
152 269
152 283
152 284
153 189
153 200
153 207
153 262
153 292
153 299
153 300
154 171
154 176
154 192
154 194
154 210
154 230
154 242
154 268
155 215
155 224
156 164
156 213
156 233
156 294
156 300
157 176
157 186
157 227
157 261
157 282
157 284
158 177
158 205
158 207
158 213
158 216
158 278
158 294
159 185
159 193
159 266
161 162
161 195
161 210
161 233
162 210
162 233
162 239
162 257
162 268
162 271
163 171
163 220
163 227
163 234
163 245
163 247
164 174
164 196
164 201
164 213
164 224
164 252
164 268
164 294
165 203
165 241
165 244
165 271
166 209
166 210
166 256
166 260
166 278
166 280
167 177
167 251
168 292
169 182
169 191
169 209
169 213
169 228
169 245
169 259
169 272
170 190
170 217
170 254
170 292
170 299
171 227
171 268
172 238
172 257
173 174
173 211
173 212
173 216
173 217
173 237
173 266
173 273
174 216
174 237
174 278
174 286
174 294
175 193
175 196
175 216
175 229
175 236
175 259
175 286
175 291
176 178
176 194
176 210
176 225
176 261
177 205
177 213
177 294
178 182
178 194
178 204
178 219
179 199
179 201
179 214
179 255
179 287
179 297
180 205
180 252
180 273
181 195
181 259
182 203
182 213
182 219
182 237
182 245
182 256
182 273
183 188
183 197
183 202
183 209
183 228
183 237
183 249
183 283
183 299
184 187
184 196
184 197
184 199
184 209
184 215
184 235
184 256
185 193
185 231
185 266
186 227
186 260
186 266
186 296
187 188
187 197
187 208
187 222
187 223
187 257
187 284
187 300
188 254
188 257
188 293
188 299
188 300
189 221
189 228
189 299
190 216
190 254
190 281
190 283
190 293
191 215
191 224
191 245
191 252
192 217
192 282
192 283
193 216
193 280
193 286
193 295
194 197
194 206
194 219
194 230
194 242
195 210
195 212
195 221
195 233
195 269
196 215
196 291
197 199
197 235
197 251
198 280
199 201
200 299
201 214
201 233
201 252
201 268
201 270
202 209
202 269
203 212
203 219
203 230
203 244
203 248
203 251
203 253
203 281
203 296
204 219
204 233
204 234
204 245
204 268
204 279
205 213
205 217
205 226
205 239
205 257
205 294
206 216
206 220
206 234
206 238
206 278
206 279
206 297
208 257
208 259
208 284
209 256
209 272
210 221
210 225
210 256
210 280
211 271
211 277
211 281
212 246
212 266
212 296
213 217
213 232
213 241
213 245
213 269
213 289
213 292
213 294
215 224
215 242
215 252
216 278
216 281
216 286
216 294
216 300
217 226
217 236
217 237
217 282
218 219
218 220
218 261
219 245
219 256
219 278
219 287
220 231
220 233
220 250
220 268
220 289
220 297
221 225
221 263
221 275
221 299
222 237
222 273
222 283
222 284
223 228
223 231
223 255
223 269
223 282
225 262
225 296
225 299
226 277
226 288
227 234
227 245
227 247
227 260
227 262
227 284
228 269
228 272
228 278
228 282
228 289
228 299
229 230
229 243
229 249
229 264
229 269
229 286
230 232
230 242
230 243
230 259
230 277
230 281
231 282
232 234
232 282
233 242
233 251
233 255
233 268
233 291
233 297
234 279
235 251
236 282
236 286
236 298
237 266
237 273
237 288
239 257
239 269
239 271
239 277
239 288
241 269
241 272
241 281
242 243
242 291
243 259
243 263
244 248
244 253
244 271
244 281
245 246
245 272
245 292
245 294
246 249
246 253
246 283
246 285
247 271
247 287
248 281
249 283
251 257
251 262
251 269
251 300
252 273
254 284
254 292
255 275
255 287
255 298
256 280
256 281
257 284
257 294
257 300
260 280
260 295
262 300
263 265
263 275
263 299
265 288
268 289
268 294
268 297
269 294
269 300
270 280
270 292
271 293
271 294
272 278
272 289
272 299
274 288
276 293
277 281
277 288
280 281
280 293
280 295
282 283
282 284
282 286
283 284
283 293
283 294
283 295
286 295
286 298
288 290
292 299
294 300
*Classes
1
1
1
1
1
1
1
1
1
1
1
1
1
1
1
1
1
1
1
1
1
1
1
1
1
1
1
1
1
1
1
1
1
1
1
1
1
1
1
1
1
1
1
1
1
1
1
1
1
1
1
1
1
1
1
1
1
1
1
1
1
1
1
1
1
1
1
1
1
1
1
1
1
1
1
1
1
1
1
1
1
1
1
1
1
1
1
1
1
1
1
1
1
1
1
1
1
1
1
1
1
1
1
1
1
1
1
1
1
1
1
1
1
1
1
1
1
1
1
1
1
1
1
1
1
1
1
1
1
1
1
1
1
1
1
1
1
1
1
1
1
1
1
1
1
1
1
1
1
1
2
2
2
2
2
2
2
2
2
2
2
2
2
2
2
2
2
2
2
2
2
2
2
2
2
2
2
2
2
2
2
2
2
2
2
2
2
2
2
2
2
2
2
2
2
2
2
2
2
2
2
2
2
2
2
2
2
2
2
2
2
2
2
2
2
2
2
2
2
2
2
2
2
2
2
2
2
2
2
2
2
2
2
2
2
2
2
2
2
2
2
2
2
2
2
2
2
2
2
2
2
2
2
2
2
2
2
2
2
2
2
2
2
2
2
2
2
2
2
2
2
2
2
2
2
2
2
2
2
2
2
2
2
2
2
2
2
2
2
2
2
2
2
2
2
2
2
2
2
2
