*Vertices 300
*Edges
1 4
1 39
1 51
1 52
1 68
1 71
1 86
1 115
1 144
1 179
1 182
1 240
1 281
2 19
2 24
2 34
2 40
2 60
2 102
2 106
2 125
2 206
2 215
2 237
2 241
2 249
3 93
3 102
3 146
4 21
4 30
4 72
4 115
4 124
4 127
4 170
4 184
4 255
5 52
5 57
5 140
5 149
5 211
6 24
6 27
6 40
6 94
6 117
6 125
6 132
6 206
6 215
7 61
7 88
7 91
7 117
7 285
8 85
8 91
8 95
8 111
8 218
9 12
9 159
9 161
9 203
9 206
9 282
9 297
10 18
10 77
10 126
10 166
10 221
11 54
11 189
11 197
11 198
11 217
11 274
12 15
12 60
12 80
12 136
12 137
12 163
12 245
12 248
12 252
12 285
13 144
13 208
13 290
14 83
14 235
14 254
14 267
14 268
14 290
15 48
15 91
15 97
15 109
15 117
15 136
15 172
15 210
15 211
15 252
15 262
15 292
16 53
16 77
16 87
16 174
16 192
16 250
17 69
17 105
17 229
17 237
17 247
18 42
18 66
18 77
18 82
18 87
18 107
18 126
18 166
18 189
18 223
18 244
18 293
19 24
19 34
19 80
19 83
19 103
19 106
19 133
19 142
19 144
19 192
19 209
19 216
19 278
20 30
20 41
20 43
20 75
20 78
20 87
20 147
20 254
20 258
21 23
21 87
21 107
21 114
21 127
21 229
21 288
22 28
22 79
22 118
22 141
22 263
23 53
23 91
23 107
23 114
23 159
23 171
23 255
23 256
23 297
24 27
24 36
24 40
24 72
24 127
24 140
24 209
24 213
24 225
24 234
24 241
24 256
24 257
24 281
24 286
24 291
25 52
25 57
25 232
25 276
26 34
26 47
26 128
26 135
26 219
26 242
26 243
27 117
27 132
27 280
28 58
28 137
28 141
28 157
28 293
28 299
29 114
29 148
29 167
29 193
29 231
30 43
30 65
30 124
30 139
30 158
30 218
31 46
31 61
31 72
31 73
31 81
31 82
31 88
31 99
31 149
31 162
31 215
31 239
32 55
32 56
32 202
32 209
32 224
33 107
33 154
33 248
34 71
34 102
34 111
34 156
34 157
34 160
34 163
34 198
34 206
34 207
34 237
34 243
34 248
34 262
35 67
35 90
35 138
35 178
35 283
36 45
36 56
36 72
36 104
36 227
36 253
36 259
37 45
37 71
37 84
37 102
37 104
37 110
37 133
37 139
37 146
37 188
37 236
38 69
38 70
38 75
38 93
38 100
38 140
38 163
38 167
38 195
38 199
38 226
38 267
39 52
39 68
39 71
39 88
39 140
39 143
39 144
39 147
39 188
39 220
40 89
40 113
40 127
40 170
40 202
40 251
41 45
41 49
41 71
41 74
41 85
41 101
41 110
41 146
41 147
41 156
41 166
41 176
41 185
41 215
41 268
41 288
42 107
42 116
42 129
42 153
42 201
43 49
43 65
43 78
43 139
43 158
43 198
43 237
44 77
44 128
44 135
44 139
44 205
44 232
44 280
44 290
44 293
45 85
45 101
45 104
45 130
45 135
45 147
45 185
45 255
46 88
46 120
46 238
46 239
46 262
47 114
47 123
47 135
47 171
47 200
47 264
48 83
48 97
48 109
48 117
48 136
48 144
48 159
48 161
48 195
48 208
48 290
48 296
49 74
49 78
49 146
49 147
49 166
49 290
50 61
50 82
50 101
50 162
50 202
50 244
51 54
51 67
51 86
51 94
51 109
51 113
51 121
51 126
51 144
51 185
51 204
51 222
51 245
51 267
51 283
52 57
52 90
52 101
52 136
52 140
52 211
53 98
53 107
53 224
53 238
53 250
53 254
53 256
53 262
53 278
54 121
54 163
54 197
54 198
54 246
54 289
55 150
55 161
55 208
55 209
55 219
55 258
55 267
56 104
57 90
57 91
57 193
58 137
58 145
58 180
58 246
58 251
58 256
58 267
58 268
58 299
59 67
59 94
59 111
59 134
59 140
59 180
59 230
59 234
59 275
60 80
60 125
60 159
60 229
60 297
61 68
61 81
61 82
61 88
61 153
61 162
61 178
61 193
61 227
61 251
62 90
62 183
63 71
63 131
63 151
63 192
63 255
63 276
64 115
64 146
64 175
64 198
64 234
64 271
64 296
65 69
65 139
65 145
65 152
65 173
65 237
65 259
65 260
65 269
66 77
66 107
66 110
66 148
66 175
66 201
66 203
67 85
67 86
67 94
67 111
67 121
67 132
67 162
67 178
67 235
67 254
67 258
67 283
68 89
68 113
68 201
69 70
69 79
69 103
69 130
69 157
69 215
69 237
69 242
70 75
70 223
70 240
70 245
70 288
71 113
71 127
71 133
71 143
71 147
71 157
71 173
71 183
71 202
71 276
72 99
72 105
72 152
72 170
72 176
72 192
72 217
72 231
72 235
72 241
72 251
72 259
72 263
72 283
73 80
73 149
73 173
73 181
73 209
73 239
73 245
73 255
73 256
73 264
74 112
74 116
74 141
74 168
74 192
74 241
74 245
74 262
74 264
75 77
75 87
75 108
75 222
75 240
75 290
75 298
76 91
76 159
76 214
76 234
76 297
77 87
77 126
77 232
78 143
78 198
78 209
78 291
79 118
79 158
79 219
79 242
80 103
80 130
80 197
81 82
81 88
81 153
81 227
81 236
81 239
81 251
82 88
82 107
82 209
82 251
82 253
82 274
82 283
82 292
83 92
83 103
83 133
83 144
83 160
83 167
83 192
83 195
83 217
84 96
84 158
84 273
85 95
85 104
85 111
85 155
86 101
86 169
86 248
86 267
87 192
87 209
87 288
87 292
87 297
87 299
88 154
88 188
88 238
88 246
89 113
89 140
89 155
89 225
89 257
90 138
90 208
90 214
90 231
90 276
91 92
91 95
91 105
91 107
91 110
91 114
91 117
91 133
91 167
91 192
91 193
91 200
91 217
92 95
92 182
92 192
92 245
92 254
92 289
93 100
93 109
93 127
93 143
93 258
93 267
94 117
94 197
94 222
94 278
95 107
95 155
95 159
95 218
95 265
96 109
96 158
96 241
97 147
97 211
97 285
98 214
98 222
98 233
98 270
98 278
99 105
99 192
100 140
100 160
100 161
100 186
100 198
100 284
101 104
101 130
101 155
101 169
101 195
101 223
101 255
101 274
101 282
102 103
102 133
102 146
102 220
102 237
103 130
103 142
103 192
103 212
103 220
103 255
103 281
104 123
104 135
104 196
104 198
104 226
104 230
104 286
105 117
107 117
107 216
107 255
107 274
108 247
108 256
109 144
109 155
109 186
109 202
109 213
109 241
109 252
109 258
109 267
110 117
110 133
110 146
110 148
110 165
110 175
110 203
110 283
110 289
111 155
111 178
111 243
111 244
112 141
112 157
112 162
112 184
112 196
112 200
112 241
112 294
113 121
113 181
113 199
113 202
113 208
114 148
114 165
114 193
115 124
115 127
115 146
115 163
115 165
115 180
115 198
115 215
115 219
115 234
115 235
115 257
115 296
116 129
116 291
117 215
117 267
117 268
118 141
118 226
118 263
119 195
120 130
120 215
120 229
121 181
121 199
121 222
121 245
121 288
121 300
122 151
122 164
122 196
123 128
123 135
123 150
124 224
124 258
124 276
125 162
125 165
125 191
125 193
125 207
125 208
125 249
125 257
125 262
125 270
126 238
127 143
127 157
127 210
127 234
127 252
127 255
128 135
128 195
128 205
128 214
128 269
128 273
128 280
128 288
128 300
129 192
129 225
129 236
129 274
129 291
130 163
130 195
130 244
130 262
131 270
131 288
131 294
132 191
132 264
132 280
133 139
133 146
133 163
133 176
133 192
133 206
133 209
133 213
133 214
133 240
133 248
133 259
134 190
134 230
134 244
135 155
135 156
135 214
136 137
136 140
136 182
136 185
136 188
136 245
136 290
136 292
137 181
138 142
138 147
138 157
138 205
138 249
138 268
138 284
139 151
139 180
139 188
139 200
139 223
139 246
139 293
140 172
140 180
140 257
141 157
141 253
141 299
142 147
142 154
142 165
142 233
142 244
142 255
142 284
143 153
143 157
143 178
143 210
143 291
144 159
144 160
145 259
145 278
145 299
146 166
146 257
146 264
146 266
146 298
147 235
147 276
147 285
147 294
150 209
150 219
150 223
150 293
151 179
151 182
151 200
151 222
151 236
151 240
151 264
152 173
152 193
152 200
152 267
153 158
153 171
153 204
153 236
155 156
155 157
155 169
155 202
155 215
155 244
155 252
155 258
156 157
156 167
156 181
156 206
156 210
156 215
156 225
157 167
157 172
157 190
157 210
157 231
157 253
158 171
159 163
159 209
159 210
159 214
159 248
159 272
159 297
160 161
160 194
160 204
160 280
160 283
161 186
161 284
162 193
162 238
163 173
163 195
163 198
163 210
163 213
163 214
163 217
163 235
163 248
163 297
163 300
164 165
164 187
164 188
164 196
164 205
164 214
164 218
164 219
164 242
164 299
165 172
165 177
165 193
165 210
165 214
165 218
165 222
165 250
165 255
165 272
165 297
166 223
166 237
166 288
167 183
167 190
167 195
167 204
167 205
167 209
167 225
167 231
167 235
167 239
167 248
167 256
167 266
167 275
167 277
168 200
168 213
168 264
169 234
169 248
169 287
172 192
172 210
172 254
172 255
172 272
172 273
172 286
173 193
173 195
173 220
173 275
174 279
175 271
177 186
177 188
177 218
177 222
178 269
178 283
179 182
179 185
179 192
179 240
179 249
179 255
179 287
179 297
180 200
180 231
180 235
180 246
180 275
180 276
180 283
181 225
181 255
181 256
181 266
181 295
182 192
182 226
182 240
182 252
182 255
182 269
182 287
182 289
183 195
183 239
183 274
184 187
184 196
185 221
185 239
185 255
186 221
186 290
187 196
187 214
187 224
187 231
187 280
187 299
188 201
188 203
188 209
188 212
188 219
188 221
188 222
188 240
188 242
188 256
188 292
190 205
190 214
190 256
190 273
191 257
191 267
192 217
192 239
192 240
192 255
192 263
192 296
193 250
194 231
194 245
194 280
195 207
195 256
195 262
195 271
195 278
195 300
196 200
196 225
196 226
196 235
196 240
196 262
196 271
196 277
196 278
197 270
198 199
198 234
200 226
200 235
200 248
200 262
200 264
200 266
200 277
200 283
201 207
201 209
201 212
201 222
201 223
201 262
201 288
201 293
202 224
202 239
202 252
202 255
203 219
203 221
203 226
203 246
203 256
203 283
203 289
203 290
204 236
204 256
204 273
204 277
204 283
204 288
205 214
205 220
205 223
206 209
206 214
206 215
206 222
206 235
206 278
206 282
206 290
206 292
207 208
207 214
207 245
207 262
208 209
208 214
208 221
208 235
208 271
208 290
209 211
209 214
209 219
209 256
209 289
209 292
209 296
211 296
213 219
213 232
213 241
213 264
213 272
214 256
214 257
214 290
215 217
215 222
215 228
215 282
216 223
216 282
216 293
217 248
217 263
217 274
218 279
219 241
219 242
219 243
219 257
219 261
219 275
219 277
219 300
220 223
220 231
220 241
220 275
220 288
221 290
222 240
222 263
222 278
222 298
223 246
223 282
223 288
223 293
224 258
225 277
225 281
225 295
226 248
226 277
226 289
227 239
227 247
229 247
231 235
231 241
231 248
231 275
231 277
231 290
232 252
232 262
233 270
233 272
233 278
234 287
235 248
235 264
235 271
235 276
235 283
235 286
235 290
236 240
237 243
237 245
237 253
237 264
237 286
239 241
239 255
239 272
239 274
239 275
239 296
240 249
240 262
240 263
240 271
240 297
241 257
241 272
241 275
242 251
242 261
242 277
242 299
243 264
243 266
244 252
244 258
244 292
245 262
245 264
245 266
246 289
246 293
248 256
248 266
249 268
250 254
250 286
251 283
251 299
252 262
252 291
253 259
253 286
254 258
254 268
254 286
255 281
255 296
255 297
256 266
256 289
258 292
259 278
260 263
260 298
261 284
261 300
262 270
262 271
262 278
263 289
263 298
264 266
264 286
266 275
266 289
267 268
269 289
269 292
270 272
271 278
271 283
272 273
272 275
273 288
273 294
274 278
276 283
277 281
282 288
283 289
288 294
289 292
289 293
291 300
292 297
*Classes
1
1
1
1
1
1
1
1
1
1
1
1
1
1
1
1
1
1
1
1
1
1
1
1
1
1
1
1
1
1
1
1
1
1
1
1
1
1
1
1
1
1
1
1
1
1
1
1
1
1
1
1
1
1
1
1
1
1
1
1
1
1
1
1
1
1
1
1
1
1
1
1
1
1
1
1
1
1
1
1
1
1
1
1
1
1
1
1
1
1
1
1
1
1
1
1
1
1
1
1
1
1
1
1
1
1
1
1
1
1
1
1
1
1
1
1
1
1
1
1
1
1
1
1
1
1
1
1
1
1
1
1
1
1
1
1
1
1
1
1
1
1
1
1
1
1
1
1
1
1
2
2
2
2
2
2
2
2
2
2
2
2
2
2
2
2
2
2
2
2
2
2
2
2
2
2
2
2
2
2
2
2
2
2
2
2
2
2
2
2
2
2
2
2
2
2
2
2
2
2
2
2
2
2
2
2
2
2
2
2
2
2
2
2
2
2
2
2
2
2
2
2
2
2
2
2
2
2
2
2
2
2
2
2
2
2
2
2
2
2
2
2
2
2
2
2
2
2
2
2
2
2
2
2
2
2
2
2
2
2
2
2
2
2
2
2
2
2
2
2
2
2
2
2
2
2
2
2
2
2
2
2
2
2
2
2
2
2
2
2
2
2
2
2
2
2
2
2
2
2
