*Vertices 300
*Edges
1 2
1 13
1 14
1 56
1 58
1 66
1 83
1 87
1 114
1 154
1 163
1 195
1 201
1 228
1 245
1 282
1 300
2 40
2 58
2 158
2 190
2 228
2 292
3 12
3 65
3 107
3 141
3 158
3 183
3 210
3 215
3 224
3 236
3 276
3 298
4 48
4 114
4 131
4 144
4 147
5 22
5 284
6 46
6 57
6 63
6 77
6 112
6 113
6 161
6 221
7 13
7 47
7 48
7 72
7 91
7 92
7 125
7 143
7 152
7 234
7 296
8 10
8 208
8 299
9 98
9 158
9 178
9 267
9 278
10 123
10 167
10 174
10 188
10 191
10 193
11 13
11 60
11 80
11 83
11 87
11 109
11 126
11 169
12 22
12 23
12 46
12 73
12 172
12 205
12 270
12 279
13 47
13 60
13 70
13 83
13 105
13 108
13 143
13 151
13 154
13 163
13 222
13 250
14 29
14 41
14 56
14 58
14 128
14 195
14 222
14 226
14 230
14 266
15 55
15 59
15 62
15 81
15 86
15 91
15 133
15 136
15 186
15 194
16 59
16 88
16 110
16 129
16 132
16 136
16 148
16 155
17 110
17 181
17 211
17 215
17 231
17 260
18 33
18 42
18 293
19 52
19 69
19 101
19 114
19 115
19 128
19 176
19 181
19 215
19 247
19 275
19 296
20 43
20 85
20 177
20 206
20 212
20 220
20 226
21 25
21 35
21 55
21 107
21 151
21 157
21 194
21 216
21 243
22 23
22 31
22 118
22 188
22 220
22 272
22 284
23 27
23 120
23 172
23 176
23 194
23 214
23 229
23 234
23 235
23 246
24 30
24 31
24 80
24 87
24 118
24 143
24 166
24 206
24 226
24 257
25 53
25 54
25 62
25 125
25 243
26 41
26 67
26 141
26 149
27 37
27 47
27 90
27 132
27 150
27 194
28 54
28 90
28 94
28 101
28 104
28 129
28 131
28 189
28 296
29 68
29 190
29 230
29 235
29 244
29 264
30 31
30 55
30 87
30 91
30 129
30 238
30 294
31 55
31 57
31 87
31 118
31 213
31 281
32 72
32 277
33 74
33 205
33 219
33 260
34 39
34 49
34 81
34 85
34 86
34 103
34 289
35 51
35 149
35 162
35 176
35 192
35 216
35 221
36 44
36 112
36 121
36 228
36 230
37 73
37 141
37 153
37 231
38 54
38 84
38 93
38 99
38 118
38 129
38 188
38 195
38 249
39 49
39 122
39 146
39 164
39 251
39 285
40 51
40 149
40 151
40 154
40 158
41 81
41 86
41 91
41 96
41 128
41 138
41 141
41 149
41 227
41 267
42 68
42 90
42 140
42 173
42 205
42 289
43 85
43 89
43 91
43 131
43 161
43 203
43 258
43 276
44 121
44 214
44 280
45 183
45 215
45 232
45 282
46 57
46 73
46 76
46 112
46 113
46 238
47 52
47 83
47 103
47 146
47 181
47 209
47 253
47 259
47 276
47 287
47 292
48 92
48 131
49 262
49 264
49 299
50 53
50 64
50 195
50 211
50 212
50 273
50 280
50 292
50 294
51 63
51 84
51 149
51 152
51 217
51 291
52 101
52 103
52 111
52 127
52 136
52 158
52 170
52 194
52 300
53 54
53 108
53 154
53 204
53 225
53 247
53 273
54 99
54 104
54 285
55 58
55 59
55 81
55 86
55 87
55 91
55 96
55 107
55 130
55 136
55 155
55 157
55 186
55 207
56 58
56 87
56 132
56 144
56 148
56 258
56 300
57 116
57 155
57 187
57 271
57 281
57 292
58 59
58 66
58 109
58 213
58 228
58 250
58 257
58 279
58 282
59 95
59 96
59 98
59 109
59 136
59 225
59 228
59 268
59 269
59 279
60 70
60 83
60 159
60 192
60 193
60 228
60 236
61 93
61 115
61 136
61 222
61 225
62 86
62 105
62 166
62 206
62 227
62 259
62 269
62 284
63 111
63 113
63 149
63 203
63 211
63 241
63 272
63 291
64 218
65 89
65 107
65 141
65 181
65 184
66 90
66 259
67 78
67 87
67 114
67 134
67 141
67 165
67 248
67 252
68 98
68 109
68 124
68 140
68 158
68 218
68 264
69 70
69 104
69 132
69 170
69 203
69 214
69 269
70 83
70 88
70 104
70 123
70 132
70 144
70 147
70 238
70 277
71 106
71 208
71 220
71 236
71 288
71 299
72 95
72 125
72 143
72 172
72 185
72 229
72 237
73 76
73 238
74 80
74 109
74 141
74 204
74 260
74 280
76 134
76 270
76 279
77 228
77 254
78 106
78 123
78 134
78 149
78 200
78 276
78 294
79 120
79 218
79 235
79 246
79 300
80 87
80 109
80 159
80 179
80 225
80 280
80 283
81 85
81 86
81 91
81 99
81 103
81 113
81 189
81 210
81 221
81 289
81 292
82 93
82 101
82 215
82 286
83 115
83 122
83 132
83 144
83 146
84 154
84 188
84 203
84 217
84 249
84 287
85 103
85 113
85 173
85 184
85 231
85 233
86 91
86 99
86 103
86 105
86 219
87 114
87 116
87 167
87 206
87 226
87 238
87 294
87 300
88 108
88 162
88 178
88 180
88 187
88 239
88 267
88 286
89 91
89 131
89 141
89 143
89 152
89 199
89 203
89 208
89 266
89 284
90 129
90 132
90 150
90 173
90 252
90 284
90 293
91 96
91 103
91 131
91 143
91 178
91 213
91 247
92 115
92 152
92 296
93 99
93 115
93 118
93 119
93 121
93 160
93 244
94 101
94 125
94 134
94 161
94 218
94 239
94 242
94 243
94 293
94 294
95 158
95 172
95 225
95 245
95 259
95 276
95 279
96 110
96 128
96 138
96 172
96 295
97 182
97 292
98 111
98 122
98 132
98 158
98 178
98 182
98 202
99 139
99 195
99 251
99 286
100 116
100 160
100 202
100 203
100 231
100 267
100 282
100 284
101 114
101 163
101 176
101 215
101 296
102 110
102 214
102 273
103 221
103 251
103 276
104 137
104 171
104 227
105 107
105 108
105 134
105 162
105 166
105 224
106 143
106 149
106 228
106 236
106 250
106 298
107 215
108 113
108 126
108 168
108 174
108 188
108 222
109 114
109 164
109 218
109 222
110 126
110 129
110 132
110 149
110 168
110 214
110 215
110 260
111 132
111 136
111 178
111 203
111 211
111 225
111 250
112 206
112 227
112 247
113 126
113 145
113 164
113 221
113 231
113 233
113 289
114 147
114 151
114 222
114 266
114 282
115 146
115 164
115 296
116 122
116 187
116 272
117 156
117 225
118 155
119 148
119 161
119 189
119 244
119 256
119 258
119 262
120 154
120 250
120 256
121 158
121 194
121 284
121 299
122 127
122 146
122 161
122 227
122 289
123 144
123 147
123 167
123 193
123 277
124 129
124 138
124 197
124 239
124 257
124 286
125 134
125 172
125 191
126 145
126 168
126 256
126 271
126 273
127 136
129 231
129 243
129 271
129 277
129 286
130 186
130 202
130 272
131 189
131 203
131 237
132 136
132 148
132 171
132 182
132 236
132 252
133 148
133 186
133 204
134 248
134 276
135 156
135 187
135 300
136 207
136 215
136 225
137 185
137 190
137 226
137 227
138 142
138 213
138 285
139 154
139 225
139 243
140 168
140 173
140 201
141 168
141 179
141 240
141 247
142 155
142 196
142 237
142 254
142 276
142 292
143 149
143 152
143 157
143 180
143 298
144 147
144 170
144 171
144 258
145 273
145 278
146 161
146 276
147 170
147 224
147 258
147 266
147 277
148 160
148 186
148 244
149 176
149 267
149 282
150 167
150 258
151 154
151 157
151 225
151 239
151 286
152 214
152 228
152 266
153 248
154 182
154 225
154 281
154 285
154 287
155 280
155 292
156 224
157 162
157 171
157 175
157 201
157 240
158 181
158 202
158 219
158 236
158 259
158 283
158 293
160 199
160 258
160 267
160 284
161 179
161 201
161 213
161 247
161 257
161 276
161 294
162 171
162 180
162 198
162 201
162 203
162 240
162 288
163 214
163 219
164 218
164 296
165 167
165 173
165 201
165 217
165 218
165 240
165 245
165 268
165 281
166 189
166 257
166 292
167 189
167 223
167 255
167 268
169 228
169 244
169 278
170 202
170 207
170 219
170 246
171 184
171 238
171 288
172 176
172 191
172 228
172 282
172 292
172 295
173 201
173 218
173 258
173 262
173 273
173 281
174 222
175 246
175 259
176 260
176 275
177 193
177 239
178 278
179 201
179 217
179 219
179 242
179 261
179 276
180 199
180 278
181 184
181 211
181 259
181 271
181 273
181 288
181 296
182 210
182 218
182 287
182 292
182 293
183 232
183 252
183 286
184 203
184 263
186 227
186 242
186 246
186 291
187 204
187 263
187 267
187 291
187 300
188 191
189 190
189 191
189 228
189 252
189 262
189 265
189 286
189 292
190 213
190 235
190 273
190 285
190 292
191 228
191 244
191 282
192 265
192 286
193 220
193 226
193 246
193 256
193 281
194 284
194 299
195 219
195 261
196 249
196 253
197 241
198 216
198 218
198 259
198 288
198 291
199 238
199 240
199 252
199 258
200 224
200 226
201 217
202 203
202 219
202 231
202 259
202 287
203 219
203 288
204 236
204 247
204 253
204 263
206 227
207 216
207 225
207 246
207 249
207 296
208 248
208 284
208 299
210 221
210 236
210 276
210 287
211 271
211 280
211 288
212 226
212 233
212 294
213 247
213 258
213 273
213 285
214 246
214 269
215 260
216 242
216 259
216 291
217 219
218 263
218 288
218 293
219 261
219 262
219 297
220 235
220 236
220 246
221 256
221 262
223 252
223 255
223 275
223 277
224 226
225 261
225 262
225 279
225 281
225 296
227 262
227 265
228 235
228 238
228 244
228 254
229 234
231 242
231 287
231 293
234 261
234 294
234 297
235 236
235 246
235 254
235 259
235 295
236 246
236 253
236 259
236 265
236 278
237 260
238 244
238 269
239 286
239 291
240 245
242 291
242 293
242 295
244 278
245 282
246 259
249 274
249 288
250 257
251 268
251 271
252 275
252 286
253 265
253 278
254 276
254 295
255 277
255 278
256 262
256 281
258 262
258 271
258 273
259 271
259 291
259 293
261 262
261 297
262 264
262 265
262 271
262 297
263 300
265 271
266 272
266 282
270 288
271 273
272 289
274 288
274 298
278 290
281 287
281 292
285 287
290 294
*Classes
1
1
1
1
1
1
1
1
1
1
1
1
1
1
1
1
1
1
1
1
1
1
1
1
1
1
1
1
1
1
1
1
1
1
1
1
1
1
1
1
1
1
1
1
1
1
1
1
1
1
1
1
1
1
1
1
1
1
1
1
1
1
1
1
1
1
1
1
1
1
1
1
1
1
1
1
1
1
1
1
1
1
1
1
1
1
1
1
1
1
1
1
1
1
1
1
1
1
1
1
1
1
1
1
1
1
1
1
1
1
1
1
1
1
1
1
1
1
1
1
1
1
1
1
1
1
1
1
1
1
1
1
1
1
1
1
1
1
1
1
1
1
1
1
1
1
1
1
1
1
2
2
2
2
2
2
2
2
2
2
2
2
2
2
2
2
2
2
2
2
2
2
2
2
2
2
2
2
2
2
2
2
2
2
2
2
2
2
2
2
2
2
2
2
2
2
2
2
2
2
2
2
2
2
2
2
2
2
2
2
2
2
2
2
2
2
2
2
2
2
2
2
2
2
2
2
2
2
2
2
2
2
2
2
2
2
2
2
2
2
2
2
2
2
2
2
2
2
2
2
2
2
2
2
2
2
2
2
2
2
2
2
2
2
2
2
2
2
2
2
2
2
2
2
2
2
2
2
2
2
2
2
2
2
2
2
2
2
2
2
2
2
2
2
2
2
2
2
2
2
