*Vertices 300
*Edges
1 8
1 49
1 61
1 66
1 119
1 207
1 215
2 9
2 13
2 20
2 37
2 67
2 71
2 80
2 114
2 118
2 132
2 146
2 158
2 212
2 254
3 13
3 65
3 74
3 75
3 77
3 137
3 207
3 218
3 245
3 259
3 290
3 296
4 11
4 32
4 37
4 56
4 57
4 61
4 80
4 81
4 83
4 85
4 89
4 94
4 97
4 111
4 123
4 131
4 153
4 162
4 189
4 226
5 6
5 33
5 86
5 109
5 142
5 159
5 190
5 227
5 238
5 270
5 292
6 11
6 14
6 109
6 123
6 139
6 183
6 238
6 240
6 271
6 295
7 26
7 143
7 173
7 220
7 250
7 264
8 10
8 121
8 133
8 140
8 159
8 180
8 192
8 215
8 266
9 13
9 50
9 281
10 53
10 76
10 84
10 85
10 86
10 97
10 105
10 106
10 121
10 124
10 185
10 213
10 279
10 280
11 20
11 80
11 85
11 123
11 131
11 141
11 199
12 15
12 24
12 40
12 41
12 43
12 65
12 81
12 98
12 102
12 114
12 129
12 143
12 231
12 261
13 50
13 65
13 72
13 76
13 106
13 128
13 145
13 168
13 258
14 36
14 123
14 139
14 176
14 263
14 266
15 25
15 31
15 60
15 62
15 73
15 98
15 102
15 104
15 120
15 121
15 150
15 164
15 188
15 202
15 206
15 233
15 279
16 59
16 86
16 95
16 100
16 127
17 29
17 45
17 63
17 112
17 169
17 200
17 272
17 295
18 32
18 58
18 115
18 119
18 124
18 232
18 277
19 20
19 61
19 68
19 119
19 137
19 142
19 248
20 37
20 71
20 80
20 97
20 124
20 216
20 231
21 48
21 242
22 137
22 178
22 187
22 227
23 83
23 150
23 205
23 260
23 270
24 55
24 81
24 116
24 148
24 206
24 240
24 270
25 39
25 71
25 72
25 95
25 98
25 99
25 139
25 216
25 227
25 263
25 277
25 283
26 65
26 109
26 143
26 159
26 226
27 33
27 44
27 69
27 73
27 87
27 98
27 113
27 120
27 139
27 147
27 275
28 35
28 38
28 51
28 56
28 58
28 76
28 101
28 102
28 119
28 297
29 45
29 112
29 248
30 52
30 167
31 44
31 59
31 73
31 86
31 96
31 120
31 123
31 221
32 37
32 54
32 97
32 122
32 142
32 264
32 270
33 42
33 88
33 109
33 114
33 120
33 123
33 132
33 211
33 216
33 251
33 268
33 271
34 46
34 87
34 101
34 127
34 163
34 194
34 205
34 217
34 223
34 233
34 254
34 265
34 279
35 58
35 63
35 68
35 76
35 142
35 181
35 191
35 228
35 257
36 59
36 70
36 74
36 144
36 263
37 71
37 82
37 94
37 109
37 111
37 116
37 118
37 148
37 189
37 254
38 56
38 69
38 119
38 289
38 297
39 79
39 81
39 144
39 169
39 176
39 277
40 44
40 64
40 110
40 201
40 206
40 231
40 295
41 47
41 70
41 114
41 131
41 143
41 210
42 54
42 65
42 72
42 88
42 89
42 105
42 110
42 111
42 119
42 131
42 132
42 156
42 199
42 207
42 240
43 81
43 98
43 118
43 129
43 170
43 210
43 267
43 294
44 46
44 73
44 101
44 120
44 123
44 136
44 165
44 203
44 234
44 286
44 287
45 97
45 158
45 217
45 226
46 53
46 91
46 100
46 125
46 129
46 133
46 135
46 140
46 144
46 153
46 192
46 194
46 205
46 228
46 263
46 271
46 286
46 289
47 72
47 122
47 162
47 250
47 268
47 273
47 280
47 281
47 297
48 88
48 242
48 297
49 66
49 72
49 127
49 272
50 136
50 144
50 209
50 263
50 266
50 292
51 54
51 101
51 114
51 129
51 131
51 135
51 152
51 224
51 264
51 293
51 297
52 71
52 75
52 167
52 225
53 97
53 227
53 244
53 289
54 99
54 122
54 131
54 289
55 93
55 103
55 107
55 145
55 201
55 205
55 232
55 266
55 270
56 61
56 73
56 81
56 85
56 94
56 101
56 132
56 139
56 249
57 73
57 77
57 82
57 83
57 92
57 94
57 107
57 111
57 134
57 194
57 287
58 76
58 83
58 115
58 122
58 124
58 141
58 152
58 190
58 195
58 219
58 267
58 277
59 86
59 98
59 127
59 144
59 156
59 258
60 62
60 126
60 142
60 145
60 268
61 64
61 101
61 110
61 119
61 132
61 207
61 229
62 68
62 104
62 126
62 142
62 145
62 151
62 188
62 277
63 92
63 97
63 114
63 118
63 231
63 269
64 65
64 74
64 98
64 110
64 150
64 258
64 264
64 285
65 66
65 72
65 74
65 76
65 78
65 113
65 157
65 231
65 232
65 264
66 72
66 99
66 161
66 213
66 297
67 85
67 112
67 114
67 118
67 130
67 146
67 172
68 112
68 142
68 212
68 239
68 283
69 114
69 172
69 203
69 238
70 74
70 114
70 120
70 123
70 142
70 198
70 282
71 111
71 150
71 162
71 171
71 184
71 216
71 221
71 225
72 78
72 94
72 99
72 122
72 155
72 168
72 213
72 215
72 234
73 101
73 119
73 120
73 136
73 137
73 147
73 267
73 288
74 142
74 144
74 146
74 168
74 272
75 91
75 124
75 130
75 133
75 146
75 154
75 179
75 194
75 207
75 293
76 97
76 211
76 219
76 268
77 84
77 97
77 107
77 163
77 213
77 259
77 286
78 122
78 197
78 297
78 298
79 81
79 95
79 115
79 151
79 178
79 217
79 278
79 289
80 84
80 121
80 147
80 164
80 175
80 234
80 250
80 269
80 284
80 298
81 94
81 102
81 133
81 138
81 165
81 207
81 235
81 274
82 94
82 102
82 203
82 255
82 297
83 85
83 89
83 148
83 150
83 152
83 182
83 194
83 233
83 260
83 293
84 97
84 99
84 163
84 168
84 170
84 269
84 289
85 103
85 105
85 112
85 131
85 133
85 135
85 207
85 226
86 98
86 106
86 120
86 121
86 157
86 196
86 243
86 280
86 291
86 295
87 91
87 92
87 98
87 113
87 122
87 139
87 217
87 233
88 89
88 105
88 120
88 132
89 111
89 117
89 119
89 146
89 156
89 166
89 190
89 249
89 293
90 297
91 92
91 130
91 254
91 265
92 122
92 130
92 170
92 269
92 287
93 103
93 145
94 211
94 234
94 255
95 99
95 115
95 133
95 203
95 267
95 278
96 120
96 126
96 193
96 214
96 218
96 276
97 106
97 124
97 158
97 231
97 243
97 267
98 110
98 111
98 178
98 188
98 233
98 269
98 282
98 294
99 139
99 147
99 215
99 255
99 289
100 133
100 147
100 271
100 288
101 128
101 137
101 196
101 219
101 223
101 229
101 249
101 251
101 297
102 105
102 133
102 135
102 260
102 297
103 144
103 169
103 213
103 226
103 266
103 287
103 297
104 120
104 133
104 203
104 286
105 106
105 131
105 180
105 237
105 260
106 121
106 124
106 144
106 166
106 185
106 198
106 212
106 248
106 258
107 111
107 134
107 142
107 209
107 213
107 232
107 283
108 163
108 217
108 277
108 290
109 177
109 179
109 187
109 189
109 228
109 238
109 261
109 272
110 111
110 136
110 206
110 229
110 232
110 233
110 240
111 133
111 195
111 290
112 146
112 245
112 283
113 135
113 140
113 144
113 192
113 207
113 210
113 212
113 217
113 231
113 250
113 266
114 118
114 129
114 131
114 143
114 196
114 210
114 216
114 238
115 124
115 129
115 131
115 141
115 198
115 267
116 148
116 197
116 293
116 298
117 138
117 176
117 203
117 214
118 129
118 130
118 131
118 132
118 180
119 193
119 231
119 232
119 248
119 288
120 123
120 126
120 136
120 137
120 191
120 295
121 133
121 135
121 144
121 150
121 164
121 168
121 185
121 292
122 141
122 192
122 278
124 129
124 144
124 194
124 231
125 133
125 175
125 230
125 263
126 145
126 219
127 223
128 145
128 233
128 249
129 131
129 167
129 170
129 192
129 257
130 179
130 269
131 261
131 262
132 139
132 147
132 155
132 180
132 198
132 212
132 220
132 254
132 282
133 135
133 182
133 185
133 195
133 198
133 203
133 207
133 279
133 294
134 142
134 209
135 189
135 204
135 261
135 283
136 137
136 272
136 292
137 287
138 165
138 190
138 196
138 261
139 147
139 192
140 159
140 180
140 227
140 237
140 250
140 260
140 284
140 285
141 228
142 193
142 270
143 210
143 242
143 249
143 250
143 285
144 155
144 164
144 265
144 266
144 271
144 280
144 287
145 211
145 238
145 278
146 212
146 252
146 272
146 293
147 157
147 212
147 215
147 241
147 256
147 269
147 282
147 288
149 242
149 275
149 285
150 152
150 164
150 168
150 184
150 208
150 228
150 245
150 276
150 285
150 287
151 182
151 186
151 188
151 222
151 252
151 262
151 271
151 278
153 162
153 195
153 202
153 205
153 225
153 236
154 163
154 206
154 217
154 238
154 293
154 299
155 180
155 280
156 166
156 249
157 170
157 210
157 215
157 224
157 240
157 243
157 251
157 263
157 292
157 295
158 184
158 226
158 234
158 250
158 252
158 282
159 171
159 175
159 180
159 190
159 230
159 250
160 163
160 235
160 260
160 265
160 276
160 290
161 178
161 197
161 213
161 214
161 218
161 265
161 297
162 184
162 225
162 236
162 252
163 170
163 179
163 206
163 210
163 215
163 240
163 265
163 273
163 276
163 285
163 287
163 289
164 236
164 237
164 263
164 271
164 275
164 292
164 296
164 298
165 179
165 201
165 207
165 226
165 234
165 240
165 251
165 286
165 287
165 294
166 185
166 194
166 261
166 295
167 192
167 204
167 222
167 247
167 248
167 255
167 257
167 299
168 189
168 234
168 245
168 284
169 226
170 171
170 175
170 181
170 202
170 210
170 215
170 242
170 263
170 273
170 276
171 175
171 230
172 290
173 194
173 197
173 249
174 184
174 215
174 262
175 180
175 190
175 210
175 230
176 271
177 226
177 272
178 197
178 216
178 219
178 231
178 233
178 258
179 201
179 206
179 207
179 222
179 223
179 257
179 273
179 283
179 287
179 293
180 224
180 227
180 231
180 237
180 248
180 285
181 191
181 202
181 247
182 185
182 213
182 214
182 221
182 225
182 242
182 260
182 263
182 271
183 240
183 256
184 216
184 221
184 228
184 245
184 252
185 193
185 195
185 198
185 202
185 203
185 226
185 256
185 269
185 280
186 231
186 237
186 248
186 262
186 265
187 220
187 227
187 228
187 251
187 261
187 289
187 291
188 217
188 222
188 223
188 262
188 266
188 287
189 204
189 216
189 219
189 234
189 247
191 228
191 284
192 238
192 262
192 286
193 199
193 202
193 236
193 269
193 288
194 196
194 197
194 205
194 207
194 246
194 249
194 261
194 299
195 214
195 221
195 264
195 291
196 219
196 229
196 238
196 261
196 262
197 224
197 231
197 261
197 298
198 232
199 249
199 269
199 270
200 203
200 295
201 231
201 270
201 293
202 236
203 214
203 234
203 271
203 286
204 216
204 228
204 229
204 235
204 241
204 242
204 247
204 248
204 255
204 257
204 262
204 275
204 283
204 293
204 299
205 297
206 220
206 240
206 264
207 210
207 226
207 240
207 251
207 264
207 291
209 236
209 237
209 263
209 283
209 300
210 240
211 229
211 234
211 238
211 240
211 251
211 291
212 232
212 246
212 275
212 282
213 221
214 218
214 221
214 291
215 240
215 263
215 266
216 219
216 225
216 227
216 228
216 250
216 253
216 258
216 259
216 271
216 277
216 296
216 300
217 278
218 265
219 250
219 251
219 292
219 296
220 232
220 251
221 251
221 263
221 264
221 267
221 271
221 291
222 232
222 257
222 266
223 228
223 229
223 251
223 255
223 286
223 287
224 231
224 248
224 264
224 297
225 242
225 266
226 251
226 259
226 267
227 259
228 244
228 253
228 259
228 262
228 263
228 275
228 276
228 277
228 286
229 241
229 247
229 249
229 269
229 273
230 233
230 250
230 268
230 289
231 248
232 240
232 246
232 257
233 254
233 269
234 250
235 290
236 237
236 276
236 279
236 283
236 285
237 260
237 275
237 285
238 262
239 283
240 249
240 251
240 263
240 264
240 271
240 275
240 291
240 292
240 296
241 247
241 256
242 263
242 268
242 275
243 295
244 253
244 255
244 277
244 282
244 288
245 290
246 248
246 249
248 255
248 267
248 292
249 270
249 285
249 291
250 259
250 266
250 268
250 271
250 298
251 263
251 268
251 289
251 291
251 297
252 262
252 272
252 282
253 277
254 265
255 286
255 287
255 288
256 280
256 294
257 283
259 296
260 290
261 262
262 265
262 275
262 278
263 264
263 268
263 275
263 278
263 291
264 270
264 292
264 297
266 270
266 292
267 291
267 292
268 271
268 273
269 283
270 276
270 285
271 283
273 280
273 297
275 282
276 285
277 282
279 294
281 297
284 298
285 300
291 295
292 296
293 299
*Classes
1
1
1
1
1
1
1
1
1
1
1
1
1
1
1
1
1
1
1
1
1
1
1
1
1
1
1
1
1
1
1
1
1
1
1
1
1
1
1
1
1
1
1
1
1
1
1
1
1
1
1
1
1
1
1
1
1
1
1
1
1
1
1
1
1
1
1
1
1
1
1
1
1
1
1
1
1
1
1
1
1
1
1
1
1
1
1
1
1
1
1
1
1
1
1
1
1
1
1
1
1
1
1
1
1
1
1
1
1
1
1
1
1
1
1
1
1
1
1
1
1
1
1
1
1
1
1
1
1
1
1
1
1
1
1
1
1
1
1
1
1
1
1
1
1
1
1
1
1
1
2
2
2
2
2
2
2
2
2
2
2
2
2
2
2
2
2
2
2
2
2
2
2
2
2
2
2
2
2
2
2
2
2
2
2
2
2
2
2
2
2
2
2
2
2
2
2
2
2
2
2
2
2
2
2
2
2
2
2
2
2
2
2
2
2
2
2
2
2
2
2
2
2
2
2
2
2
2
2
2
2
2
2
2
2
2
2
2
2
2
2
2
2
2
2
2
2
2
2
2
2
2
2
2
2
2
2
2
2
2
2
2
2
2
2
2
2
2
2
2
2
2
2
2
2
2
2
2
2
2
2
2
2
2
2
2
2
2
2
2
2
2
2
2
2
2
2
2
2
2
