*Vertices 300
*Edges
1 22
1 47
1 76
1 108
1 143
1 170
1 180
1 200
1 228
2 127
3 17
3 32
3 44
3 51
3 99
3 136
3 163
3 200
3 216
3 226
3 230
4 42
4 61
4 84
4 108
4 114
4 123
4 142
4 158
4 160
4 263
4 284
4 287
4 294
4 296
5 48
5 106
5 129
5 281
6 11
6 31
6 72
6 99
6 101
6 262
7 44
7 116
7 152
7 158
7 185
7 215
8 67
8 96
8 139
9 24
9 31
9 39
9 78
9 117
9 181
9 285
9 289
10 19
10 81
10 98
10 103
10 209
11 101
11 138
11 164
11 170
11 186
11 213
11 269
11 284
12 40
12 60
12 61
12 71
12 73
12 84
12 85
12 89
12 127
12 146
12 171
12 227
13 52
13 54
13 92
13 175
13 177
13 189
13 254
14 43
14 52
14 83
14 95
14 134
14 240
15 22
15 60
15 62
15 78
15 98
15 127
15 137
15 211
15 229
15 273
16 35
16 43
16 57
16 105
16 262
16 291
17 33
17 37
17 144
17 163
17 210
17 231
17 241
17 278
18 107
18 154
19 30
19 48
19 63
19 91
19 93
19 94
19 98
19 113
19 122
19 133
19 156
19 173
19 235
20 61
20 66
20 82
20 84
20 132
20 155
20 183
20 222
20 235
20 238
20 259
20 265
20 293
22 26
22 31
22 59
22 62
22 108
22 244
23 80
23 93
23 271
24 39
24 64
24 78
24 132
24 164
24 181
24 183
24 201
24 208
25 38
25 71
25 99
25 167
25 188
25 251
25 252
26 59
26 119
26 121
26 159
26 178
26 217
27 34
27 39
27 63
27 94
27 97
27 135
27 165
27 167
27 168
27 172
27 178
27 190
27 195
27 198
27 202
27 207
27 216
27 236
27 256
27 267
27 281
28 187
28 195
28 211
28 242
29 36
29 75
29 76
29 136
29 171
29 175
29 190
29 226
29 236
29 249
29 283
29 297
30 58
30 61
30 72
30 133
30 173
30 177
30 216
30 279
31 37
31 50
31 57
31 91
31 114
31 123
31 204
31 254
31 280
31 285
31 289
31 293
32 36
32 44
32 146
32 184
32 192
32 208
32 234
32 245
32 258
32 279
33 37
33 53
33 59
33 149
33 169
33 206
33 227
33 288
34 66
34 76
34 87
34 103
34 158
34 168
34 198
34 209
34 237
35 40
35 57
35 59
35 60
35 63
35 87
35 103
35 105
35 113
35 143
35 235
36 42
36 75
36 123
36 141
36 185
36 195
36 242
37 50
37 53
37 65
37 133
37 141
37 149
37 169
37 206
37 231
37 241
37 262
38 99
38 108
38 128
38 136
38 146
38 167
38 186
38 193
38 194
38 246
39 62
39 117
39 135
39 151
39 166
39 264
39 283
40 60
40 87
40 112
40 261
41 56
41 94
41 97
41 148
41 219
41 224
41 226
41 228
41 242
41 263
41 267
42 173
42 216
42 223
42 241
42 269
42 287
42 291
43 52
43 57
43 91
43 103
43 177
43 233
44 212
45 56
45 91
45 183
45 263
46 57
46 104
46 128
46 137
46 152
46 176
46 192
46 196
46 260
47 51
47 60
47 76
47 111
47 186
47 200
48 63
48 72
48 101
48 106
48 154
48 189
48 207
49 140
49 180
50 219
50 228
50 254
50 267
51 54
51 60
51 111
51 115
51 200
51 237
52 112
52 240
53 70
53 90
53 247
53 269
54 107
54 115
54 130
54 275
55 99
55 113
55 148
55 171
55 182
55 191
55 203
55 214
56 62
56 128
56 135
56 188
56 190
56 242
56 243
56 256
56 263
57 81
57 91
57 103
57 156
57 171
57 279
58 72
58 106
58 122
58 142
58 164
58 189
58 192
59 94
59 103
59 121
59 124
59 185
59 235
60 87
60 158
60 188
60 245
61 72
61 73
61 84
61 101
61 118
61 146
61 160
61 181
61 210
61 263
61 268
62 73
62 98
62 127
62 135
62 137
62 270
63 89
63 94
63 110
63 122
63 162
63 167
64 134
64 164
64 252
64 258
65 68
65 145
65 146
65 149
65 198
65 279
66 69
66 134
66 148
66 209
66 235
66 242
66 295
67 93
67 111
67 154
67 217
67 221
67 233
68 85
68 102
68 118
68 121
68 165
69 130
69 148
69 154
69 256
69 289
70 123
70 147
70 183
70 252
70 269
70 276
71 85
71 193
71 196
71 219
71 221
71 232
71 266
71 300
72 101
72 105
72 142
72 146
72 154
72 216
72 295
73 89
73 120
73 127
73 181
73 210
73 231
73 254
73 295
74 143
74 251
75 76
76 190
76 228
76 237
76 295
77 81
77 91
77 174
77 195
77 202
77 227
78 94
78 100
78 119
78 121
78 123
78 139
78 147
78 169
78 188
78 199
78 230
78 251
79 156
79 161
79 187
79 235
79 263
80 93
80 115
80 131
80 214
80 215
80 218
80 224
80 275
81 103
81 222
81 233
81 252
82 89
82 110
82 111
82 148
82 166
82 187
82 246
82 265
82 279
82 293
82 297
83 224
83 225
83 236
83 299
84 104
84 118
84 145
84 179
84 222
84 293
85 102
85 135
85 190
85 247
85 273
85 283
86 144
86 153
86 169
86 221
86 249
86 274
86 288
87 105
87 184
87 190
87 266
87 285
88 100
88 112
88 166
88 169
88 184
88 195
88 205
88 242
88 249
88 275
88 297
89 127
89 130
89 187
89 210
89 250
89 265
90 177
90 202
90 269
91 103
91 204
91 243
92 127
92 132
92 140
92 144
92 175
92 215
93 113
94 98
94 117
94 135
94 167
94 185
94 188
94 198
94 207
94 208
94 219
94 237
94 256
94 288
95 104
95 118
95 141
95 146
95 158
95 168
95 208
95 245
95 261
95 284
97 165
97 228
97 255
97 271
98 117
98 156
98 201
98 207
98 237
98 283
99 136
99 143
99 148
99 194
99 220
99 253
99 262
100 130
100 155
100 166
100 188
101 186
101 275
102 129
102 247
103 117
103 156
103 198
103 237
103 279
104 146
104 187
104 295
104 300
105 126
105 143
105 148
105 189
105 270
106 119
106 129
106 208
107 130
107 164
107 253
108 135
108 142
108 170
108 180
109 174
109 266
110 111
110 119
110 166
111 143
111 154
111 195
111 248
111 275
111 283
111 297
112 141
112 155
112 166
113 265
113 276
114 123
114 156
114 210
114 226
114 293
114 299
115 218
115 238
115 254
116 152
116 176
116 250
116 266
117 138
117 145
117 198
117 283
118 141
118 165
118 219
119 121
119 123
119 208
120 125
120 133
120 147
120 164
120 210
120 265
120 267
121 136
121 141
121 142
122 173
122 189
123 141
123 147
123 216
123 230
123 286
123 293
123 296
124 205
124 244
125 130
125 194
126 148
126 151
126 291
127 144
127 190
127 197
127 211
127 215
127 236
127 250
127 273
128 146
128 174
128 192
128 193
128 245
128 256
128 271
128 297
129 210
129 231
129 278
130 147
130 155
130 164
130 181
130 256
130 263
130 289
131 159
131 162
131 226
131 232
132 140
132 155
132 259
133 291
134 264
134 268
135 170
135 172
135 190
135 199
135 270
135 274
135 293
135 300
136 142
136 143
136 167
136 201
136 226
137 152
137 178
137 250
138 145
138 179
138 221
138 242
138 260
139 149
139 166
139 188
139 230
139 256
139 258
139 281
140 175
141 155
141 188
141 208
141 241
141 251
141 262
141 263
142 143
142 192
142 242
142 260
142 263
142 294
142 296
143 148
143 248
143 270
144 169
144 173
144 189
144 221
144 249
145 220
145 253
145 268
145 292
145 293
146 193
146 198
146 245
146 263
146 279
147 183
147 188
147 252
147 256
147 258
147 261
147 272
147 274
148 270
148 280
149 150
149 164
149 182
149 221
149 230
149 284
149 299
150 165
150 215
150 275
150 284
151 227
151 269
152 156
152 161
152 177
152 250
152 267
152 296
153 174
153 180
153 198
153 204
153 267
154 196
154 217
154 221
154 233
154 237
155 183
155 196
155 219
155 251
155 252
155 256
155 259
155 263
155 288
156 161
156 235
157 167
157 197
157 200
157 237
158 159
158 161
158 164
158 167
158 168
158 172
158 178
158 217
158 219
158 226
158 233
158 245
158 250
158 281
158 284
158 297
159 168
159 232
159 264
159 279
159 288
160 227
160 263
161 187
161 192
161 249
161 255
161 284
162 167
163 204
163 278
164 180
164 213
164 221
164 232
165 187
165 258
165 295
166 238
166 300
167 195
167 196
167 256
167 275
167 281
168 178
168 226
168 250
168 264
168 281
168 297
169 188
169 272
169 275
170 184
170 192
171 182
171 271
171 297
172 178
172 216
172 219
173 189
173 207
173 216
173 220
173 253
173 278
173 285
174 180
174 297
175 218
175 224
175 236
175 249
175 253
175 279
175 285
176 260
176 266
176 300
177 181
177 243
177 267
177 279
177 296
178 185
178 216
178 217
178 219
178 245
179 197
179 211
179 222
180 204
180 207
180 237
181 206
181 243
181 255
181 268
181 279
182 214
182 224
182 289
183 204
183 208
183 219
183 276
183 282
184 192
184 205
184 221
184 242
184 266
185 188
185 208
185 216
185 219
185 241
185 248
185 260
186 246
186 275
187 188
187 195
187 196
187 219
187 253
187 295
188 196
188 219
188 248
188 251
189 207
189 210
189 278
190 199
190 215
190 285
191 198
191 203
191 256
192 194
192 234
192 248
192 284
193 195
193 200
193 207
193 221
193 237
193 242
193 252
193 265
193 284
193 289
193 300
194 230
194 260
194 265
194 281
195 196
195 201
195 202
195 215
195 242
195 256
195 275
195 291
196 217
196 219
196 232
196 242
196 277
196 291
197 200
197 211
197 238
197 239
197 272
198 238
198 267
199 214
199 215
199 223
199 236
199 287
200 237
203 205
203 244
203 256
203 270
204 207
204 219
205 242
205 244
206 237
206 272
207 211
207 284
207 288
208 219
208 224
208 245
210 226
210 228
210 231
210 271
210 278
211 239
212 290
213 251
213 284
214 215
214 275
214 291
214 300
215 275
215 284
216 230
216 256
216 259
217 284
218 232
218 236
218 266
218 292
219 263
219 282
219 288
220 253
221 243
221 262
221 265
221 266
221 274
221 279
221 280
221 289
221 293
222 241
222 269
223 233
224 236
224 299
225 238
226 229
226 275
228 267
229 275
230 281
232 292
233 252
233 272
233 284
235 242
235 287
237 272
238 254
238 259
238 272
238 300
239 255
239 287
241 269
242 244
242 260
242 262
242 275
243 267
243 279
244 298
246 266
246 275
247 261
248 288
249 253
249 255
249 285
250 264
250 299
251 252
251 288
252 272
253 274
253 292
253 293
254 264
255 268
256 261
257 259
258 295
259 288
260 265
260 266
261 269
262 275
262 280
262 295
262 299
262 300
265 276
273 290
274 293
274 299
274 300
277 297
279 297
280 281
293 299
295 300
299 300
*Classes
1
1
1
1
1
1
1
1
1
1
1
1
1
1
1
1
1
1
1
1
1
1
1
1
1
1
1
1
1
1
1
1
1
1
1
1
1
1
1
1
1
1
1
1
1
1
1
1
1
1
1
1
1
1
1
1
1
1
1
1
1
1
1
1
1
1
1
1
1
1
1
1
1
1
1
1
1
1
1
1
1
1
1
1
1
1
1
1
1
1
1
1
1
1
1
1
1
1
1
1
1
1
1
1
1
1
1
1
1
1
1
1
1
1
1
1
1
1
1
1
1
1
1
1
1
1
1
1
1
1
1
1
1
1
1
1
1
1
1
1
1
1
1
1
1
1
1
1
1
1
2
2
2
2
2
2
2
2
2
2
2
2
2
2
2
2
2
2
2
2
2
2
2
2
2
2
2
2
2
2
2
2
2
2
2
2
2
2
2
2
2
2
2
2
2
2
2
2
2
2
2
2
2
2
2
2
2
2
2
2
2
2
2
2
2
2
2
2
2
2
2
2
2
2
2
2
2
2
2
2
2
2
2
2
2
2
2
2
2
2
2
2
2
2
2
2
2
2
2
2
2
2
2
2
2
2
2
2
2
2
2
2
2
2
2
2
2
2
2
2
2
2
2
2
2
2
2
2
2
2
2
2
2
2
2
2
2
2
2
2
2
2
2
2
2
2
2
2
2
2
