*Vertices 300
*Edges
1 5
1 17
1 95
1 109
1 119
1 122
1 139
1 187
1 265
1 288
1 297
2 67
2 93
2 147
2 184
2 189
2 197
2 259
3 15
3 16
3 27
3 30
3 45
3 51
3 75
3 146
3 165
3 200
3 233
3 243
3 262
3 265
3 274
3 275
4 15
4 16
4 85
4 117
4 129
4 147
4 198
4 251
5 25
5 73
5 95
5 98
5 123
5 126
5 213
6 18
6 83
6 204
6 215
7 18
7 42
7 98
7 188
7 207
7 211
7 219
7 245
7 287
8 29
8 81
8 111
8 115
8 300
9 35
9 157
9 175
9 245
9 262
10 94
10 104
10 120
10 138
10 144
10 248
10 277
10 292
11 13
11 26
11 41
11 99
11 107
11 121
11 124
11 140
11 164
11 262
12 16
12 33
12 82
12 158
12 255
12 290
13 38
13 41
13 76
13 99
13 101
13 113
13 130
13 134
13 163
13 218
13 261
14 173
15 16
15 33
15 45
15 51
15 60
15 106
15 113
15 159
15 168
15 187
15 205
15 229
15 250
15 274
15 298
16 33
16 60
16 237
17 26
17 41
17 72
17 122
17 123
17 177
17 245
17 251
17 267
18 27
18 59
18 108
18 228
19 32
19 41
19 73
19 123
19 124
19 139
19 211
19 286
20 26
20 41
20 69
20 131
20 152
20 290
21 77
21 151
21 161
21 179
22 23
22 69
22 102
22 171
22 191
22 201
22 213
22 225
22 263
22 267
22 294
23 69
23 102
23 126
23 138
23 164
23 199
23 289
24 64
24 104
24 134
24 168
24 300
25 60
25 126
25 218
25 223
26 38
26 41
26 101
26 111
26 124
26 131
26 144
26 149
26 220
26 272
26 291
27 59
27 63
27 89
27 211
27 230
27 262
28 54
28 104
28 248
28 271
28 289
29 96
30 34
30 43
30 70
30 89
30 106
30 115
30 127
30 152
30 164
30 170
31 159
31 231
31 271
32 52
32 85
32 101
32 130
32 134
32 139
32 157
32 211
33 60
33 62
33 71
33 146
34 76
34 118
34 167
34 189
34 278
34 294
35 82
35 129
35 157
35 245
35 273
36 127
36 202
36 227
37 48
37 69
37 187
37 228
38 76
38 98
38 111
38 130
38 149
38 195
38 239
38 268
39 62
39 64
39 105
39 155
39 173
39 189
39 210
39 217
39 224
39 285
40 88
40 111
40 125
40 128
40 129
40 139
40 162
40 171
40 252
41 44
41 52
41 58
41 65
41 117
41 122
41 124
41 139
41 164
41 184
41 188
41 192
41 212
41 221
41 283
42 51
42 72
42 167
42 192
42 219
42 267
43 70
43 89
43 124
43 146
43 149
43 197
43 216
43 240
43 287
44 58
44 75
44 149
44 160
44 198
44 200
44 214
44 220
45 106
45 132
45 222
45 237
45 284
45 289
46 58
46 65
46 68
46 76
46 119
46 172
46 182
46 248
47 206
47 242
48 63
48 138
48 139
48 248
48 258
48 265
49 100
49 108
49 120
49 138
49 147
49 148
49 237
49 277
49 284
50 119
50 135
50 177
50 236
50 275
51 72
51 100
51 176
51 222
52 58
52 139
52 265
52 267
53 54
53 76
53 196
53 250
54 77
54 104
54 185
54 232
54 250
54 264
54 271
54 296
55 94
56 160
56 174
56 235
56 255
57 141
57 172
57 212
58 65
58 68
58 76
58 117
58 184
58 199
58 286
59 253
60 65
60 135
60 287
61 125
61 128
61 133
61 183
61 220
61 228
61 250
61 258
62 66
62 86
62 97
62 105
62 124
62 146
62 147
62 167
62 171
62 285
63 82
63 89
63 139
63 282
63 298
64 91
64 128
64 164
64 178
64 264
64 265
64 292
65 117
65 119
65 135
65 157
65 178
65 208
65 261
65 264
66 97
66 147
66 259
66 268
66 270
66 297
67 81
67 93
67 108
67 142
67 268
67 279
68 160
68 300
69 74
69 90
69 121
69 122
69 134
69 208
69 263
69 294
70 139
70 143
70 214
70 222
70 280
70 283
71 185
72 137
72 144
72 262
72 272
72 297
73 123
73 161
73 199
73 201
73 214
73 275
73 283
74 121
74 168
74 229
75 89
75 95
75 112
75 149
75 155
75 200
75 221
75 228
75 243
75 261
76 197
76 215
76 242
76 262
76 298
77 203
77 233
77 259
78 181
78 185
78 209
78 252
78 290
79 102
79 292
80 185
80 257
81 99
81 108
81 116
81 196
81 215
81 217
82 85
82 89
82 129
82 230
82 275
83 115
83 182
83 224
83 260
84 124
84 146
84 196
84 278
84 289
84 292
85 121
85 129
85 130
85 139
85 157
85 166
85 269
85 290
86 140
86 268
86 285
87 261
87 280
88 117
88 141
88 154
88 202
88 218
88 240
89 139
89 149
89 282
90 136
90 154
90 254
91 98
91 128
91 135
91 164
91 204
92 111
92 213
92 224
92 294
93 248
93 288
94 104
94 106
94 142
94 149
94 183
94 206
94 227
94 235
95 108
95 109
95 186
95 283
96 261
96 277
96 300
97 110
97 120
97 147
97 149
97 170
97 213
97 238
97 280
98 116
98 240
98 266
99 140
99 218
100 131
100 138
100 201
100 205
100 221
100 231
101 130
101 200
101 225
101 248
101 255
101 273
104 134
105 196
106 111
106 127
106 130
106 142
106 174
106 183
106 191
106 235
106 258
107 214
107 246
107 253
108 109
108 114
108 120
108 144
108 149
108 168
108 225
108 236
108 240
108 266
108 289
108 298
109 119
109 154
109 212
109 280
110 119
110 148
110 169
110 292
110 295
111 129
111 142
111 195
111 242
111 299
112 120
112 144
112 187
112 253
113 159
113 173
113 254
114 136
114 250
114 282
114 295
114 298
115 166
115 222
115 287
116 140
116 196
116 240
117 233
117 251
117 299
118 148
118 167
118 286
119 153
119 182
119 281
119 297
120 144
120 149
120 225
120 253
121 249
122 124
122 134
122 135
122 148
122 168
122 208
123 124
123 249
123 283
124 146
124 234
124 287
124 299
125 128
125 133
125 141
125 200
125 299
126 184
126 223
126 242
127 188
127 227
127 295
128 141
128 157
128 200
128 267
128 276
130 134
130 240
130 297
131 220
131 252
132 160
132 204
132 225
132 237
133 164
133 225
133 263
134 150
135 177
135 184
135 240
137 152
137 290
138 184
138 189
138 218
138 225
138 237
139 265
140 165
140 199
140 268
140 275
141 249
142 205
142 230
142 237
142 242
142 279
143 146
143 201
143 254
144 232
144 272
144 275
145 250
146 147
146 234
146 283
146 298
147 148
147 189
147 279
148 167
148 178
148 279
149 170
149 187
149 200
149 221
150 245
150 271
151 216
152 188
152 271
153 205
154 182
154 210
154 237
154 274
155 209
155 246
155 266
155 288
155 293
156 162
156 165
156 265
157 180
157 208
157 236
157 263
157 264
158 181
158 198
158 216
158 249
158 255
158 279
159 189
159 252
159 271
159 278
159 291
160 180
160 191
160 196
160 206
160 210
160 214
160 225
160 236
160 288
161 173
161 178
161 205
161 237
161 251
161 283
161 290
162 171
162 243
162 256
162 263
162 297
162 299
164 186
164 257
165 170
165 190
165 193
165 196
165 229
165 245
165 265
165 275
166 187
166 269
167 219
167 298
167 300
168 182
168 204
169 251
169 293
170 217
170 246
170 275
170 281
170 282
170 288
170 297
171 186
171 198
171 204
171 206
171 225
171 243
171 245
171 269
171 287
171 297
172 226
173 176
173 189
173 193
173 229
173 270
173 283
174 223
174 252
174 260
176 203
176 217
176 226
176 261
176 270
177 193
177 214
177 222
177 237
178 192
179 248
179 266
179 288
180 210
180 280
181 207
181 214
181 255
181 279
183 195
184 226
184 240
185 248
185 250
185 252
185 267
185 271
186 241
186 247
186 297
188 211
188 212
188 216
188 254
189 241
189 245
189 247
189 253
189 276
189 280
189 283
190 196
190 224
190 227
190 228
190 256
190 259
190 288
190 290
190 299
191 221
191 225
191 231
191 266
192 200
193 205
193 214
193 229
193 237
194 214
194 278
195 210
195 221
195 229
196 200
196 221
196 279
196 288
197 216
197 248
197 254
198 204
198 216
198 229
198 255
198 261
198 264
198 297
200 228
200 276
201 213
201 234
201 240
201 264
202 225
202 294
202 299
203 213
203 260
203 293
205 237
205 293
205 294
205 298
206 288
206 297
207 213
207 222
208 264
209 219
209 266
209 281
211 212
211 223
211 236
211 252
211 261
211 280
211 286
212 288
212 296
213 260
213 264
213 293
214 225
214 237
214 278
215 242
216 234
216 238
216 248
216 254
216 256
216 264
216 280
217 224
217 226
217 236
217 275
218 225
218 234
218 256
219 300
220 248
220 249
220 250
220 273
221 229
221 279
223 252
223 270
224 228
224 260
224 293
225 290
225 299
226 243
226 270
226 300
227 235
227 259
228 260
228 293
229 247
231 262
231 272
232 264
233 274
233 299
234 238
234 296
235 259
235 268
236 240
236 262
236 275
236 280
236 295
236 298
237 283
237 294
238 263
238 277
240 251
240 283
241 245
241 247
241 280
242 286
243 261
243 280
245 253
245 269
245 276
246 253
247 262
247 297
247 298
248 250
249 279
250 271
252 253
252 291
254 256
254 280
254 299
256 290
256 299
258 271
259 270
260 263
261 280
262 272
262 280
262 284
262 298
265 269
266 288
267 294
269 287
269 292
277 287
280 286
281 282
284 298
285 299
286 296
288 297
292 293
293 294
*Classes
1
1
1
1
1
1
1
1
1
1
1
1
1
1
1
1
1
1
1
1
1
1
1
1
1
1
1
1
1
1
1
1
1
1
1
1
1
1
1
1
1
1
1
1
1
1
1
1
1
1
1
1
1
1
1
1
1
1
1
1
1
1
1
1
1
1
1
1
1
1
1
1
1
1
1
1
1
1
1
1
1
1
1
1
1
1
1
1
1
1
1
1
1
1
1
1
1
1
1
1
1
1
1
1
1
1
1
1
1
1
1
1
1
1
1
1
1
1
1
1
1
1
1
1
1
1
1
1
1
1
1
1
1
1
1
1
1
1
1
1
1
1
1
1
1
1
1
1
1
1
2
2
2
2
2
2
2
2
2
2
2
2
2
2
2
2
2
2
2
2
2
2
2
2
2
2
2
2
2
2
2
2
2
2
2
2
2
2
2
2
2
2
2
2
2
2
2
2
2
2
2
2
2
2
2
2
2
2
2
2
2
2
2
2
2
2
2
2
2
2
2
2
2
2
2
2
2
2
2
2
2
2
2
2
2
2
2
2
2
2
2
2
2
2
2
2
2
2
2
2
2
2
2
2
2
2
2
2
2
2
2
2
2
2
2
2
2
2
2
2
2
2
2
2
2
2
2
2
2
2
2
2
2
2
2
2
2
2
2
2
2
2
2
2
2
2
2
2
2
2
