*Vertices 300
*Edges
1 62
1 63
1 75
1 94
1 100
1 110
1 129
1 221
2 32
2 35
2 78
2 117
2 131
2 154
2 155
2 191
2 235
2 238
2 254
2 257
2 281
2 295
2 297
3 15
3 19
3 33
3 49
3 80
3 91
3 116
3 118
3 127
3 150
3 278
3 299
4 6
4 92
4 103
4 126
4 136
4 293
6 30
6 61
6 63
6 64
6 126
6 128
6 136
6 138
7 28
7 158
7 181
7 271
7 291
8 10
8 57
8 61
8 80
8 112
8 139
9 46
9 58
9 129
9 148
9 198
9 219
9 256
10 19
10 48
10 57
10 59
10 61
10 72
10 95
10 105
10 112
10 123
10 136
10 138
10 139
10 147
10 177
10 183
10 186
10 191
10 193
10 222
11 20
11 35
11 71
11 72
11 76
11 85
11 88
11 109
11 122
11 139
11 239
11 271
12 24
12 29
12 55
12 73
12 99
12 103
12 105
13 96
13 137
13 285
14 77
14 101
14 211
15 26
15 74
15 118
15 126
15 142
15 174
15 178
15 196
16 50
16 67
16 85
16 106
16 116
17 239
18 26
18 45
18 146
18 154
18 201
18 211
18 213
19 41
19 49
19 112
19 116
19 126
19 136
19 239
19 258
20 25
20 33
20 88
20 103
20 107
20 160
20 169
20 202
20 233
21 46
21 96
21 119
21 125
21 137
21 143
21 156
21 199
21 224
21 242
22 32
22 44
22 94
23 25
23 60
23 62
23 68
23 88
23 110
23 145
23 200
23 280
24 97
24 99
24 103
24 105
24 142
24 143
24 241
25 33
25 47
25 49
25 56
25 62
25 78
25 103
25 170
25 182
25 294
26 55
26 70
26 71
26 74
26 97
26 115
26 125
26 136
26 146
26 274
26 281
27 69
27 123
27 129
28 161
28 218
28 243
28 292
29 73
29 76
29 246
29 253
30 55
30 70
30 128
30 161
30 199
31 67
31 93
31 113
32 90
32 94
32 111
32 166
32 193
32 197
32 206
32 229
32 254
33 49
33 62
33 68
33 140
33 172
33 270
34 118
34 127
34 166
34 181
34 290
35 38
35 50
35 85
35 87
35 115
35 123
35 163
35 212
35 226
35 238
35 239
35 283
36 42
36 68
36 83
36 85
36 86
36 87
36 107
36 109
36 117
36 124
36 132
36 140
36 229
37 107
37 110
37 198
37 224
38 52
38 54
38 72
38 100
38 108
38 115
38 147
38 155
38 201
38 269
39 73
39 239
40 50
40 97
40 99
40 106
40 203
40 208
40 240
40 263
41 112
41 205
41 259
41 277
42 52
42 86
42 105
42 112
42 120
42 124
42 140
42 147
42 148
42 211
42 216
43 84
43 94
43 111
43 150
44 99
44 173
45 109
45 111
45 153
46 80
46 91
46 104
46 119
46 120
46 142
46 145
46 189
46 216
46 270
47 79
47 127
47 235
47 246
47 295
48 112
48 219
48 251
49 80
49 150
50 85
50 106
50 110
50 218
50 251
50 274
51 70
51 133
51 214
51 225
52 61
52 67
52 69
52 72
52 89
52 95
52 108
52 109
52 120
52 136
52 139
52 147
52 160
52 209
52 299
53 106
53 173
53 242
53 268
53 280
54 75
54 111
55 56
55 70
55 78
55 85
55 97
55 98
55 99
55 103
55 105
55 138
55 139
55 216
55 241
56 78
56 85
56 95
56 99
56 105
56 107
56 138
56 145
56 216
56 241
56 249
56 250
57 105
57 124
57 193
57 211
57 236
57 238
58 114
58 118
58 127
58 223
58 233
58 283
59 65
59 69
59 72
59 76
59 112
59 123
59 125
59 194
59 283
60 186
60 206
60 230
60 294
61 105
61 136
61 147
61 162
61 188
61 237
61 291
62 63
62 85
62 100
62 123
62 134
63 144
63 203
63 205
63 210
63 235
63 238
63 258
64 126
64 136
65 72
65 94
65 97
65 108
65 119
65 125
65 211
65 242
65 252
65 271
65 273
65 277
66 160
66 192
67 89
67 93
67 116
67 185
67 258
68 75
68 87
68 88
68 109
68 122
68 140
68 156
69 94
69 109
69 123
69 132
69 156
69 188
69 251
70 72
70 98
70 99
70 132
70 139
70 146
70 155
70 172
70 180
71 72
71 76
71 83
71 88
71 125
71 132
71 199
71 285
72 139
73 76
73 103
73 152
73 238
73 239
74 100
74 115
74 126
74 136
74 142
74 249
74 261
75 111
75 133
75 156
75 206
76 88
76 123
76 260
76 267
77 112
77 160
77 211
77 258
78 85
78 98
78 107
78 112
78 117
78 138
78 192
78 254
79 223
79 284
79 295
80 91
80 116
80 118
80 120
80 208
80 245
81 98
81 186
81 274
82 158
82 251
82 293
83 101
83 109
83 132
83 156
83 168
83 169
83 175
83 200
83 201
83 245
83 262
84 85
84 136
84 137
84 227
85 87
85 107
85 115
85 126
85 137
85 238
85 248
86 98
86 140
86 144
86 148
86 165
86 193
86 254
86 259
86 269
87 117
87 132
87 140
87 156
87 164
87 196
88 103
88 109
88 122
88 132
88 140
88 163
88 220
88 262
89 116
89 147
90 126
90 193
90 271
90 273
90 299
91 104
91 120
91 142
91 157
91 181
91 216
92 109
92 132
92 136
92 178
92 250
93 154
93 188
93 223
93 239
93 300
94 100
94 111
94 137
94 143
94 179
94 188
94 213
94 256
94 268
94 273
95 107
95 108
95 122
95 125
95 140
95 165
95 183
95 192
95 202
95 221
95 232
95 298
96 99
96 103
96 119
96 137
97 99
97 146
97 234
97 238
98 128
98 138
98 139
98 186
98 228
98 254
99 103
99 105
99 147
99 271
99 279
100 101
100 163
100 224
100 255
100 261
100 275
100 284
101 102
101 108
101 159
101 163
101 177
101 255
102 122
102 126
102 175
102 185
102 276
102 290
103 105
103 238
103 267
104 119
104 129
104 130
104 145
104 182
104 194
104 230
104 244
104 275
105 147
105 177
105 185
106 157
106 170
107 121
107 140
107 145
107 202
108 122
108 125
108 154
108 243
108 262
109 111
109 132
109 166
109 173
109 191
109 280
109 298
110 138
110 145
110 170
110 197
110 221
110 274
111 143
111 150
111 180
111 293
112 123
112 124
112 157
112 174
112 210
112 211
112 212
112 249
113 117
113 180
113 234
113 236
113 259
113 296
114 209
114 231
114 233
114 298
115 148
115 173
115 184
115 198
115 201
115 269
116 193
116 233
117 130
117 131
117 204
117 208
117 245
117 257
118 127
118 234
118 278
118 283
119 123
119 125
119 134
119 142
119 143
120 147
120 267
120 276
120 288
121 202
121 236
121 257
121 260
121 267
122 163
122 214
122 272
122 295
123 134
123 193
123 276
123 293
124 140
124 147
124 179
124 230
125 150
125 164
125 182
125 262
125 279
126 136
126 142
126 273
126 290
127 208
127 246
127 284
128 205
128 236
129 130
129 198
129 202
129 204
129 221
129 246
130 145
130 155
130 156
130 218
131 154
131 236
131 242
132 172
132 240
133 156
133 255
133 299
134 167
134 186
134 230
135 183
135 202
135 221
136 137
136 199
136 267
137 207
137 216
137 293
138 173
138 186
138 206
138 212
138 283
139 185
139 232
139 261
139 293
139 297
140 157
140 203
140 249
141 260
141 276
141 286
141 291
142 153
142 202
142 224
143 150
143 164
143 264
144 152
144 167
144 171
144 194
144 238
144 282
144 283
145 211
145 245
145 279
145 284
146 266
147 270
148 201
148 219
148 236
149 254
150 173
150 279
150 293
151 184
151 246
152 171
152 175
152 182
152 226
152 275
152 278
153 181
153 190
153 192
153 215
153 220
153 222
153 256
153 292
154 160
154 181
154 192
154 204
154 208
154 248
154 253
154 257
154 259
154 271
154 299
155 167
155 172
155 204
156 166
156 182
156 199
156 212
156 253
156 283
157 165
157 170
157 179
157 192
157 194
157 256
157 285
157 288
158 159
158 193
158 213
158 228
158 264
158 277
158 293
158 298
159 176
159 193
159 217
159 226
160 191
160 205
160 216
160 233
160 234
160 249
160 256
160 271
160 273
160 281
161 176
161 180
161 186
161 284
162 188
162 240
162 252
162 264
162 291
163 195
163 212
163 217
163 219
163 225
164 173
164 187
164 188
164 200
164 204
164 248
164 271
164 280
165 185
165 188
165 192
165 194
165 200
165 205
165 232
165 245
165 269
165 280
166 173
166 179
166 190
166 193
166 212
166 220
166 221
166 225
166 254
166 262
166 288
167 204
167 238
167 257
168 245
168 250
168 270
168 273
169 230
169 263
170 205
170 220
170 295
171 172
171 174
171 194
171 195
171 206
171 220
171 226
171 261
171 269
171 274
171 281
172 194
172 231
173 254
173 283
174 175
174 212
174 256
174 269
175 201
175 256
175 278
176 180
176 217
176 297
177 208
177 225
178 216
178 287
179 200
179 238
179 241
179 254
179 288
180 184
180 186
180 199
180 217
180 284
180 289
181 192
181 253
181 259
182 204
182 207
182 226
182 253
182 257
182 275
182 278
183 241
184 199
184 226
184 229
184 242
184 246
184 289
185 188
185 223
186 212
186 244
186 248
187 189
187 195
187 225
187 229
187 248
187 267
188 204
188 213
188 214
188 223
188 264
188 280
188 293
188 298
189 241
189 248
189 258
189 270
189 274
190 197
190 199
190 222
190 251
190 265
190 292
190 295
191 208
191 294
191 296
192 253
192 256
193 217
193 222
193 257
193 277
194 231
194 256
194 261
194 285
195 219
195 225
195 248
195 269
196 220
196 236
196 240
196 241
196 273
197 199
197 206
197 210
197 218
197 251
197 260
197 295
198 202
199 210
199 218
199 219
199 232
199 265
199 276
199 285
199 289
200 238
200 245
200 280
201 213
202 233
202 240
202 273
203 213
203 217
203 228
203 233
203 281
204 245
204 257
204 280
204 297
205 206
205 220
205 233
205 255
205 267
205 269
205 271
205 273
206 257
206 260
206 267
206 274
207 278
208 225
208 248
208 271
208 296
208 297
208 300
209 213
209 275
209 298
210 249
211 219
211 227
211 245
211 266
212 225
212 226
212 254
212 266
212 281
212 288
213 217
213 228
213 248
213 259
213 260
213 264
213 267
213 277
213 286
213 298
214 264
215 219
215 222
215 265
216 234
216 248
216 292
216 293
217 219
217 228
217 288
218 232
218 257
218 260
218 265
218 289
219 236
219 265
219 266
220 222
220 226
220 236
220 262
220 295
221 274
221 298
222 257
223 300
224 232
225 229
225 266
225 271
226 246
226 278
226 281
227 266
228 250
228 286
229 242
229 285
230 263
230 299
231 234
231 294
232 261
232 276
233 242
233 253
233 256
233 273
233 281
233 285
234 237
234 248
234 249
234 294
235 254
235 258
235 295
236 241
236 247
236 260
236 266
236 295
237 249
238 282
240 252
240 264
240 273
240 291
240 293
241 247
241 258
241 274
242 285
244 275
244 298
245 250
246 274
246 287
246 288
247 284
248 267
248 271
248 273
248 274
248 294
250 273
251 283
251 295
252 254
252 290
253 256
253 257
253 281
254 255
254 269
254 288
254 295
255 269
256 273
256 281
257 260
257 271
257 295
257 297
257 299
258 274
260 286
264 273
264 293
266 288
267 269
267 271
267 273
269 281
271 296
274 287
275 278
275 298
283 295
296 297
297 300
*Classes
1
1
1
1
1
1
1
1
1
1
1
1
1
1
1
1
1
1
1
1
1
1
1
1
1
1
1
1
1
1
1
1
1
1
1
1
1
1
1
1
1
1
1
1
1
1
1
1
1
1
1
1
1
1
1
1
1
1
1
1
1
1
1
1
1
1
1
1
1
1
1
1
1
1
1
1
1
1
1
1
1
1
1
1
1
1
1
1
1
1
1
1
1
1
1
1
1
1
1
1
1
1
1
1
1
1
1
1
1
1
1
1
1
1
1
1
1
1
1
1
1
1
1
1
1
1
1
1
1
1
1
1
1
1
1
1
1
1
1
1
1
1
1
1
1
1
1
1
1
1
2
2
2
2
2
2
2
2
2
2
2
2
2
2
2
2
2
2
2
2
2
2
2
2
2
2
2
2
2
2
2
2
2
2
2
2
2
2
2
2
2
2
2
2
2
2
2
2
2
2
2
2
2
2
2
2
2
2
2
2
2
2
2
2
2
2
2
2
2
2
2
2
2
2
2
2
2
2
2
2
2
2
2
2
2
2
2
2
2
2
2
2
2
2
2
2
2
2
2
2
2
2
2
2
2
2
2
2
2
2
2
2
2
2
2
2
2
2
2
2
2
2
2
2
2
2
2
2
2
2
2
2
2
2
2
2
2
2
2
2
2
2
2
2
2
2
2
2
2
2
