*Vertices 300
*Edges
1 6
1 21
1 29
1 53
1 68
1 97
1 171
1 174
1 195
1 251
2 62
2 99
2 124
2 127
2 137
2 147
2 158
2 216
2 291
2 294
3 49
3 88
3 107
3 166
3 262
4 17
4 43
4 69
4 85
4 130
4 156
4 238
5 106
5 221
5 222
5 258
6 68
6 186
6 276
7 13
7 119
7 189
7 288
7 298
8 9
8 18
8 22
8 27
8 107
8 110
8 123
8 132
8 140
8 172
8 217
8 246
8 250
9 36
9 94
9 128
9 132
9 159
9 180
9 246
10 29
10 125
10 167
10 232
11 49
11 88
11 112
11 197
11 245
11 253
11 285
12 31
12 44
12 58
12 88
12 116
12 119
12 122
12 147
12 239
12 279
13 23
13 28
13 33
13 43
13 143
13 224
13 288
14 25
14 45
14 66
14 90
14 112
14 288
14 290
15 52
15 55
15 135
15 172
15 231
15 282
16 50
16 57
16 63
16 130
16 134
16 145
16 161
17 43
17 92
17 110
17 112
17 113
17 130
17 187
17 197
17 210
17 238
17 268
17 277
18 26
18 38
18 39
18 92
18 122
18 164
18 202
18 237
18 239
19 48
19 78
19 124
19 152
19 283
20 27
20 87
20 94
20 106
20 124
20 131
20 132
20 147
20 170
20 187
20 200
20 217
20 238
20 258
20 285
21 93
21 154
22 25
22 27
22 49
22 93
22 180
22 269
23 112
23 141
23 198
23 213
23 216
23 240
23 265
23 272
23 294
24 35
24 95
24 97
24 154
25 27
25 137
25 152
26 105
26 107
26 159
26 214
26 247
26 266
26 267
26 287
26 297
27 95
27 99
27 102
27 106
27 107
27 110
27 126
28 32
28 95
28 117
28 139
28 262
28 288
29 32
29 44
29 77
29 121
29 129
29 245
29 251
29 260
29 286
29 300
30 47
30 112
30 113
30 267
31 111
31 138
31 272
31 277
32 33
32 40
32 44
32 61
32 88
32 94
32 106
32 111
32 117
32 121
32 125
32 137
32 143
32 164
32 203
32 285
33 43
33 61
33 92
33 95
33 121
33 128
33 143
33 147
33 164
33 186
33 222
34 41
34 42
34 69
34 70
34 87
34 100
34 120
34 132
34 162
34 258
34 270
34 298
35 95
35 97
35 152
35 290
36 41
36 57
36 65
36 128
36 131
36 132
36 230
37 74
37 108
37 198
37 206
37 271
38 46
38 128
38 141
38 143
38 149
38 168
38 201
38 202
38 226
38 296
39 56
39 58
39 108
39 122
39 158
39 234
39 247
40 59
40 120
40 159
40 203
40 287
41 65
41 70
41 113
41 120
41 132
41 134
41 217
41 218
41 219
41 277
42 87
42 190
42 204
42 255
42 299
43 76
43 87
43 95
43 110
43 113
43 129
43 147
43 155
43 188
43 238
43 258
43 298
44 119
44 142
44 151
44 295
45 53
45 56
45 97
45 112
45 236
45 269
46 133
46 149
46 155
46 211
46 228
47 48
47 69
47 107
47 121
47 124
47 145
47 223
47 226
47 267
48 121
48 124
48 200
48 202
49 62
49 93
49 107
49 118
49 127
49 180
49 195
49 275
49 285
50 57
50 79
50 80
50 105
50 192
51 225
51 230
51 277
52 90
52 171
52 179
52 231
52 245
52 259
53 72
53 97
53 116
53 168
53 174
53 199
53 295
54 68
54 128
55 273
57 69
57 80
57 104
57 105
57 126
57 232
57 288
58 81
58 100
58 108
58 122
58 241
58 271
59 89
59 120
59 121
60 65
60 79
60 80
60 105
60 166
60 172
61 92
61 128
61 295
62 88
62 119
62 124
62 126
62 141
62 201
62 207
62 273
62 295
63 101
63 132
63 143
63 175
63 216
63 267
63 299
64 74
64 77
64 90
64 118
64 129
64 136
65 71
65 80
65 87
65 139
66 95
66 112
66 163
66 241
66 262
66 274
67 108
67 123
67 232
67 241
68 268
69 85
69 116
69 120
69 135
69 192
69 270
70 204
70 290
71 80
71 124
71 139
71 207
71 237
71 257
71 294
72 116
72 154
72 214
73 100
73 163
73 196
73 266
74 79
74 99
74 101
74 108
74 136
74 146
74 206
74 218
74 219
75 95
75 99
75 106
75 237
75 244
75 276
76 95
76 139
76 147
76 169
76 188
76 222
77 110
77 136
77 169
77 251
78 134
78 136
78 178
78 199
78 221
78 251
78 254
78 265
78 266
79 104
79 105
79 211
80 83
80 87
80 115
80 128
80 183
80 215
80 235
81 263
82 112
82 195
82 228
82 274
83 118
83 121
83 131
83 149
83 268
84 85
84 158
84 207
85 155
86 108
86 110
86 126
86 208
86 211
86 250
86 274
86 277
87 147
87 217
87 241
87 270
88 117
88 119
88 125
88 137
88 196
88 280
89 161
89 192
89 202
90 118
90 128
90 131
90 175
90 235
90 237
90 238
90 242
90 259
90 277
91 124
91 130
91 140
91 179
91 224
91 294
92 209
92 237
92 254
92 274
93 111
93 127
93 207
93 236
94 121
94 131
94 159
94 167
95 99
95 258
95 262
95 298
96 106
96 107
96 164
96 191
96 254
97 199
98 254
98 286
99 106
99 146
99 234
99 284
100 120
100 142
100 193
101 143
101 218
101 231
101 263
102 177
102 254
102 282
102 285
102 286
102 289
103 170
103 231
103 232
103 250
104 119
104 123
104 126
104 161
104 250
104 288
105 119
105 168
105 247
105 287
106 131
106 138
106 144
106 164
106 200
106 217
106 221
106 261
106 270
107 123
107 214
108 110
108 211
108 241
108 247
108 274
108 286
109 200
109 274
109 288
110 123
110 124
110 258
110 289
111 236
111 276
112 140
112 196
112 197
112 198
112 228
112 265
112 272
112 290
113 132
113 184
113 197
113 236
113 267
113 285
113 292
114 165
114 184
114 211
115 143
115 149
115 216
115 235
115 287
116 119
116 192
117 129
117 137
117 162
117 185
117 245
118 124
118 127
118 136
118 170
118 237
118 254
118 261
119 161
119 288
119 298
120 121
120 130
120 135
120 270
120 298
122 159
122 239
122 279
123 140
123 165
123 180
123 200
123 208
123 240
123 251
123 264
123 270
124 127
124 137
124 148
124 208
124 258
124 294
125 128
125 173
125 233
125 247
125 286
125 289
125 297
126 185
126 210
126 250
126 262
127 128
127 148
127 167
127 221
127 275
128 141
128 145
128 163
128 183
128 216
128 226
128 227
128 232
128 246
128 286
128 300
129 172
129 201
129 212
129 245
129 293
130 161
131 237
131 274
132 183
132 216
132 246
132 252
132 285
132 295
133 179
133 199
133 228
133 235
133 250
133 254
134 165
134 175
134 251
134 277
135 192
135 298
136 265
136 274
136 290
136 296
137 147
137 197
137 240
138 173
138 196
138 221
138 277
139 169
140 198
141 158
141 188
141 207
141 216
141 227
142 151
142 294
143 145
143 164
143 168
143 177
143 222
143 237
143 271
143 282
143 287
144 145
145 226
145 296
146 190
146 215
147 158
147 241
147 245
148 206
148 208
148 241
148 270
149 261
149 280
150 173
150 213
151 247
151 294
151 295
152 262
152 290
153 204
154 214
154 220
155 173
155 197
156 189
156 195
156 209
156 211
156 225
156 228
156 248
156 275
157 207
157 229
157 232
157 243
157 284
157 292
158 165
158 172
158 262
158 271
159 180
159 233
159 286
159 287
160 195
160 206
160 216
160 258
160 266
160 291
161 185
161 199
161 202
161 203
161 204
161 217
161 225
161 244
161 266
161 277
161 288
162 192
162 294
163 208
163 226
163 241
163 266
163 299
164 188
164 191
164 254
164 287
165 184
165 240
165 256
165 259
165 271
165 293
166 282
166 287
167 194
167 231
167 273
167 278
167 297
168 287
169 176
169 177
169 221
169 222
169 254
171 199
171 202
171 231
171 253
171 271
172 196
172 201
172 231
172 250
172 293
173 213
173 240
173 260
173 281
175 214
175 216
175 235
175 277
175 295
176 206
176 221
176 255
176 266
177 215
177 221
177 281
177 282
178 208
178 212
178 275
179 189
179 209
179 259
179 273
180 208
180 213
181 200
181 233
181 239
182 190
182 203
182 225
182 231
182 244
182 275
182 285
183 203
183 216
183 246
184 223
184 256
184 259
185 198
185 217
185 218
185 231
185 234
185 292
185 293
187 210
187 275
187 282
187 285
188 230
188 238
188 251
189 224
189 269
189 273
190 219
190 246
190 270
191 254
192 208
192 240
193 210
194 231
194 260
194 284
194 296
195 258
196 228
196 245
196 250
196 283
198 250
198 288
199 202
199 203
199 221
199 222
200 202
200 239
200 242
200 270
200 272
201 210
201 226
201 289
201 296
202 225
202 230
202 236
202 269
203 222
203 244
203 249
203 263
203 286
204 217
204 266
205 222
205 237
206 216
206 234
206 236
206 270
207 237
207 243
207 257
207 268
207 270
208 212
208 240
208 250
208 264
209 242
209 248
209 272
210 238
210 242
211 228
211 274
211 275
212 236
213 240
213 260
213 279
213 281
214 256
216 286
216 291
216 294
216 295
217 238
217 244
217 266
217 277
217 293
218 228
218 231
218 234
218 263
218 274
219 277
221 255
221 258
222 236
222 237
222 238
222 242
222 254
222 265
222 286
222 290
223 278
224 243
224 287
224 288
224 294
225 236
225 273
225 278
225 285
225 286
225 292
226 276
227 291
228 274
229 234
230 238
230 243
230 278
231 259
231 275
231 283
231 297
232 253
232 284
232 286
232 297
233 260
233 286
234 251
234 292
235 240
235 254
235 269
236 237
236 269
236 292
237 239
237 253
237 287
237 290
238 242
238 265
238 290
239 272
239 279
241 274
242 267
242 272
243 270
243 287
244 277
244 288
245 300
246 291
247 248
247 297
248 286
250 277
251 259
251 265
252 261
252 283
252 285
253 265
253 293
254 274
254 286
255 257
255 264
255 266
257 266
259 271
259 273
259 277
259 287
259 300
260 262
260 286
261 283
262 289
264 279
265 275
265 281
266 277
266 292
266 293
267 272
270 287
271 282
273 278
273 288
274 296
277 288
278 285
284 297
285 289
286 289
286 300
288 298
289 297
290 296
291 294
*Classes
1
1
1
1
1
1
1
1
1
1
1
1
1
1
1
1
1
1
1
1
1
1
1
1
1
1
1
1
1
1
1
1
1
1
1
1
1
1
1
1
1
1
1
1
1
1
1
1
1
1
1
1
1
1
1
1
1
1
1
1
1
1
1
1
1
1
1
1
1
1
1
1
1
1
1
1
1
1
1
1
1
1
1
1
1
1
1
1
1
1
1
1
1
1
1
1
1
1
1
1
1
1
1
1
1
1
1
1
1
1
1
1
1
1
1
1
1
1
1
1
1
1
1
1
1
1
1
1
1
1
1
1
1
1
1
1
1
1
1
1
1
1
1
1
1
1
1
1
1
1
2
2
2
2
2
2
2
2
2
2
2
2
2
2
2
2
2
2
2
2
2
2
2
2
2
2
2
2
2
2
2
2
2
2
2
2
2
2
2
2
2
2
2
2
2
2
2
2
2
2
2
2
2
2
2
2
2
2
2
2
2
2
2
2
2
2
2
2
2
2
2
2
2
2
2
2
2
2
2
2
2
2
2
2
2
2
2
2
2
2
2
2
2
2
2
2
2
2
2
2
2
2
2
2
2
2
2
2
2
2
2
2
2
2
2
2
2
2
2
2
2
2
2
2
2
2
2
2
2
2
2
2
2
2
2
2
2
2
2
2
2
2
2
2
2
2
2
2
2
2
