*Vertices 300
*Edges
1 70
1 82
1 142
1 183
1 236
1 242
2 4
2 20
2 34
2 92
2 110
2 112
2 118
2 121
2 123
2 141
2 144
2 184
2 224
2 231
3 83
3 95
3 99
3 112
3 113
3 156
3 183
3 276
3 290
4 45
4 88
4 97
4 113
4 124
4 126
4 129
4 143
4 184
4 198
4 223
4 257
4 263
5 30
5 31
5 48
5 50
5 54
5 115
5 128
5 138
5 171
5 215
6 127
6 178
6 205
6 212
6 218
6 246
6 271
6 279
7 15
7 67
7 79
7 182
7 268
8 38
8 39
8 40
8 109
8 231
8 278
8 285
9 14
9 18
9 34
9 55
9 58
9 77
9 82
9 92
9 114
9 120
9 137
9 178
9 220
9 225
10 42
10 75
10 87
10 143
10 168
10 228
10 279
11 56
11 94
11 97
11 110
11 113
11 129
11 136
11 194
11 230
11 261
11 276
11 296
12 23
12 28
12 65
12 96
12 106
12 112
12 265
14 41
14 105
14 158
14 178
14 225
15 32
15 79
15 109
15 157
15 239
15 280
15 289
16 27
16 35
16 74
16 76
16 85
16 88
16 90
16 98
16 136
16 207
16 224
16 231
16 244
16 266
16 274
16 285
17 33
17 34
17 43
17 47
17 77
17 80
17 104
17 117
17 140
17 149
17 177
17 267
17 277
17 287
18 45
18 63
18 92
18 102
18 114
18 206
18 213
18 215
18 259
18 268
19 32
19 35
19 137
19 186
19 198
19 206
19 224
19 235
19 256
20 21
20 34
20 92
20 142
20 288
20 290
20 295
21 96
21 107
21 123
21 127
21 142
21 207
21 244
21 262
21 299
22 52
22 80
22 105
22 128
22 149
22 170
22 210
22 236
22 252
22 259
22 297
23 24
23 34
23 68
23 84
23 96
23 107
23 129
23 158
23 192
23 244
23 251
23 258
23 264
23 276
23 300
24 68
24 97
24 126
24 133
24 144
24 158
24 178
24 212
24 218
24 260
25 82
25 98
25 155
25 177
25 196
25 203
25 218
25 271
25 275
26 33
26 41
26 56
26 67
26 69
26 85
26 116
26 129
26 131
26 140
26 187
26 194
26 203
26 258
26 259
26 265
26 268
26 291
27 35
27 54
27 85
27 96
27 98
27 107
27 116
27 131
27 134
27 135
27 190
27 212
28 96
28 106
28 112
28 113
28 117
28 160
29 42
29 101
29 111
29 148
30 31
30 54
30 70
30 103
30 121
30 183
30 187
30 190
30 197
30 207
30 262
30 286
31 70
31 115
31 207
31 235
32 79
32 109
32 187
32 194
32 224
32 231
32 255
32 286
33 69
33 97
33 105
33 129
33 131
33 140
33 154
33 288
34 36
34 40
34 68
34 80
34 92
34 94
34 100
34 113
34 125
34 149
34 180
34 195
34 202
34 235
35 44
35 115
35 160
35 235
36 92
36 96
36 100
36 107
36 113
36 205
36 217
36 250
36 265
37 74
37 75
37 93
37 99
37 157
37 162
37 165
37 176
37 195
37 209
37 232
37 280
37 282
37 288
38 58
38 63
38 142
38 166
38 186
38 203
38 215
38 217
38 222
38 242
38 278
38 288
39 53
39 54
39 126
39 138
39 141
39 152
39 158
39 171
39 190
39 236
39 267
39 288
40 51
40 76
40 88
40 100
40 148
40 165
40 173
40 180
40 183
40 231
40 245
40 259
40 279
41 46
41 55
41 62
41 67
41 100
41 105
41 129
41 181
41 215
41 238
41 282
42 74
42 101
42 148
42 279
42 296
43 117
43 204
44 128
44 239
45 59
45 81
45 97
45 102
45 126
45 144
45 200
45 229
45 293
46 53
46 62
46 100
46 105
46 158
46 177
46 199
46 211
46 249
46 298
47 77
47 85
47 104
47 136
47 261
47 265
48 54
48 61
48 116
48 211
48 222
48 223
48 257
48 295
48 296
49 103
49 119
49 134
49 196
49 210
49 227
49 236
50 132
50 215
50 229
50 244
50 299
50 300
51 54
51 88
51 101
51 132
51 156
51 183
51 205
51 247
51 277
51 282
52 53
52 120
52 149
52 170
52 198
52 202
53 78
53 83
53 103
53 126
53 158
53 202
53 222
53 228
53 247
53 267
54 121
54 183
54 190
54 201
54 222
54 276
54 282
54 290
54 296
55 58
55 70
55 83
55 100
55 120
55 137
55 142
55 180
55 188
55 253
55 268
56 62
56 84
56 87
56 94
56 108
56 129
56 164
56 187
56 238
56 258
56 275
57 188
57 203
57 283
58 63
58 77
58 100
58 120
58 137
58 142
58 181
58 203
58 215
58 256
58 285
58 289
59 94
59 100
59 261
59 289
60 96
60 161
61 116
61 257
61 264
62 69
62 84
62 101
62 108
62 145
62 214
62 231
62 275
63 117
63 135
63 142
63 172
63 213
63 242
63 298
64 83
64 91
64 109
64 116
64 121
64 129
64 131
64 154
64 184
64 214
64 300
65 115
65 128
65 159
65 167
65 174
65 212
65 265
65 282
66 187
66 194
67 69
67 131
67 143
67 146
67 286
68 100
68 107
68 125
68 149
68 296
69 73
69 101
69 106
69 112
69 116
69 164
69 167
69 191
69 197
69 209
69 235
69 265
70 82
70 117
70 142
70 246
71 119
71 126
71 137
71 174
72 137
72 174
72 186
72 203
72 220
72 238
72 300
73 74
73 101
73 148
73 154
73 192
73 273
73 293
74 101
74 136
74 195
74 240
74 273
74 278
74 296
75 93
75 125
75 143
75 203
75 208
76 88
76 130
76 147
76 160
76 170
76 183
76 266
76 278
77 82
77 92
77 102
77 116
77 151
77 164
77 206
77 218
77 291
78 111
78 145
78 202
78 206
78 283
79 91
79 256
80 115
80 126
80 149
80 197
80 298
81 173
81 211
81 259
81 283
82 129
82 174
82 203
82 221
82 246
82 252
82 277
82 280
82 283
82 288
83 89
83 91
83 103
83 113
83 121
83 188
83 252
83 270
84 94
84 145
84 152
84 226
84 235
84 262
84 276
84 297
85 131
85 136
85 151
85 164
85 174
85 203
85 206
85 251
86 207
86 238
86 260
87 111
87 258
88 106
88 123
88 124
88 143
88 148
88 160
88 165
88 190
88 198
88 213
88 214
88 231
88 233
88 235
88 271
88 278
89 103
89 152
89 167
89 252
90 98
90 180
90 261
90 266
90 284
90 292
91 103
91 121
91 159
91 247
91 252
91 264
92 149
92 197
92 235
92 240
92 254
92 277
93 124
93 232
93 245
94 99
94 100
94 106
94 289
94 297
95 99
95 100
95 110
95 156
95 192
95 206
96 106
96 107
96 134
96 212
96 265
97 113
97 126
97 140
97 144
97 198
97 216
97 261
97 271
98 128
98 152
98 177
98 274
99 100
99 133
99 195
100 133
100 158
100 180
100 181
100 196
100 202
100 223
100 250
100 254
100 268
100 272
100 273
101 111
101 127
101 148
101 167
101 235
101 242
101 277
101 298
102 113
102 147
102 154
102 206
102 216
102 229
102 300
103 141
103 159
103 237
103 247
103 287
104 117
104 139
104 146
104 163
104 182
105 159
105 216
105 221
105 236
105 252
105 282
105 293
106 110
106 112
106 113
106 117
106 141
106 148
106 187
106 244
106 297
107 152
107 251
107 276
107 293
108 153
108 181
108 272
108 281
109 124
109 153
109 157
109 231
109 255
109 281
110 113
110 141
110 205
110 282
110 290
111 114
111 146
111 148
111 158
111 220
111 260
112 123
112 141
112 148
112 166
112 189
112 210
112 288
112 290
113 160
113 276
114 169
114 215
115 128
115 132
115 138
115 139
115 197
115 278
115 286
115 295
115 296
116 121
116 131
116 135
116 151
116 164
116 264
117 140
117 142
117 161
117 172
117 208
117 211
117 212
117 270
117 284
118 155
118 156
118 166
118 184
118 217
118 252
118 256
119 126
119 196
119 210
119 236
119 299
120 137
120 154
120 155
120 162
120 166
120 177
120 191
120 202
120 209
120 241
120 246
120 292
121 153
121 184
121 190
121 279
122 185
122 268
123 127
123 170
123 180
123 182
123 207
123 223
123 231
123 254
123 265
123 284
123 290
124 198
124 245
124 286
125 149
125 155
125 203
125 227
125 235
125 271
126 133
126 141
126 199
126 242
126 261
126 277
126 288
126 292
126 298
127 148
127 167
127 207
127 282
127 287
127 300
128 152
128 175
128 196
128 210
128 212
128 214
128 296
128 297
129 203
129 214
129 234
129 246
129 251
130 236
131 134
131 164
131 194
131 268
131 291
132 134
132 198
132 201
132 215
132 278
132 294
133 141
133 178
133 257
134 170
134 220
134 270
135 155
135 188
135 267
136 198
136 201
136 232
136 240
136 266
136 285
137 153
137 181
137 186
137 200
137 256
138 139
138 155
138 170
138 172
138 225
138 237
138 284
140 149
140 221
140 228
140 261
140 265
140 285
141 277
141 287
142 154
142 166
142 186
142 253
142 270
142 300
143 146
143 165
143 179
143 228
144 184
144 193
144 222
144 237
145 152
145 179
145 259
145 283
146 186
146 222
146 286
147 171
147 279
148 231
148 244
149 236
149 255
149 275
151 158
151 164
151 187
151 199
151 238
151 258
151 276
151 298
152 171
152 173
152 200
152 214
152 229
152 246
152 251
152 265
153 181
153 184
153 202
153 252
153 253
153 262
153 281
153 293
153 299
154 162
154 228
154 229
154 241
154 288
154 290
154 293
154 296
154 300
155 156
155 170
155 192
155 206
155 221
155 247
155 252
155 271
155 275
155 282
156 170
156 183
156 192
156 244
156 247
156 252
156 256
156 282
157 162
157 167
157 216
157 240
157 278
157 281
157 282
157 289
158 174
158 180
158 186
158 195
158 206
158 220
158 247
158 248
158 254
158 257
158 260
158 261
158 270
159 167
159 210
159 221
159 233
159 252
160 171
160 175
160 186
160 187
160 197
160 217
160 235
160 266
161 198
161 208
162 165
162 293
162 299
162 300
163 190
164 179
164 187
164 203
164 218
164 219
164 253
164 258
164 266
164 275
164 276
164 286
164 288
164 291
164 294
165 233
165 262
165 288
166 184
166 190
166 198
166 214
166 231
166 256
166 263
167 174
167 175
167 178
167 210
167 221
167 234
167 270
167 281
167 282
167 291
168 198
168 201
168 247
168 279
168 296
169 172
169 185
169 198
169 206
169 217
169 241
169 250
169 263
170 181
170 202
170 239
170 284
170 292
170 294
171 174
171 180
171 186
171 189
171 217
171 229
171 233
171 246
171 266
172 211
172 225
172 229
172 237
172 241
172 263
173 180
173 184
173 195
173 223
173 229
173 245
173 259
173 268
173 278
173 279
174 175
174 186
174 187
174 212
174 234
174 248
174 258
174 281
175 180
175 187
175 196
175 210
175 234
175 258
175 262
175 266
175 268
175 281
175 282
175 286
175 290
175 299
177 207
177 246
177 251
177 256
177 267
178 205
178 208
178 212
178 220
178 240
178 260
178 277
178 291
179 218
180 184
180 188
180 189
180 195
180 202
180 217
180 234
180 243
180 250
180 253
180 254
180 268
180 277
180 284
180 292
180 294
181 215
181 284
181 292
181 293
182 193
182 265
182 287
183 190
183 191
183 193
183 236
183 244
183 247
183 265
183 267
183 282
183 290
184 193
184 250
184 265
184 279
185 241
186 189
186 202
186 206
186 220
186 222
186 233
186 238
186 248
186 264
186 288
186 290
186 291
187 189
187 194
187 281
187 286
187 291
187 299
188 203
188 236
188 253
188 254
188 256
188 267
188 270
188 283
188 293
189 210
189 240
189 266
189 277
189 294
190 191
190 209
190 276
190 288
191 209
191 239
191 256
191 267
191 285
191 288
191 290
191 294
192 244
193 265
194 291
195 220
195 223
195 227
195 240
195 257
195 260
195 288
196 254
196 299
197 235
197 243
198 201
198 208
198 263
198 276
198 278
199 232
199 242
199 286
199 296
199 298
200 229
200 246
200 256
200 259
200 262
200 282
201 208
201 247
201 263
201 276
202 222
202 223
202 225
202 253
202 268
203 246
203 251
203 252
203 254
203 267
203 275
203 283
205 265
206 216
206 222
206 238
206 250
206 257
206 260
206 271
206 288
207 214
207 224
207 232
207 255
207 260
207 267
207 296
207 300
208 212
208 298
209 267
210 214
210 252
210 258
210 268
210 297
211 229
211 272
211 283
211 284
211 293
211 298
212 218
212 222
212 291
212 298
213 231
213 255
214 231
214 234
214 272
214 284
214 297
215 229
215 264
215 299
216 221
216 261
216 278
216 281
217 250
217 266
217 285
218 275
219 261
219 276
219 294
220 225
220 233
220 260
220 263
220 270
220 291
221 233
221 252
222 238
222 253
222 264
222 276
223 225
223 245
223 253
223 254
223 268
223 272
223 277
225 226
225 229
225 257
225 270
225 285
226 262
226 288
227 233
228 285
228 293
229 246
229 257
229 293
230 242
230 296
230 298
231 233
231 255
231 257
231 285
232 255
232 286
232 293
232 296
233 238
234 279
235 297
236 267
237 287
237 288
237 291
238 288
239 258
239 280
239 289
239 294
240 245
240 277
240 278
240 285
241 273
241 292
241 293
242 298
243 292
244 285
244 290
244 300
245 278
245 279
246 249
246 251
246 261
246 265
246 271
246 297
247 252
247 257
247 296
248 288
248 289
249 259
249 262
249 269
249 295
249 297
249 298
252 289
253 294
254 261
254 267
254 272
254 277
254 296
255 275
255 285
256 267
257 260
257 285
257 290
258 266
258 268
258 276
258 294
258 299
259 268
259 269
259 282
259 297
260 285
261 265
261 272
261 296
261 298
262 295
262 299
263 270
263 298
264 276
265 271
266 281
268 290
269 298
270 299
271 297
272 277
272 284
275 283
275 295
276 294
277 287
277 291
278 281
280 288
280 290
280 294
281 282
281 290
282 287
283 295
284 292
285 290
288 290
288 291
293 296
295 296
*Classes
1
1
1
1
1
1
1
1
1
1
1
1
1
1
1
1
1
1
1
1
1
1
1
1
1
1
1
1
1
1
1
1
1
1
1
1
1
1
1
1
1
1
1
1
1
1
1
1
1
1
1
1
1
1
1
1
1
1
1
1
1
1
1
1
1
1
1
1
1
1
1
1
1
1
1
1
1
1
1
1
1
1
1
1
1
1
1
1
1
1
1
1
1
1
1
1
1
1
1
1
1
1
1
1
1
1
1
1
1
1
1
1
1
1
1
1
1
1
1
1
1
1
1
1
1
1
1
1
1
1
1
1
1
1
1
1
1
1
1
1
1
1
1
1
1
1
1
1
1
1
2
2
2
2
2
2
2
2
2
2
2
2
2
2
2
2
2
2
2
2
2
2
2
2
2
2
2
2
2
2
2
2
2
2
2
2
2
2
2
2
2
2
2
2
2
2
2
2
2
2
2
2
2
2
2
2
2
2
2
2
2
2
2
2
2
2
2
2
2
2
2
2
2
2
2
2
2
2
2
2
2
2
2
2
2
2
2
2
2
2
2
2
2
2
2
2
2
2
2
2
2
2
2
2
2
2
2
2
2
2
2
2
2
2
2
2
2
2
2
2
2
2
2
2
2
2
2
2
2
2
2
2
2
2
2
2
2
2
2
2
2
2
2
2
2
2
2
2
2
2
