*Vertices 300
*Edges
1 8
1 16
1 57
1 100
1 104
1 128
1 131
1 144
1 213
1 237
1 292
2 5
2 36
2 44
2 91
2 102
2 137
2 293
2 296
3 10
3 14
3 55
3 63
3 119
3 274
3 278
3 293
4 26
4 44
4 50
4 74
4 85
4 136
4 139
4 224
4 247
5 91
5 97
5 199
6 197
6 211
6 235
7 16
7 90
7 206
7 229
7 230
7 271
7 272
7 280
8 16
8 19
8 42
8 77
8 144
8 168
8 180
8 220
8 257
9 55
9 71
9 73
9 124
9 127
9 151
9 188
9 276
9 280
9 283
9 290
9 292
9 293
10 28
10 56
10 65
10 81
10 96
10 98
10 119
10 122
10 126
10 153
10 162
10 188
10 197
10 226
10 266
10 290
11 13
11 22
11 47
11 52
11 91
11 299
12 47
12 58
12 142
13 82
13 95
13 266
14 242
14 274
15 63
15 69
15 87
15 105
15 264
15 266
15 287
16 54
16 74
16 83
16 84
16 89
16 114
16 144
16 204
16 271
17 19
17 44
17 64
17 89
17 95
17 165
17 217
17 223
17 257
17 275
18 56
18 61
18 180
18 244
18 283
19 20
19 56
19 79
19 95
19 130
19 144
19 170
19 182
20 42
20 52
20 95
20 106
20 120
20 153
20 156
20 199
20 296
21 57
21 109
21 178
21 237
22 35
22 44
22 276
22 285
23 26
23 29
23 35
23 80
23 105
23 107
23 115
23 143
23 148
23 225
23 252
23 270
24 53
24 83
24 84
24 98
24 105
24 133
24 140
24 147
24 154
24 217
24 272
25 26
25 80
25 89
25 125
25 141
25 243
25 248
26 27
26 35
26 40
26 44
26 115
26 198
26 219
26 280
26 295
27 28
27 30
27 75
27 85
27 116
27 156
27 176
27 232
27 262
28 41
28 85
28 90
28 142
28 200
28 206
28 222
29 35
29 52
29 60
29 102
29 120
29 123
29 152
29 166
29 187
29 224
29 246
29 268
30 50
30 56
30 73
30 82
30 127
30 191
30 249
30 291
30 292
31 33
31 60
31 76
31 130
31 177
31 203
31 211
31 257
32 58
32 125
32 161
32 170
32 186
32 220
32 228
33 55
33 144
33 157
33 163
33 180
33 194
33 196
33 237
34 78
34 129
34 295
35 40
35 44
35 52
35 64
35 70
35 81
35 94
35 107
35 112
35 118
35 123
35 187
35 283
36 41
36 90
36 121
36 127
36 255
37 108
37 110
37 177
37 187
37 199
37 221
37 268
38 48
38 98
38 101
38 152
38 175
38 190
39 133
39 137
39 187
39 190
39 216
40 70
40 91
40 94
40 183
40 273
41 90
41 115
42 54
42 158
42 192
42 265
43 56
43 57
43 62
43 72
43 75
43 143
43 191
44 50
44 51
44 52
44 82
44 90
44 94
44 107
44 118
44 263
44 282
44 293
45 262
46 194
46 292
47 52
47 58
47 122
47 153
47 158
47 240
47 262
47 286
48 89
48 95
48 105
48 130
48 160
48 190
48 220
49 132
49 146
49 241
49 294
50 82
50 115
50 117
50 130
50 193
50 293
51 56
51 102
51 103
51 162
51 186
51 195
51 223
51 253
51 293
52 90
52 91
52 99
52 106
52 107
52 109
52 125
52 156
52 215
52 285
52 289
53 60
53 74
53 84
53 133
53 147
53 250
54 68
54 114
54 128
54 135
54 191
54 195
54 217
54 275
55 71
55 97
55 125
55 133
55 141
55 225
55 226
55 230
55 233
55 270
55 273
56 75
56 82
56 93
56 188
56 215
56 223
56 230
56 254
56 263
57 72
57 101
57 104
57 109
57 119
57 130
57 134
57 149
57 164
57 225
57 281
58 117
58 179
58 286
59 92
59 107
59 119
59 143
59 149
59 266
60 81
60 99
60 110
60 177
60 187
60 236
60 255
61 101
61 163
61 172
61 204
61 298
62 75
62 126
62 149
62 195
62 227
62 240
62 279
62 287
63 70
63 78
63 129
63 135
63 287
64 88
64 101
64 107
64 121
64 133
64 137
64 140
64 250
64 296
64 299
65 205
66 188
66 234
67 81
67 123
67 176
67 229
67 255
68 117
68 135
68 166
69 138
69 225
69 241
69 245
69 266
70 78
70 96
70 135
70 149
70 188
70 195
71 95
71 175
71 182
71 265
72 90
72 101
72 135
72 167
72 191
73 207
73 252
73 292
74 83
74 89
74 133
74 147
74 159
74 233
75 105
75 116
75 143
75 266
76 118
76 147
76 294
76 300
77 124
77 125
78 129
78 184
78 209
78 221
78 226
79 82
79 83
79 130
79 145
79 187
79 209
80 98
80 115
80 128
80 136
80 138
80 141
80 147
80 189
80 218
80 267
80 275
81 94
81 96
81 98
81 101
81 123
81 136
81 150
81 177
81 255
82 95
82 128
82 213
82 226
82 241
82 286
83 92
83 94
83 105
83 108
83 131
83 139
83 187
83 249
83 250
84 88
84 116
84 201
84 245
85 93
85 94
85 118
85 139
85 200
85 229
85 246
86 149
86 288
87 103
87 113
87 203
87 204
87 252
88 140
88 207
88 209
88 229
88 233
88 291
89 95
89 96
89 117
89 175
89 192
89 238
89 268
89 278
90 213
90 229
90 252
90 285
91 96
91 128
91 164
92 107
92 232
92 238
93 141
93 155
93 160
93 190
93 227
93 254
93 295
93 300
94 107
94 126
94 229
94 250
94 277
94 283
95 105
95 106
95 143
95 147
95 239
95 274
95 286
96 117
96 149
96 150
96 153
96 164
96 262
96 268
97 116
97 133
97 134
97 158
97 161
97 193
97 230
97 255
98 103
98 130
98 136
98 154
98 202
98 246
99 105
99 108
99 113
99 120
99 129
99 148
99 175
99 177
99 239
99 252
99 270
99 296
100 104
101 104
101 108
101 133
101 137
101 191
101 205
101 240
101 249
101 257
101 298
102 147
102 174
102 242
102 294
103 107
103 113
103 115
103 130
103 136
103 158
103 198
103 298
104 169
104 238
105 113
105 117
105 131
105 143
105 147
105 181
105 192
105 218
105 287
106 134
106 143
106 186
106 261
107 112
107 118
107 143
108 113
108 120
108 221
108 249
108 277
109 130
109 146
109 149
109 156
109 211
110 171
110 214
110 219
110 239
111 172
111 193
111 206
112 148
112 181
112 217
113 117
113 120
113 129
113 266
113 292
114 189
114 195
114 205
114 228
114 252
114 275
114 298
115 130
115 154
115 200
115 223
117 120
117 242
117 245
117 268
118 168
118 246
118 262
118 275
119 126
119 149
119 156
119 222
119 286
120 123
120 129
120 199
121 140
121 177
121 254
122 123
122 153
122 160
122 164
122 185
122 228
123 228
123 243
123 269
124 169
124 176
124 248
124 260
124 270
125 141
125 156
125 215
126 149
126 248
127 185
128 147
128 164
128 173
128 213
128 216
128 241
128 258
128 260
129 132
129 141
129 182
129 229
129 292
130 160
130 198
130 200
130 211
130 280
131 166
131 229
132 141
132 174
132 215
132 294
133 137
133 143
133 236
134 166
134 217
134 247
134 281
135 139
135 217
135 275
135 300
136 168
136 239
136 291
137 140
137 253
137 296
138 218
138 225
138 253
138 288
139 247
141 182
141 193
141 229
141 244
141 245
141 247
141 258
141 300
142 253
142 276
143 191
143 231
144 169
144 170
144 232
144 248
145 212
145 249
145 251
146 156
146 189
147 206
147 294
148 232
148 261
148 269
148 270
149 163
149 195
149 215
149 222
150 163
150 234
151 164
151 177
151 268
151 274
151 279
152 190
152 201
153 190
153 200
153 225
153 264
153 274
153 296
153 298
154 158
154 179
154 186
154 200
154 204
154 246
155 237
155 254
155 288
156 215
156 289
157 167
157 217
157 222
158 160
158 169
158 179
158 204
158 262
158 298
159 167
159 188
159 197
159 294
160 228
160 295
160 298
161 200
161 264
162 177
162 220
162 225
162 240
162 241
162 263
162 282
162 293
163 183
163 195
163 244
163 300
164 178
164 238
164 274
165 264
165 275
165 278
166 193
166 209
166 233
166 243
166 246
166 299
167 182
167 189
167 194
167 209
167 231
167 233
167 252
167 272
167 291
168 191
168 192
168 202
168 259
168 270
168 281
169 170
169 242
169 262
170 209
170 234
170 286
170 292
171 183
171 227
171 292
172 190
172 206
172 213
172 254
172 275
172 290
173 177
173 252
173 260
173 272
173 280
173 288
174 197
174 284
175 265
175 272
175 291
176 255
177 234
177 240
177 280
178 213
178 246
178 248
178 281
179 190
179 243
179 245
179 296
179 299
180 273
180 283
180 284
181 193
181 195
181 209
181 210
181 218
181 220
181 232
181 276
181 300
182 225
182 245
182 294
183 244
183 273
184 186
184 187
184 214
184 239
184 246
184 256
184 285
185 268
186 214
186 228
186 242
186 265
186 285
187 214
187 286
188 192
188 252
188 262
188 270
188 283
189 209
189 234
190 213
190 227
190 298
190 300
191 262
191 270
192 238
192 252
192 281
193 209
194 233
195 242
195 282
195 288
195 293
195 300
196 202
196 237
196 268
197 211
197 248
197 271
200 205
200 206
200 264
202 221
202 246
202 259
203 298
204 262
206 222
206 254
206 294
206 300
207 256
207 296
208 248
208 249
209 220
209 221
209 226
210 280
211 217
211 239
211 248
211 275
211 278
211 280
211 286
212 239
212 265
212 266
212 271
212 297
213 275
213 276
213 281
214 221
214 240
215 222
215 276
216 227
216 241
216 258
216 260
216 292
217 237
217 240
217 257
217 275
217 278
218 226
218 245
218 273
218 290
220 230
220 295
221 234
221 235
221 262
221 274
222 276
223 233
224 250
224 255
224 294
225 241
225 245
226 229
226 230
226 273
226 277
226 282
227 256
227 261
227 263
227 270
227 292
227 293
227 298
228 243
228 259
229 271
230 270
230 271
230 295
231 252
232 238
232 266
232 271
233 293
234 292
236 251
236 256
236 271
236 276
236 299
237 268
237 270
239 265
239 266
239 271
239 291
240 249
241 250
241 257
241 260
241 282
241 294
241 297
242 247
242 262
242 268
242 288
242 298
242 300
243 245
243 247
243 255
243 258
243 274
243 299
244 247
244 279
245 258
245 272
245 299
246 247
246 262
246 269
246 275
246 285
246 287
247 262
247 269
247 287
249 251
249 257
249 277
250 255
250 265
250 282
250 283
250 293
251 256
252 272
253 269
253 279
253 296
254 278
254 279
254 280
256 264
256 285
256 292
257 297
257 298
259 261
259 270
262 274
263 292
263 293
265 290
265 291
265 297
268 279
270 292
271 272
272 284
272 291
273 275
273 277
273 284
273 286
274 299
275 276
275 286
276 299
278 279
279 284
282 293
284 292
289 290
294 296
*Classes
1
1
1
1
1
1
1
1
1
1
1
1
1
1
1
1
1
1
1
1
1
1
1
1
1
1
1
1
1
1
1
1
1
1
1
1
1
1
1
1
1
1
1
1
1
1
1
1
1
1
1
1
1
1
1
1
1
1
1
1
1
1
1
1
1
1
1
1
1
1
1
1
1
1
1
1
1
1
1
1
1
1
1
1
1
1
1
1
1
1
1
1
1
1
1
1
1
1
1
1
1
1
1
1
1
1
1
1
1
1
1
1
1
1
1
1
1
1
1
1
1
1
1
1
1
1
1
1
1
1
1
1
1
1
1
1
1
1
1
1
1
1
1
1
1
1
1
1
1
1
2
2
2
2
2
2
2
2
2
2
2
2
2
2
2
2
2
2
2
2
2
2
2
2
2
2
2
2
2
2
2
2
2
2
2
2
2
2
2
2
2
2
2
2
2
2
2
2
2
2
2
2
2
2
2
2
2
2
2
2
2
2
2
2
2
2
2
2
2
2
2
2
2
2
2
2
2
2
2
2
2
2
2
2
2
2
2
2
2
2
2
2
2
2
2
2
2
2
2
2
2
2
2
2
2
2
2
2
2
2
2
2
2
2
2
2
2
2
2
2
2
2
2
2
2
2
2
2
2
2
2
2
2
2
2
2
2
2
2
2
2
2
2
2
2
2
2
2
2
2
