*Vertices 300
*Edges
1 20
1 113
1 116
1 129
1 143
1 152
1 198
1 210
1 223
1 245
2 5
2 10
2 38
2 39
2 65
2 73
2 91
2 142
2 270
2 279
3 7
3 22
3 40
3 44
3 87
3 137
3 144
3 158
4 5
4 22
4 123
4 148
4 164
4 182
4 241
4 255
4 281
5 10
5 22
5 39
5 188
5 270
6 42
6 47
6 63
6 90
6 136
6 197
7 40
7 177
7 245
7 262
8 147
8 168
8 224
8 244
8 298
9 95
9 167
9 190
10 22
10 39
10 86
10 126
10 146
10 160
10 171
10 187
10 282
10 298
11 72
11 73
11 74
11 97
11 114
11 115
11 125
11 154
11 228
11 235
11 245
12 29
12 46
12 53
12 67
12 108
12 120
12 122
12 148
12 163
12 169
12 242
12 276
13 21
13 51
13 126
13 179
13 221
13 224
13 232
13 264
13 280
14 22
14 126
14 149
14 161
14 170
14 208
14 211
14 233
15 134
15 180
15 216
15 246
15 263
16 25
16 48
16 72
16 74
16 82
16 102
16 109
16 131
16 212
16 237
17 95
17 258
17 294
18 23
18 31
18 34
18 37
18 62
18 77
18 117
18 124
18 178
19 65
19 70
19 136
19 140
19 174
19 212
19 280
20 37
20 73
20 129
20 195
20 210
20 240
21 25
21 27
21 93
21 100
21 109
21 126
21 134
21 218
21 237
21 247
22 87
22 126
22 152
22 164
22 220
22 240
23 40
23 123
23 124
23 148
23 159
23 163
23 164
23 168
23 173
23 182
23 257
23 287
24 49
24 63
24 105
24 159
24 169
24 211
24 221
24 235
24 272
24 300
25 27
25 49
25 73
25 82
25 91
25 109
25 138
25 230
25 260
26 67
26 83
26 147
27 100
27 112
27 126
27 134
27 211
27 237
28 33
28 105
28 200
29 46
29 64
29 71
29 101
29 143
29 148
29 169
29 236
30 50
30 76
30 84
30 92
30 97
30 101
30 116
30 128
30 132
30 137
30 140
30 178
30 183
30 200
30 207
30 258
30 267
30 269
30 275
30 285
31 34
31 45
31 78
31 103
31 117
31 122
31 141
31 282
32 38
32 92
32 102
32 117
32 158
32 170
32 221
32 222
32 237
32 238
32 240
34 37
34 45
34 48
34 92
34 97
34 117
34 253
34 265
34 300
35 50
35 79
35 128
35 244
36 68
36 73
36 86
36 101
36 251
37 53
37 58
37 60
37 97
37 117
37 139
37 182
37 240
37 245
37 296
38 91
38 112
38 183
38 186
38 205
38 264
39 54
39 62
39 67
39 81
39 85
39 181
39 253
39 293
39 300
40 77
40 123
40 137
40 189
40 201
40 212
41 68
41 92
41 99
41 110
41 119
41 189
41 204
41 236
41 256
41 285
42 90
42 104
42 127
42 172
42 177
42 234
42 281
42 289
43 119
43 197
43 262
43 285
44 98
44 119
44 158
44 205
45 56
45 69
45 78
45 98
45 122
45 141
45 193
46 64
46 71
46 76
46 88
46 101
46 113
46 128
46 222
47 92
47 95
47 112
47 129
47 217
47 225
48 117
49 163
49 169
49 236
49 260
49 278
50 64
50 75
50 79
50 128
50 252
50 269
51 151
51 180
51 259
51 271
52 96
52 155
52 200
52 205
52 218
52 244
52 247
52 266
52 292
53 61
53 64
53 89
53 90
53 120
53 151
53 206
53 240
53 242
53 262
54 67
54 71
54 81
54 85
54 100
54 135
54 203
54 215
54 232
54 241
54 252
54 296
55 59
55 122
55 148
55 180
55 185
56 69
56 109
56 121
56 122
56 148
56 177
56 184
56 262
57 77
57 241
57 257
57 262
58 175
58 182
58 203
58 299
59 132
59 133
59 212
59 269
60 84
60 174
60 175
60 253
60 254
60 295
61 86
61 89
61 134
61 151
61 169
61 193
62 88
62 124
62 162
62 195
62 209
62 277
62 297
63 90
63 188
63 248
63 258
63 279
64 75
64 90
64 103
64 192
64 236
64 240
64 241
65 73
65 91
65 100
65 142
65 224
65 246
65 280
65 282
66 91
66 221
66 237
66 277
67 68
67 83
67 120
67 153
67 193
67 236
67 244
68 83
68 110
68 153
68 236
68 251
68 295
69 71
69 80
69 81
69 86
69 89
69 122
69 146
69 156
69 186
69 192
69 212
69 237
69 247
69 295
70 108
70 120
70 140
70 142
70 152
70 198
70 202
70 240
70 272
71 81
71 89
71 100
71 113
71 122
71 134
71 135
71 232
71 293
72 74
72 77
72 157
72 236
72 252
72 277
72 294
73 91
73 101
73 104
73 115
73 138
73 162
73 170
73 209
74 87
74 102
74 125
75 103
75 149
75 165
75 189
75 223
75 285
75 293
76 88
76 92
76 97
76 101
76 128
76 137
76 169
76 200
76 244
77 124
77 207
77 241
77 252
77 262
78 103
78 297
79 83
79 95
79 147
79 188
79 195
79 294
80 176
80 235
80 295
81 89
81 100
81 113
81 135
81 195
81 232
81 252
81 277
82 109
82 130
82 185
83 147
83 189
83 191
83 195
83 222
83 276
83 282
83 292
84 90
84 116
84 136
84 161
84 175
84 286
85 118
85 150
85 161
85 237
85 238
85 272
86 146
86 151
86 154
86 230
87 94
87 174
87 220
87 255
87 259
87 268
87 288
88 101
88 192
88 284
89 123
89 134
89 148
89 149
89 191
90 131
90 136
90 216
90 220
90 241
90 272
91 97
91 104
91 115
91 126
91 142
91 163
91 231
91 237
91 275
92 95
92 99
92 110
92 117
92 128
92 137
92 140
92 165
92 168
92 178
92 254
92 267
92 275
92 298
93 100
93 104
93 112
93 203
93 220
94 162
94 255
94 257
94 268
95 196
95 204
95 225
95 234
95 239
96 205
96 289
97 125
97 128
97 154
97 160
97 163
97 228
97 240
97 245
97 272
98 110
98 119
98 122
98 164
98 193
98 196
98 205
98 245
98 257
98 279
98 281
98 290
99 111
99 117
99 144
99 211
99 231
99 253
100 102
100 165
101 117
101 128
101 190
101 252
101 269
102 111
102 135
102 144
102 165
102 190
102 192
102 215
102 240
103 130
103 149
103 170
103 209
104 112
104 115
104 127
104 138
104 172
104 209
105 169
105 186
105 211
105 222
105 272
106 253
106 276
107 160
107 278
108 120
108 167
108 191
108 257
108 272
108 277
108 287
109 118
109 130
109 144
109 153
109 184
109 201
109 298
110 119
110 145
110 210
110 224
110 274
110 287
111 137
111 144
111 146
111 186
111 248
112 130
112 134
112 152
112 171
112 256
112 279
113 129
113 161
113 218
113 226
113 232
113 256
113 268
113 286
113 293
114 115
114 130
114 152
114 236
114 256
115 152
115 154
115 189
115 206
115 214
115 250
116 137
116 223
117 153
117 178
117 237
117 277
117 286
117 298
118 184
118 237
120 169
120 178
120 212
120 244
121 225
122 146
122 148
122 196
122 199
122 260
122 299
123 124
123 148
123 149
123 191
123 234
123 272
123 281
125 157
125 211
125 231
126 142
126 155
126 171
126 189
126 216
126 239
126 293
127 188
127 219
127 233
127 234
127 243
127 288
128 132
128 166
128 183
128 216
128 225
128 238
128 249
128 251
129 143
129 180
129 216
129 239
130 153
130 253
130 298
131 136
131 173
131 194
131 237
131 246
132 133
132 137
132 186
132 190
132 207
132 216
132 258
132 285
133 169
133 204
133 250
133 264
134 267
135 223
135 267
135 270
136 147
136 189
136 212
136 216
136 224
136 262
137 144
137 269
137 279
139 249
139 278
139 295
140 148
140 183
140 212
140 217
140 229
141 148
141 150
141 275
142 210
143 154
143 199
143 239
144 146
144 158
144 208
144 240
144 248
144 265
144 300
145 163
145 185
145 242
145 265
145 282
145 300
146 212
147 212
147 267
148 160
148 183
148 185
148 229
148 281
149 155
149 197
149 227
149 232
149 290
150 161
150 174
150 200
150 218
150 272
150 275
151 193
151 202
151 214
151 224
152 198
152 214
152 236
152 271
153 162
153 171
153 187
153 288
154 174
154 188
154 215
154 248
154 260
154 279
155 180
155 198
155 200
155 202
155 212
155 253
155 261
155 293
156 167
156 177
156 184
156 190
156 200
156 228
156 265
156 271
156 293
156 300
157 170
157 186
157 187
157 192
157 294
158 280
158 282
158 299
159 164
159 168
159 197
159 221
159 243
159 253
159 290
160 163
160 187
160 237
160 278
161 185
162 288
163 170
163 187
163 237
163 282
163 286
164 167
164 191
164 205
164 257
164 263
164 290
165 181
165 261
165 283
166 194
166 249
166 262
166 263
166 269
166 296
167 184
167 190
167 205
167 241
167 257
168 178
168 240
168 244
168 257
168 272
168 273
168 276
168 287
169 282
170 187
170 205
170 221
170 222
170 232
170 251
170 264
171 187
171 193
172 184
172 263
172 289
172 291
173 199
173 211
173 231
174 215
174 239
174 241
174 253
174 268
174 295
175 203
176 203
176 210
176 213
176 254
177 184
177 292
178 288
179 203
179 237
179 254
179 255
179 259
179 286
180 212
180 263
180 293
181 197
181 213
181 283
182 240
182 272
183 213
183 265
183 285
184 205
184 291
185 195
185 228
185 277
186 222
186 285
186 298
187 192
187 232
188 248
188 254
189 224
189 245
189 262
189 280
189 285
189 296
189 299
190 225
190 228
190 245
190 257
191 204
191 225
191 229
191 250
191 256
191 257
191 259
191 264
191 268
191 272
191 273
191 284
191 288
191 290
192 205
192 232
192 264
192 298
193 255
193 257
194 216
194 256
194 266
194 268
194 296
195 228
195 234
195 244
195 277
195 281
196 205
196 250
197 214
197 261
197 263
197 283
197 290
198 202
198 249
198 261
198 271
198 293
199 260
199 269
199 289
200 216
200 265
200 300
201 216
201 224
201 274
201 296
201 298
201 299
202 224
202 249
202 272
202 284
203 239
203 241
203 254
203 259
203 293
203 296
204 225
204 234
204 250
204 272
204 273
204 281
205 241
205 264
205 267
205 281
205 290
206 262
207 252
208 265
210 247
210 254
210 287
211 220
211 222
211 229
211 230
211 231
211 232
212 269
213 254
213 265
213 285
214 215
214 224
214 274
214 295
214 299
215 240
215 241
215 249
216 225
216 227
216 239
216 265
216 296
219 281
219 288
220 231
220 241
220 268
220 272
221 232
221 251
222 232
222 253
222 282
222 293
222 298
224 274
224 298
224 299
225 238
225 281
225 288
225 290
227 239
228 252
228 271
228 277
228 293
228 300
229 231
229 232
229 257
229 268
229 273
231 258
232 280
232 282
233 279
233 283
234 250
234 281
237 238
237 252
237 286
237 288
238 252
238 269
238 277
238 288
239 295
240 267
240 272
240 276
240 277
241 296
243 270
243 278
243 290
244 281
244 292
245 262
247 272
247 284
248 279
249 261
251 272
251 273
251 280
251 287
251 288
252 269
252 277
253 255
253 259
253 290
253 293
254 286
254 293
254 296
255 259
255 297
256 264
256 268
257 273
257 277
259 273
259 293
260 279
260 289
261 279
261 283
262 263
263 269
263 290
264 268
264 273
264 298
265 296
265 300
266 268
267 276
267 281
267 288
269 289
272 273
272 280
272 284
273 280
274 299
276 277
279 283
280 282
280 288
280 299
281 288
282 284
287 288
293 298
*Classes
1
1
1
1
1
1
1
1
1
1
1
1
1
1
1
1
1
1
1
1
1
1
1
1
1
1
1
1
1
1
1
1
1
1
1
1
1
1
1
1
1
1
1
1
1
1
1
1
1
1
1
1
1
1
1
1
1
1
1
1
1
1
1
1
1
1
1
1
1
1
1
1
1
1
1
1
1
1
1
1
1
1
1
1
1
1
1
1
1
1
1
1
1
1
1
1
1
1
1
1
1
1
1
1
1
1
1
1
1
1
1
1
1
1
1
1
1
1
1
1
1
1
1
1
1
1
1
1
1
1
1
1
1
1
1
1
1
1
1
1
1
1
1
1
1
1
1
1
1
1
2
2
2
2
2
2
2
2
2
2
2
2
2
2
2
2
2
2
2
2
2
2
2
2
2
2
2
2
2
2
2
2
2
2
2
2
2
2
2
2
2
2
2
2
2
2
2
2
2
2
2
2
2
2
2
2
2
2
2
2
2
2
2
2
2
2
2
2
2
2
2
2
2
2
2
2
2
2
2
2
2
2
2
2
2
2
2
2
2
2
2
2
2
2
2
2
2
2
2
2
2
2
2
2
2
2
2
2
2
2
2
2
2
2
2
2
2
2
2
2
2
2
2
2
2
2
2
2
2
2
2
2
2
2
2
2
2
2
2
2
2
2
2
2
2
2
2
2
2
2
