*Vertices 300
*Edges
1 43
1 54
1 84
1 113
2 76
2 94
2 96
2 98
2 122
2 136
2 140
2 237
2 244
2 249
2 293
2 300
3 10
3 48
3 53
3 86
3 176
3 228
3 233
4 21
4 33
4 93
4 119
4 140
5 9
5 10
5 12
5 34
5 43
5 69
5 91
5 120
5 172
5 190
5 202
5 251
6 23
6 33
6 58
6 78
6 86
6 111
6 125
6 212
7 10
7 41
7 64
7 87
7 88
7 92
7 108
7 202
7 221
8 42
8 62
8 69
8 98
8 114
8 126
8 166
8 170
8 186
8 195
8 214
8 236
8 289
9 31
9 42
9 50
9 59
9 69
9 74
9 91
9 179
9 181
9 194
9 212
9 260
9 270
10 18
10 27
10 48
10 54
10 62
10 69
10 92
10 107
10 157
10 179
10 251
11 23
11 34
11 62
11 72
11 118
11 129
11 135
11 154
11 211
12 20
12 22
12 37
12 80
12 85
12 103
12 147
12 181
12 183
12 199
12 204
12 227
12 251
13 50
13 54
13 87
13 113
13 138
13 218
13 223
13 299
14 57
14 75
14 76
14 101
14 116
14 167
14 198
14 219
15 40
15 95
15 112
15 137
15 173
15 240
16 28
16 49
16 90
16 111
16 135
16 137
16 253
17 88
17 115
17 118
17 120
17 254
18 35
18 102
18 112
18 119
18 166
18 172
19 31
19 215
20 37
20 59
20 80
20 85
20 131
20 133
20 258
20 285
21 60
21 73
21 76
21 97
21 123
21 217
21 246
22 27
22 37
22 67
22 69
22 147
22 155
22 173
22 179
22 236
22 287
23 35
23 81
23 115
23 118
23 125
23 141
23 149
23 206
23 258
23 262
23 290
24 34
24 71
24 107
24 144
24 220
24 276
25 80
25 88
25 95
25 97
25 108
25 116
25 117
25 188
25 228
25 231
25 248
25 256
26 59
26 63
26 77
26 88
26 142
26 169
26 178
26 193
26 203
26 207
26 268
26 296
27 48
27 52
27 54
27 59
27 62
27 69
27 71
27 86
27 142
27 152
27 166
27 175
27 179
27 236
27 247
27 280
27 286
27 289
27 298
28 50
28 51
28 53
28 63
28 69
28 128
28 135
28 156
28 203
28 215
28 238
28 287
28 294
29 30
29 42
29 65
29 83
29 88
29 96
29 109
29 134
29 163
29 168
30 37
30 42
30 55
30 80
30 88
30 96
30 109
30 123
30 142
30 152
30 161
30 228
30 255
30 260
30 297
31 147
32 53
32 69
32 191
32 246
32 273
32 288
33 111
33 130
33 177
33 183
33 285
34 129
34 172
34 181
34 200
34 261
34 295
35 68
35 103
35 104
35 124
35 230
36 41
36 70
36 144
36 200
36 204
36 217
36 229
36 265
37 80
37 103
37 173
37 183
37 211
37 219
37 248
37 250
38 74
38 90
38 107
38 149
38 190
39 49
39 66
39 80
39 103
39 150
39 248
40 95
40 199
40 215
40 229
40 238
40 267
40 294
41 51
41 108
41 171
41 299
42 47
42 50
42 72
42 88
42 115
42 124
42 126
42 132
42 138
42 177
42 199
42 206
42 260
42 284
43 85
43 134
43 152
43 190
44 190
44 287
45 126
45 187
46 199
46 209
46 241
47 115
47 118
47 132
47 146
47 155
47 200
47 218
47 229
47 264
48 52
48 86
48 157
48 176
48 237
48 262
48 271
48 284
49 50
49 67
49 103
49 126
49 128
49 146
49 219
49 241
49 249
49 250
49 293
49 297
49 298
50 63
50 98
50 126
50 138
50 141
50 284
50 293
51 60
51 87
51 105
51 109
51 114
51 156
51 171
51 196
51 222
51 259
51 291
52 108
52 139
52 151
53 70
53 83
53 92
53 128
53 229
53 235
53 273
53 279
54 79
54 113
54 143
54 149
54 157
54 250
54 264
54 267
54 288
54 292
54 298
55 69
55 85
55 104
55 204
55 270
55 297
56 86
56 94
56 107
56 171
56 235
56 268
57 101
57 152
57 161
57 170
57 179
57 210
57 218
58 70
58 145
58 236
58 239
59 65
59 69
59 80
59 95
59 109
59 161
59 163
59 253
59 283
59 289
59 295
60 164
60 291
61 68
61 94
61 97
61 116
61 123
61 141
61 173
61 176
61 179
61 180
61 185
61 255
61 289
62 89
62 116
62 214
62 275
63 100
63 138
63 141
63 145
63 207
63 219
64 98
64 145
64 186
64 202
64 205
64 270
65 95
65 134
65 231
65 250
65 262
66 106
66 114
66 120
66 178
66 291
66 292
67 82
67 122
67 140
67 189
67 223
67 287
67 298
68 72
68 124
68 180
68 251
69 80
69 91
69 98
69 128
69 161
69 166
69 204
69 214
69 221
69 238
69 247
70 99
70 200
70 229
71 107
71 119
71 206
71 210
71 259
71 280
72 80
72 84
72 118
72 124
72 135
72 147
72 160
72 220
73 109
73 117
73 123
73 224
74 167
74 194
75 76
75 86
75 89
75 96
75 112
75 116
75 241
76 81
76 97
76 113
76 237
76 266
77 170
77 235
78 102
78 125
79 95
79 113
79 149
79 152
79 173
79 252
79 291
80 123
80 228
80 253
80 261
80 289
81 88
81 113
81 140
81 141
81 195
81 214
81 257
82 182
82 233
82 298
83 92
83 220
84 126
84 146
84 168
84 263
84 299
85 134
85 249
85 276
85 284
86 94
86 107
86 169
86 183
87 173
87 183
87 218
87 222
87 266
88 108
88 275
88 291
89 112
89 174
89 241
90 107
90 137
90 271
91 157
91 283
92 159
92 220
93 119
93 133
93 137
93 293
94 95
94 98
94 141
94 160
94 228
94 236
94 244
94 277
95 160
95 201
95 228
95 282
96 189
96 237
96 264
96 275
96 300
97 117
97 248
97 252
98 112
98 138
98 172
98 217
98 244
99 191
99 219
99 269
100 128
100 140
101 167
101 217
102 127
102 172
102 223
102 274
103 126
103 150
103 158
103 202
103 219
103 226
103 230
103 281
104 230
104 244
104 274
105 148
105 153
105 178
105 213
105 285
106 130
106 248
106 285
107 116
107 208
107 220
107 254
108 150
109 135
109 211
109 240
109 253
110 112
110 154
110 159
110 195
110 218
111 137
111 193
111 251
112 116
112 122
112 137
112 185
112 241
112 244
113 179
113 182
113 185
113 234
113 247
113 267
114 151
114 174
114 178
114 250
114 259
115 118
115 173
115 197
115 221
115 236
116 132
116 172
116 180
116 195
116 208
116 214
116 228
116 252
117 123
117 179
117 185
117 224
117 268
119 151
119 259
119 280
119 281
120 190
120 242
120 278
120 288
120 292
121 135
121 282
122 140
122 148
122 234
122 244
123 172
123 176
123 223
123 255
124 147
124 162
125 136
125 147
125 159
125 185
125 261
125 262
126 168
126 198
126 260
127 223
128 144
128 235
128 293
129 211
130 176
130 225
130 273
130 287
130 294
131 156
131 194
131 199
131 242
132 159
132 252
132 257
133 148
133 178
133 213
133 264
133 285
133 291
133 295
134 187
135 155
135 193
135 203
135 215
135 242
135 253
135 288
135 294
136 154
136 158
136 159
136 256
136 258
136 263
137 241
137 297
138 172
138 214
138 237
138 256
138 275
139 164
139 238
139 243
139 248
140 141
140 183
140 211
140 250
141 180
141 233
141 240
141 247
141 259
142 234
142 236
142 255
142 286
143 157
143 176
143 181
143 189
143 196
143 279
144 146
144 200
144 291
145 157
145 207
145 280
146 200
146 250
146 275
147 261
148 231
148 255
148 265
148 285
149 206
149 258
149 287
150 151
150 167
150 294
151 154
151 178
151 251
151 266
152 170
152 204
152 207
152 286
152 291
153 178
154 159
154 251
154 263
155 171
155 193
155 211
155 246
156 164
156 197
156 219
156 221
156 259
156 293
157 176
157 187
157 196
157 264
157 288
157 300
158 189
158 219
159 198
159 206
159 256
159 258
160 220
161 167
161 219
161 221
161 261
162 277
163 204
163 282
163 295
164 192
164 210
164 216
164 228
164 269
164 293
165 196
165 199
165 255
165 279
165 300
166 191
166 216
166 218
166 238
167 170
167 217
167 219
168 180
168 206
168 247
168 255
168 297
169 180
169 183
169 184
169 193
169 247
169 264
170 171
170 200
170 210
170 235
170 242
170 259
170 266
170 278
171 189
171 193
171 196
171 259
171 278
171 281
171 291
172 176
172 182
172 193
172 208
172 214
172 237
172 251
172 281
172 300
173 219
173 222
173 236
173 240
173 250
173 291
174 238
174 239
175 195
175 218
175 273
175 274
176 196
176 229
176 264
176 294
177 180
177 220
177 300
178 207
178 250
178 291
178 292
179 185
179 194
179 195
179 218
179 224
179 245
179 247
180 183
180 197
180 216
180 240
180 247
180 287
180 295
180 296
180 300
181 194
181 237
181 256
181 261
182 193
182 247
182 300
183 204
183 264
184 194
185 194
185 229
185 245
185 261
185 292
186 205
189 268
190 251
191 192
191 216
191 241
191 288
192 241
193 201
193 225
193 235
193 246
193 256
193 286
194 242
195 214
195 218
195 273
195 275
196 291
196 293
197 221
197 238
197 273
197 280
198 249
198 287
199 229
199 255
199 260
200 218
200 250
200 271
200 295
201 214
201 248
201 270
201 272
201 283
202 281
203 269
203 288
204 248
204 283
206 273
207 296
208 260
208 300
210 293
211 219
211 226
211 234
211 240
211 246
211 247
211 250
211 300
212 290
214 275
215 220
215 267
215 286
216 293
218 273
219 230
219 248
219 252
219 269
220 254
220 264
221 277
222 225
222 235
222 270
223 227
223 233
223 238
224 268
225 235
226 300
229 233
229 236
229 289
229 292
230 249
230 267
231 256
231 285
232 266
232 286
232 299
234 250
235 242
235 259
235 267
235 270
236 240
236 255
236 277
236 289
236 290
237 271
237 284
238 243
238 272
238 273
238 281
239 247
239 263
241 298
242 261
242 266
242 288
242 292
244 273
244 279
245 286
247 263
247 300
248 252
248 269
248 272
248 283
249 267
249 284
249 297
250 267
250 275
251 292
253 273
253 279
253 297
254 299
255 300
256 261
256 270
257 279
258 260
258 263
262 290
264 298
264 300
265 268
268 296
272 283
272 291
273 279
273 294
276 284
277 278
277 280
277 284
277 290
284 289
285 295
287 296
293 297
295 296
297 298
*Classes
1
1
1
1
1
1
1
1
1
1
1
1
1
1
1
1
1
1
1
1
1
1
1
1
1
1
1
1
1
1
1
1
1
1
1
1
1
1
1
1
1
1
1
1
1
1
1
1
1
1
1
1
1
1
1
1
1
1
1
1
1
1
1
1
1
1
1
1
1
1
1
1
1
1
1
1
1
1
1
1
1
1
1
1
1
1
1
1
1
1
1
1
1
1
1
1
1
1
1
1
1
1
1
1
1
1
1
1
1
1
1
1
1
1
1
1
1
1
1
1
1
1
1
1
1
1
1
1
1
1
1
1
1
1
1
1
1
1
1
1
1
1
1
1
1
1
1
1
1
1
2
2
2
2
2
2
2
2
2
2
2
2
2
2
2
2
2
2
2
2
2
2
2
2
2
2
2
2
2
2
2
2
2
2
2
2
2
2
2
2
2
2
2
2
2
2
2
2
2
2
2
2
2
2
2
2
2
2
2
2
2
2
2
2
2
2
2
2
2
2
2
2
2
2
2
2
2
2
2
2
2
2
2
2
2
2
2
2
2
2
2
2
2
2
2
2
2
2
2
2
2
2
2
2
2
2
2
2
2
2
2
2
2
2
2
2
2
2
2
2
2
2
2
2
2
2
2
2
2
2
2
2
2
2
2
2
2
2
2
2
2
2
2
2
2
2
2
2
2
2
