*Vertices 300
*Edges
1 87
1 115
1 123
1 272
1 278
2 76
2 162
2 164
2 200
2 241
3 78
3 219
3 250
3 267
5 9
5 21
5 42
5 90
5 97
5 107
5 113
5 115
5 132
5 166
5 170
5 171
5 179
5 196
5 208
5 276
5 292
6 39
6 77
6 95
6 128
6 152
6 155
6 284
6 292
7 28
7 51
7 70
7 105
7 131
7 186
7 191
7 206
7 269
7 270
7 295
8 22
8 28
8 40
8 64
8 71
8 79
8 96
8 138
8 139
8 157
8 173
8 219
8 228
8 243
8 290
9 23
9 43
9 48
9 97
9 116
9 123
9 149
9 166
9 180
9 220
9 291
10 29
10 31
10 49
10 52
10 75
10 89
10 118
10 143
10 226
10 266
10 295
11 19
11 27
11 28
11 29
11 30
11 34
11 40
11 42
11 44
11 45
11 51
11 83
11 107
11 109
11 115
11 136
11 202
11 216
11 219
11 228
11 244
11 266
11 268
12 65
12 73
12 87
12 98
12 122
12 141
12 146
12 152
12 210
12 245
12 252
12 256
12 259
13 63
13 70
13 87
13 92
13 114
13 141
13 208
13 222
13 279
14 35
14 72
14 81
14 102
14 110
14 179
14 202
14 209
14 238
14 244
14 247
15 32
15 91
15 119
15 143
15 260
16 52
16 133
16 165
16 175
17 18
17 25
17 76
17 87
17 161
17 174
17 223
17 231
17 249
17 286
17 287
18 78
18 184
18 233
18 260
18 277
18 287
19 27
19 30
19 45
19 52
19 63
19 65
19 70
19 87
19 92
19 115
19 118
19 122
19 141
19 202
19 211
19 266
20 28
20 57
20 86
20 103
20 107
20 112
20 126
20 149
20 162
20 173
20 189
20 195
20 233
20 241
20 276
20 283
21 26
21 57
21 64
21 75
21 97
21 103
21 107
21 113
21 132
21 163
21 174
22 26
22 28
22 55
22 58
22 64
22 69
22 96
22 154
22 156
22 219
23 43
23 62
23 97
23 100
23 119
23 159
23 164
23 205
23 236
23 237
23 261
23 272
24 33
24 40
24 60
24 125
24 203
24 245
24 262
24 273
24 290
25 29
25 37
25 46
25 49
25 57
25 72
25 76
25 87
25 113
25 132
25 143
25 213
25 223
25 237
26 30
26 53
26 64
26 117
26 156
26 211
26 236
27 28
27 29
27 40
27 47
27 49
27 66
27 70
27 83
27 96
27 104
27 105
27 206
27 216
27 228
27 232
27 293
28 47
28 70
28 79
28 86
28 103
29 44
29 49
29 75
29 105
29 111
29 127
29 143
29 159
29 170
29 242
29 251
29 278
30 47
30 53
30 55
30 80
30 109
30 114
30 119
30 120
30 130
30 156
30 210
30 277
31 148
31 239
31 243
31 295
32 78
32 80
32 110
32 134
32 154
32 158
32 181
32 185
32 200
32 248
32 257
33 71
33 73
33 77
33 124
33 175
34 76
34 106
34 129
34 149
34 244
34 267
34 276
34 290
34 293
35 138
35 147
35 202
35 273
35 288
35 297
36 75
36 79
36 147
36 170
36 172
36 173
36 193
36 211
36 222
36 245
36 259
36 286
37 40
37 50
37 87
37 104
37 113
37 116
37 124
37 125
37 141
37 142
37 180
37 190
37 196
37 223
38 80
38 199
38 209
38 224
38 280
38 293
39 77
39 81
39 117
39 128
39 216
39 244
40 60
40 96
40 104
40 188
40 299
40 300
41 62
41 79
41 138
41 147
41 149
41 174
41 292
42 43
42 49
42 107
42 115
42 119
42 148
42 149
42 163
42 193
42 205
42 290
43 48
43 116
43 157
43 193
44 73
44 83
44 111
44 147
44 174
44 178
44 184
44 219
44 259
44 278
45 60
45 63
45 116
45 125
45 163
45 191
45 199
45 202
45 210
45 286
46 49
46 59
46 72
46 92
46 105
46 113
46 115
46 125
46 127
46 158
46 168
46 194
46 249
46 252
47 49
47 53
47 69
47 70
47 137
47 158
47 206
47 228
47 251
48 90
48 98
48 234
48 243
48 261
48 277
48 278
49 57
49 74
49 91
49 105
49 107
49 113
49 115
49 127
49 139
49 143
49 153
49 252
49 272
49 281
50 124
50 138
50 236
50 264
51 83
51 99
51 170
51 196
51 202
51 278
51 295
52 68
52 84
52 118
52 131
52 139
52 141
52 165
52 180
52 190
52 204
52 256
52 261
53 128
53 161
53 210
53 216
53 273
54 112
55 120
55 130
55 164
55 196
55 297
56 254
57 59
57 75
57 107
57 136
57 226
57 249
57 257
58 93
58 99
58 100
58 126
58 219
59 62
59 64
59 86
59 107
59 113
59 120
59 136
59 174
59 249
59 253
59 281
60 67
60 92
60 98
60 105
60 125
60 142
60 149
60 154
60 218
60 263
60 265
60 281
60 290
60 296
61 117
61 119
61 129
61 142
61 146
61 227
61 239
61 274
62 69
62 99
62 100
62 107
62 120
62 136
62 149
62 187
62 215
62 234
63 116
63 124
63 145
63 151
63 153
63 254
64 74
64 103
64 113
64 127
64 147
64 152
64 156
64 198
64 236
64 240
64 245
64 258
65 141
65 193
65 211
65 249
65 281
66 88
66 103
66 127
66 137
66 184
66 189
66 202
67 91
67 143
67 218
67 288
68 84
68 159
68 189
68 237
68 251
68 258
68 265
68 269
69 137
69 145
69 154
69 242
70 76
70 90
70 103
70 141
70 186
70 213
70 240
70 249
70 257
70 264
70 275
71 99
71 111
71 116
71 129
71 228
71 240
71 248
71 263
71 293
72 102
72 194
72 278
73 139
73 146
73 165
73 190
73 266
73 297
74 94
74 110
74 113
74 120
74 198
74 207
74 249
74 269
74 270
74 284
75 107
75 126
75 162
75 201
75 211
76 90
76 141
76 162
76 206
76 286
77 194
78 80
78 110
78 114
78 134
78 137
78 224
78 255
78 267
78 277
79 88
79 93
79 96
79 105
79 138
79 140
79 196
79 210
79 222
80 95
80 102
80 110
80 120
80 130
80 170
80 177
80 183
80 207
80 268
81 95
81 98
81 110
81 113
81 115
81 128
81 154
81 179
81 197
81 217
81 236
81 241
81 267
82 264
83 231
83 244
83 281
84 101
84 165
84 236
84 246
85 89
85 179
85 198
85 231
85 279
86 107
86 249
86 250
87 115
87 132
87 133
87 141
87 142
87 163
87 238
87 276
87 291
88 133
88 137
88 138
88 148
88 174
88 194
89 195
89 198
89 269
90 122
90 132
90 192
90 193
90 213
90 261
91 143
92 98
92 125
92 128
92 216
92 237
93 99
93 100
93 104
93 126
93 196
93 205
93 217
93 253
93 268
94 206
94 207
94 217
94 223
94 263
94 275
95 110
95 158
95 179
95 295
96 199
96 244
96 299
97 163
97 165
97 241
97 248
98 125
98 128
98 200
98 256
99 116
99 132
99 144
99 149
99 158
99 195
99 199
99 237
100 104
100 120
100 129
100 234
100 253
100 254
100 283
101 128
101 202
101 216
102 183
103 189
103 260
104 111
104 129
104 196
104 210
104 223
105 115
105 143
105 196
105 212
105 295
106 129
106 197
106 267
106 273
107 115
107 126
107 149
107 156
107 163
107 218
107 241
107 261
107 263
107 272
108 253
109 114
109 280
110 120
110 128
110 137
110 158
110 172
110 200
111 129
111 159
111 169
111 187
111 231
111 240
111 247
111 268
112 210
112 237
112 270
113 115
113 124
113 128
113 143
113 148
113 190
113 217
114 134
114 141
114 216
114 229
115 118
115 141
115 148
115 149
115 198
115 208
115 263
115 291
116 123
116 124
116 144
116 163
116 226
116 236
116 291
117 128
117 214
117 233
117 266
118 141
118 143
118 145
118 162
119 166
119 205
119 210
119 223
119 228
119 235
120 277
121 132
121 179
121 204
122 139
122 141
122 178
122 203
122 288
123 154
123 155
123 191
123 220
123 253
123 278
124 153
124 234
124 291
125 133
125 141
125 142
125 199
125 237
125 265
126 272
127 139
127 156
127 173
127 185
127 258
127 263
128 216
129 146
129 254
129 263
130 179
130 184
130 211
130 242
131 150
131 182
131 295
132 193
132 204
132 237
133 137
133 141
133 142
134 185
134 217
134 224
134 229
134 257
134 267
134 294
135 159
135 169
135 203
135 204
135 239
135 262
136 152
136 156
136 176
136 213
136 216
136 231
136 248
136 272
136 281
137 202
137 251
137 299
138 140
138 149
138 264
138 273
139 141
139 173
139 180
139 190
139 207
139 240
139 242
139 297
140 157
140 215
140 297
141 142
141 207
141 216
141 292
142 146
142 166
142 177
142 180
142 192
142 233
142 235
142 252
143 145
143 184
143 206
143 255
143 258
143 262
143 291
144 168
144 299
145 152
145 231
146 179
146 182
146 234
146 239
146 274
147 156
147 174
147 252
148 174
148 241
148 254
148 281
149 166
149 169
149 186
149 187
149 235
149 242
149 261
149 290
149 292
150 197
151 194
151 274
151 299
152 175
152 207
152 231
152 252
152 270
152 281
153 179
153 230
153 234
153 272
153 279
154 248
154 253
154 267
154 290
154 297
154 300
155 161
155 169
155 174
155 247
155 252
155 291
155 293
155 295
156 174
156 218
156 245
156 252
156 259
156 272
156 275
157 170
157 215
157 228
157 240
157 255
157 294
158 178
158 179
158 203
158 257
159 169
159 237
159 268
160 234
160 287
161 174
161 247
161 249
161 253
162 197
162 239
162 241
162 262
162 265
162 275
163 172
163 227
163 235
163 236
163 238
163 246
163 254
163 255
164 220
164 229
164 236
165 186
165 190
165 248
165 272
166 168
166 171
166 180
166 181
166 235
166 246
166 264
166 266
166 282
166 290
166 292
167 189
167 191
167 208
167 210
167 226
167 268
168 276
169 237
169 257
170 178
170 181
170 182
170 183
170 196
170 203
170 211
170 226
170 230
170 240
170 254
170 256
170 266
170 294
170 295
171 180
171 230
171 279
171 292
172 180
172 196
172 199
172 206
172 224
172 232
172 241
172 254
172 274
173 208
173 222
173 292
174 247
174 268
174 271
176 179
176 195
176 211
177 187
177 222
177 237
177 266
177 271
177 275
177 278
178 203
178 215
178 232
178 239
178 259
178 284
178 285
179 196
179 211
179 234
179 249
179 254
179 279
180 181
180 189
180 199
180 203
180 211
180 223
180 257
180 260
180 266
180 269
180 271
181 203
181 262
181 269
181 273
181 288
181 298
182 184
182 211
182 238
182 266
182 268
182 297
183 196
183 200
183 210
183 226
183 238
183 268
183 295
184 187
184 189
184 214
184 237
184 255
184 258
184 260
184 265
184 268
184 273
184 288
185 194
185 230
185 263
185 271
185 293
185 294
186 191
186 272
187 205
187 217
187 268
188 210
188 226
188 289
189 199
189 208
189 214
189 260
189 265
189 268
189 273
190 242
190 248
190 274
191 206
191 247
191 268
191 290
193 213
193 230
193 249
193 286
194 263
194 274
194 293
194 299
195 252
195 257
195 270
196 210
196 230
196 240
196 254
196 271
197 212
197 217
197 219
197 223
197 241
197 274
198 225
198 236
198 246
198 249
198 256
198 272
199 204
199 214
199 234
200 245
200 275
200 295
201 207
201 212
202 211
202 236
202 246
202 247
202 257
202 259
202 266
202 269
202 271
202 280
202 297
203 231
203 239
203 269
203 284
203 288
204 214
204 222
204 234
204 261
204 263
204 279
205 213
205 225
206 228
206 232
206 236
206 242
206 243
206 252
206 270
206 276
207 212
207 231
207 275
207 283
207 291
208 222
208 292
209 284
209 285
210 226
210 256
210 268
210 272
211 238
211 240
211 266
211 268
212 223
212 284
213 225
213 249
213 264
213 281
213 290
214 237
214 261
214 266
214 283
214 286
215 227
215 277
215 284
217 226
217 229
217 236
217 268
217 297
218 219
218 245
218 263
218 287
219 224
219 259
219 268
219 287
219 293
220 229
220 236
220 246
222 277
222 279
223 255
223 262
224 240
224 250
224 263
224 274
224 287
224 293
225 249
225 263
225 266
225 269
226 238
226 258
226 268
227 238
228 239
228 265
228 280
230 266
230 271
230 279
231 233
231 239
231 250
231 265
231 270
231 283
232 241
232 243
232 255
233 283
235 236
235 246
235 259
236 246
236 261
236 270
236 272
236 298
237 268
238 239
238 246
238 268
239 262
239 265
239 274
240 250
240 256
240 258
240 292
241 243
242 243
242 251
242 255
243 251
243 255
243 278
245 253
245 255
245 259
245 262
245 275
246 255
246 259
246 261
246 266
246 297
246 298
247 268
247 271
248 274
248 291
248 293
249 290
250 256
250 267
252 257
252 270
252 295
253 262
253 267
253 284
253 300
255 262
255 273
255 277
255 294
256 282
256 292
257 264
257 266
257 270
257 271
258 266
258 268
258 269
258 270
258 291
259 275
261 272
262 273
262 298
262 300
263 293
264 266
265 280
266 269
266 270
266 271
266 275
266 278
267 297
268 269
268 297
269 270
269 271
269 273
269 288
270 276
271 275
271 278
275 294
276 290
276 296
277 290
281 282
282 292
283 286
284 285
284 292
284 300
288 289
290 296
290 297
291 293
*Classes
1
1
1
1
1
1
1
1
1
1
1
1
1
1
1
1
1
1
1
1
1
1
1
1
1
1
1
1
1
1
1
1
1
1
1
1
1
1
1
1
1
1
1
1
1
1
1
1
1
1
1
1
1
1
1
1
1
1
1
1
1
1
1
1
1
1
1
1
1
1
1
1
1
1
1
1
1
1
1
1
1
1
1
1
1
1
1
1
1
1
1
1
1
1
1
1
1
1
1
1
1
1
1
1
1
1
1
1
1
1
1
1
1
1
1
1
1
1
1
1
1
1
1
1
1
1
1
1
1
1
1
1
1
1
1
1
1
1
1
1
1
1
1
1
1
1
1
1
1
1
2
2
2
2
2
2
2
2
2
2
2
2
2
2
2
2
2
2
2
2
2
2
2
2
2
2
2
2
2
2
2
2
2
2
2
2
2
2
2
2
2
2
2
2
2
2
2
2
2
2
2
2
2
2
2
2
2
2
2
2
2
2
2
2
2
2
2
2
2
2
2
2
2
2
2
2
2
2
2
2
2
2
2
2
2
2
2
2
2
2
2
2
2
2
2
2
2
2
2
2
2
2
2
2
2
2
2
2
2
2
2
2
2
2
2
2
2
2
2
2
2
2
2
2
2
2
2
2
2
2
2
2
2
2
2
2
2
2
2
2
2
2
2
2
2
2
2
2
2
2
