*Vertices 300
*Edges
1 170
1 175
1 251
1 272
1 283
1 289
2 34
2 36
2 51
2 57
2 149
2 167
2 255
2 265
3 6
3 66
3 98
3 134
3 157
3 201
3 260
3 292
4 8
4 56
4 87
4 105
4 116
4 248
5 9
5 28
5 30
5 50
5 84
5 91
5 104
5 113
5 120
5 149
5 173
5 174
5 183
5 191
5 195
5 211
5 268
5 282
5 296
6 28
6 31
6 66
6 82
6 98
6 121
6 209
6 259
6 293
6 294
7 74
7 79
7 112
7 212
7 261
8 13
8 25
8 29
8 52
8 67
8 87
8 105
8 124
8 197
8 215
8 248
8 250
8 256
8 280
9 50
9 59
9 76
9 179
10 65
10 247
10 254
11 35
11 128
11 155
11 173
11 175
11 184
11 197
11 203
11 211
11 224
12 30
12 59
12 170
12 183
12 241
13 25
13 29
13 43
13 54
13 107
13 144
13 148
13 272
14 52
14 117
14 152
14 190
14 202
14 226
15 27
15 40
15 72
15 82
15 84
15 91
15 129
15 155
15 190
15 202
15 209
15 241
15 260
16 33
16 94
16 103
16 209
16 230
16 234
17 23
17 193
17 197
17 199
17 224
17 230
17 240
18 34
18 43
18 44
18 75
18 95
18 120
18 130
18 193
18 297
19 30
19 59
19 61
19 76
19 94
19 107
19 140
19 277
19 295
20 26
20 41
20 68
20 69
20 78
20 100
20 104
20 116
20 139
20 155
20 158
20 189
20 199
20 214
21 34
21 41
21 65
21 74
21 120
21 121
21 122
21 135
21 161
21 206
21 233
21 251
22 24
22 133
22 171
22 199
22 251
22 269
22 280
22 288
22 291
23 43
23 193
23 199
24 92
24 120
24 133
24 171
24 251
24 287
25 29
25 62
25 88
25 146
25 163
25 172
25 188
25 200
25 236
25 249
25 253
25 286
26 48
26 60
26 155
26 158
26 245
27 72
27 141
27 202
27 275
28 50
28 84
28 149
28 173
28 198
28 226
28 246
29 109
29 188
29 215
29 228
29 236
29 250
29 253
29 283
29 297
30 56
30 69
30 76
30 103
30 110
30 113
30 120
30 129
30 161
30 173
30 187
30 191
30 195
30 249
30 264
31 45
31 46
31 143
31 154
31 171
31 286
31 294
32 69
32 190
32 196
32 224
32 272
32 286
33 80
33 89
33 94
33 168
34 36
34 41
34 44
34 83
34 104
34 128
34 130
34 139
34 145
34 237
34 265
35 56
35 85
35 89
35 116
35 168
35 175
35 181
35 211
35 213
35 217
35 229
35 243
35 247
35 251
35 255
35 266
35 284
36 41
36 99
36 164
36 177
36 225
36 229
36 230
36 265
36 267
36 281
37 42
37 47
37 51
37 74
37 112
37 118
37 172
37 193
37 215
37 219
37 235
37 244
37 267
38 51
38 53
38 108
38 171
38 217
38 265
38 287
39 55
39 176
39 187
39 190
39 197
39 202
39 206
39 264
39 269
39 276
39 280
40 129
40 235
40 279
41 74
41 83
41 90
41 94
41 103
41 116
41 128
41 130
41 139
41 145
41 153
41 190
41 223
41 253
41 265
42 56
42 70
42 71
42 74
42 78
42 88
42 118
42 134
42 139
42 142
42 146
42 151
42 172
42 208
42 237
42 265
42 284
42 297
43 54
43 95
43 130
43 144
43 193
44 63
44 130
44 138
44 140
44 141
44 151
44 161
44 185
44 206
44 208
44 219
44 222
44 223
44 230
45 46
45 123
45 154
45 180
45 191
45 197
45 205
45 208
45 225
45 297
46 53
46 82
46 101
46 123
46 161
46 284
47 50
47 51
47 88
47 146
47 149
47 155
47 164
47 165
47 191
47 195
47 202
47 205
47 209
47 215
47 243
47 245
47 260
47 271
48 288
49 134
49 142
49 145
49 238
49 277
50 165
50 183
50 211
50 217
51 149
51 155
51 171
51 185
51 235
51 241
51 244
51 246
51 294
52 155
52 165
52 202
52 223
52 280
53 60
53 101
53 213
53 281
53 287
54 104
54 175
54 178
54 219
54 244
54 272
55 78
55 101
55 116
55 166
55 190
55 202
55 244
55 253
56 59
56 116
56 129
56 134
56 152
56 159
56 172
56 225
56 249
57 69
57 71
57 160
57 167
57 232
57 290
58 93
58 111
58 119
58 127
58 141
58 147
58 173
59 76
59 107
59 152
59 183
59 184
59 196
59 224
59 241
59 270
59 274
59 282
60 153
60 188
60 200
60 203
60 211
60 221
60 245
60 252
60 276
60 293
61 76
61 115
61 150
61 166
61 222
61 263
62 172
62 249
63 100
63 140
63 153
63 167
63 213
64 155
64 191
64 245
64 282
65 68
65 92
65 108
65 120
65 132
65 135
65 167
65 180
65 227
65 231
65 232
65 263
65 297
66 195
66 210
66 263
66 293
67 105
67 261
68 132
68 160
68 169
68 193
68 226
68 247
69 71
69 100
69 102
69 110
69 135
69 140
69 178
69 188
69 202
69 242
69 260
69 272
69 273
69 278
69 282
69 293
70 92
70 151
70 159
70 210
70 237
70 242
70 263
71 92
71 110
71 146
71 152
71 155
71 208
71 282
71 293
72 82
72 91
72 128
72 174
72 221
73 86
73 94
73 103
73 114
73 162
73 182
73 288
74 78
74 79
74 112
74 118
74 143
74 153
74 190
74 223
74 284
75 120
75 161
75 187
75 233
75 262
76 107
76 110
76 144
76 152
76 206
76 266
76 277
76 280
76 286
76 295
77 129
77 158
77 166
77 181
77 239
78 83
78 116
78 139
78 143
78 190
79 145
79 171
79 199
79 212
79 294
79 299
80 85
80 98
80 112
80 133
80 167
80 232
80 236
80 261
80 298
81 162
81 201
81 255
81 261
82 139
82 186
82 202
82 209
82 212
82 216
82 249
82 259
82 287
82 300
83 90
83 110
83 130
83 139
83 182
83 217
83 232
83 293
83 299
84 89
84 91
84 173
84 174
84 204
84 287
85 87
85 113
85 125
85 173
85 181
85 236
85 254
85 258
86 97
86 103
86 130
86 166
86 256
86 292
87 94
87 103
87 113
87 177
87 191
87 195
87 199
87 204
87 205
87 213
87 217
87 245
87 248
88 146
88 179
88 183
88 190
88 200
88 202
88 236
88 295
89 163
89 181
89 213
89 285
89 287
89 290
90 125
90 139
90 160
90 215
90 220
90 253
91 114
91 209
91 241
91 278
92 105
92 135
92 141
92 151
92 158
92 171
92 177
92 222
92 266
93 111
93 259
93 287
93 296
94 103
94 114
96 213
97 130
97 138
97 256
98 131
98 133
98 134
98 157
98 201
98 248
98 249
98 279
99 175
99 177
99 245
100 135
100 139
100 140
100 153
100 189
100 190
100 193
100 202
100 242
100 255
100 277
101 115
101 123
101 154
101 170
101 210
101 253
101 287
101 292
101 296
102 110
102 135
102 156
102 230
102 234
102 237
102 249
102 270
102 288
103 114
103 120
103 182
104 130
104 149
104 153
104 165
104 170
104 219
105 124
105 135
105 170
105 216
105 227
105 266
105 280
105 282
106 247
107 144
107 154
107 190
107 205
107 217
107 280
107 286
109 196
109 198
109 219
109 223
109 236
109 272
109 291
110 120
110 129
110 156
110 170
110 230
110 274
110 279
110 288
111 115
111 119
111 125
111 127
111 134
111 141
111 147
111 173
111 218
111 220
111 238
112 133
112 143
112 223
112 235
112 279
113 143
113 154
113 166
113 173
113 185
113 191
113 203
113 208
113 217
113 245
113 254
113 268
113 273
114 120
114 157
114 165
114 172
114 188
114 201
114 206
114 240
114 255
114 269
114 272
114 278
114 300
115 119
115 131
115 138
115 150
115 155
115 199
115 202
115 224
115 256
115 264
115 269
116 139
116 143
116 152
116 159
116 163
116 182
116 251
118 153
118 272
118 275
119 131
119 134
119 220
120 161
120 187
120 233
120 262
120 277
121 122
121 163
121 171
121 195
121 205
121 262
121 275
121 294
121 296
122 155
122 159
122 291
122 299
123 211
123 259
123 296
124 135
124 174
124 184
124 221
124 282
125 148
125 157
125 173
125 192
125 197
125 215
125 216
125 236
125 258
125 259
125 267
125 286
125 296
126 223
126 257
126 260
127 141
127 165
127 171
127 217
127 291
127 294
128 145
128 196
128 222
129 205
129 264
129 269
129 283
129 295
130 138
130 150
130 166
130 219
130 294
131 150
131 199
131 238
132 135
132 200
132 247
132 291
133 161
133 205
133 243
133 247
133 254
133 261
134 142
134 248
134 261
134 284
135 197
135 218
135 255
135 257
135 263
135 266
135 270
135 296
136 155
136 184
136 199
136 220
136 225
136 239
136 253
136 287
137 156
137 163
137 183
137 222
138 150
138 191
138 201
138 203
138 219
139 160
139 163
139 213
139 220
139 251
139 259
139 287
139 293
140 151
140 167
140 195
140 200
140 223
140 267
140 277
140 296
140 298
141 171
141 176
141 177
141 211
141 222
141 260
141 261
141 295
142 248
142 298
143 171
143 185
143 199
143 213
143 254
143 269
143 281
143 293
144 148
144 227
144 258
144 296
145 238
145 253
145 277
145 287
146 163
146 168
146 197
146 200
146 201
146 214
146 215
146 231
146 236
146 253
147 163
147 212
147 217
147 226
147 227
147 232
147 244
147 257
147 265
147 289
148 216
148 259
148 267
148 272
148 296
149 167
149 191
149 232
149 235
149 296
150 180
150 248
151 156
151 158
151 159
151 190
151 206
151 222
151 230
151 274
151 283
151 285
151 290
151 295
152 157
152 171
152 229
152 281
152 293
152 294
153 185
153 197
153 204
153 210
153 212
153 240
153 300
154 188
154 197
154 226
154 227
154 250
154 272
155 171
155 199
155 225
155 249
155 254
155 282
155 299
156 274
156 285
156 290
157 160
157 168
157 178
157 180
157 205
157 215
157 272
158 164
158 166
158 190
158 225
158 230
158 243
158 295
159 181
159 182
159 205
159 230
159 237
159 271
160 167
160 180
160 189
160 217
160 232
160 297
162 213
162 231
162 248
162 261
162 281
163 213
163 253
163 277
163 287
163 291
164 201
164 205
164 225
164 230
164 254
164 255
166 173
166 180
166 218
166 222
166 244
167 175
167 232
167 267
167 298
168 178
168 180
168 181
168 197
168 200
168 205
168 215
168 221
168 229
168 234
168 237
168 257
168 280
168 284
168 294
169 178
169 198
169 226
169 228
170 173
170 186
170 198
170 212
170 218
170 232
170 283
170 288
171 172
171 199
171 219
171 224
171 241
171 269
171 281
171 291
171 294
171 299
172 184
172 241
173 178
173 180
173 217
173 218
173 222
173 299
174 221
174 285
175 267
176 276
177 201
177 211
177 217
177 229
177 243
177 245
177 255
177 261
177 284
177 290
178 180
178 212
178 220
178 226
178 272
178 289
180 218
180 226
180 232
180 257
180 297
181 182
181 237
181 266
181 269
181 280
181 284
181 294
182 185
182 207
182 232
182 246
182 278
182 294
183 203
183 238
183 239
183 282
184 196
184 214
184 224
184 237
184 240
184 273
184 300
185 219
185 234
185 240
185 244
185 246
185 300
186 194
186 198
186 237
186 259
187 216
187 259
187 276
188 195
188 197
188 199
188 203
188 205
188 211
188 227
188 241
188 243
188 272
188 275
188 298
190 202
190 226
191 245
191 268
192 233
192 244
192 286
193 201
193 240
193 255
193 297
194 259
195 204
195 205
195 210
195 258
195 296
196 219
196 228
196 237
196 240
197 199
197 203
197 206
197 215
197 219
197 226
197 227
197 250
197 257
197 285
197 300
198 218
198 226
198 232
198 246
198 259
198 289
198 291
199 203
199 206
199 215
199 220
199 224
199 225
199 241
199 250
199 297
200 208
200 221
200 277
201 240
201 255
202 206
202 226
202 256
202 289
203 239
203 282
204 210
205 208
205 215
205 223
205 225
205 234
205 237
205 243
205 296
206 218
206 219
206 226
206 228
206 278
206 285
206 300
207 260
207 278
208 209
208 221
208 223
208 230
208 236
208 271
208 273
208 297
209 230
209 236
209 260
209 275
209 295
209 299
210 263
210 268
210 278
210 282
211 217
211 293
212 217
212 232
212 240
212 244
212 272
212 300
213 229
213 281
214 237
214 250
214 252
214 273
214 276
214 292
214 293
215 230
215 234
216 227
216 252
216 259
216 272
216 287
217 265
217 299
218 226
218 230
218 234
218 288
218 300
219 228
219 244
219 294
220 226
220 239
220 289
220 297
221 223
221 230
221 273
221 285
222 244
222 246
223 280
225 230
225 249
225 254
226 267
226 289
227 259
227 272
227 287
229 243
229 245
229 255
229 269
229 275
229 281
230 234
230 236
230 271
230 297
230 299
231 238
231 248
231 292
232 288
233 244
233 277
234 300
235 279
236 271
237 259
237 284
238 263
238 282
238 292
239 253
240 270
240 300
241 291
241 294
242 260
242 295
244 286
245 268
245 284
246 291
246 300
247 251
248 261
248 295
250 256
250 292
251 295
252 267
252 273
252 276
252 292
253 277
253 283
254 268
255 266
255 280
255 284
255 290
257 260
258 279
258 296
259 287
260 278
260 295
261 283
261 295
263 292
264 269
265 296
265 299
266 269
266 280
266 284
267 276
267 289
269 272
269 275
269 280
271 288
272 275
272 287
272 289
273 293
275 299
276 289
277 287
277 291
278 282
279 296
280 284
281 293
282 292
282 299
283 295
283 297
284 294
285 290
287 291
291 299
*Classes
1
1
1
1
1
1
1
1
1
1
1
1
1
1
1
1
1
1
1
1
1
1
1
1
1
1
1
1
1
1
1
1
1
1
1
1
1
1
1
1
1
1
1
1
1
1
1
1
1
1
1
1
1
1
1
1
1
1
1
1
1
1
1
1
1
1
1
1
1
1
1
1
1
1
1
1
1
1
1
1
1
1
1
1
1
1
1
1
1
1
1
1
1
1
1
1
1
1
1
1
1
1
1
1
1
1
1
1
1
1
1
1
1
1
1
1
1
1
1
1
1
1
1
1
1
1
1
1
1
1
1
1
1
1
1
1
1
1
1
1
1
1
1
1
1
1
1
1
1
1
2
2
2
2
2
2
2
2
2
2
2
2
2
2
2
2
2
2
2
2
2
2
2
2
2
2
2
2
2
2
2
2
2
2
2
2
2
2
2
2
2
2
2
2
2
2
2
2
2
2
2
2
2
2
2
2
2
2
2
2
2
2
2
2
2
2
2
2
2
2
2
2
2
2
2
2
2
2
2
2
2
2
2
2
2
2
2
2
2
2
2
2
2
2
2
2
2
2
2
2
2
2
2
2
2
2
2
2
2
2
2
2
2
2
2
2
2
2
2
2
2
2
2
2
2
2
2
2
2
2
2
2
2
2
2
2
2
2
2
2
2
2
2
2
2
2
2
2
2
2
