*Vertices 300
*Edges
1 10
1 33
1 83
1 105
1 141
1 167
1 168
1 185
1 190
1 232
1 250
2 46
2 85
2 143
2 149
2 230
2 236
2 269
3 14
3 24
3 47
3 52
3 130
3 155
3 157
3 194
3 226
4 9
4 18
4 44
4 49
4 57
4 65
4 73
4 131
4 174
4 197
4 216
4 247
4 260
4 273
5 96
5 121
5 135
5 147
5 151
5 227
5 234
5 238
6 7
6 18
6 50
6 77
6 95
6 116
6 118
6 146
6 190
6 202
6 215
6 232
6 236
6 264
6 286
7 16
7 72
7 186
7 193
7 196
7 212
7 234
7 239
7 259
7 265
8 24
8 49
8 89
8 151
8 176
8 189
8 283
9 44
9 131
9 165
9 211
9 219
9 261
9 278
9 288
10 24
10 26
10 61
10 98
10 101
10 104
10 105
10 136
10 137
10 141
10 185
10 241
10 281
11 30
11 42
11 114
11 117
11 164
11 170
11 203
11 245
11 260
11 265
11 276
11 283
12 68
12 69
12 189
12 216
12 231
12 261
12 279
13 38
13 51
13 69
13 71
13 83
13 147
13 177
13 291
13 297
14 22
14 37
14 75
14 99
14 119
14 130
14 173
14 181
14 297
15 36
15 80
15 114
15 165
15 179
15 276
16 35
16 107
16 172
16 184
16 234
16 239
16 262
16 269
16 283
17 26
17 39
17 60
17 87
17 112
17 116
17 137
17 146
17 216
17 236
17 284
17 288
17 298
18 46
18 52
18 57
18 95
18 159
18 259
18 286
19 69
19 71
19 150
20 31
20 69
20 71
20 75
20 102
20 113
20 124
20 130
20 138
20 142
20 157
20 183
20 207
20 220
20 295
21 44
21 105
21 120
21 132
21 159
21 165
21 223
21 259
21 263
21 267
22 75
22 81
22 94
22 102
22 183
22 184
22 275
23 74
23 130
23 285
24 47
24 49
24 70
24 109
24 115
24 123
24 157
24 161
24 177
24 180
24 185
24 275
25 71
25 91
25 159
25 225
25 286
26 46
26 60
26 85
26 98
26 155
26 160
27 48
27 71
27 141
27 187
27 221
27 250
27 256
27 257
28 35
28 40
28 78
28 120
28 121
28 122
28 148
28 227
28 250
28 274
29 124
29 207
30 43
30 102
30 144
30 146
30 149
30 171
30 211
30 281
30 283
31 157
31 171
31 206
31 211
31 220
31 226
32 36
32 111
32 169
32 172
32 239
32 273
32 281
32 283
33 41
33 55
33 83
33 107
33 110
33 237
33 271
34 41
34 43
34 73
34 275
34 298
35 112
35 122
35 140
35 269
36 40
36 64
36 128
36 165
36 169
36 179
36 199
36 219
36 253
36 276
36 287
37 97
37 132
37 139
37 145
37 148
37 162
37 237
37 287
37 297
38 54
38 97
38 119
38 139
38 162
38 177
38 224
38 229
38 241
38 250
38 277
39 50
39 69
39 76
39 77
39 95
39 268
39 276
39 298
40 122
40 287
41 50
41 73
41 105
41 113
41 124
41 130
41 135
41 223
41 229
41 237
41 250
42 96
42 117
42 170
42 189
42 212
42 217
43 62
43 69
43 109
43 139
43 144
43 146
43 148
43 263
43 275
43 276
43 297
44 48
44 66
44 100
44 103
44 105
44 111
44 119
44 176
44 207
44 212
44 224
44 242
44 259
44 261
44 270
44 286
44 288
44 294
45 49
45 101
45 103
45 136
45 186
45 256
45 263
45 264
46 63
46 85
46 95
46 96
46 129
46 192
46 235
46 259
46 265
47 60
47 66
47 114
47 123
47 124
47 135
47 136
47 161
47 212
47 219
47 222
47 267
48 66
48 71
48 105
48 167
48 213
48 232
48 238
48 259
49 65
49 79
49 101
49 176
49 189
49 263
50 77
50 80
50 95
50 96
50 100
50 107
50 124
50 130
50 178
50 188
50 228
50 255
50 294
51 147
51 234
51 291
51 297
52 57
52 64
52 67
52 121
52 126
52 128
52 149
52 155
52 210
53 211
53 212
54 152
54 164
54 280
55 73
55 110
55 144
55 145
55 163
55 249
55 263
56 72
56 78
56 79
56 110
56 115
56 124
56 145
57 64
57 98
57 128
57 155
58 70
58 86
58 119
58 135
59 90
59 93
59 280
60 78
60 79
60 110
60 111
60 112
60 115
60 124
60 155
60 177
60 193
60 216
61 101
61 108
61 112
61 122
61 181
61 216
61 222
61 230
61 300
62 69
62 94
62 144
62 153
62 184
62 238
62 256
63 98
63 139
63 166
63 221
63 222
63 290
63 295
64 98
64 128
64 132
64 194
64 201
64 216
64 230
64 240
64 274
64 287
65 101
65 136
65 151
65 158
65 254
65 263
65 270
65 300
66 173
66 267
67 126
67 149
67 205
67 284
68 90
68 124
68 130
68 167
68 202
68 232
68 279
68 290
68 299
69 71
69 77
69 138
69 144
69 155
69 207
69 291
70 101
70 115
70 121
70 135
70 136
70 203
70 218
70 239
71 82
71 105
71 144
71 155
71 175
71 177
71 178
71 238
71 286
72 86
72 196
72 265
72 293
73 132
73 172
73 216
74 114
74 116
74 130
74 171
74 211
74 247
75 81
75 94
75 102
75 129
75 142
75 222
76 78
76 86
76 113
76 130
76 192
76 207
76 235
76 244
76 285
76 291
76 293
77 95
77 115
77 147
77 151
77 239
77 265
77 266
77 267
78 227
78 293
78 296
79 102
79 111
79 115
79 256
79 280
80 100
80 103
80 204
80 238
80 244
80 276
81 94
81 96
81 165
81 189
81 205
81 257
81 263
81 299
82 111
82 148
82 177
82 195
82 207
82 210
82 220
83 106
83 111
83 153
83 167
83 177
83 190
83 250
83 265
84 89
84 136
84 158
84 160
84 233
85 112
85 114
85 132
85 149
85 153
85 155
85 230
85 236
85 238
85 249
85 281
86 92
86 116
86 119
86 135
86 175
86 196
86 217
86 293
86 300
87 91
87 137
87 139
87 161
87 186
87 198
87 254
88 134
88 146
88 187
88 209
88 221
88 274
88 287
89 93
89 127
89 136
89 162
89 196
89 201
89 289
90 96
90 100
90 208
90 297
91 97
91 139
91 151
91 152
91 166
91 235
91 245
92 124
92 300
93 163
93 176
93 201
93 210
93 296
94 96
94 176
94 184
94 195
95 116
95 232
95 267
95 282
96 100
96 103
96 129
96 217
96 259
97 139
97 141
97 162
97 208
97 224
97 237
97 243
97 244
98 112
98 128
98 219
98 222
98 265
98 290
99 113
99 277
100 103
100 297
101 120
101 122
101 136
101 166
101 178
101 222
101 289
101 300
102 149
102 237
102 255
102 256
102 259
102 283
103 256
104 126
104 143
104 188
104 197
104 224
104 225
104 261
104 271
104 281
104 286
105 113
105 120
105 194
105 268
105 286
106 137
106 144
106 197
106 216
106 238
106 269
106 278
107 146
107 197
107 271
107 272
107 293
108 112
108 193
108 225
108 273
108 281
109 188
109 275
110 124
110 145
110 183
110 263
110 284
110 288
111 124
111 126
111 131
111 133
111 177
111 182
111 193
111 216
111 225
111 230
111 231
111 254
111 261
111 299
112 122
112 128
112 145
112 204
112 228
112 230
112 257
112 288
113 124
113 130
114 116
114 117
114 136
114 186
114 195
114 230
114 243
114 247
114 257
114 276
115 147
115 157
115 180
115 275
116 118
116 160
116 202
116 293
117 133
117 195
117 212
117 250
117 270
118 220
118 251
118 266
119 224
119 241
120 122
120 132
120 156
120 159
120 188
120 194
120 202
120 223
120 229
120 276
121 151
121 159
121 218
121 241
121 251
121 274
122 125
122 132
122 140
122 166
122 201
122 276
123 178
123 179
123 204
123 214
123 221
123 292
124 130
124 136
124 168
124 183
124 191
124 193
124 207
124 248
124 267
124 300
125 165
125 184
125 188
125 194
126 128
126 133
126 137
126 144
126 149
126 177
126 182
126 225
126 228
126 273
126 278
126 294
126 295
126 299
127 139
127 142
127 244
128 133
128 180
128 194
128 204
128 209
128 274
130 223
130 228
130 255
130 285
130 286
131 165
131 216
131 219
131 231
131 254
132 140
132 287
133 148
133 225
133 232
133 234
133 254
133 261
133 281
134 135
134 203
134 212
134 219
134 274
135 169
135 218
135 219
135 234
135 250
135 274
135 291
136 186
136 244
136 256
136 276
136 289
137 141
137 144
137 148
137 197
137 198
137 207
137 251
137 263
137 281
138 168
138 248
138 273
138 281
138 287
139 151
139 198
139 244
139 280
139 295
140 225
140 230
140 252
140 253
141 208
141 250
141 257
141 299
142 216
142 222
142 272
143 197
143 261
144 148
144 220
144 225
144 265
144 276
144 295
144 297
145 288
146 236
146 263
146 271
147 234
148 174
148 212
148 220
148 227
148 234
148 275
149 210
149 261
149 278
149 281
150 157
150 166
150 170
150 292
151 158
151 159
151 160
151 172
151 204
151 218
151 238
151 266
152 181
152 184
153 172
153 185
153 238
153 247
153 250
153 266
154 196
154 287
155 230
155 236
155 249
155 279
156 188
157 177
157 216
157 220
157 272
157 295
157 297
158 160
158 197
158 235
158 265
159 179
159 205
159 255
161 230
161 252
162 201
162 245
162 292
163 176
163 211
163 259
163 263
163 267
164 180
164 205
164 224
164 229
164 250
165 188
165 195
165 197
165 205
165 263
166 216
166 235
166 297
166 300
167 187
167 232
167 265
167 268
167 286
167 290
167 299
168 186
168 190
168 210
168 248
169 291
170 200
170 236
170 292
171 211
171 277
172 218
172 238
172 239
172 274
173 181
173 214
173 267
173 292
174 218
174 243
174 260
174 275
174 282
175 178
176 242
176 279
177 195
177 229
177 236
178 187
178 188
178 199
178 221
178 258
178 300
179 204
179 227
179 238
179 298
179 300
180 185
180 188
180 209
180 217
180 236
180 274
180 286
181 184
181 214
181 222
181 223
181 267
181 292
182 197
182 235
182 257
182 269
182 293
182 299
183 184
183 191
183 225
183 242
183 290
183 291
184 195
184 200
184 222
184 236
184 256
185 209
185 238
185 257
185 267
186 192
186 196
186 197
186 204
186 207
186 210
186 244
186 248
186 284
187 221
187 267
187 268
188 217
188 263
189 216
189 227
189 245
189 254
189 261
189 299
190 202
190 264
191 244
192 196
192 211
192 212
192 259
193 196
194 226
194 229
194 239
194 260
194 265
194 276
195 205
195 255
195 260
195 265
195 276
195 283
196 197
196 212
196 217
196 287
197 212
197 217
197 225
197 232
197 235
197 242
197 263
197 265
197 271
197 296
198 268
199 219
199 237
199 260
199 300
200 226
200 229
200 236
200 241
200 296
201 251
201 296
202 276
203 208
203 245
203 258
203 265
203 294
204 210
204 227
204 238
204 257
205 255
205 263
205 283
205 284
206 210
206 211
207 210
207 224
207 251
207 270
207 285
208 257
208 258
208 277
208 299
209 218
209 238
209 274
210 227
210 284
210 296
211 259
211 283
212 259
213 238
213 293
214 292
216 222
216 230
216 252
216 272
216 297
217 223
217 236
218 239
218 274
218 282
219 260
220 295
221 256
221 258
221 267
221 268
221 300
222 230
222 237
222 267
222 300
224 229
224 250
224 281
224 294
225 242
225 253
225 273
226 229
226 241
226 281
226 282
227 245
227 258
227 297
227 298
227 299
227 300
228 294
229 236
229 250
229 277
229 281
230 236
230 237
230 247
230 252
230 257
230 299
231 261
231 299
232 235
232 260
232 265
232 298
234 260
234 265
234 269
234 275
235 244
235 265
235 298
236 263
236 272
236 286
237 255
237 267
237 299
237 300
238 247
238 250
239 260
239 281
239 283
241 243
241 281
241 282
242 279
243 247
243 260
243 281
244 298
245 258
245 299
249 275
249 288
249 289
249 297
250 274
250 287
251 266
253 256
253 273
254 258
254 269
255 284
257 277
257 299
258 298
259 263
260 262
260 265
260 282
260 300
261 273
261 281
261 286
262 265
262 280
263 267
263 271
266 267
268 286
269 278
269 299
271 296
272 286
273 281
274 287
275 288
278 299
279 295
280 295
281 294
282 295
283 284
284 288
289 291
295 297
297 298
*Classes
1
1
1
1
1
1
1
1
1
1
1
1
1
1
1
1
1
1
1
1
1
1
1
1
1
1
1
1
1
1
1
1
1
1
1
1
1
1
1
1
1
1
1
1
1
1
1
1
1
1
1
1
1
1
1
1
1
1
1
1
1
1
1
1
1
1
1
1
1
1
1
1
1
1
1
1
1
1
1
1
1
1
1
1
1
1
1
1
1
1
1
1
1
1
1
1
1
1
1
1
1
1
1
1
1
1
1
1
1
1
1
1
1
1
1
1
1
1
1
1
1
1
1
1
1
1
1
1
1
1
1
1
1
1
1
1
1
1
1
1
1
1
1
1
1
1
1
1
1
1
2
2
2
2
2
2
2
2
2
2
2
2
2
2
2
2
2
2
2
2
2
2
2
2
2
2
2
2
2
2
2
2
2
2
2
2
2
2
2
2
2
2
2
2
2
2
2
2
2
2
2
2
2
2
2
2
2
2
2
2
2
2
2
2
2
2
2
2
2
2
2
2
2
2
2
2
2
2
2
2
2
2
2
2
2
2
2
2
2
2
2
2
2
2
2
2
2
2
2
2
2
2
2
2
2
2
2
2
2
2
2
2
2
2
2
2
2
2
2
2
2
2
2
2
2
2
2
2
2
2
2
2
2
2
2
2
2
2
2
2
2
2
2
2
2
2
2
2
2
2
