*Vertices 300
*Edges
1 52
1 63
1 65
1 72
1 101
1 230
2 83
2 98
2 121
2 135
2 165
2 193
2 219
2 252
3 125
3 185
3 218
4 17
4 54
4 59
4 121
4 138
4 154
4 155
4 157
4 243
5 49
5 74
5 86
5 95
5 142
5 192
5 258
6 37
6 57
6 62
6 87
6 136
6 192
6 198
6 253
7 64
7 68
7 86
7 87
7 121
7 137
7 142
7 146
7 191
7 263
8 56
8 197
8 260
9 57
9 67
9 123
9 270
9 296
10 54
10 62
10 199
10 209
10 268
11 26
11 41
11 43
11 79
11 111
11 146
11 213
11 252
12 32
12 144
12 281
13 15
13 110
13 165
13 198
13 215
13 239
13 268
14 37
14 42
14 107
14 259
14 275
14 300
15 85
15 234
16 23
16 73
16 87
16 91
16 143
16 236
16 240
16 274
16 279
16 300
17 52
17 69
17 78
17 146
17 205
18 19
18 92
18 120
18 156
19 36
19 38
19 62
19 109
19 120
19 282
20 55
20 83
20 149
20 297
21 56
21 110
21 171
21 222
22 76
22 80
22 88
22 123
23 45
23 50
23 68
23 88
23 105
23 109
23 146
23 159
23 261
23 300
24 93
24 195
25 37
25 61
25 67
25 90
25 288
25 295
26 47
26 99
26 129
26 136
26 153
26 154
26 217
26 235
26 292
27 94
27 117
27 128
27 145
27 188
27 236
27 277
28 68
29 36
29 46
29 66
29 72
29 77
29 121
29 165
29 204
29 207
30 67
30 74
30 96
30 133
30 145
31 34
31 52
31 69
31 78
31 83
31 102
31 161
31 169
31 201
32 72
32 144
32 165
32 175
32 232
32 246
32 276
33 74
33 133
33 140
33 215
33 218
33 286
34 69
34 108
34 140
34 249
35 234
35 242
35 251
35 299
36 38
36 62
36 66
36 77
36 81
36 89
36 121
36 178
36 184
36 191
36 197
37 57
37 283
38 62
38 94
38 120
38 169
38 221
38 264
38 269
39 90
39 135
39 215
39 217
39 227
39 255
39 256
39 278
40 67
40 176
40 212
41 45
41 58
41 64
41 106
41 110
41 118
41 125
41 146
41 163
41 232
41 270
42 50
42 71
42 106
42 107
42 130
42 139
42 145
42 260
42 283
43 45
43 47
43 48
43 57
43 61
43 111
43 134
43 166
43 195
43 229
43 230
43 257
43 293
44 72
44 254
44 272
45 48
45 106
45 130
45 134
45 203
45 222
46 99
46 104
46 124
46 165
46 204
46 271
46 297
47 57
47 92
47 136
47 176
47 184
47 284
48 61
48 111
48 127
48 153
48 162
48 186
48 225
48 293
48 299
49 81
49 95
49 142
49 158
49 167
49 253
50 63
50 99
50 119
50 120
50 130
50 194
50 204
50 250
50 282
50 285
51 57
51 154
51 157
51 161
51 181
51 235
51 248
51 251
52 63
52 69
52 108
53 182
53 194
53 287
54 161
54 209
55 131
55 168
56 61
56 106
56 110
56 130
56 134
56 139
56 182
56 226
56 262
56 286
57 195
57 200
57 202
57 208
57 253
58 70
58 83
58 108
58 110
58 113
58 119
58 176
58 217
58 266
59 213
60 207
61 67
61 119
61 130
61 184
61 265
62 66
62 85
62 130
62 271
63 166
63 298
64 73
64 128
64 133
64 156
64 209
64 287
65 83
65 93
65 98
65 101
65 123
65 125
65 154
65 235
65 269
66 172
66 191
66 212
66 271
66 299
67 91
67 96
67 212
67 234
67 296
68 73
68 146
68 153
68 238
68 263
68 271
68 282
69 81
69 108
69 260
70 98
70 119
70 148
70 165
70 173
71 139
71 175
71 228
72 77
72 116
72 123
72 152
72 165
72 254
72 263
72 273
73 75
73 118
73 146
73 155
73 192
73 195
73 206
73 277
73 284
74 80
74 133
74 243
75 83
75 164
75 174
75 192
75 290
76 100
76 112
76 215
77 183
77 242
77 263
78 102
78 117
78 146
79 141
79 146
79 155
79 176
79 216
79 227
79 234
79 246
79 289
80 123
80 220
80 266
81 89
81 178
81 179
81 220
81 222
81 260
82 85
82 141
82 150
82 209
83 108
83 125
83 146
83 149
83 157
83 164
83 169
83 195
83 196
83 210
84 119
84 271
84 280
85 138
85 291
86 87
86 142
86 291
87 94
87 183
87 189
87 198
87 213
87 221
88 105
88 283
89 123
89 131
89 264
89 267
90 117
90 144
90 226
90 236
90 246
91 104
91 136
91 147
91 232
91 274
91 286
92 120
92 137
92 217
92 226
92 292
93 156
93 214
94 109
94 128
94 221
95 260
95 279
96 172
96 190
96 192
96 234
96 239
96 245
97 138
97 253
98 140
98 173
98 184
98 195
98 198
98 235
98 238
98 292
99 104
99 129
99 130
99 147
99 150
99 212
99 236
100 191
100 215
100 242
101 135
101 281
102 125
102 190
102 217
102 291
103 112
103 120
103 126
103 198
103 227
103 254
103 261
103 290
104 136
104 154
104 227
104 244
104 249
104 252
105 114
105 204
105 212
105 250
106 113
106 135
106 145
106 153
106 189
106 299
107 160
107 202
107 206
107 264
107 283
108 119
108 267
109 128
109 233
109 236
109 237
110 152
110 180
110 242
110 252
111 166
111 229
111 230
112 118
112 120
112 186
113 131
113 203
113 217
113 229
114 147
114 204
114 214
114 278
114 293
115 233
116 159
116 164
116 176
117 188
117 212
117 250
118 140
118 146
118 183
118 297
119 148
119 251
119 280
120 126
120 282
121 135
121 137
121 138
121 164
121 222
121 252
121 297
122 171
123 124
123 165
123 193
123 217
123 244
123 252
123 256
123 278
124 129
124 145
124 152
124 170
124 252
124 256
124 293
125 146
125 190
125 297
126 130
126 134
127 128
127 176
128 161
128 177
128 234
129 145
129 150
129 155
129 161
129 162
129 231
129 272
129 283
129 288
130 134
130 139
130 171
130 255
130 286
131 203
133 227
133 252
133 287
134 289
135 219
135 256
135 259
135 287
136 192
136 227
137 149
137 169
138 199
138 210
138 228
138 264
138 273
139 181
139 210
139 218
139 226
139 228
139 248
139 250
139 262
140 183
140 217
140 218
140 228
141 150
141 174
141 188
141 199
143 153
144 154
144 281
145 236
145 296
146 202
146 281
146 297
147 214
148 179
148 203
148 222
148 237
148 257
149 196
150 180
150 206
150 225
150 236
150 242
150 243
150 254
151 189
151 250
151 275
152 165
152 173
152 207
153 174
153 183
153 197
153 217
153 299
154 157
154 231
154 244
154 248
155 193
155 238
155 246
155 265
155 270
155 289
156 209
156 211
156 239
156 259
156 282
156 294
156 300
157 170
157 210
157 298
158 167
158 196
158 225
158 273
158 293
159 165
159 197
159 223
159 266
159 281
160 193
160 195
160 208
160 209
160 210
160 223
160 229
160 237
160 277
160 300
161 181
161 203
161 210
161 229
161 231
161 234
161 272
161 284
162 274
163 240
163 276
164 176
164 252
164 272
165 207
165 223
165 244
166 277
166 299
167 180
167 199
167 204
167 234
167 279
167 282
168 240
169 223
169 228
170 173
170 174
170 211
170 222
170 226
170 244
170 286
170 289
171 217
171 243
171 256
171 284
172 190
172 195
172 204
172 213
172 264
172 283
173 184
173 219
173 244
173 275
173 286
174 195
174 197
174 212
174 214
175 247
175 267
176 178
176 191
176 212
176 221
176 234
176 243
176 266
176 272
176 299
177 207
177 249
177 272
178 200
178 221
178 252
179 180
179 222
179 225
180 225
180 252
180 279
181 186
182 226
182 237
182 265
182 275
182 292
183 189
183 195
183 214
184 191
184 219
184 221
184 244
184 247
184 284
185 192
185 225
185 235
185 247
185 261
185 286
185 288
186 205
186 224
186 225
187 197
187 246
187 251
188 199
188 210
188 272
189 268
189 272
190 260
190 288
191 212
191 288
192 195
192 206
192 279
193 219
193 277
194 204
194 223
195 277
196 198
196 241
196 273
196 293
197 217
198 205
198 241
198 261
198 268
199 204
199 209
199 210
199 257
199 270
199 298
201 247
201 290
202 281
203 210
203 211
203 222
203 238
203 289
204 222
204 266
204 283
204 293
204 297
205 241
205 265
205 275
206 242
206 275
206 279
207 244
207 246
207 249
208 278
209 294
209 300
210 234
210 248
210 298
211 226
211 255
211 289
212 214
212 250
212 277
212 299
213 228
213 229
214 278
215 227
215 247
215 255
215 268
215 290
216 234
217 228
217 254
217 256
217 265
219 259
220 266
220 280
221 225
221 226
221 247
221 290
222 242
222 244
222 278
223 234
223 287
225 236
225 247
226 292
228 229
228 254
229 283
230 294
231 272
232 247
232 257
232 260
232 276
232 279
232 299
233 258
234 280
235 288
236 258
237 263
238 241
238 283
239 292
240 279
240 287
241 251
241 273
242 252
244 285
244 286
246 249
247 249
247 281
247 290
248 251
249 272
249 290
250 258
250 262
250 275
250 283
251 291
254 297
256 269
256 293
257 270
258 283
259 260
259 294
260 279
260 288
261 294
261 300
262 297
263 290
264 283
265 270
265 275
266 271
268 279
270 290
271 280
271 282
273 280
274 280
274 286
274 300
276 279
276 281
279 299
285 286
296 300
*Classes
1
1
1
1
1
1
1
1
1
1
1
1
1
1
1
1
1
1
1
1
1
1
1
1
1
1
1
1
1
1
1
1
1
1
1
1
1
1
1
1
1
1
1
1
1
1
1
1
1
1
1
1
1
1
1
1
1
1
1
1
1
1
1
1
1
1
1
1
1
1
1
1
1
1
1
1
1
1
1
1
1
1
1
1
1
1
1
1
1
1
1
1
1
1
1
1
1
1
1
1
1
1
1
1
1
1
1
1
1
1
1
1
1
1
1
1
1
1
1
1
1
1
1
1
1
1
1
1
1
1
1
1
1
1
1
1
1
1
1
1
1
1
1
1
1
1
1
1
1
1
2
2
2
2
2
2
2
2
2
2
2
2
2
2
2
2
2
2
2
2
2
2
2
2
2
2
2
2
2
2
2
2
2
2
2
2
2
2
2
2
2
2
2
2
2
2
2
2
2
2
2
2
2
2
2
2
2
2
2
2
2
2
2
2
2
2
2
2
2
2
2
2
2
2
2
2
2
2
2
2
2
2
2
2
2
2
2
2
2
2
2
2
2
2
2
2
2
2
2
2
2
2
2
2
2
2
2
2
2
2
2
2
2
2
2
2
2
2
2
2
2
2
2
2
2
2
2
2
2
2
2
2
2
2
2
2
2
2
2
2
2
2
2
2
2
2
2
2
2
2
