*Vertices 300
*Edges
1 69
1 103
1 200
1 222
1 236
1 286
2 20
2 76
2 121
2 173
2 231
2 274
3 12
3 73
3 80
3 91
3 130
3 139
3 150
3 170
3 180
3 205
3 210
3 223
3 255
3 263
4 8
4 52
4 66
4 95
4 111
4 145
4 168
4 181
4 187
4 212
4 300
5 12
5 22
5 144
5 212
6 85
6 109
6 228
7 33
7 67
7 135
7 143
7 153
7 163
7 168
7 169
7 178
7 194
7 216
7 219
7 234
7 247
7 250
7 290
7 295
8 9
8 11
8 24
8 27
8 35
8 43
8 84
8 95
8 118
8 140
8 141
8 160
8 169
8 201
8 287
8 294
9 12
9 19
9 27
9 66
9 83
9 123
9 135
9 252
9 258
9 271
9 299
10 27
10 68
10 160
10 235
10 245
11 27
11 97
11 123
11 179
11 187
11 226
11 244
12 30
12 65
12 79
12 81
12 119
12 130
12 144
12 146
12 204
12 240
12 251
12 252
12 271
12 282
12 291
13 46
13 75
13 77
13 80
13 117
13 170
13 228
13 231
13 259
13 275
14 29
14 111
14 112
14 114
14 118
14 161
14 172
14 174
14 252
14 254
15 65
15 72
15 74
15 195
15 200
15 240
15 241
15 272
16 53
16 93
16 132
16 146
16 157
16 181
16 215
16 251
17 72
17 89
17 96
17 97
17 166
17 214
17 244
17 278
17 279
18 40
18 115
18 162
18 172
18 178
18 218
18 251
18 273
18 274
19 44
19 45
19 52
19 60
19 65
19 123
19 148
19 176
19 205
19 240
19 243
19 246
19 249
19 266
19 282
20 40
20 49
20 55
20 62
20 70
20 104
20 164
20 174
20 178
20 184
20 262
20 273
20 292
20 296
21 37
21 114
21 116
21 120
21 192
21 195
21 198
21 201
21 222
21 247
21 248
21 282
22 36
22 110
22 131
22 209
22 212
22 214
22 221
23 67
23 78
23 105
23 138
23 149
23 188
23 264
23 289
24 26
24 70
24 83
24 140
24 201
24 224
24 243
25 168
25 228
25 234
26 97
26 98
26 124
26 126
26 129
26 140
26 143
26 160
26 166
26 276
26 278
26 282
26 287
27 91
27 112
27 118
27 119
27 135
27 160
27 282
27 283
27 288
27 296
28 290
29 35
29 76
29 92
29 101
29 180
29 192
29 197
29 226
29 265
29 293
30 223
30 248
30 267
31 149
31 151
31 225
31 289
32 57
32 64
32 87
32 97
32 133
32 142
32 147
32 161
32 163
32 195
32 236
32 242
32 281
33 67
33 73
33 91
33 118
33 174
33 297
33 298
34 55
34 67
34 74
34 103
34 106
34 168
34 188
34 196
34 206
34 245
35 88
35 94
35 95
35 99
35 168
35 222
35 227
35 246
35 264
35 292
35 293
36 52
36 75
36 93
36 106
36 140
36 214
36 224
36 251
36 273
36 294
37 114
37 132
37 154
37 193
37 198
37 202
37 211
37 267
37 289
39 194
39 232
39 263
40 55
40 68
40 132
40 162
40 178
40 216
40 228
40 249
40 262
40 272
40 273
40 274
41 86
41 98
41 172
41 206
41 240
41 245
41 267
42 69
42 105
42 170
42 187
43 68
43 118
43 133
43 141
43 160
43 169
43 239
43 278
43 298
44 60
44 137
44 155
44 201
44 240
44 277
45 58
45 63
45 76
45 82
45 93
45 126
45 176
45 235
45 246
45 293
45 300
46 61
46 67
46 80
46 179
46 205
46 254
46 260
47 58
47 61
47 68
47 155
47 183
47 230
47 245
48 93
48 95
48 102
48 110
48 113
48 159
48 169
48 203
48 214
48 294
49 104
49 119
49 202
50 249
51 54
51 63
51 78
51 142
51 225
51 248
52 65
52 95
52 122
52 138
52 140
52 251
53 112
53 132
53 135
53 155
53 215
53 287
53 288
54 78
54 91
54 116
54 171
54 221
54 226
55 63
55 104
55 115
55 120
55 143
55 147
55 148
55 165
55 168
55 214
55 234
55 244
55 258
55 260
55 271
55 289
55 296
56 72
56 90
56 127
56 143
56 268
56 286
56 294
57 64
57 70
57 78
57 84
57 87
57 116
57 117
57 134
57 142
57 224
57 236
57 242
57 260
58 63
58 76
58 117
58 174
58 176
58 183
58 230
58 246
59 101
59 124
59 128
59 191
59 193
59 223
59 227
59 241
60 67
60 77
60 106
60 137
60 155
60 183
60 221
60 255
60 295
61 68
61 205
61 245
62 84
62 111
62 112
62 142
62 184
62 206
62 292
63 99
63 109
63 114
63 142
63 155
63 173
63 183
63 195
63 205
63 206
63 212
63 242
63 258
63 267
64 70
64 87
64 123
64 126
64 137
64 147
64 249
65 70
65 74
65 114
65 122
65 136
65 142
65 174
65 205
65 240
65 248
66 87
66 89
66 111
66 174
66 206
66 214
66 228
66 239
66 252
66 267
67 135
67 138
67 183
67 262
67 298
68 141
68 228
68 290
69 97
69 124
69 150
69 166
69 170
69 187
69 235
69 236
69 282
70 83
70 84
70 104
70 128
70 259
70 297
71 80
71 116
71 125
71 130
71 151
71 204
71 235
72 90
72 97
72 123
72 148
72 195
72 225
72 282
73 82
73 91
73 102
73 113
73 124
73 125
73 126
73 130
73 134
73 154
73 178
73 180
73 197
73 203
73 221
73 238
73 249
73 252
73 285
73 288
74 77
74 106
74 248
74 260
74 277
75 78
75 103
75 259
76 107
76 121
76 126
76 139
76 175
76 199
76 209
76 215
76 276
76 279
76 293
77 78
77 137
77 226
77 248
77 295
78 83
78 103
78 116
78 142
78 149
78 183
78 198
78 221
78 278
79 83
79 125
79 144
79 185
79 211
80 82
80 93
80 109
80 130
80 204
80 241
80 279
80 293
81 139
81 188
81 203
81 237
81 247
82 93
82 134
82 163
82 274
82 280
82 285
82 294
83 87
83 95
83 104
83 112
83 164
83 198
83 223
83 227
84 95
84 100
84 117
84 120
84 148
84 184
84 224
84 255
84 260
84 266
84 275
84 282
85 109
85 128
85 168
85 192
85 234
85 300
86 98
86 166
86 260
87 89
87 140
87 174
87 198
87 214
87 230
87 260
87 295
88 149
88 217
88 273
89 97
89 147
89 220
90 146
90 257
90 286
91 94
91 129
91 136
91 171
91 174
91 178
91 207
91 214
91 252
91 255
91 288
92 93
92 165
92 192
92 220
92 236
92 245
93 95
93 178
93 192
93 203
93 215
93 251
93 263
93 294
94 139
94 146
94 199
94 232
94 246
94 262
94 288
95 100
95 102
95 118
95 145
95 160
95 168
95 187
95 192
95 209
95 212
95 225
95 273
95 293
95 294
96 191
96 279
96 289
96 293
97 98
97 118
97 126
97 166
97 195
97 196
97 260
97 267
97 278
98 172
98 188
98 232
98 240
98 264
98 292
99 104
99 115
99 189
99 205
99 240
99 241
99 267
99 271
100 155
100 254
100 268
100 274
100 283
101 110
101 131
101 161
101 191
102 130
102 159
102 205
102 209
102 231
102 240
102 245
102 252
102 286
103 115
103 124
103 127
103 196
103 198
103 222
103 269
103 271
103 277
104 112
104 115
104 119
104 159
104 164
104 214
104 259
104 278
105 110
105 245
105 264
106 122
106 127
106 142
106 195
106 206
106 224
107 121
107 166
107 173
107 223
107 224
107 231
108 172
108 177
108 253
108 275
109 114
109 228
109 267
109 271
109 285
110 113
110 131
111 112
111 120
111 159
111 161
111 202
111 249
112 119
112 126
112 135
112 142
112 155
112 164
112 249
112 290
113 203
113 212
113 259
113 273
114 174
114 192
114 195
114 228
114 240
114 247
114 271
115 126
115 164
115 166
115 173
115 178
115 208
115 221
115 237
115 260
115 271
115 273
116 213
116 282
116 299
117 132
117 170
117 183
117 228
117 231
117 243
117 260
117 282
117 290
118 130
118 140
118 161
118 169
118 196
118 213
118 269
118 275
118 282
118 297
119 139
119 142
119 170
119 177
119 183
119 207
119 213
119 240
119 282
120 159
120 177
120 184
120 201
120 226
120 244
120 250
120 260
120 275
121 141
121 239
121 252
121 254
121 276
122 138
122 142
122 248
122 253
123 127
123 179
123 195
123 219
123 225
123 249
124 126
124 133
124 147
124 152
124 180
124 220
124 235
124 259
124 271
124 279
125 131
125 195
125 197
125 251
126 160
126 230
126 235
126 238
126 249
126 252
126 300
127 142
127 278
127 294
129 136
129 160
129 165
129 207
129 223
129 248
130 198
130 199
130 205
130 222
130 240
130 248
131 161
131 197
131 216
131 251
132 135
132 160
132 168
132 176
132 193
132 224
132 225
132 228
132 259
132 287
133 145
133 172
133 180
133 195
133 218
133 277
133 298
134 142
134 149
134 168
134 234
135 155
135 197
135 219
135 239
135 277
136 140
136 165
136 240
137 138
137 147
137 158
137 183
137 195
137 199
137 202
137 220
137 226
137 239
137 254
137 258
138 147
138 168
138 188
138 190
138 196
138 214
138 220
139 177
139 275
139 293
140 143
140 251
140 260
140 282
141 239
141 287
142 149
142 225
142 234
142 248
143 148
143 160
143 163
143 258
143 268
143 290
145 180
145 187
145 188
145 240
145 282
146 246
146 265
146 270
147 165
147 169
147 220
147 259
147 268
147 281
148 160
148 248
148 254
148 275
148 282
149 212
149 225
149 234
149 278
149 289
150 158
150 186
150 187
150 210
150 263
150 288
151 223
152 160
152 197
152 213
152 233
152 239
152 241
152 249
152 256
152 276
152 279
153 189
153 229
153 265
153 269
153 295
154 202
154 203
154 262
155 230
155 267
155 272
155 283
155 288
156 231
156 244
156 265
156 287
157 159
157 215
158 199
158 210
158 258
159 202
159 214
159 244
159 278
159 298
160 198
160 244
160 248
160 269
160 276
160 287
160 288
161 195
161 197
161 236
163 247
163 268
163 274
163 290
163 295
164 166
164 238
164 260
164 270
165 168
165 183
165 220
165 258
165 261
166 195
166 260
166 266
167 261
167 296
168 188
168 190
168 205
168 209
168 225
168 229
168 232
168 234
168 237
168 242
168 251
168 264
168 273
169 171
169 194
169 256
169 268
169 276
169 281
169 294
170 255
170 260
170 282
170 288
171 194
172 175
172 180
172 198
172 218
172 232
172 240
172 252
172 269
173 205
173 208
173 224
173 231
173 267
174 251
174 273
175 198
175 271
175 296
177 183
177 221
177 275
177 282
178 180
178 192
178 203
178 219
178 234
178 249
178 259
178 285
180 238
180 240
180 252
180 276
180 300
181 206
181 209
181 212
181 215
181 229
181 234
181 237
181 267
182 183
182 195
182 197
182 221
182 246
182 279
183 197
183 221
183 246
183 261
183 262
184 197
184 201
184 223
184 255
185 235
185 247
185 281
185 291
186 190
186 194
186 241
186 263
186 287
187 202
187 254
188 237
188 264
188 276
188 282
188 291
189 229
189 234
189 240
190 225
190 232
190 242
190 244
190 265
191 289
192 234
193 201
193 204
194 231
194 241
194 252
194 276
194 284
194 293
195 197
195 224
195 225
195 239
195 247
195 258
195 280
195 299
196 220
196 244
196 267
196 269
197 221
197 238
197 239
198 199
198 207
198 222
198 248
198 274
199 207
199 226
200 220
200 240
200 259
201 209
201 212
201 214
201 255
201 262
201 277
202 214
202 239
202 252
202 254
202 282
203 219
203 232
203 238
203 259
203 263
203 267
203 273
204 265
204 268
204 271
205 209
205 240
205 242
205 265
205 267
205 294
206 245
206 267
208 217
209 212
209 214
209 225
209 250
209 271
210 216
210 250
212 214
212 225
213 237
213 239
213 254
213 282
214 244
214 250
214 265
215 283
215 293
216 250
218 232
219 249
220 236
220 253
220 259
221 229
221 234
221 237
221 268
221 285
222 286
222 292
223 227
223 241
223 252
223 253
223 255
223 293
224 231
224 233
224 247
224 255
225 280
226 240
226 275
227 239
228 239
228 241
228 243
228 271
228 285
228 293
229 234
229 237
229 267
229 269
231 244
231 247
231 286
231 287
232 240
232 246
232 257
232 263
233 239
233 276
234 267
234 300
235 291
236 276
236 286
237 239
237 247
237 276
238 252
238 270
239 276
240 271
240 272
240 282
241 255
241 285
241 293
242 265
242 294
243 266
244 248
244 250
244 260
244 265
246 255
246 262
247 268
247 291
248 295
249 260
249 290
250 295
251 273
251 279
252 254
252 263
252 284
254 268
254 282
255 262
255 288
256 276
257 265
258 272
258 299
259 287
260 265
260 266
260 290
260 297
268 281
268 283
268 294
272 283
272 288
273 279
275 282
276 279
278 298
279 293
283 296
*Classes
1
1
1
1
1
1
1
1
1
1
1
1
1
1
1
1
1
1
1
1
1
1
1
1
1
1
1
1
1
1
1
1
1
1
1
1
1
1
1
1
1
1
1
1
1
1
1
1
1
1
1
1
1
1
1
1
1
1
1
1
1
1
1
1
1
1
1
1
1
1
1
1
1
1
1
1
1
1
1
1
1
1
1
1
1
1
1
1
1
1
1
1
1
1
1
1
1
1
1
1
1
1
1
1
1
1
1
1
1
1
1
1
1
1
1
1
1
1
1
1
1
1
1
1
1
1
1
1
1
1
1
1
1
1
1
1
1
1
1
1
1
1
1
1
1
1
1
1
1
1
2
2
2
2
2
2
2
2
2
2
2
2
2
2
2
2
2
2
2
2
2
2
2
2
2
2
2
2
2
2
2
2
2
2
2
2
2
2
2
2
2
2
2
2
2
2
2
2
2
2
2
2
2
2
2
2
2
2
2
2
2
2
2
2
2
2
2
2
2
2
2
2
2
2
2
2
2
2
2
2
2
2
2
2
2
2
2
2
2
2
2
2
2
2
2
2
2
2
2
2
2
2
2
2
2
2
2
2
2
2
2
2
2
2
2
2
2
2
2
2
2
2
2
2
2
2
2
2
2
2
2
2
2
2
2
2
2
2
2
2
2
2
2
2
2
2
2
2
2
2
