*Vertices 300
*Edges
1 35
1 41
1 48
1 68
1 145
1 152
1 275
1 278
1 283
1 298
2 57
2 168
2 237
3 43
3 64
3 169
3 284
4 48
4 111
4 115
4 258
5 21
5 46
5 60
5 121
5 144
5 239
6 32
6 79
6 115
6 120
6 133
6 149
6 203
6 221
6 283
7 9
7 17
7 41
7 50
7 82
7 96
7 116
7 159
7 209
7 231
8 79
8 95
8 103
8 225
8 231
8 247
8 264
9 30
9 38
9 82
9 96
9 128
9 171
10 22
10 77
10 113
10 151
10 203
10 207
10 296
11 53
11 71
11 80
11 115
11 125
11 189
11 288
12 38
12 39
12 71
12 88
12 94
12 103
12 132
12 172
12 177
12 197
12 208
12 219
12 250
12 278
13 18
13 32
13 38
13 40
13 66
13 83
13 99
13 103
13 115
13 165
13 179
13 208
13 288
14 37
14 67
14 77
14 86
14 87
14 130
14 132
14 133
14 138
14 151
14 182
14 241
14 285
15 21
15 36
15 121
15 142
15 147
15 169
15 175
15 187
15 226
15 244
16 65
16 131
16 132
16 166
16 294
17 20
17 31
17 113
17 116
17 169
17 182
17 254
17 272
18 24
18 28
18 38
18 53
18 68
18 72
18 77
18 83
18 91
18 92
18 99
18 107
18 111
18 118
18 191
18 216
18 234
18 246
19 107
19 164
19 172
20 22
20 31
20 48
20 58
20 77
20 78
20 82
20 123
20 153
20 163
20 187
20 224
20 225
20 229
20 249
20 295
21 22
21 36
21 42
21 54
21 86
21 117
21 121
21 165
21 173
21 187
21 197
21 219
21 262
22 48
22 52
22 77
22 86
22 113
22 145
22 207
22 255
23 25
23 186
23 202
24 27
24 40
24 53
24 59
24 68
24 69
24 72
24 99
24 111
24 118
24 123
24 166
24 168
24 195
24 197
24 275
24 286
24 290
25 31
25 34
25 76
25 183
25 184
25 186
25 193
25 225
25 280
26 33
26 61
26 69
26 125
26 139
26 189
27 42
27 53
27 72
27 105
27 147
27 245
28 61
28 107
28 126
28 127
28 138
28 158
28 161
28 257
29 35
29 47
29 177
29 219
29 263
30 41
30 61
30 81
30 128
30 144
30 199
30 267
31 34
31 35
31 58
31 63
31 78
31 82
31 129
31 176
31 183
31 190
31 249
32 38
32 71
32 79
32 113
32 120
32 125
32 162
32 182
32 199
32 216
32 254
32 268
32 280
33 61
33 66
33 99
33 128
33 197
33 240
33 242
33 266
33 300
34 146
34 172
34 183
34 186
34 220
34 260
34 269
35 68
35 167
35 171
35 177
35 185
35 205
35 213
35 288
36 244
37 59
37 128
37 201
37 210
37 221
37 247
37 262
37 274
37 285
38 39
38 40
38 46
38 76
38 124
38 133
38 171
38 178
38 181
38 196
38 199
38 212
38 230
38 238
38 268
38 271
39 50
39 59
39 72
39 76
39 88
39 92
39 94
39 122
39 141
39 155
39 158
39 171
39 178
39 194
39 278
40 53
40 66
40 79
40 106
40 148
40 192
40 197
40 264
40 268
40 272
40 290
41 78
41 81
41 90
41 116
41 139
41 155
41 165
41 214
41 275
42 59
42 70
42 147
42 170
43 62
43 64
43 71
43 208
43 234
43 259
43 284
44 93
44 105
44 127
44 141
44 177
44 244
45 54
45 58
45 66
45 76
45 98
45 113
45 122
45 129
45 135
45 165
45 192
45 219
45 235
45 265
45 298
46 78
46 97
46 102
46 138
46 222
46 230
47 70
47 73
47 75
47 79
47 159
47 219
47 263
48 88
48 94
48 99
48 105
48 115
48 141
48 145
48 179
48 188
48 229
48 263
48 292
49 74
49 99
49 208
49 266
49 280
50 92
50 116
50 255
51 77
51 85
51 203
52 127
52 145
52 239
52 247
53 68
53 80
53 96
53 99
53 101
53 111
53 176
53 179
53 197
53 198
53 262
54 88
54 90
54 130
54 141
54 165
54 184
54 197
54 217
54 237
54 268
54 273
55 82
55 135
55 147
55 159
55 179
55 274
56 60
56 79
56 265
57 180
57 183
57 237
57 253
58 63
58 66
58 78
58 101
58 129
58 202
58 235
58 265
59 70
59 122
59 131
59 155
59 170
59 180
59 226
59 260
59 275
59 294
60 179
60 218
60 239
60 245
60 246
60 250
60 253
60 265
60 272
61 127
61 150
61 177
61 239
61 272
62 99
62 107
62 124
62 174
62 180
62 240
62 256
62 273
62 282
62 290
62 294
63 64
63 69
63 243
63 272
63 273
63 288
64 68
64 69
64 71
64 96
64 213
64 231
64 284
64 288
65 131
65 162
65 196
65 203
65 231
65 256
65 283
65 287
65 289
65 293
66 128
66 242
67 236
67 282
68 69
68 99
68 156
68 194
68 205
68 208
68 259
68 283
68 296
69 125
69 175
69 205
69 277
69 282
70 111
70 115
70 224
71 94
71 125
71 171
71 189
71 251
71 296
72 83
72 88
72 91
72 111
72 132
72 180
72 194
72 213
72 236
72 266
72 291
72 299
73 82
73 151
73 152
73 176
73 197
73 201
73 222
73 288
74 134
74 135
74 137
74 150
75 79
76 109
76 122
76 178
76 233
76 251
77 107
77 111
77 132
77 137
77 191
77 192
78 86
78 115
78 138
78 176
78 179
78 183
78 236
78 249
78 280
79 112
79 120
79 194
79 215
79 231
79 268
79 277
79 300
80 98
80 115
80 128
80 142
80 182
80 196
80 262
80 288
80 291
81 175
82 193
82 199
83 123
83 179
83 200
83 223
83 243
84 106
84 117
84 160
84 183
84 280
84 291
85 93
85 100
85 103
85 104
85 120
85 177
85 287
86 130
86 161
86 164
86 182
86 288
87 130
87 148
87 251
87 257
87 265
87 285
88 94
88 120
88 130
88 145
88 165
88 179
88 225
88 268
88 273
88 299
89 98
89 103
89 117
89 126
89 145
89 164
89 200
89 213
90 99
90 120
90 130
90 139
90 203
90 219
91 107
91 111
91 144
91 234
92 114
92 158
92 185
92 191
92 263
92 299
93 102
93 105
93 107
93 140
93 142
93 145
93 149
93 213
93 226
93 230
93 244
93 262
93 270
93 287
94 165
94 173
94 188
94 197
94 219
94 233
95 103
95 204
95 264
96 101
96 116
96 194
96 231
97 144
97 152
97 222
97 263
98 125
98 133
98 141
98 176
98 235
98 249
98 267
98 287
99 116
99 122
99 173
99 208
99 220
99 227
99 240
99 263
99 299
100 130
100 183
101 129
101 246
102 104
102 147
102 230
102 291
103 165
103 184
103 193
104 184
105 110
105 133
105 141
105 147
105 217
105 238
105 244
106 117
106 120
106 132
106 213
106 222
107 124
107 138
107 142
107 158
107 191
107 289
108 110
108 260
108 293
109 270
110 147
110 226
110 293
111 115
111 147
111 176
111 183
111 224
111 246
111 263
111 270
112 118
112 123
112 130
112 275
113 121
113 135
113 192
113 235
113 259
114 185
114 256
115 165
115 199
115 258
115 280
115 283
116 240
116 279
117 126
117 134
117 149
117 162
117 183
117 201
117 216
117 247
118 160
118 166
118 168
118 267
119 179
119 183
119 222
119 276
120 132
120 142
120 219
121 226
121 228
121 276
122 138
122 141
122 191
122 274
122 298
123 130
123 164
123 170
123 194
123 229
123 272
124 142
124 204
124 212
124 256
124 259
124 284
125 132
125 162
125 182
125 280
125 296
126 195
126 207
126 223
127 134
127 138
127 177
127 257
127 293
128 210
128 223
128 242
128 244
128 254
128 262
129 134
129 148
129 257
129 271
130 164
130 270
130 272
130 286
131 155
131 166
131 220
131 245
131 294
132 137
132 175
132 177
132 191
132 213
132 217
132 280
132 285
133 152
133 177
133 214
133 221
133 256
133 267
133 271
133 287
134 143
134 189
134 207
134 225
134 257
134 272
135 191
135 298
136 261
136 283
137 174
137 176
137 188
137 237
137 285
137 296
138 179
138 182
138 236
138 238
138 241
139 172
139 180
139 214
139 250
139 263
139 300
140 145
140 242
141 188
141 235
141 273
141 274
142 143
142 145
142 149
142 162
142 188
142 204
142 206
142 244
142 258
142 282
143 179
143 288
144 170
144 234
144 263
145 175
145 188
145 213
145 226
145 262
146 220
146 260
146 281
147 217
147 230
147 259
147 274
148 207
148 221
148 257
148 259
148 272
149 193
149 221
149 239
151 161
151 203
151 218
151 221
152 169
152 221
152 222
152 234
152 245
152 282
152 288
152 295
152 298
153 214
153 295
154 186
154 250
154 265
154 285
155 165
155 224
155 246
155 255
156 179
156 197
156 226
156 295
157 161
157 184
157 197
157 208
157 212
157 239
157 250
157 251
157 283
157 297
158 180
158 195
158 290
159 179
159 185
159 250
160 267
160 297
161 164
161 168
161 218
161 236
161 239
161 248
162 179
162 188
162 196
162 197
162 237
162 268
162 298
162 299
163 190
163 224
163 253
163 286
164 200
164 227
164 270
165 172
165 250
165 276
165 277
166 194
166 268
166 277
167 250
167 288
168 239
168 259
169 222
169 244
170 191
170 211
170 218
170 234
170 261
170 283
171 172
171 208
171 286
172 208
172 218
172 223
172 245
172 250
172 277
172 286
173 188
173 219
173 263
173 273
173 283
174 178
174 208
174 214
174 256
174 285
175 213
175 217
175 244
175 277
175 282
176 235
176 237
176 280
176 288
177 243
177 258
178 181
178 214
178 223
178 230
178 238
178 260
179 185
179 197
179 200
179 205
179 218
179 229
179 234
179 288
179 295
179 300
180 290
180 294
180 300
181 189
181 215
181 220
181 245
181 254
182 216
182 236
182 271
182 285
182 288
183 186
183 205
183 229
183 252
183 273
183 280
184 193
184 253
185 195
185 213
185 220
185 234
186 225
186 250
186 252
186 265
187 227
187 229
187 279
188 197
189 225
189 227
189 240
189 254
190 198
190 199
190 242
190 255
190 260
190 264
190 286
191 229
191 283
192 204
192 259
192 264
193 243
194 202
194 227
194 278
194 299
195 211
195 290
196 209
196 212
196 233
196 291
196 299
197 198
197 202
197 208
197 232
197 300
198 208
198 232
199 264
199 285
201 222
201 247
201 278
201 291
202 219
202 227
202 241
202 277
202 300
203 248
203 287
204 264
204 270
205 208
205 229
205 240
205 273
205 289
206 243
207 221
207 223
207 295
208 229
208 259
208 263
208 266
208 283
209 238
211 274
211 283
212 283
213 217
213 272
214 230
214 278
214 287
215 231
215 247
215 277
215 292
217 272
218 261
219 257
220 234
220 240
220 260
221 283
222 295
223 238
223 293
224 253
225 229
225 246
225 257
225 272
225 299
226 228
226 233
226 287
226 300
227 270
227 277
227 279
227 299
229 240
229 280
234 261
234 288
236 239
236 241
236 251
236 293
237 288
238 241
238 260
239 251
239 259
239 283
241 253
242 255
242 260
242 285
243 258
244 254
245 250
245 252
245 254
245 294
245 298
246 253
246 272
247 273
247 278
247 289
247 292
249 272
249 299
250 252
250 294
250 298
254 298
256 259
256 265
257 259
259 267
260 268
260 269
263 270
263 300
264 270
264 276
264 278
265 285
266 269
266 290
268 299
268 300
269 290
270 276
270 299
272 273
272 287
273 283
273 289
275 284
275 289
277 279
278 282
282 295
283 289
283 294
290 294
*Classes
1
1
1
1
1
1
1
1
1
1
1
1
1
1
1
1
1
1
1
1
1
1
1
1
1
1
1
1
1
1
1
1
1
1
1
1
1
1
1
1
1
1
1
1
1
1
1
1
1
1
1
1
1
1
1
1
1
1
1
1
1
1
1
1
1
1
1
1
1
1
1
1
1
1
1
1
1
1
1
1
1
1
1
1
1
1
1
1
1
1
1
1
1
1
1
1
1
1
1
1
1
1
1
1
1
1
1
1
1
1
1
1
1
1
1
1
1
1
1
1
1
1
1
1
1
1
1
1
1
1
1
1
1
1
1
1
1
1
1
1
1
1
1
1
1
1
1
1
1
1
2
2
2
2
2
2
2
2
2
2
2
2
2
2
2
2
2
2
2
2
2
2
2
2
2
2
2
2
2
2
2
2
2
2
2
2
2
2
2
2
2
2
2
2
2
2
2
2
2
2
2
2
2
2
2
2
2
2
2
2
2
2
2
2
2
2
2
2
2
2
2
2
2
2
2
2
2
2
2
2
2
2
2
2
2
2
2
2
2
2
2
2
2
2
2
2
2
2
2
2
2
2
2
2
2
2
2
2
2
2
2
2
2
2
2
2
2
2
2
2
2
2
2
2
2
2
2
2
2
2
2
2
2
2
2
2
2
2
2
2
2
2
2
2
2
2
2
2
2
2
