*Vertices 300
*Edges
1 22
1 24
1 34
1 40
1 47
1 83
1 130
1 155
1 157
1 212
1 231
1 242
2 3
2 9
2 16
2 57
2 72
2 108
2 113
2 118
2 123
2 133
2 256
3 12
3 16
3 55
3 95
3 113
3 133
3 139
3 159
3 178
3 255
3 288
3 294
4 50
4 69
4 76
4 145
4 171
4 175
4 202
4 223
4 271
4 273
5 123
5 137
5 146
5 179
5 188
6 24
6 43
6 48
6 62
6 82
6 83
6 197
6 220
6 232
6 262
6 265
7 19
7 64
7 68
7 98
7 100
7 218
7 235
7 241
8 26
8 47
8 55
8 96
8 104
8 266
9 32
9 58
9 68
9 81
9 87
9 108
9 115
9 123
9 143
9 146
9 161
9 171
9 181
9 195
9 249
9 276
10 16
10 45
10 50
10 91
10 115
10 145
11 17
11 18
11 25
11 26
11 63
11 72
11 94
11 128
11 132
11 136
11 187
11 242
12 27
12 55
12 85
12 95
12 105
12 135
12 166
12 170
12 182
12 196
12 229
12 231
12 242
12 266
12 272
12 293
13 33
13 39
13 59
13 70
13 78
13 82
13 83
13 100
13 103
13 109
13 132
13 139
13 141
13 197
13 218
13 234
13 265
13 281
14 47
14 59
14 61
14 62
14 67
14 72
14 80
14 82
14 89
14 111
14 114
14 127
14 147
14 149
14 157
14 168
14 178
14 186
14 196
14 208
14 256
14 272
15 45
15 54
15 157
15 183
15 186
15 263
15 265
15 281
16 45
16 47
16 61
16 82
16 95
16 185
16 196
16 204
16 255
16 293
17 31
17 37
17 41
17 57
17 58
17 63
17 85
17 98
17 120
17 130
17 136
17 137
17 177
17 178
17 193
17 216
17 258
17 275
18 34
18 117
18 128
18 154
18 169
18 245
18 268
18 274
19 192
19 228
19 235
19 265
19 296
20 48
20 69
20 139
20 142
20 207
20 228
20 288
21 78
21 94
21 107
21 131
21 138
21 158
21 162
21 178
21 258
22 23
22 29
22 33
22 47
22 89
22 95
22 130
22 145
22 189
22 199
22 204
22 210
22 299
23 24
23 52
23 54
23 70
23 83
23 92
23 104
23 105
23 120
23 145
23 147
23 189
23 199
23 210
23 211
24 34
24 35
24 54
24 83
24 88
24 96
24 124
24 131
24 136
24 184
24 225
24 238
24 240
24 248
24 285
25 28
25 50
25 65
25 117
25 142
25 187
25 195
25 235
25 271
25 297
26 90
26 96
26 127
26 136
26 159
26 162
26 182
26 220
26 225
26 231
26 240
26 272
26 273
27 34
27 54
27 58
27 90
27 95
27 135
27 140
27 144
27 205
27 211
27 242
27 261
27 265
28 50
28 65
28 72
28 98
28 114
28 117
28 163
28 168
28 176
28 183
28 207
28 262
28 293
29 38
29 51
29 75
29 89
29 94
29 127
29 151
29 152
29 159
29 162
29 214
29 275
30 56
30 88
30 184
31 41
31 63
31 64
31 98
31 194
31 290
32 74
32 109
32 124
32 271
33 56
33 234
33 290
34 40
34 54
34 55
34 63
34 83
34 136
34 148
34 208
34 245
34 252
35 96
35 202
35 219
35 275
35 289
36 142
36 197
36 262
36 267
37 52
37 114
37 124
37 177
37 243
37 250
37 275
37 300
38 40
38 47
38 65
38 66
38 75
38 95
38 106
38 121
38 133
38 140
38 160
38 185
38 213
38 273
38 279
39 65
39 70
39 78
39 108
39 109
39 115
39 124
39 128
39 139
39 153
39 291
39 299
40 55
40 83
40 90
40 105
40 121
40 148
40 197
40 240
40 266
40 282
41 112
41 141
41 170
41 176
41 194
41 286
41 288
41 290
42 67
42 102
42 158
42 213
42 256
42 267
42 269
43 63
43 78
43 138
43 148
43 154
43 159
43 248
43 254
43 265
43 281
43 298
44 64
44 205
45 54
45 130
45 148
45 157
45 181
45 208
45 233
45 268
46 99
46 261
47 95
47 114
47 154
47 195
47 217
47 245
48 65
48 69
48 88
48 112
48 126
48 142
48 198
48 228
48 235
48 236
48 251
48 270
48 279
50 52
50 57
50 60
50 63
50 108
50 117
50 129
50 145
50 165
50 189
50 200
50 207
50 245
50 268
50 270
50 287
51 74
51 89
51 93
51 112
51 148
51 149
51 155
51 228
51 246
51 271
51 296
52 57
52 62
52 88
52 102
52 109
52 124
52 147
52 165
52 203
52 208
52 275
53 64
53 212
53 250
54 120
54 130
54 135
54 247
54 282
54 298
55 133
55 197
55 208
55 266
55 300
56 76
56 150
56 184
56 262
56 288
56 290
57 63
57 83
57 118
57 145
57 156
57 215
57 243
57 250
57 256
58 85
58 86
58 127
58 135
58 146
58 151
58 166
58 225
58 235
58 236
58 268
58 274
59 82
59 88
59 100
59 111
59 114
59 139
59 181
59 186
59 188
59 192
59 281
59 297
60 97
60 109
60 110
60 116
60 118
60 137
60 152
60 227
60 229
60 255
60 270
60 299
60 300
61 82
61 91
61 98
61 112
61 238
61 259
61 279
61 299
62 67
62 79
62 114
62 124
62 135
62 179
62 238
62 272
63 85
63 103
63 130
63 148
63 154
63 163
63 211
64 77
64 98
64 205
64 287
65 69
65 72
65 95
65 105
65 114
65 115
65 124
65 147
65 163
65 176
65 183
65 245
65 279
65 299
65 300
66 106
66 113
66 144
66 172
66 185
66 279
66 300
67 89
67 94
67 103
67 114
67 136
67 147
67 256
67 272
68 78
68 100
68 103
68 108
68 151
68 177
68 203
68 218
68 241
68 284
69 111
69 145
69 171
69 273
69 278
70 87
70 104
70 112
70 120
70 127
70 131
70 157
70 177
70 227
71 86
71 182
71 199
71 258
71 263
71 264
72 108
72 114
72 117
72 132
72 153
72 162
72 192
72 242
73 115
73 125
73 129
73 292
74 236
74 271
74 286
75 127
75 145
75 151
75 199
75 204
75 259
75 268
75 289
76 145
76 175
76 196
76 290
76 293
77 117
77 172
77 175
77 215
77 291
78 138
78 169
78 179
78 189
78 248
78 284
78 291
79 124
79 186
79 198
79 228
79 265
79 277
79 279
80 121
80 129
80 131
80 139
80 142
80 175
80 189
80 196
80 207
80 227
80 282
81 113
81 161
81 172
81 177
81 181
81 220
81 249
81 253
81 280
82 114
82 272
82 279
82 297
83 95
83 120
83 140
83 155
83 160
83 177
83 215
83 225
83 271
83 284
84 126
84 184
84 252
85 127
85 167
85 229
85 236
85 242
85 264
86 135
86 263
86 274
87 110
87 112
87 120
87 136
87 181
87 212
87 294
88 119
88 147
88 166
88 174
88 184
88 186
88 208
88 228
88 232
88 236
88 253
88 260
88 271
88 273
88 297
89 112
89 115
89 166
89 199
89 219
89 260
89 275
90 111
90 133
90 149
90 185
90 189
90 225
90 234
90 240
90 247
90 249
90 253
91 95
91 105
91 106
91 115
91 125
91 210
91 276
91 299
92 120
92 211
93 94
93 149
93 296
94 112
94 149
94 158
94 159
94 162
94 256
94 259
95 101
95 105
95 121
95 147
95 166
95 170
95 201
95 210
95 215
95 220
95 229
95 271
95 278
95 286
96 104
96 149
96 180
96 184
96 201
96 202
96 220
96 231
96 242
96 273
96 278
96 292
97 121
97 122
97 223
97 229
97 250
97 274
97 300
98 261
99 148
99 230
99 254
99 277
100 101
100 146
100 153
100 181
100 192
100 212
100 287
100 294
101 105
101 121
101 153
101 222
101 281
102 124
102 254
103 147
103 154
103 160
103 204
103 241
103 246
103 256
103 278
103 294
104 120
104 155
104 157
104 180
104 201
104 292
105 120
105 121
105 141
105 215
105 296
106 116
106 126
106 144
106 198
106 218
106 276
107 138
107 269
108 109
108 115
108 128
108 162
108 170
108 207
108 246
108 267
108 288
109 114
109 116
109 118
109 124
109 137
109 189
109 207
109 227
109 244
109 262
109 267
110 116
110 118
110 128
110 212
110 270
110 293
111 132
111 144
111 244
111 253
111 272
112 141
112 148
112 176
112 236
112 238
112 251
112 259
113 121
113 133
113 139
113 172
113 249
113 279
114 124
114 149
114 162
114 164
114 194
114 215
114 238
114 242
114 251
114 254
114 272
114 276
114 284
115 125
115 128
115 166
115 200
115 245
115 254
115 260
115 281
116 227
116 229
116 253
117 168
117 169
117 172
117 176
117 187
117 221
117 229
117 271
117 282
117 293
118 129
118 152
118 156
118 209
118 227
118 255
118 256
119 123
119 156
119 160
119 219
120 135
120 141
120 147
120 157
120 177
120 227
120 275
120 283
121 133
121 139
121 141
121 185
121 210
121 220
121 229
121 275
121 282
121 296
122 274
123 137
123 146
123 182
123 220
123 226
123 287
124 149
124 186
124 198
124 203
124 229
124 238
124 254
124 275
124 284
125 214
125 278
126 137
126 198
126 252
127 229
127 272
127 273
127 293
128 136
128 205
128 246
128 293
129 135
129 204
129 227
129 259
129 274
129 283
129 287
129 289
129 291
129 292
131 136
131 140
131 142
131 147
131 175
131 178
131 208
131 214
131 238
132 140
132 141
133 195
133 208
133 220
133 240
133 273
134 214
134 249
135 177
135 179
135 274
135 283
136 162
136 164
136 179
136 187
136 195
136 204
136 214
136 256
136 267
137 150
137 153
137 178
137 182
137 203
137 236
137 244
137 258
137 295
138 259
140 141
140 160
140 179
140 190
140 211
140 214
140 248
141 170
142 169
142 184
142 196
142 235
142 279
143 204
143 210
143 225
143 253
143 276
144 172
144 272
145 151
145 165
145 171
145 210
146 167
146 182
146 212
146 226
146 245
146 287
147 178
147 207
147 208
147 215
147 220
147 271
148 163
148 230
148 246
149 225
149 278
150 153
150 179
150 192
150 229
150 262
151 199
151 202
151 203
151 208
151 213
151 268
151 274
152 227
153 179
153 203
153 229
153 242
153 250
153 262
153 281
153 289
154 204
154 210
154 213
154 217
154 219
154 231
154 241
154 245
154 247
154 248
154 255
154 256
154 258
154 275
155 227
155 271
156 160
156 248
156 250
156 252
156 263
156 278
156 298
157 180
157 231
157 278
157 281
158 185
158 189
158 213
158 267
159 195
159 209
159 220
159 237
159 243
159 286
159 288
159 298
160 211
160 278
161 255
161 267
161 276
161 280
162 195
162 220
162 237
162 246
162 265
162 267
163 201
163 202
163 203
163 213
163 247
163 265
163 281
164 181
164 194
164 197
164 244
164 262
165 199
165 210
165 214
165 275
165 279
166 209
166 216
166 221
166 223
166 260
166 267
167 172
167 182
167 264
167 268
167 280
168 177
168 185
168 196
168 241
168 270
168 272
169 172
169 230
169 245
169 293
171 202
171 216
171 220
171 231
171 237
171 276
171 281
171 284
172 177
172 209
172 221
172 249
172 264
172 271
172 280
172 282
173 239
174 182
174 203
174 230
175 197
175 281
176 203
176 234
176 249
177 193
177 214
177 221
177 241
177 270
177 278
178 183
178 200
178 208
178 212
178 231
178 233
178 234
178 258
178 264
178 288
179 188
179 189
179 207
179 214
179 250
179 263
180 206
180 278
181 190
181 231
181 242
181 244
181 280
182 199
182 208
182 209
182 220
182 244
182 257
182 264
182 288
183 197
183 250
183 262
183 264
183 267
183 287
184 185
184 189
184 207
184 285
185 189
185 285
186 263
187 235
187 271
187 291
187 297
188 241
188 297
189 207
189 250
189 288
190 210
190 211
190 226
190 242
190 246
190 253
190 269
190 282
191 232
191 265
191 294
192 246
192 255
192 265
192 282
193 213
193 270
193 278
194 204
194 226
194 289
195 221
195 235
195 286
196 284
196 293
197 238
197 244
197 262
197 265
197 266
197 281
198 238
198 252
198 277
198 278
199 203
199 205
199 255
199 275
199 280
199 289
200 206
200 207
200 222
200 233
200 268
201 202
201 278
202 203
202 213
202 236
202 273
202 276
202 278
202 293
203 230
203 236
203 238
203 244
203 249
203 255
203 267
203 293
204 210
204 214
204 219
204 234
204 256
204 289
205 251
206 233
206 244
206 250
206 253
207 208
207 262
207 271
207 274
207 288
208 213
208 214
208 242
208 252
208 268
208 288
208 289
209 220
209 221
209 255
209 259
209 264
210 214
210 215
210 234
210 242
210 249
210 253
210 275
210 279
211 214
211 226
211 261
212 213
212 231
212 242
212 258
212 294
213 231
213 267
213 268
213 271
213 273
214 234
214 241
214 248
214 278
215 284
216 260
217 237
217 245
217 281
218 234
218 241
218 246
218 276
218 284
219 228
219 229
219 232
219 247
219 255
219 272
219 275
219 286
219 289
220 237
220 264
220 265
222 239
222 254
222 264
222 277
222 281
223 266
223 271
223 300
224 245
224 254
224 291
225 248
226 228
226 259
226 282
226 289
227 271
228 232
228 257
228 276
228 294
228 296
229 246
229 275
229 293
230 238
230 282
231 242
231 281
232 265
232 279
232 286
232 289
232 294
233 234
233 244
233 250
233 253
233 254
233 281
234 249
234 253
234 290
236 251
236 255
236 270
236 292
238 240
238 278
238 282
239 264
242 272
242 281
243 250
243 263
243 288
243 291
244 250
244 253
244 254
244 255
244 260
245 254
245 258
245 275
245 277
245 281
246 252
246 255
246 276
246 282
246 293
247 255
247 281
247 282
247 283
248 254
249 253
250 254
250 266
250 300
251 284
251 292
252 282
252 293
253 254
254 277
254 281
254 291
255 256
255 264
255 267
256 259
257 276
257 296
259 289
260 275
262 267
262 290
263 288
263 298
265 279
265 281
266 300
268 289
269 282
271 274
271 282
271 297
272 275
274 292
275 286
276 282
276 284
282 283
284 292
286 289
288 291
291 292
291 297
299 300
*Classes
1
1
1
1
1
1
1
1
1
1
1
1
1
1
1
1
1
1
1
1
1
1
1
1
1
1
1
1
1
1
1
1
1
1
1
1
1
1
1
1
1
1
1
1
1
1
1
1
1
1
1
1
1
1
1
1
1
1
1
1
1
1
1
1
1
1
1
1
1
1
1
1
1
1
1
1
1
1
1
1
1
1
1
1
1
1
1
1
1
1
1
1
1
1
1
1
1
1
1
1
1
1
1
1
1
1
1
1
1
1
1
1
1
1
1
1
1
1
1
1
1
1
1
1
1
1
1
1
1
1
1
1
1
1
1
1
1
1
1
1
1
1
1
1
1
1
1
1
1
1
2
2
2
2
2
2
2
2
2
2
2
2
2
2
2
2
2
2
2
2
2
2
2
2
2
2
2
2
2
2
2
2
2
2
2
2
2
2
2
2
2
2
2
2
2
2
2
2
2
2
2
2
2
2
2
2
2
2
2
2
2
2
2
2
2
2
2
2
2
2
2
2
2
2
2
2
2
2
2
2
2
2
2
2
2
2
2
2
2
2
2
2
2
2
2
2
2
2
2
2
2
2
2
2
2
2
2
2
2
2
2
2
2
2
2
2
2
2
2
2
2
2
2
2
2
2
2
2
2
2
2
2
2
2
2
2
2
2
2
2
2
2
2
2
2
2
2
2
2
2
