*Vertices 300
*Edges
1 7
1 158
1 278
1 290
2 24
2 59
2 140
2 147
2 231
2 256
3 5
3 95
3 115
3 254
3 260
4 16
4 48
4 49
4 84
4 90
4 139
4 147
4 174
4 232
4 265
5 13
5 32
5 45
5 60
5 62
5 102
5 151
5 162
5 223
5 237
6 19
6 42
6 49
6 75
6 142
6 146
6 147
6 157
6 219
6 221
6 240
6 265
7 53
7 99
7 121
7 144
7 168
7 180
7 256
7 290
8 45
8 83
8 190
8 211
8 212
8 241
9 51
9 61
9 63
9 120
9 132
9 217
9 228
9 261
9 264
9 290
10 91
10 183
11 60
11 64
11 74
11 88
11 106
11 121
11 128
11 135
11 149
11 187
11 255
11 269
11 286
11 296
12 37
12 106
12 114
12 116
12 257
13 123
13 129
13 131
14 15
14 47
14 134
14 146
14 153
14 195
14 273
14 278
14 283
14 298
15 78
16 42
16 48
16 87
16 90
16 134
16 158
16 168
16 190
16 269
17 61
17 67
17 131
17 297
17 300
18 112
18 129
18 163
18 171
18 198
18 214
18 228
19 42
19 59
19 200
19 221
19 245
19 252
20 28
20 78
20 103
20 133
20 248
20 276
21 34
21 86
21 118
21 120
21 178
21 216
21 259
22 38
22 57
22 58
22 62
22 78
22 87
22 97
22 151
22 177
22 243
23 50
23 54
23 55
23 186
23 207
23 214
23 216
23 231
24 40
24 89
24 147
24 161
24 186
24 267
24 294
25 38
25 75
25 81
25 113
25 190
26 62
26 97
26 200
26 243
27 30
27 33
27 51
27 73
27 143
27 152
27 257
28 57
28 86
28 98
28 107
28 160
28 237
28 266
29 65
29 109
29 139
29 142
29 154
29 222
29 265
30 73
31 72
31 76
31 143
31 152
31 157
31 219
31 240
32 48
32 62
32 102
32 123
32 140
32 163
32 207
32 236
32 296
33 65
33 73
33 89
33 105
34 48
34 70
34 117
34 129
34 134
34 205
34 288
35 108
35 134
35 136
35 169
35 192
35 201
35 218
36 85
36 152
36 166
36 191
36 207
36 234
36 236
36 246
36 288
36 300
37 39
37 92
37 101
37 114
37 119
37 165
37 201
37 223
37 281
38 40
38 81
38 87
38 101
38 118
38 172
38 241
39 48
39 52
39 62
39 64
39 136
39 148
39 165
39 181
39 187
39 222
39 230
39 254
39 278
39 279
39 286
40 46
40 72
40 89
40 98
40 100
40 101
40 169
40 201
40 277
41 48
41 132
41 144
41 153
41 170
41 179
41 201
41 228
41 261
41 299
42 55
42 88
42 108
42 118
42 158
42 198
42 221
42 241
42 265
43 259
43 291
44 98
44 122
44 243
44 244
44 257
44 258
44 267
44 277
45 52
45 63
45 98
45 123
45 129
45 180
45 197
45 212
45 237
45 251
45 266
45 289
46 65
46 70
46 71
46 73
46 89
46 100
47 60
47 61
47 269
47 290
48 62
48 90
48 124
48 132
48 134
48 198
48 232
49 147
49 166
49 219
49 299
50 69
50 75
50 113
50 119
50 133
50 193
50 207
51 62
51 124
51 143
51 210
51 231
51 232
51 248
51 287
52 58
52 64
52 137
52 163
52 178
52 211
52 214
52 219
52 227
52 251
52 260
52 265
52 268
53 86
53 87
53 98
53 107
53 115
53 169
53 179
53 187
53 194
53 246
53 263
54 126
54 175
54 207
54 209
55 197
55 231
55 239
56 77
56 140
56 167
56 289
57 77
57 78
57 107
57 148
57 177
58 62
58 90
58 97
58 119
58 240
58 260
58 263
59 79
59 106
59 151
59 175
59 178
59 200
59 227
59 280
60 61
60 64
60 74
60 94
60 98
60 107
60 149
60 156
60 207
60 210
60 226
60 252
60 291
61 191
61 207
62 90
62 97
62 119
62 134
62 136
62 148
62 165
62 216
62 258
62 287
63 180
63 235
63 275
63 290
64 79
64 150
64 156
64 278
65 89
65 94
65 104
65 149
65 174
65 199
65 290
65 293
66 81
66 110
66 125
66 164
66 187
66 207
66 266
67 84
67 87
67 131
67 173
67 250
67 293
68 86
68 182
68 259
68 299
69 85
69 123
69 133
69 143
70 117
70 123
70 132
70 294
71 72
71 78
71 118
71 169
71 254
72 101
72 102
72 159
72 169
72 215
72 225
72 263
72 293
73 143
73 189
73 205
74 82
74 150
74 213
74 257
75 89
75 113
75 114
75 119
75 127
75 182
75 226
75 237
75 251
75 261
76 105
76 143
76 282
77 106
77 148
77 204
77 214
78 96
78 132
78 148
78 232
78 254
78 290
79 165
79 206
80 107
80 124
80 197
80 222
80 232
80 254
81 99
81 126
81 141
81 180
81 184
81 187
81 209
81 293
82 121
82 206
83 103
83 108
84 111
84 120
84 137
84 146
84 176
84 200
84 233
84 284
85 123
85 143
85 153
86 107
86 118
86 123
86 151
86 242
86 249
86 263
86 289
86 298
86 299
87 97
87 117
87 128
87 131
87 135
87 152
87 155
87 194
87 220
87 221
87 269
87 284
88 118
88 187
88 269
89 100
89 113
89 141
89 161
89 191
89 192
89 199
89 209
89 245
89 275
89 293
89 300
90 112
90 114
90 119
90 134
91 191
91 224
91 231
91 234
92 114
92 184
92 291
94 105
94 124
94 149
94 174
94 178
94 214
94 247
94 253
94 264
94 281
95 113
95 162
95 242
96 121
96 132
96 197
96 236
96 256
97 101
98 107
98 115
98 129
98 145
98 149
98 157
98 199
98 205
98 210
98 219
98 265
98 277
98 279
98 293
99 144
99 180
99 209
99 224
100 147
100 186
100 191
100 194
100 207
100 246
100 262
100 297
101 170
101 200
102 123
103 214
103 248
103 267
104 129
104 161
104 167
104 177
104 267
104 289
104 294
105 130
105 149
105 231
105 253
105 294
106 107
106 116
106 148
106 200
106 264
106 286
106 298
107 116
107 197
107 204
107 213
107 218
107 232
107 269
107 289
107 290
107 300
108 136
108 188
108 198
108 261
109 295
110 114
110 119
110 158
110 171
110 185
110 190
110 210
110 258
111 123
111 156
112 235
112 271
113 145
113 171
113 182
113 186
113 193
113 201
113 202
113 298
114 119
114 131
114 184
114 220
114 281
115 179
115 194
115 260
116 177
116 213
116 261
116 264
116 289
116 298
117 132
117 135
117 194
117 220
117 238
117 262
118 241
118 243
118 246
118 249
118 261
119 122
119 134
119 176
119 185
119 207
119 221
119 268
119 294
120 128
120 138
120 142
120 168
120 176
120 178
120 194
120 237
120 261
120 269
120 272
121 163
121 168
121 175
121 196
121 209
121 212
121 219
121 256
121 281
121 284
121 286
121 294
122 131
122 137
122 163
122 183
122 207
122 232
122 236
122 244
122 256
122 290
122 297
123 131
123 163
123 237
123 242
123 294
124 187
124 210
124 243
124 247
126 138
126 175
126 181
126 184
127 128
127 163
127 173
127 208
128 135
128 141
128 182
128 187
128 195
128 240
128 242
128 243
128 252
128 272
129 145
129 205
129 212
129 228
129 281
129 289
130 168
130 237
130 244
130 279
130 294
131 137
131 146
131 176
131 184
131 280
131 297
132 144
132 162
132 212
132 249
132 261
133 197
133 276
134 153
134 198
134 221
135 152
135 254
135 286
136 172
136 188
137 146
137 160
137 211
137 238
137 246
137 260
138 159
138 184
138 194
138 203
138 262
139 152
139 158
139 171
139 214
139 265
139 283
140 151
140 161
140 167
140 172
140 176
140 296
141 187
141 214
142 154
142 163
142 178
142 214
142 240
142 271
143 153
143 226
143 294
144 161
144 250
144 289
145 186
145 299
146 205
146 211
146 265
146 273
147 297
148 261
149 210
150 156
150 180
151 189
151 237
151 242
151 296
152 155
152 171
152 300
153 183
153 191
153 226
153 278
153 283
153 299
154 183
154 199
154 262
155 163
155 188
155 193
155 256
155 268
155 300
156 202
156 221
156 279
156 281
156 294
157 159
157 218
157 219
157 240
157 265
157 272
157 283
157 296
158 190
158 191
158 204
158 206
158 214
158 246
158 278
159 160
159 165
159 181
159 185
159 240
159 244
159 277
159 278
160 181
160 193
161 163
161 176
161 199
161 268
161 281
161 289
161 290
161 294
162 178
162 197
162 214
162 234
162 242
162 270
162 280
162 284
163 209
163 210
163 236
163 240
163 252
163 268
163 292
164 185
164 197
164 211
164 212
164 255
165 197
165 206
165 232
165 263
165 278
165 286
166 192
166 197
166 234
166 267
166 294
166 299
167 178
167 189
167 205
167 273
167 279
168 279
168 284
169 197
169 203
169 215
170 221
170 228
170 278
170 299
171 175
171 258
172 241
173 191
173 249
173 262
173 282
173 285
173 293
174 212
174 236
174 265
175 198
175 209
175 256
175 258
175 280
176 219
176 228
176 268
176 289
176 290
177 200
177 209
177 249
177 262
178 196
178 214
178 242
178 267
179 183
179 195
179 205
179 238
179 242
179 269
179 283
179 290
180 222
180 223
180 224
180 229
180 289
181 225
181 232
181 240
181 241
181 244
181 261
181 264
181 278
181 291
181 297
182 203
182 223
182 260
182 290
183 195
183 242
183 259
183 262
184 196
184 253
184 255
184 262
184 267
185 195
185 198
185 238
185 255
185 264
185 277
185 297
186 189
186 200
186 205
186 227
187 201
187 230
187 254
187 279
188 198
189 195
189 199
189 205
189 262
189 279
190 219
190 291
191 197
191 206
191 241
191 246
191 255
191 262
191 278
191 286
191 288
192 225
192 226
192 232
192 262
192 293
193 194
193 202
193 256
193 284
194 203
194 207
194 216
194 217
194 260
194 264
194 281
194 282
194 284
195 205
195 238
195 242
196 214
197 203
197 206
197 211
197 222
197 234
197 239
197 246
197 254
197 266
198 297
199 205
199 219
199 262
199 275
199 290
200 227
200 233
200 252
200 298
201 209
201 221
202 245
202 259
202 279
202 298
203 213
203 214
203 215
203 216
203 237
203 240
203 251
203 290
203 295
204 214
204 232
205 224
205 225
205 245
205 273
205 279
206 246
207 214
207 237
207 260
207 296
208 214
208 251
208 257
209 236
209 262
209 280
210 252
210 287
211 212
211 238
212 226
212 241
212 281
212 291
213 240
213 292
214 251
214 261
214 264
214 267
215 217
215 243
215 281
217 223
217 227
217 281
217 290
218 227
218 272
218 296
219 240
219 256
219 265
219 268
219 272
219 289
219 291
219 293
220 221
220 238
220 244
220 276
220 286
220 294
221 253
221 255
221 267
221 294
222 233
222 254
222 279
222 289
223 227
223 260
223 270
223 281
223 284
223 289
223 295
224 273
225 232
225 244
225 278
225 279
225 293
226 229
226 232
226 251
226 291
227 260
227 281
228 261
228 278
228 290
230 278
231 256
232 236
233 245
233 253
233 289
235 250
235 292
236 244
236 262
236 288
236 297
237 272
237 295
237 296
238 262
238 277
238 297
239 263
239 287
240 283
241 244
242 243
242 252
242 280
243 261
244 249
244 258
244 278
244 286
244 290
245 253
245 279
245 300
246 249
246 278
248 288
249 261
249 262
249 282
249 286
250 293
251 268
251 290
252 276
253 255
253 278
253 294
255 259
255 267
255 278
255 286
256 268
256 280
256 284
257 258
258 267
259 267
259 279
260 295
261 264
261 291
262 286
262 290
263 298
264 277
264 284
266 279
267 284
267 294
268 289
268 292
268 294
269 290
270 281
270 284
270 289
270 295
274 289
275 281
281 294
282 284
283 290
286 296
288 300
290 294
*Classes
1
1
1
1
1
1
1
1
1
1
1
1
1
1
1
1
1
1
1
1
1
1
1
1
1
1
1
1
1
1
1
1
1
1
1
1
1
1
1
1
1
1
1
1
1
1
1
1
1
1
1
1
1
1
1
1
1
1
1
1
1
1
1
1
1
1
1
1
1
1
1
1
1
1
1
1
1
1
1
1
1
1
1
1
1
1
1
1
1
1
1
1
1
1
1
1
1
1
1
1
1
1
1
1
1
1
1
1
1
1
1
1
1
1
1
1
1
1
1
1
1
1
1
1
1
1
1
1
1
1
1
1
1
1
1
1
1
1
1
1
1
1
1
1
1
1
1
1
1
1
2
2
2
2
2
2
2
2
2
2
2
2
2
2
2
2
2
2
2
2
2
2
2
2
2
2
2
2
2
2
2
2
2
2
2
2
2
2
2
2
2
2
2
2
2
2
2
2
2
2
2
2
2
2
2
2
2
2
2
2
2
2
2
2
2
2
2
2
2
2
2
2
2
2
2
2
2
2
2
2
2
2
2
2
2
2
2
2
2
2
2
2
2
2
2
2
2
2
2
2
2
2
2
2
2
2
2
2
2
2
2
2
2
2
2
2
2
2
2
2
2
2
2
2
2
2
2
2
2
2
2
2
2
2
2
2
2
2
2
2
2
2
2
2
2
2
2
2
2
2
