*Vertices 300
*Edges
1 45
1 144
1 168
1 181
1 221
2 54
2 82
2 83
2 122
2 123
2 282
2 283
3 12
3 73
3 82
3 89
3 91
3 174
3 219
3 237
3 244
3 245
3 290
4 11
4 45
4 75
4 123
4 157
4 175
4 182
4 194
4 215
4 238
4 270
5 37
5 45
5 82
5 93
5 99
5 130
5 160
5 163
5 175
5 228
5 277
5 282
6 25
6 41
6 74
6 114
6 117
6 143
6 146
6 220
6 266
6 284
6 292
7 14
7 32
7 59
7 77
7 115
7 153
7 160
7 177
7 183
7 186
7 234
7 296
8 13
8 74
8 81
8 102
8 205
9 12
9 14
9 16
9 89
9 103
9 120
9 157
9 185
9 199
9 215
9 231
9 244
9 260
10 45
10 51
10 54
10 60
10 80
10 99
10 133
10 163
10 165
10 175
10 177
10 187
10 217
10 236
10 250
11 17
11 74
11 101
11 116
11 123
11 194
12 24
12 32
12 73
12 82
12 143
12 219
12 259
12 260
12 267
13 51
13 54
13 91
13 102
13 205
13 215
13 232
13 236
13 287
14 32
14 48
14 56
14 59
14 101
14 108
14 217
14 241
14 257
14 260
15 57
15 82
15 227
15 297
16 60
16 85
16 100
16 170
16 215
16 226
16 230
16 244
16 250
16 255
16 260
16 294
17 51
17 74
17 90
17 113
17 123
17 187
17 233
17 241
17 273
17 300
18 56
18 69
18 87
18 88
18 156
18 160
18 243
18 247
19 29
19 44
19 63
19 65
19 123
19 135
19 211
19 218
19 229
19 260
19 293
20 26
20 37
20 42
20 47
20 56
20 60
20 85
20 192
20 214
20 284
20 292
21 22
21 25
21 68
21 133
21 136
21 160
21 187
21 207
21 251
21 269
21 290
21 291
22 45
22 50
22 51
22 71
22 98
22 110
22 116
22 136
22 173
22 197
22 217
22 218
22 253
22 268
23 35
23 39
23 50
23 58
23 101
23 160
23 163
23 197
23 235
23 298
24 39
24 79
24 82
24 113
24 121
24 134
24 140
24 150
24 216
24 224
24 229
24 230
24 241
24 246
24 248
24 283
25 32
25 55
25 77
25 96
25 105
25 114
25 133
25 145
25 174
25 183
25 202
25 266
25 292
26 29
26 79
26 104
26 122
26 151
26 165
26 192
26 195
26 200
26 262
26 284
27 28
27 40
27 49
27 81
27 94
27 95
27 98
27 103
27 105
27 114
27 189
27 253
27 281
28 35
28 46
28 49
28 51
28 103
28 121
28 140
28 148
28 157
28 168
28 209
28 224
28 253
28 287
28 288
28 297
29 63
29 65
29 72
29 108
29 195
29 211
29 214
29 229
30 52
30 112
30 131
30 202
30 228
30 229
30 277
31 154
31 282
32 56
32 96
32 167
32 171
32 185
32 192
32 224
32 231
32 235
32 237
32 247
32 249
32 252
32 259
33 48
33 63
33 115
33 131
33 134
33 186
33 193
33 226
33 261
33 269
33 284
33 286
33 287
33 300
34 187
34 219
34 245
34 272
34 276
35 39
35 101
35 121
35 136
35 174
35 202
35 211
35 216
35 224
35 230
35 245
36 54
36 63
36 84
36 92
36 93
36 98
36 116
36 133
36 161
36 239
36 240
36 259
36 262
36 299
37 50
37 60
37 71
37 85
37 127
37 197
37 206
37 228
37 270
38 69
38 77
38 107
38 126
38 131
38 133
38 183
38 187
38 199
38 204
38 231
38 233
38 234
38 240
38 276
38 300
39 45
39 82
39 170
39 181
39 192
39 224
39 230
40 54
40 61
40 81
40 96
40 105
40 111
40 118
40 125
40 131
40 161
40 166
40 179
40 182
40 238
40 284
41 61
41 78
41 81
41 146
41 256
41 266
41 297
42 47
42 70
42 86
42 124
42 153
42 156
42 158
42 184
42 190
42 196
42 201
42 227
42 254
42 263
42 269
42 274
42 283
42 291
43 44
43 51
43 54
43 55
43 61
43 82
43 84
43 85
43 130
43 147
43 153
43 175
43 204
43 227
43 229
43 240
43 244
43 290
43 300
44 48
44 67
44 81
44 82
44 92
44 153
44 166
44 218
44 230
44 232
44 252
44 258
44 287
44 290
45 51
45 60
45 110
45 129
45 144
45 175
45 180
45 181
45 264
45 276
45 290
46 49
46 78
46 98
46 103
46 126
46 140
46 150
46 157
46 182
46 190
46 193
46 215
46 216
46 224
46 232
46 253
47 56
47 60
47 70
47 71
47 84
47 120
47 177
47 197
47 216
47 292
48 83
48 100
48 107
48 118
48 147
48 164
48 241
48 252
48 254
48 264
48 268
48 292
48 295
48 300
49 82
49 87
49 98
49 122
49 123
49 241
50 127
50 130
50 136
50 153
50 197
50 211
50 218
50 248
50 268
50 269
50 270
50 298
51 57
51 91
51 99
51 143
51 152
51 159
51 165
51 168
51 174
51 181
51 198
51 204
51 217
51 224
51 232
51 236
51 275
51 300
52 76
52 89
52 103
52 112
52 199
53 61
53 62
53 64
53 138
53 150
53 171
53 208
53 213
53 225
53 283
54 84
54 90
54 93
54 113
54 133
54 147
54 154
54 157
54 182
54 215
54 232
54 238
54 258
54 264
54 279
55 110
55 147
55 150
55 261
55 262
55 266
55 300
56 70
56 122
56 125
56 160
56 171
56 195
56 220
56 223
56 224
56 235
57 82
57 83
57 123
57 147
57 165
57 175
57 181
57 183
57 206
57 214
57 249
57 251
58 124
58 127
58 136
58 191
58 196
58 235
58 289
58 299
59 161
59 194
59 203
59 284
60 66
60 81
60 85
60 116
60 125
60 133
60 174
60 181
60 188
60 200
60 213
60 215
60 234
60 242
60 250
60 255
60 267
60 268
60 282
61 64
61 78
61 147
61 179
61 196
61 225
62 138
62 150
62 162
62 266
63 84
63 86
63 98
63 116
63 200
63 234
63 300
64 89
64 119
64 134
64 136
64 186
64 208
64 237
64 245
64 271
64 279
64 283
64 291
65 93
65 105
65 118
65 123
65 135
65 172
65 218
65 220
65 262
66 70
66 83
66 108
66 126
66 158
66 167
66 173
66 174
66 183
66 199
66 237
66 250
66 255
67 81
67 220
67 249
68 90
68 129
68 133
68 137
68 156
68 158
68 184
68 192
68 196
68 206
68 244
69 87
69 88
69 103
69 112
69 183
69 193
69 199
69 201
69 300
70 71
70 91
70 94
70 189
70 197
70 199
70 216
70 256
71 94
71 110
71 136
71 159
71 210
72 81
72 88
72 91
72 94
72 102
72 108
72 114
72 231
72 243
72 293
73 91
73 127
73 148
73 188
73 206
74 101
74 102
74 127
74 136
74 148
74 194
74 284
74 293
75 97
75 134
75 137
75 140
75 141
75 146
75 169
75 174
75 215
75 217
75 226
75 232
75 240
75 260
75 274
75 276
76 88
76 103
76 106
76 112
77 101
77 114
77 208
77 225
77 234
77 236
77 250
77 257
78 172
78 202
78 253
78 297
79 122
79 213
79 215
79 241
80 88
80 133
80 169
80 190
80 217
80 228
80 269
80 296
81 85
81 88
81 93
81 102
81 114
81 124
81 160
81 163
81 166
81 178
81 195
81 217
81 230
81 232
81 264
81 285
82 87
82 122
82 123
82 132
82 134
82 138
82 214
82 229
82 265
82 282
82 283
83 147
83 153
83 175
83 214
83 246
84 109
84 133
84 153
84 161
84 210
84 262
84 280
84 282
85 188
85 189
85 214
86 103
86 116
86 157
86 204
86 240
86 254
87 271
88 102
88 106
88 156
88 174
88 218
88 228
88 247
88 257
88 269
88 274
88 279
88 288
89 117
89 133
89 141
89 173
89 186
89 190
89 244
89 264
90 106
90 114
90 133
90 172
90 174
90 183
90 184
90 193
90 206
90 209
90 246
90 258
90 300
91 94
91 143
91 159
91 160
91 184
91 199
91 204
91 219
91 225
91 229
91 231
91 239
91 243
91 256
91 280
91 300
92 122
92 142
92 161
92 165
92 180
92 225
92 242
92 245
92 258
92 270
92 277
92 290
93 130
93 133
93 135
93 166
93 172
93 220
93 262
93 282
94 184
94 189
94 199
94 225
94 256
95 103
95 114
96 105
96 109
96 167
96 183
96 202
96 224
96 231
96 239
96 265
96 297
97 100
97 137
97 140
97 157
97 205
97 233
97 250
97 263
97 276
97 281
97 283
97 295
98 122
98 241
98 253
99 108
99 160
99 175
99 291
100 164
100 204
100 215
100 225
100 254
101 115
101 117
101 160
101 177
101 185
101 196
101 201
101 211
101 234
101 257
102 106
102 218
102 221
102 228
102 230
102 267
102 274
102 281
103 114
103 120
103 157
103 199
103 238
103 244
103 283
104 122
104 151
104 164
104 165
104 200
105 109
105 118
105 133
105 152
105 161
105 187
105 202
105 228
105 294
106 139
106 172
106 228
106 279
107 168
107 187
107 202
107 252
107 271
108 167
108 195
108 288
109 133
109 268
109 272
110 131
110 139
110 150
110 198
110 239
110 271
110 293
111 128
111 155
111 162
111 238
111 262
111 266
111 295
112 177
112 183
112 228
112 298
113 190
113 222
113 241
113 246
113 258
113 269
114 163
114 193
114 208
114 258
114 281
115 121
115 133
115 153
115 177
115 180
115 183
115 186
115 237
115 261
115 268
116 123
116 151
116 157
116 188
117 125
117 172
117 186
117 190
117 191
117 192
117 208
117 211
117 228
117 237
117 260
117 263
117 284
118 172
118 241
118 252
118 254
119 125
119 128
119 174
119 200
119 210
119 279
120 180
120 181
120 197
120 202
120 209
120 279
121 142
121 144
121 186
121 201
121 216
121 222
121 224
121 293
122 165
122 213
122 215
122 220
122 223
122 232
122 262
122 270
122 286
123 138
123 181
123 192
124 153
124 230
124 274
124 289
125 131
125 159
125 160
125 182
125 208
125 210
125 272
125 282
126 131
126 139
126 150
126 165
126 173
126 234
126 244
126 246
126 247
126 252
126 297
127 136
127 145
127 154
127 171
127 206
127 235
127 293
128 155
128 200
128 238
128 277
129 133
129 175
129 181
129 184
129 224
129 290
129 297
130 153
130 186
130 206
130 225
130 244
131 185
131 198
131 272
131 277
131 300
132 134
132 155
132 186
132 206
133 153
133 160
133 177
133 187
133 200
133 232
133 237
133 244
133 260
133 262
134 138
134 140
134 169
134 215
134 240
136 173
136 202
136 237
136 283
137 156
137 192
137 194
137 233
137 248
137 250
139 150
139 223
139 261
139 286
140 150
140 172
140 174
140 182
140 209
140 224
140 234
140 246
140 291
141 174
141 186
141 257
142 165
142 184
142 212
142 216
142 289
143 184
143 225
143 266
144 160
144 201
144 205
144 213
144 247
144 264
144 276
145 235
146 151
146 156
146 174
146 227
146 256
146 261
147 151
147 154
147 227
147 290
147 292
148 192
148 226
148 267
148 284
148 287
149 270
149 299
150 172
150 224
150 239
150 246
150 261
150 297
151 164
151 186
151 188
151 209
151 227
151 246
151 278
151 297
152 171
152 198
152 200
152 204
152 233
152 234
152 250
152 275
152 276
152 278
152 294
153 158
153 171
153 173
153 175
153 180
153 186
153 206
153 225
153 243
153 244
153 263
153 268
153 270
154 157
154 232
154 240
154 293
155 168
155 170
155 221
155 222
155 230
155 277
155 290
156 180
156 190
156 227
156 243
157 193
157 208
157 236
157 238
157 253
157 267
157 271
157 283
157 297
158 184
158 192
158 237
158 260
158 289
159 210
159 220
159 234
159 236
159 289
159 300
160 163
160 175
160 190
160 196
160 201
160 221
160 222
160 229
160 231
160 247
161 171
161 172
161 182
161 223
161 236
161 242
161 245
161 284
161 293
162 175
162 265
162 266
162 283
163 230
163 250
163 285
164 181
164 186
164 188
164 193
164 200
164 206
164 254
164 261
164 272
164 278
164 294
165 229
165 247
165 251
166 198
166 225
166 230
166 278
168 174
168 204
168 217
168 221
168 274
169 196
169 263
169 299
170 230
170 248
170 255
171 236
171 247
171 275
171 293
171 298
172 179
172 188
172 209
172 234
172 236
172 284
172 297
173 174
173 244
173 247
173 252
173 274
173 280
174 179
174 183
174 217
174 242
174 245
174 252
174 255
174 260
174 261
174 272
174 274
174 296
175 238
175 246
175 266
176 295
177 183
177 198
177 211
177 216
177 260
177 272
177 298
178 184
178 196
178 198
178 230
178 259
178 269
178 272
178 276
179 186
179 263
179 273
179 276
179 296
180 181
180 196
180 228
180 243
180 263
180 273
180 277
181 186
181 188
181 193
181 198
181 202
181 209
181 224
181 250
181 253
181 254
181 272
181 276
182 190
182 216
182 258
182 278
182 279
183 245
183 246
183 257
183 261
183 300
184 196
184 198
184 202
184 228
184 239
184 253
184 257
184 259
184 260
184 289
185 211
185 231
185 249
185 272
186 190
186 206
186 222
186 237
186 263
186 269
186 273
187 262
187 268
187 274
187 276
187 300
188 238
188 242
188 297
190 196
190 208
190 209
190 212
190 216
190 221
190 240
190 254
190 269
190 296
191 196
191 263
191 276
191 284
192 198
192 230
192 233
192 237
192 238
192 267
192 269
192 292
193 201
193 237
193 244
193 253
193 261
194 196
194 203
194 263
195 219
195 236
195 263
195 276
195 280
196 201
196 202
196 205
196 263
196 276
196 299
197 216
197 218
197 291
197 293
197 298
198 234
198 269
198 272
198 278
199 279
200 234
200 250
201 203
201 237
201 247
201 251
202 208
202 253
202 259
203 251
204 208
204 225
204 233
204 240
205 213
205 249
205 268
205 295
205 299
206 214
206 235
206 249
206 265
207 269
207 290
208 221
208 225
208 245
208 252
208 253
209 216
209 227
209 240
209 246
210 220
210 282
211 218
211 260
211 278
211 284
211 293
212 221
212 290
212 296
213 236
213 238
213 241
213 267
213 300
214 249
214 265
215 226
215 232
215 254
215 262
215 286
216 221
216 269
216 286
217 232
217 236
217 260
217 296
217 297
218 221
218 260
218 291
218 293
218 298
219 280
220 223
220 236
220 249
220 252
220 284
220 289
221 230
222 290
223 276
223 284
223 286
224 230
224 259
224 297
225 242
225 278
226 287
227 243
227 246
227 256
227 278
227 290
228 256
228 260
228 268
228 277
228 294
228 298
230 285
231 235
231 240
231 249
232 285
232 287
232 296
233 240
233 250
233 273
234 236
234 297
236 283
236 293
237 244
237 263
237 269
237 274
238 259
238 266
238 267
238 281
238 283
239 259
240 263
242 267
242 272
242 274
242 282
243 254
244 260
244 274
245 252
245 253
245 258
245 269
245 274
245 290
245 296
246 248
246 256
246 277
246 278
246 300
247 293
248 270
250 275
250 276
251 290
252 259
253 261
254 286
254 294
256 277
257 259
257 274
257 288
257 291
259 267
260 277
260 289
261 272
262 266
262 289
263 273
263 276
263 277
263 296
264 285
265 283
267 281
268 270
268 272
268 276
268 277
268 295
268 299
269 270
269 290
271 283
271 291
271 293
272 276
272 295
274 291
274 296
277 294
277 295
278 279
281 298
283 291
283 297
290 292
290 296
*Classes
1
1
1
1
1
1
1
1
1
1
1
1
1
1
1
1
1
1
1
1
1
1
1
1
1
1
1
1
1
1
1
1
1
1
1
1
1
1
1
1
1
1
1
1
1
1
1
1
1
1
1
1
1
1
1
1
1
1
1
1
1
1
1
1
1
1
1
1
1
1
1
1
1
1
1
1
1
1
1
1
1
1
1
1
1
1
1
1
1
1
1
1
1
1
1
1
1
1
1
1
1
1
1
1
1
1
1
1
1
1
1
1
1
1
1
1
1
1
1
1
1
1
1
1
1
1
1
1
1
1
1
1
1
1
1
1
1
1
1
1
1
1
1
1
1
1
1
1
1
1
2
2
2
2
2
2
2
2
2
2
2
2
2
2
2
2
2
2
2
2
2
2
2
2
2
2
2
2
2
2
2
2
2
2
2
2
2
2
2
2
2
2
2
2
2
2
2
2
2
2
2
2
2
2
2
2
2
2
2
2
2
2
2
2
2
2
2
2
2
2
2
2
2
2
2
2
2
2
2
2
2
2
2
2
2
2
2
2
2
2
2
2
2
2
2
2
2
2
2
2
2
2
2
2
2
2
2
2
2
2
2
2
2
2
2
2
2
2
2
2
2
2
2
2
2
2
2
2
2
2
2
2
2
2
2
2
2
2
2
2
2
2
2
2
2
2
2
2
2
2
