*Vertices 300
*Edges
1 50
1 74
1 76
1 137
1 147
1 176
1 254
1 276
1 288
2 38
2 53
2 65
2 70
2 76
2 82
2 85
2 88
2 126
2 159
2 160
2 192
2 217
2 237
2 255
2 260
2 282
2 283
3 37
3 122
3 161
4 58
4 83
4 120
4 125
4 152
4 162
4 169
4 174
4 192
4 194
4 279
5 58
5 82
5 86
5 96
5 158
5 164
5 182
5 188
5 193
5 209
5 283
5 286
5 296
6 26
6 105
6 148
6 182
6 195
6 218
6 242
6 259
6 276
8 76
8 146
8 253
8 270
9 23
9 26
9 42
9 58
9 135
9 203
9 242
9 274
10 26
10 52
10 92
10 219
10 226
10 231
11 46
11 84
11 116
11 150
11 178
11 273
11 282
12 15
12 56
12 69
12 93
12 105
12 114
12 129
12 175
12 197
12 252
12 266
12 278
13 22
13 242
14 26
14 44
14 56
14 113
14 119
14 231
14 280
15 76
15 95
15 100
15 139
15 206
15 217
15 229
15 246
15 248
15 252
15 278
16 35
16 36
16 136
16 168
16 179
16 187
16 202
16 210
16 237
16 240
16 243
16 272
16 278
17 95
17 119
17 123
17 166
17 184
17 224
17 229
18 39
18 80
18 95
18 133
18 143
18 154
18 181
18 217
18 242
18 246
18 255
18 279
19 143
19 147
19 162
19 207
19 228
19 282
20 35
20 37
20 41
20 63
20 70
20 75
20 87
20 106
20 136
20 137
20 138
20 141
20 167
20 185
20 208
20 213
20 269
20 288
21 27
21 63
21 102
21 132
21 153
21 172
21 181
21 197
21 250
21 251
21 277
21 293
22 134
23 58
23 71
23 112
23 120
23 169
23 171
23 174
23 184
23 228
23 287
24 25
24 42
24 142
24 202
24 232
24 238
24 250
25 74
25 76
25 80
25 120
26 42
26 51
26 59
26 94
26 226
26 276
26 291
26 296
27 63
27 112
27 154
27 181
27 298
28 94
28 275
29 44
29 45
29 63
29 101
29 133
29 135
29 141
29 170
29 171
29 178
29 236
30 59
30 120
30 185
30 300
31 112
31 142
31 153
31 188
31 290
32 39
32 59
32 70
32 85
32 143
32 196
32 260
33 71
33 104
34 102
34 124
34 126
34 199
34 222
34 243
34 273
34 299
35 81
35 167
35 226
35 271
36 86
36 185
36 187
36 190
36 201
36 234
36 270
36 299
36 300
37 58
37 67
37 114
37 122
37 135
37 167
37 177
37 179
37 206
37 250
37 258
37 280
38 85
38 188
38 191
39 52
39 105
39 196
39 239
39 264
39 284
40 123
40 194
40 246
40 249
40 263
40 277
41 63
41 97
41 131
41 141
41 172
41 223
41 236
41 244
41 269
41 290
42 75
42 82
42 94
42 107
42 142
42 209
42 213
42 222
43 90
43 127
43 249
43 281
43 291
44 56
44 94
44 96
44 178
44 189
44 283
45 55
45 97
45 122
45 130
45 186
45 240
45 247
45 295
46 83
46 84
46 138
46 161
46 178
47 152
47 241
47 268
48 61
48 109
48 159
49 57
49 70
49 130
49 138
49 150
49 187
49 241
50 98
50 176
50 277
51 138
51 183
51 185
51 296
52 69
52 84
52 130
52 209
52 224
53 255
54 69
54 74
54 76
54 84
54 92
54 269
55 72
55 240
55 295
56 80
56 94
56 118
56 175
56 181
56 214
56 252
56 288
57 70
57 138
57 185
57 194
57 234
58 83
58 122
58 126
58 135
58 203
58 242
58 283
58 296
59 80
59 125
59 143
59 158
59 164
59 168
59 193
59 194
59 239
60 61
60 77
60 113
60 114
60 204
60 208
60 264
61 74
61 77
61 84
61 107
61 116
61 141
61 154
61 155
61 211
61 228
61 245
61 290
62 209
62 215
62 226
62 235
62 297
63 90
63 101
63 112
63 136
63 181
63 197
63 214
63 233
63 234
63 251
63 272
63 286
64 76
64 163
64 245
64 253
65 75
65 82
65 103
65 144
65 165
65 169
65 231
65 266
65 287
66 77
66 84
66 137
66 153
66 197
66 203
67 72
67 121
67 122
67 199
67 258
67 296
68 98
68 108
68 157
68 290
69 83
69 146
69 175
69 220
69 224
69 257
70 74
70 96
70 108
70 129
70 185
70 188
70 196
70 205
70 260
71 104
71 174
71 207
72 73
72 88
72 113
72 114
72 121
72 140
72 146
72 202
72 204
72 269
72 294
72 296
73 174
73 186
73 204
73 275
73 282
73 299
74 76
74 84
74 96
74 115
74 120
74 129
74 241
74 269
75 82
75 137
75 185
75 193
75 222
75 297
76 100
76 155
76 159
76 222
76 241
76 252
76 253
76 268
77 113
77 137
77 153
77 245
77 264
77 266
78 121
78 237
80 125
80 150
80 175
80 194
80 246
80 252
80 292
81 212
81 215
81 238
81 274
81 288
82 94
82 103
82 196
82 204
82 209
82 276
82 287
82 288
82 297
83 88
83 139
83 150
83 241
83 280
84 107
84 119
84 148
84 224
84 247
85 109
85 119
85 159
85 167
85 255
85 282
86 130
86 166
86 175
86 188
86 286
86 293
87 116
87 138
87 140
87 183
87 193
87 222
87 228
87 251
87 254
88 124
88 160
88 201
88 250
88 264
88 275
88 295
89 284
90 110
90 136
90 175
90 291
91 111
91 134
91 156
91 160
91 177
91 291
92 101
92 120
92 169
92 238
92 243
93 105
93 155
93 204
93 252
93 255
93 274
94 102
94 118
94 135
94 232
94 278
94 282
95 184
95 217
95 226
95 234
95 251
95 277
95 286
95 289
96 108
96 114
96 131
96 144
96 178
96 185
96 188
96 251
96 252
96 254
96 276
96 288
97 122
97 128
97 129
97 144
97 224
97 236
97 260
97 271
97 280
98 108
98 138
98 183
98 285
99 139
99 256
100 111
100 218
100 259
100 268
101 117
101 186
102 118
102 126
102 168
102 197
102 199
102 293
104 140
104 161
104 182
104 220
104 282
105 148
105 165
105 182
105 213
105 231
105 252
106 111
106 132
106 184
106 204
106 216
106 222
106 226
106 274
107 156
107 211
107 261
107 271
107 290
108 184
108 235
108 251
108 277
108 297
109 156
109 197
109 219
109 282
110 136
110 141
110 147
110 168
110 172
110 235
111 118
111 119
111 160
111 204
111 209
111 244
111 261
112 251
112 287
113 114
113 121
113 157
113 195
113 223
113 264
113 267
113 280
114 144
114 204
114 252
114 269
114 276
115 277
116 192
116 212
116 216
116 228
116 276
116 298
117 149
117 186
117 289
118 128
118 142
118 225
118 246
118 263
119 148
119 180
119 231
120 124
120 126
120 169
120 190
120 198
120 211
120 287
121 199
121 204
121 258
122 128
122 242
122 247
122 271
122 280
123 147
123 157
123 161
123 178
123 220
123 221
123 229
123 282
124 211
124 212
124 220
124 250
124 276
124 296
125 133
125 168
125 174
125 192
125 213
125 239
125 279
126 129
126 133
126 135
126 138
126 160
126 164
126 192
126 218
126 239
126 261
126 264
126 283
127 133
127 143
127 179
127 206
127 213
127 279
128 142
128 163
128 199
128 250
128 260
129 144
129 155
129 167
129 236
129 261
129 285
130 150
130 158
130 166
130 175
130 186
130 204
130 209
130 219
130 254
131 148
131 179
131 185
131 188
131 206
131 210
131 218
131 223
131 273
131 286
132 277
133 136
133 141
133 171
133 181
133 213
133 246
134 177
135 206
135 227
135 232
136 165
136 169
136 185
136 213
136 222
136 272
137 156
137 193
137 195
137 269
138 140
138 160
138 167
138 178
138 183
138 185
138 194
139 241
139 246
139 256
139 266
140 165
140 169
140 178
140 201
140 214
140 233
140 251
140 276
140 282
141 236
141 290
142 250
142 267
142 290
142 294
142 298
143 146
143 207
143 279
145 261
146 150
146 152
146 157
146 160
146 172
146 204
146 220
146 230
146 248
146 261
146 282
147 161
147 221
147 235
148 167
148 182
148 185
148 208
148 238
148 252
148 266
149 196
149 247
149 257
149 259
149 277
149 279
150 160
150 215
150 230
150 252
150 260
150 263
150 274
151 221
151 264
151 270
152 162
152 172
152 213
152 228
152 258
152 268
153 188
153 197
153 273
153 290
153 293
154 181
154 268
155 237
155 245
155 252
155 268
155 285
156 220
156 233
156 258
156 282
157 161
157 261
157 280
158 177
158 291
159 249
159 295
160 185
160 192
160 220
160 260
160 283
161 178
161 186
161 264
161 289
162 173
162 184
162 230
162 246
163 175
163 199
163 293
164 220
164 223
164 245
164 271
164 283
165 169
165 231
166 186
166 253
167 188
167 208
167 251
168 213
168 278
168 291
169 231
169 282
170 171
170 208
170 229
171 174
171 178
171 186
171 204
171 205
171 207
171 208
171 231
171 245
171 251
171 273
171 293
171 299
172 220
172 223
172 233
172 242
173 197
173 291
174 207
174 223
174 227
174 251
174 254
174 260
174 275
174 278
174 295
174 297
175 199
175 200
175 239
175 251
175 293
176 260
177 225
177 255
177 291
177 297
178 289
178 300
179 184
179 206
179 210
179 222
179 237
179 240
180 198
180 200
180 270
180 271
181 232
181 277
181 287
182 195
182 269
183 185
183 228
183 262
184 206
184 210
184 211
184 229
184 243
184 269
184 287
184 298
185 226
185 249
185 258
185 262
185 288
185 300
186 264
186 275
186 284
186 299
187 241
187 263
188 193
188 251
188 286
189 263
189 283
190 198
190 202
190 232
190 234
190 264
190 299
191 272
192 227
192 234
192 276
193 222
193 239
193 276
193 298
194 265
195 207
195 212
195 234
195 245
195 269
195 289
196 209
196 247
196 257
196 294
197 205
197 218
197 231
197 293
198 203
198 211
198 264
198 270
198 274
198 275
198 281
198 289
199 293
199 296
200 210
201 241
201 282
202 232
202 243
202 269
203 281
204 208
204 209
204 225
204 230
204 250
204 269
204 274
204 282
205 239
205 245
205 283
205 293
206 218
206 233
206 240
206 250
206 256
206 265
206 285
208 223
208 231
208 250
208 269
208 273
208 291
209 215
209 254
210 237
210 240
210 278
211 229
212 237
212 262
212 270
213 216
213 222
213 228
213 230
213 231
213 244
213 273
213 299
214 246
214 251
214 254
215 226
215 274
216 230
216 256
216 268
216 276
217 221
217 229
217 242
217 255
217 279
218 255
218 256
218 259
218 261
218 276
218 298
219 231
220 233
220 275
220 282
220 283
220 296
221 229
221 270
222 226
222 230
222 231
222 237
222 239
222 244
222 275
222 282
222 299
223 260
223 269
224 236
224 257
226 258
226 297
229 262
229 298
232 243
233 242
233 254
233 256
233 258
234 289
235 251
235 297
237 273
237 289
238 274
239 244
239 264
239 293
243 269
243 299
245 283
246 263
246 284
247 294
247 295
248 252
248 278
249 257
249 263
250 287
250 296
251 254
251 277
251 278
251 286
251 293
251 297
252 266
252 294
253 257
254 276
254 300
255 297
256 268
258 261
258 262
258 271
259 268
261 271
263 274
263 290
264 275
265 292
267 299
268 285
272 289
273 291
273 299
276 278
276 282
276 286
276 288
276 298
276 300
278 282
281 289
282 299
283 299
286 293
291 297
294 298
298 300
*Classes
1
1
1
1
1
1
1
1
1
1
1
1
1
1
1
1
1
1
1
1
1
1
1
1
1
1
1
1
1
1
1
1
1
1
1
1
1
1
1
1
1
1
1
1
1
1
1
1
1
1
1
1
1
1
1
1
1
1
1
1
1
1
1
1
1
1
1
1
1
1
1
1
1
1
1
1
1
1
1
1
1
1
1
1
1
1
1
1
1
1
1
1
1
1
1
1
1
1
1
1
1
1
1
1
1
1
1
1
1
1
1
1
1
1
1
1
1
1
1
1
1
1
1
1
1
1
1
1
1
1
1
1
1
1
1
1
1
1
1
1
1
1
1
1
1
1
1
1
1
1
2
2
2
2
2
2
2
2
2
2
2
2
2
2
2
2
2
2
2
2
2
2
2
2
2
2
2
2
2
2
2
2
2
2
2
2
2
2
2
2
2
2
2
2
2
2
2
2
2
2
2
2
2
2
2
2
2
2
2
2
2
2
2
2
2
2
2
2
2
2
2
2
2
2
2
2
2
2
2
2
2
2
2
2
2
2
2
2
2
2
2
2
2
2
2
2
2
2
2
2
2
2
2
2
2
2
2
2
2
2
2
2
2
2
2
2
2
2
2
2
2
2
2
2
2
2
2
2
2
2
2
2
2
2
2
2
2
2
2
2
2
2
2
2
2
2
2
2
2
2
