*Vertices 300
*Edges
1 32
1 74
1 101
1 146
1 216
1 248
2 5
2 10
2 30
2 45
2 68
2 70
2 86
2 129
2 136
2 138
2 177
2 222
2 253
2 258
3 57
3 82
3 94
3 105
3 129
3 160
3 217
3 242
3 251
3 277
4 39
4 55
4 103
4 193
4 282
5 10
5 20
5 49
5 68
5 72
5 197
5 201
5 230
6 45
6 47
6 51
6 73
6 78
6 83
6 100
6 116
6 121
6 122
6 130
6 132
6 157
6 162
6 186
6 190
6 232
6 250
7 79
7 138
7 147
7 162
7 193
7 214
8 52
8 55
8 74
8 100
8 145
8 159
8 167
8 249
8 262
9 51
9 113
9 139
9 187
9 240
9 265
10 30
10 36
10 64
10 68
10 129
10 131
10 165
10 170
10 175
10 177
10 201
10 225
10 237
11 89
11 91
11 98
11 179
11 180
11 201
11 244
11 286
12 24
12 28
12 66
12 92
12 97
12 125
12 137
12 145
12 248
12 267
12 269
13 161
13 229
14 19
14 42
14 96
14 123
14 157
15 107
15 171
15 180
15 228
15 229
15 253
15 288
15 300
16 30
16 85
16 101
16 110
16 117
16 131
16 141
16 142
16 157
16 217
16 250
17 20
17 29
17 99
17 122
17 136
17 144
17 196
17 218
17 222
17 279
18 71
18 73
18 93
18 158
18 205
18 256
18 281
19 42
19 83
19 121
19 134
19 280
19 298
20 122
20 168
20 176
20 188
20 224
20 277
20 279
21 43
21 52
21 100
21 104
21 105
21 112
21 119
21 169
21 216
21 238
21 296
22 33
22 43
22 63
22 64
22 81
22 90
22 93
22 120
22 123
22 134
22 232
22 240
23 36
23 51
23 52
23 55
23 59
23 87
23 149
23 172
23 187
23 215
23 255
23 294
23 297
24 28
24 83
24 92
24 145
24 233
24 249
25 88
25 109
25 113
25 125
25 170
25 192
25 209
25 214
25 231
25 232
25 285
25 293
26 29
26 56
26 102
26 109
26 123
26 211
26 247
27 86
27 92
27 101
27 107
27 135
27 187
27 189
27 265
27 274
27 275
27 289
27 296
28 68
28 92
28 96
28 97
28 110
28 125
28 142
28 147
28 166
28 192
29 30
29 65
29 77
29 80
29 99
29 109
29 158
29 208
29 283
30 53
30 78
30 87
30 91
30 116
30 117
30 142
30 158
30 162
30 248
30 255
30 258
30 275
30 277
31 37
31 41
31 60
31 71
31 85
31 94
31 99
31 108
31 109
31 112
31 116
31 127
31 148
31 203
31 216
31 265
32 41
32 69
32 87
32 92
32 228
32 245
32 265
32 271
33 74
33 81
33 84
33 91
33 108
33 160
33 182
33 208
33 221
33 230
33 250
33 270
33 277
33 291
34 61
34 88
34 191
35 56
35 81
35 114
35 206
35 224
35 228
35 269
36 55
36 122
36 129
37 51
37 59
37 79
37 86
37 100
37 127
37 132
37 134
37 140
37 222
37 257
38 44
38 47
38 66
38 73
38 81
38 85
38 145
38 187
38 219
38 256
39 55
39 65
39 103
39 149
39 152
39 163
39 227
40 125
40 138
40 147
40 171
40 189
40 215
40 293
41 59
41 63
41 69
41 108
41 109
41 134
41 220
41 233
41 288
42 135
42 136
42 140
42 293
43 98
43 108
43 119
43 166
43 216
43 232
43 264
44 145
44 172
44 209
44 222
45 116
45 127
45 132
45 137
45 176
45 177
45 189
45 191
45 222
45 224
45 244
45 288
46 60
46 63
46 74
46 94
46 103
46 109
46 146
46 262
47 73
47 98
47 100
47 102
47 130
47 147
47 153
47 217
47 283
47 291
48 76
48 141
48 244
48 274
48 280
49 62
49 72
49 101
49 163
49 180
49 209
49 225
49 230
49 293
49 298
50 106
50 113
50 115
50 192
50 273
50 280
51 59
51 75
51 100
51 160
51 186
51 205
52 105
52 150
52 180
52 191
52 224
52 266
52 290
52 297
52 299
53 64
53 68
53 71
53 73
53 114
53 116
53 117
53 136
53 144
53 170
53 179
53 245
53 275
54 63
54 136
54 150
54 245
54 269
54 290
55 65
55 74
55 85
55 103
55 108
55 114
55 131
55 150
55 170
55 181
55 290
56 90
56 93
56 109
56 219
56 236
56 247
57 79
57 82
57 86
57 241
57 251
58 94
58 116
58 120
58 129
58 148
58 174
58 282
59 75
59 100
59 109
59 140
59 196
60 94
60 103
60 116
60 128
60 138
60 147
60 170
60 251
60 298
61 88
61 139
61 172
61 185
61 199
61 234
62 72
62 95
62 219
62 254
63 146
63 215
63 232
63 288
63 294
64 69
64 103
64 104
64 106
64 123
64 124
64 131
64 136
64 139
64 144
64 150
64 173
64 199
64 201
64 221
64 226
64 272
64 295
65 109
65 131
65 163
65 201
65 205
65 206
65 209
65 246
66 76
66 85
66 97
66 115
66 117
66 131
66 157
66 187
66 213
66 225
67 76
67 77
67 98
67 116
67 136
67 181
67 276
68 96
68 115
68 125
68 129
68 175
68 179
68 235
68 257
69 104
69 123
69 144
69 238
69 271
70 74
70 136
70 138
70 146
70 147
70 160
70 277
71 73
71 144
71 187
71 216
71 219
71 289
71 293
72 89
72 96
72 105
72 135
72 140
72 182
72 204
72 225
72 297
73 93
73 114
73 133
73 142
73 156
73 164
73 221
73 256
74 131
74 146
74 202
74 208
74 292
75 177
76 77
76 141
76 191
76 205
76 280
77 129
77 134
77 283
78 103
78 116
78 149
78 186
78 222
78 253
78 297
79 86
79 95
79 111
79 121
79 147
79 173
80 93
80 126
80 210
80 246
80 259
81 85
81 145
81 194
82 102
82 149
82 171
82 215
82 239
82 241
83 111
83 119
83 121
83 138
83 190
83 232
83 271
83 276
83 284
84 90
84 91
84 224
85 108
85 113
85 114
85 116
85 117
85 239
85 294
86 92
86 111
86 117
86 140
86 142
86 153
87 88
87 110
87 142
87 188
87 245
87 255
87 273
87 286
88 110
88 139
88 197
88 211
88 231
89 96
89 195
89 221
89 277
90 93
90 206
90 247
91 98
91 105
91 140
91 195
91 212
91 217
91 250
91 253
91 255
92 135
92 142
92 197
92 248
92 297
93 126
93 152
93 287
94 105
94 108
94 116
94 148
94 174
94 296
94 298
95 111
95 121
95 190
95 254
96 105
96 123
96 135
96 151
96 174
96 191
96 211
96 217
96 275
97 99
97 124
97 137
97 157
97 176
97 261
97 267
98 123
98 136
98 144
98 153
98 158
98 181
98 193
98 211
98 271
98 276
99 124
99 174
99 218
99 225
99 247
99 251
99 254
99 265
99 266
100 119
100 123
100 130
100 145
101 110
101 142
101 167
101 204
101 207
101 213
101 230
101 296
102 130
102 149
102 217
102 246
102 247
102 255
102 291
103 118
103 136
103 139
103 144
103 147
103 149
103 170
103 194
103 222
104 118
104 169
104 190
104 238
104 259
104 276
104 281
105 123
105 129
105 151
105 217
106 117
106 142
106 184
106 222
106 234
106 241
108 148
108 176
108 182
108 206
108 265
109 113
109 123
109 131
109 158
109 205
109 206
110 133
110 142
110 177
110 210
110 292
111 121
112 119
112 127
112 131
112 150
112 168
112 194
112 195
112 207
112 221
112 296
113 115
113 117
113 125
113 126
113 163
113 212
113 248
113 265
113 267
114 132
114 164
114 179
114 193
114 256
114 269
114 291
115 117
115 126
115 157
115 235
115 248
115 287
116 162
116 176
116 277
116 297
117 142
117 173
117 260
117 271
117 282
118 136
119 150
119 190
119 195
119 221
120 134
121 190
121 250
122 129
122 243
123 143
123 144
123 145
123 158
123 237
123 240
123 281
123 294
124 144
124 265
125 144
125 147
125 170
125 192
125 214
125 261
125 280
125 285
126 229
126 246
126 249
127 132
128 147
128 187
128 214
128 253
128 263
128 271
128 289
129 134
129 166
129 175
129 210
129 258
129 280
130 237
130 284
130 287
131 201
131 204
131 221
132 134
132 135
132 140
132 141
132 288
132 291
133 142
133 156
133 221
133 251
134 140
134 220
134 223
134 233
134 280
134 283
135 136
135 140
135 157
135 182
135 271
135 283
135 288
135 297
135 300
136 140
136 144
136 195
136 207
136 239
136 253
136 292
137 261
138 141
138 147
138 217
138 222
138 257
138 284
138 298
138 300
139 173
139 176
139 194
139 199
139 200
139 201
139 271
139 294
140 157
140 182
140 271
141 151
141 173
141 235
141 250
141 287
142 170
142 292
142 300
143 188
143 212
143 218
143 237
144 170
144 179
144 269
144 292
145 196
145 219
145 256
145 294
146 209
146 216
146 290
147 170
147 254
147 257
147 298
148 175
149 215
149 222
149 248
149 255
150 194
150 195
150 290
150 295
151 170
151 214
151 250
151 282
152 153
152 178
152 227
152 233
152 246
152 298
153 162
153 246
153 274
153 283
153 298
154 184
155 183
155 207
155 223
155 257
155 281
155 300
156 221
156 253
156 265
157 225
157 254
157 293
157 297
158 163
158 171
158 222
158 279
158 281
159 205
159 227
159 243
159 264
159 270
159 287
159 289
160 161
160 175
160 179
160 180
160 189
160 239
160 243
160 250
160 277
160 286
160 299
161 164
161 197
161 243
161 294
162 248
162 274
162 290
162 298
163 209
163 246
163 265
163 279
163 290
164 194
164 218
164 267
165 177
165 203
165 225
165 294
166 210
166 216
166 295
167 202
167 210
167 246
168 236
168 299
169 179
169 205
169 238
169 240
170 179
170 181
170 214
170 237
170 250
170 256
170 281
171 199
171 210
171 215
171 229
171 272
171 279
171 293
171 300
172 206
172 211
172 219
172 277
172 297
172 299
173 189
173 199
173 275
173 287
174 181
174 214
174 239
174 240
174 252
174 275
174 296
175 184
175 222
175 243
175 256
176 188
176 199
176 213
176 251
176 259
176 261
176 267
176 281
176 284
176 297
177 183
177 195
177 226
177 244
177 278
177 292
177 294
178 221
178 233
178 249
179 180
179 214
179 235
179 245
179 249
179 256
179 291
179 299
180 181
180 189
180 225
180 230
180 241
180 247
180 250
180 286
180 288
180 293
180 299
181 193
181 217
181 219
181 223
181 240
181 250
181 257
181 281
181 283
182 193
182 200
182 221
182 267
183 207
183 212
183 226
183 280
183 281
184 192
184 222
184 257
185 216
185 242
185 253
185 286
186 263
187 214
187 289
188 216
188 228
188 267
188 286
189 222
189 275
190 200
190 276
191 222
191 224
191 271
191 282
192 222
192 226
192 230
192 272
192 280
193 199
193 229
193 250
193 267
193 269
193 283
193 292
194 216
194 255
194 267
194 296
195 207
195 216
195 222
195 243
195 257
195 278
195 286
195 295
196 222
197 220
197 228
197 240
197 241
197 248
197 271
197 282
197 286
198 215
198 244
198 286
199 200
199 229
199 248
199 267
199 281
200 208
200 230
200 267
200 278
201 241
201 271
201 272
201 300
202 211
202 246
202 261
202 292
203 219
203 235
203 294
203 295
204 211
204 213
204 218
204 250
204 296
205 220
205 223
205 238
205 239
205 240
205 248
205 270
206 284
206 292
206 299
207 243
207 280
208 230
208 272
208 277
208 280
209 219
209 222
209 232
209 235
209 236
209 259
209 268
209 270
209 290
210 218
210 237
210 246
210 275
210 279
210 284
210 292
211 218
211 231
211 261
211 275
211 297
212 214
212 216
212 226
212 249
212 267
212 277
212 284
212 286
213 250
214 229
214 231
214 249
214 256
214 296
215 244
215 255
216 228
216 242
216 278
216 286
216 295
216 296
217 219
217 255
217 281
218 237
218 267
218 273
219 222
219 257
219 277
219 294
219 297
220 223
220 233
220 282
221 233
222 224
222 257
222 259
222 281
222 290
223 248
223 257
224 228
224 259
224 281
224 286
225 245
225 254
225 293
225 298
226 239
226 267
226 272
226 277
226 278
226 286
227 264
228 229
228 259
228 261
228 286
229 245
229 248
229 269
229 288
229 292
230 251
230 280
230 298
231 292
232 235
232 236
232 259
232 268
232 281
233 249
233 256
234 267
234 284
235 236
235 268
235 285
235 287
235 291
235 294
236 281
236 291
236 294
237 246
238 239
238 243
239 240
239 241
239 243
239 252
240 252
240 265
240 270
240 282
240 296
241 248
241 272
241 285
241 286
241 299
242 286
242 295
243 264
243 294
244 274
244 286
244 294
245 293
248 269
249 256
249 267
249 277
250 282
250 287
251 267
251 284
252 271
254 272
255 267
257 300
258 277
259 260
259 261
259 271
259 286
260 261
260 271
264 289
266 283
266 297
266 300
267 284
268 281
269 283
269 292
270 274
270 290
271 276
271 282
272 300
273 284
274 290
275 279
275 284
277 297
285 291
286 295
286 296
287 289
287 291
292 294
292 299
293 298
297 300
298 300
*Classes
1
1
1
1
1
1
1
1
1
1
1
1
1
1
1
1
1
1
1
1
1
1
1
1
1
1
1
1
1
1
1
1
1
1
1
1
1
1
1
1
1
1
1
1
1
1
1
1
1
1
1
1
1
1
1
1
1
1
1
1
1
1
1
1
1
1
1
1
1
1
1
1
1
1
1
1
1
1
1
1
1
1
1
1
1
1
1
1
1
1
1
1
1
1
1
1
1
1
1
1
1
1
1
1
1
1
1
1
1
1
1
1
1
1
1
1
1
1
1
1
1
1
1
1
1
1
1
1
1
1
1
1
1
1
1
1
1
1
1
1
1
1
1
1
1
1
1
1
1
1
2
2
2
2
2
2
2
2
2
2
2
2
2
2
2
2
2
2
2
2
2
2
2
2
2
2
2
2
2
2
2
2
2
2
2
2
2
2
2
2
2
2
2
2
2
2
2
2
2
2
2
2
2
2
2
2
2
2
2
2
2
2
2
2
2
2
2
2
2
2
2
2
2
2
2
2
2
2
2
2
2
2
2
2
2
2
2
2
2
2
2
2
2
2
2
2
2
2
2
2
2
2
2
2
2
2
2
2
2
2
2
2
2
2
2
2
2
2
2
2
2
2
2
2
2
2
2
2
2
2
2
2
2
2
2
2
2
2
2
2
2
2
2
2
2
2
2
2
2
2
