*Vertices 300
*Edges
1 2
1 21
1 28
1 44
1 49
1 76
1 256
2 4
2 32
2 49
2 208
2 225
2 259
2 280
2 282
3 4
3 18
3 30
3 66
3 68
3 87
3 162
3 177
3 225
3 238
4 5
4 69
4 71
4 103
4 111
4 113
4 143
4 156
4 160
4 170
4 194
4 225
4 275
5 40
5 121
5 129
5 143
5 184
6 33
6 63
6 72
6 129
6 136
6 219
7 27
7 36
7 39
7 61
7 128
7 148
7 189
7 208
7 235
7 239
7 257
7 293
8 21
8 25
8 48
8 88
8 113
8 126
8 144
8 184
8 202
8 267
8 280
8 300
9 14
9 19
9 48
9 86
9 152
9 164
9 190
9 209
9 263
10 78
10 132
10 145
10 183
10 220
10 255
11 38
11 40
11 60
11 117
11 136
11 162
11 242
11 245
11 293
11 296
12 66
12 74
12 82
12 109
12 155
12 276
13 30
13 31
13 62
13 70
13 91
13 92
13 93
13 95
13 97
13 101
13 123
13 127
14 27
14 60
14 130
14 148
14 151
14 188
14 265
15 33
15 78
15 89
15 132
15 139
16 24
16 65
16 106
16 183
16 202
16 207
16 271
17 86
18 41
18 45
18 62
18 87
18 138
18 176
18 228
18 255
18 300
19 34
19 35
19 46
19 48
19 63
19 86
19 95
19 248
20 39
20 40
20 73
20 83
20 99
20 101
20 134
20 199
20 243
20 278
21 44
21 49
21 129
21 180
21 202
21 245
21 281
22 29
22 54
22 112
22 144
22 157
22 167
22 231
22 251
22 269
23 196
24 29
24 78
24 106
24 184
24 216
25 48
25 71
25 88
25 113
25 128
25 144
25 220
25 224
25 254
26 105
26 123
26 138
26 140
26 154
26 220
26 252
27 132
27 148
27 273
28 139
28 172
28 249
28 294
29 32
29 118
29 157
29 159
29 184
29 201
29 218
29 248
29 280
30 36
30 39
30 66
30 68
30 87
30 97
30 118
30 123
30 177
31 50
31 61
31 71
31 113
32 96
32 119
32 125
32 135
32 246
32 280
33 45
33 52
33 53
33 55
33 59
33 72
33 89
33 106
33 206
34 65
34 95
34 97
34 114
34 130
34 230
34 258
35 48
35 64
35 116
35 131
35 135
35 140
35 148
35 158
35 211
35 226
35 266
36 39
36 49
36 122
36 197
36 204
36 207
36 277
36 286
37 74
37 79
37 83
37 85
37 121
37 137
37 149
37 266
38 172
38 208
39 40
39 49
39 74
39 82
39 93
39 102
39 135
39 149
39 156
39 158
39 229
39 273
39 282
40 93
40 99
40 101
40 121
40 149
40 242
40 252
40 274
41 45
41 73
41 79
41 84
41 174
41 191
41 192
41 209
41 264
41 266
41 290
42 63
42 72
42 95
42 259
42 283
43 49
43 222
43 268
44 46
44 136
44 297
45 59
45 251
46 176
46 190
46 207
46 248
47 77
47 232
47 281
47 285
48 86
48 128
49 76
49 94
49 118
49 148
49 169
49 260
49 268
49 282
50 61
50 75
50 93
50 153
50 175
51 55
51 56
51 75
51 125
51 288
52 106
52 217
52 277
52 287
53 55
53 89
53 105
53 110
53 118
53 119
53 122
53 167
53 188
53 271
53 297
54 93
54 187
54 242
54 271
54 283
55 56
55 94
55 105
55 111
55 117
55 118
55 181
55 263
55 268
55 271
56 190
56 219
57 165
57 256
58 289
58 294
59 72
59 73
59 89
59 95
59 146
59 162
59 165
59 186
59 206
59 236
59 279
60 62
60 94
60 122
60 159
60 200
60 222
60 295
61 93
61 205
61 281
62 70
62 95
62 109
62 113
62 166
62 200
62 208
62 209
62 240
62 277
62 284
63 72
63 95
63 131
63 188
63 194
63 206
63 214
63 247
63 257
63 295
64 137
64 149
64 206
65 80
65 95
65 114
65 116
65 146
65 202
65 229
65 231
65 284
66 229
66 276
68 92
68 123
68 191
68 240
69 113
69 280
70 91
70 95
70 97
70 127
70 210
70 268
70 283
71 75
71 113
71 125
71 206
71 254
72 129
72 136
72 161
72 166
72 175
72 257
73 84
73 130
73 146
73 228
74 85
74 109
74 236
74 273
74 281
75 93
75 125
75 211
76 81
76 83
76 176
76 231
76 279
77 83
77 103
77 114
77 127
77 137
77 149
77 163
77 182
77 224
77 237
77 255
77 278
78 106
78 132
78 154
78 165
78 244
79 108
79 135
79 195
79 266
79 285
80 138
80 140
80 228
80 231
81 151
81 159
81 160
81 176
81 231
81 250
82 88
82 109
82 235
82 247
83 101
83 104
83 134
83 137
83 197
83 231
83 247
83 260
84 133
84 254
84 300
85 106
85 121
85 142
85 195
86 95
86 102
86 206
86 220
87 108
87 138
87 140
88 96
88 102
88 202
88 215
88 222
88 270
89 139
89 147
89 186
89 238
90 126
90 147
90 194
90 258
90 291
91 101
91 107
91 186
91 275
92 93
92 97
92 105
92 108
92 138
92 148
92 194
92 200
92 240
93 221
93 252
94 95
94 117
94 118
94 148
94 156
94 157
94 177
94 188
94 200
94 216
95 148
95 165
95 172
95 188
95 205
95 211
96 102
96 111
96 156
96 160
96 173
96 191
97 120
97 170
97 219
97 261
97 283
97 296
98 147
98 238
98 265
99 151
99 188
99 190
99 212
99 227
100 142
100 168
100 171
100 176
100 200
101 107
101 134
102 111
102 149
102 183
102 220
102 246
102 287
103 149
103 153
103 155
103 170
103 240
104 137
105 111
105 150
105 186
105 252
106 190
106 199
106 210
106 239
106 265
106 277
106 296
107 177
108 135
108 138
108 187
108 201
109 172
109 192
109 208
109 229
110 118
110 122
110 254
110 256
111 113
111 150
111 214
111 263
112 231
112 291
113 150
113 152
113 263
113 277
114 116
114 126
114 127
114 202
114 223
114 226
114 257
116 140
116 235
117 136
117 188
117 242
117 244
118 159
118 204
118 269
119 124
119 125
119 135
119 136
119 152
119 153
119 156
119 200
119 280
120 272
120 284
121 209
121 217
121 220
121 266
122 124
122 138
122 204
123 162
123 207
123 286
124 125
124 152
124 172
124 282
125 132
125 135
125 235
126 144
126 178
126 257
127 175
127 198
127 229
127 266
127 268
128 171
128 224
128 265
128 271
128 286
129 132
129 136
129 143
129 245
130 151
130 195
130 230
131 179
131 226
131 247
132 163
132 197
132 200
132 245
132 253
132 256
132 273
133 221
133 236
133 290
134 175
134 259
135 158
135 237
136 178
136 196
136 226
136 248
136 280
137 149
137 196
137 262
138 140
138 204
138 293
138 299
139 265
140 210
140 212
140 220
141 196
141 293
142 196
142 260
142 272
142 274
143 266
143 287
144 196
144 269
145 286
146 157
146 164
146 171
146 199
146 252
146 297
147 220
147 238
148 158
149 153
149 196
149 229
149 255
150 186
150 244
150 293
150 296
151 165
151 177
151 190
151 195
151 227
151 252
151 298
152 172
152 234
152 248
152 260
152 263
153 182
153 214
153 218
153 238
153 280
153 286
154 164
154 165
154 169
154 233
154 242
154 253
155 220
155 276
155 296
156 168
156 200
156 211
157 177
157 196
157 241
157 278
158 225
158 258
158 269
158 275
158 283
158 300
159 200
159 204
159 224
159 231
160 167
160 172
160 192
160 197
160 223
160 231
161 175
161 214
161 238
161 272
162 175
162 177
162 187
162 199
162 220
162 232
162 234
162 258
163 173
163 177
163 195
163 224
163 235
163 237
163 273
163 285
163 291
164 169
164 209
164 242
164 252
165 237
166 176
166 239
166 250
166 257
166 290
166 292
167 172
167 219
167 239
167 250
167 297
168 191
168 200
168 211
168 235
168 256
169 179
169 233
169 242
169 261
169 296
170 193
170 197
170 233
170 252
170 298
171 196
171 231
171 257
171 278
172 186
172 214
172 222
172 238
172 250
172 259
172 261
172 274
173 201
173 224
173 247
173 264
173 267
173 273
174 189
174 234
174 245
175 213
175 257
175 258
176 200
176 228
176 231
177 185
177 187
177 195
177 216
177 225
177 279
178 187
178 202
178 221
178 241
178 248
178 253
178 257
178 261
178 265
178 290
179 183
179 252
179 261
179 298
180 185
180 244
180 246
180 250
180 276
180 288
180 293
181 185
181 202
181 233
181 268
181 300
182 238
182 280
183 202
183 220
183 261
184 248
184 300
185 187
185 190
185 202
185 204
185 242
185 250
185 253
185 293
186 211
186 219
186 225
186 233
186 236
186 259
186 261
186 272
186 283
186 289
187 194
187 210
187 242
187 261
187 265
187 275
187 279
187 296
188 200
188 297
189 203
189 245
189 293
189 298
190 199
190 202
190 204
190 220
190 223
190 259
191 192
191 217
191 242
191 256
191 279
191 285
192 206
192 210
192 218
192 223
192 234
192 260
192 262
193 292
194 221
194 239
194 274
194 275
195 235
195 246
196 235
196 260
196 277
196 278
196 295
197 200
197 214
197 215
197 223
197 238
199 202
199 220
199 243
200 256
201 214
201 230
201 238
201 247
201 273
202 204
202 223
202 241
202 253
202 287
202 296
203 232
203 268
203 288
203 298
204 244
204 245
204 247
204 262
204 273
204 287
206 223
206 262
206 279
206 295
208 239
208 266
208 277
208 293
209 220
209 252
210 212
210 218
210 238
210 242
210 283
210 290
211 235
211 279
211 294
211 295
213 268
214 230
214 238
215 223
215 271
215 277
217 256
217 277
217 299
217 300
218 238
218 254
218 258
218 290
218 297
219 233
219 239
219 298
220 249
221 275
222 264
222 270
222 274
222 295
223 262
224 231
224 264
224 273
225 226
225 258
225 269
225 275
225 283
225 287
225 300
226 257
226 258
231 278
231 284
232 233
232 234
232 245
232 264
232 267
232 268
233 252
233 253
233 259
233 267
233 269
233 289
233 298
233 300
234 245
234 254
234 260
234 264
234 268
234 296
235 245
235 246
235 283
235 287
235 295
236 279
236 291
237 289
237 294
238 240
238 258
238 297
239 250
239 265
239 266
239 274
239 292
240 258
240 277
240 283
241 290
242 244
242 265
242 285
243 289
243 294
244 246
244 273
244 293
245 254
245 260
245 287
246 249
246 264
246 274
246 293
246 299
247 276
248 263
249 286
249 299
250 288
250 292
251 269
252 298
253 256
253 261
253 274
253 282
253 284
253 296
254 256
254 297
256 300
257 278
259 272
260 277
261 279
261 296
262 287
263 277
264 267
264 268
264 274
264 284
265 271
265 279
265 292
266 293
267 282
267 298
268 288
269 284
269 298
270 274
274 284
277 298
279 289
279 294
280 286
282 296
283 287
283 289
284 296
285 291
287 289
289 294
290 292
299 300
*Classes
1
1
1
1
1
1
1
1
1
1
1
1
1
1
1
1
1
1
1
1
1
1
1
1
1
1
1
1
1
1
1
1
1
1
1
1
1
1
1
1
1
1
1
1
1
1
1
1
1
1
1
1
1
1
1
1
1
1
1
1
1
1
1
1
1
1
1
1
1
1
1
1
1
1
1
1
1
1
1
1
1
1
1
1
1
1
1
1
1
1
1
1
1
1
1
1
1
1
1
1
1
1
1
1
1
1
1
1
1
1
1
1
1
1
1
1
1
1
1
1
1
1
1
1
1
1
1
1
1
1
1
1
1
1
1
1
1
1
1
1
1
1
1
1
1
1
1
1
1
1
2
2
2
2
2
2
2
2
2
2
2
2
2
2
2
2
2
2
2
2
2
2
2
2
2
2
2
2
2
2
2
2
2
2
2
2
2
2
2
2
2
2
2
2
2
2
2
2
2
2
2
2
2
2
2
2
2
2
2
2
2
2
2
2
2
2
2
2
2
2
2
2
2
2
2
2
2
2
2
2
2
2
2
2
2
2
2
2
2
2
2
2
2
2
2
2
2
2
2
2
2
2
2
2
2
2
2
2
2
2
2
2
2
2
2
2
2
2
2
2
2
2
2
2
2
2
2
2
2
2
2
2
2
2
2
2
2
2
2
2
2
2
2
2
2
2
2
2
2
2
