*Vertices 300
*Edges
1 11
1 34
1 76
1 84
1 108
1 109
1 118
1 156
1 212
1 221
1 265
2 5
2 7
2 25
2 41
2 47
2 48
2 55
2 77
2 136
2 140
2 155
2 213
3 72
3 101
3 132
3 200
3 250
3 288
3 289
4 22
4 97
4 117
4 128
4 130
4 179
4 185
4 261
4 292
5 47
5 62
5 87
5 126
5 138
5 225
5 252
5 254
5 287
6 15
6 43
6 137
6 253
6 285
7 40
7 41
7 43
7 47
7 68
7 107
7 118
7 202
7 280
8 23
8 29
8 33
8 66
8 79
8 100
8 153
8 228
8 274
9 16
9 49
9 84
9 90
9 99
9 119
9 142
9 146
9 148
9 154
9 215
9 244
9 245
9 269
9 277
9 280
9 282
9 296
10 94
10 212
10 214
10 300
11 29
11 38
11 44
11 125
11 132
11 265
11 288
12 21
12 50
12 85
12 119
12 144
12 158
12 188
12 209
12 242
12 247
12 299
13 28
13 32
13 37
13 45
13 69
13 73
13 106
13 139
13 149
13 152
13 197
13 241
13 244
13 291
14 42
14 54
14 56
14 76
14 86
14 89
14 114
14 134
14 139
14 196
14 222
14 241
15 103
15 137
15 161
15 165
15 183
15 201
15 207
15 208
15 241
15 256
15 262
16 54
16 74
16 99
16 112
16 113
16 123
16 134
16 142
16 147
16 190
16 199
16 242
16 253
17 19
17 95
17 146
17 162
17 220
18 34
18 99
18 105
18 122
18 131
18 225
18 293
18 296
19 25
19 89
19 95
19 97
19 139
19 141
19 194
19 202
19 223
19 233
19 235
19 250
20 77
20 154
20 279
21 23
21 29
21 33
21 49
21 55
21 65
21 67
21 108
21 110
21 144
21 218
21 219
22 96
22 97
22 105
22 117
22 128
22 141
22 259
22 261
22 286
23 49
23 71
23 81
23 85
23 116
23 142
23 153
23 248
23 274
23 278
24 27
24 51
24 129
24 172
25 27
25 48
25 97
25 123
25 163
25 207
25 213
25 226
25 232
26 117
26 199
26 200
26 243
26 245
26 251
26 267
27 73
27 110
27 123
27 126
27 129
27 172
27 195
27 230
27 238
27 244
28 71
28 152
28 158
29 33
29 53
29 77
29 79
29 80
29 82
29 100
29 108
29 123
29 128
29 173
29 174
29 228
29 268
29 281
29 288
29 295
30 89
30 107
30 231
30 235
31 79
31 109
31 110
31 131
31 168
31 268
31 273
31 294
32 33
32 56
32 73
32 110
32 139
32 152
32 183
32 219
33 34
33 39
33 60
33 67
33 74
33 100
33 104
33 108
33 110
33 113
33 120
33 123
33 169
33 227
34 39
34 54
34 58
34 60
34 66
34 99
34 105
34 109
34 115
34 131
34 168
34 183
34 196
34 214
35 58
35 72
35 228
35 253
36 139
36 164
36 182
36 236
36 261
36 281
36 283
36 291
37 38
37 73
37 96
37 106
37 116
37 131
37 144
37 150
37 190
37 216
37 224
37 243
37 250
37 284
37 298
38 73
38 104
38 128
38 150
38 155
38 157
38 169
38 190
38 216
38 238
38 253
38 284
39 44
39 60
39 66
39 87
39 99
39 104
39 183
39 190
39 201
39 221
39 222
39 236
39 262
40 56
40 186
40 268
41 47
41 55
41 78
41 81
41 98
41 156
41 265
41 271
41 275
41 282
42 58
42 76
42 131
42 179
42 241
42 296
43 45
43 68
43 124
43 128
43 137
43 139
43 145
43 170
43 172
43 194
43 232
43 237
44 60
44 101
44 125
44 132
44 222
44 240
44 242
45 53
45 61
45 64
45 68
45 73
45 122
45 144
45 166
45 178
45 179
45 287
46 81
46 113
46 127
46 194
46 244
46 258
47 48
47 53
47 172
47 187
47 243
47 251
47 252
47 273
48 94
48 118
48 140
48 183
48 241
48 254
48 294
49 63
49 67
49 73
49 85
49 125
49 142
49 144
49 157
49 167
49 180
49 215
49 221
49 238
49 272
49 275
50 53
50 119
50 125
50 173
50 209
50 212
50 216
50 242
50 288
50 298
51 229
52 150
52 216
52 271
52 276
53 64
53 155
53 164
53 173
53 174
53 185
53 216
53 248
53 252
53 276
53 288
53 296
54 99
54 114
54 115
54 117
54 134
54 136
54 142
54 146
54 147
54 211
54 218
54 254
54 259
54 280
54 300
55 58
55 65
55 67
55 98
55 100
55 120
55 162
55 174
55 175
55 178
55 210
55 252
55 255
55 265
55 273
55 297
56 60
56 68
56 101
56 139
56 237
57 124
57 211
57 218
57 223
58 89
58 107
58 108
58 109
58 131
58 206
58 228
58 233
58 243
59 175
59 213
59 281
60 70
60 77
60 86
60 87
60 92
60 102
60 120
60 127
60 137
60 139
60 145
60 183
60 193
60 223
61 73
61 76
61 194
61 200
61 213
61 232
61 249
61 251
62 78
62 87
62 100
62 116
62 126
62 201
62 216
62 231
62 278
62 287
63 85
63 86
63 93
63 119
63 125
63 180
63 214
63 245
64 105
64 114
64 122
64 135
64 144
64 167
64 178
64 179
64 195
64 203
64 219
64 288
65 67
65 234
66 83
66 86
66 103
66 131
66 134
66 167
66 226
66 230
66 273
67 114
67 134
67 168
67 209
68 107
68 118
68 139
68 144
68 237
68 252
68 280
68 289
69 87
69 101
69 126
69 149
69 194
69 207
69 208
69 238
69 244
69 250
69 253
69 272
69 296
70 92
70 206
70 217
70 232
70 250
71 128
71 140
71 143
71 158
71 183
71 275
72 94
72 108
72 120
72 215
72 228
72 237
72 286
72 288
73 126
73 129
73 167
73 189
73 190
73 217
73 244
73 250
74 90
74 169
74 206
74 229
74 238
75 84
75 134
75 140
75 148
75 150
75 198
75 232
75 275
76 129
76 154
76 156
76 190
76 241
76 249
77 81
77 86
77 136
77 145
77 173
77 184
77 185
77 198
77 202
77 248
77 275
77 297
78 96
78 126
78 206
78 216
78 219
78 231
78 255
79 82
79 110
79 126
79 128
79 130
79 135
79 146
79 161
79 165
79 180
79 181
79 185
79 204
79 210
80 263
80 281
80 293
81 113
81 215
81 220
81 232
81 247
81 248
81 251
81 275
81 278
81 282
82 105
82 126
82 128
82 131
82 155
82 193
82 220
82 224
82 268
82 269
83 133
83 145
83 210
83 220
83 230
83 269
83 291
84 99
84 103
84 109
84 134
84 148
84 186
84 187
84 198
84 226
84 267
84 292
84 296
85 157
85 212
86 93
86 105
86 122
86 133
86 134
86 155
86 211
86 217
86 279
87 104
87 184
87 201
87 208
87 262
88 183
88 196
88 262
88 268
88 276
88 296
88 298
89 97
89 107
89 289
90 102
90 165
90 224
90 244
90 269
90 270
90 282
90 296
91 256
92 95
92 102
92 120
92 133
92 138
92 143
92 166
92 207
92 215
92 243
92 262
93 138
93 247
93 254
93 279
94 142
94 174
94 183
94 215
94 239
94 241
94 245
94 257
95 120
95 215
95 235
95 273
96 116
96 141
96 148
96 180
96 192
96 276
97 130
97 141
97 187
97 226
97 233
97 236
97 291
98 100
98 165
98 187
98 228
99 119
99 144
99 146
99 147
99 208
99 211
99 242
99 259
99 287
100 128
100 146
100 166
100 173
100 228
100 239
100 267
100 274
101 118
101 132
101 149
101 153
101 172
101 237
101 288
101 289
102 108
102 153
102 208
102 209
102 254
102 262
103 107
103 122
103 134
103 196
103 205
104 132
104 146
104 250
104 284
105 122
105 128
105 225
105 296
106 197
106 238
106 241
106 253
107 118
107 141
107 174
107 206
107 239
107 286
107 289
108 120
108 131
108 153
108 156
108 229
108 282
109 128
109 131
109 158
109 165
109 167
109 170
109 181
109 221
109 226
110 125
110 126
110 135
110 139
110 227
111 117
111 242
112 133
112 147
112 155
112 193
113 123
113 163
113 164
113 204
113 216
113 256
114 122
114 134
114 135
114 168
115 168
115 205
115 214
115 287
116 141
116 144
116 148
116 199
116 232
116 278
116 298
117 243
117 259
118 208
118 237
118 248
118 276
119 125
119 132
119 146
120 174
120 274
121 173
121 198
121 226
121 269
121 296
122 278
122 288
123 242
123 271
123 282
124 142
124 170
124 172
124 178
124 206
124 232
124 265
125 132
125 135
125 174
125 179
125 232
126 128
126 129
126 146
126 172
126 194
126 224
126 280
127 151
128 158
128 181
128 216
128 220
128 237
128 280
128 288
129 229
129 234
129 243
129 289
130 136
130 141
130 146
130 149
130 215
130 223
130 238
130 285
131 133
131 161
131 195
131 268
131 273
132 143
132 149
132 154
132 214
133 134
133 151
133 210
133 243
133 258
133 268
134 148
134 166
134 205
134 237
135 149
135 180
135 223
135 236
135 240
135 276
135 296
136 145
136 146
136 200
136 254
136 280
136 285
136 300
137 145
137 222
138 191
138 226
138 254
138 267
138 273
138 276
138 291
138 297
139 151
139 176
139 281
139 283
139 286
140 160
140 188
140 194
140 232
140 275
140 287
140 299
141 169
141 174
141 183
141 249
142 245
142 267
142 282
144 178
144 224
144 266
144 287
145 210
146 200
146 244
146 250
146 253
146 267
148 159
148 180
148 186
148 234
148 236
149 239
149 253
150 157
150 198
150 204
150 218
151 157
151 181
151 182
151 194
151 208
151 241
152 163
152 223
152 247
152 252
152 282
152 291
153 172
153 204
153 212
153 260
153 274
154 181
154 188
154 193
154 215
154 247
154 265
154 279
154 292
154 295
155 193
155 213
155 223
155 252
156 211
156 218
156 223
156 252
156 281
157 182
157 241
158 161
159 175
159 187
159 206
159 217
159 229
159 234
159 236
160 194
160 199
160 201
160 203
160 220
160 223
160 239
160 242
160 266
160 284
161 195
161 196
161 204
161 210
161 222
161 265
161 290
162 166
162 170
162 205
162 217
162 224
162 231
162 281
162 287
162 294
163 200
163 205
163 207
163 220
163 223
163 252
163 256
163 264
164 176
164 188
164 213
164 238
164 253
164 276
164 283
164 300
165 226
166 179
166 199
166 203
166 207
166 220
166 231
166 237
166 253
166 266
166 267
167 191
167 205
167 209
167 217
167 219
167 226
167 234
167 283
168 215
168 227
168 238
169 219
169 224
169 238
169 295
170 221
170 255
170 279
170 287
170 292
170 294
172 193
172 212
172 260
172 269
172 295
173 185
173 226
173 248
174 184
174 216
174 220
174 234
174 239
174 258
174 286
174 288
175 187
175 189
175 232
175 235
175 270
175 281
175 284
176 216
176 228
176 267
176 276
177 201
177 239
178 193
178 197
178 209
178 256
178 265
179 199
179 203
179 207
179 231
179 232
179 267
179 281
180 189
180 192
180 196
180 198
180 200
180 202
180 209
180 213
180 226
180 265
180 276
180 278
180 300
181 188
181 194
181 208
181 214
181 215
181 292
182 236
182 238
183 193
183 219
183 221
183 222
183 223
183 226
183 241
183 248
183 275
183 296
183 297
183 298
184 204
184 236
184 288
185 234
185 270
185 284
186 213
187 234
187 267
187 284
188 238
188 247
188 299
189 207
189 220
189 235
189 270
190 221
190 222
190 229
190 247
190 254
190 259
190 294
191 251
191 274
191 283
192 195
192 280
193 196
193 223
193 265
193 269
193 295
194 202
194 207
194 214
194 229
195 225
195 230
195 238
195 244
195 249
195 282
195 290
196 210
196 222
196 228
196 230
196 240
196 257
196 265
196 278
197 202
197 209
197 252
197 260
198 218
198 226
198 262
198 265
199 203
199 267
200 205
200 208
200 209
201 204
201 210
201 266
201 297
202 252
202 276
202 278
202 280
203 232
204 210
204 212
205 209
205 211
205 214
205 217
205 218
205 225
205 249
205 250
205 256
205 287
205 289
206 217
206 219
206 232
206 234
206 248
206 256
206 261
207 220
207 235
207 250
208 209
208 230
208 240
208 283
208 286
208 287
208 292
209 265
209 278
209 283
210 236
210 253
210 297
211 218
211 220
211 225
211 236
211 281
211 288
211 290
211 291
213 226
213 253
213 254
213 281
213 285
213 296
213 300
214 292
215 238
215 277
215 278
215 282
216 222
216 228
216 271
216 280
217 234
217 250
218 236
219 256
219 275
219 286
219 289
220 230
220 239
220 247
220 250
220 268
220 288
221 248
221 275
221 297
222 228
222 240
222 256
222 257
222 259
222 298
223 239
223 252
223 269
223 298
224 289
224 295
225 244
225 249
226 275
226 281
226 283
226 296
226 298
226 300
227 232
227 287
228 257
228 281
229 243
229 251
230 240
232 243
232 251
232 262
232 274
232 281
232 287
233 246
233 261
233 274
233 290
234 236
234 248
234 250
234 284
234 286
234 289
235 238
235 241
235 285
236 238
236 247
236 258
236 261
236 266
236 291
236 296
238 253
238 285
238 295
239 266
239 267
239 278
239 280
239 286
239 288
239 291
240 245
241 254
241 275
241 285
241 296
241 298
242 284
243 251
243 258
244 258
244 280
244 291
245 284
246 251
246 274
247 282
247 288
247 290
247 291
248 274
248 275
248 278
249 289
251 262
251 274
251 287
252 256
252 265
252 289
253 258
253 267
253 272
253 285
253 297
254 285
254 287
254 293
254 294
255 292
256 257
256 289
257 259
257 268
257 285
258 272
258 275
258 296
258 297
259 265
259 290
259 298
260 269
260 282
260 290
260 295
265 278
266 267
266 280
266 287
266 291
267 276
267 297
268 285
269 280
269 291
269 296
272 297
273 297
275 297
275 298
276 278
276 291
278 291
280 291
282 290
284 289
285 293
285 294
285 297
287 294
288 290
288 296
289 295
*Classes
1
1
1
1
1
1
1
1
1
1
1
1
1
1
1
1
1
1
1
1
1
1
1
1
1
1
1
1
1
1
1
1
1
1
1
1
1
1
1
1
1
1
1
1
1
1
1
1
1
1
1
1
1
1
1
1
1
1
1
1
1
1
1
1
1
1
1
1
1
1
1
1
1
1
1
1
1
1
1
1
1
1
1
1
1
1
1
1
1
1
1
1
1
1
1
1
1
1
1
1
1
1
1
1
1
1
1
1
1
1
1
1
1
1
1
1
1
1
1
1
1
1
1
1
1
1
1
1
1
1
1
1
1
1
1
1
1
1
1
1
1
1
1
1
1
1
1
1
1
1
2
2
2
2
2
2
2
2
2
2
2
2
2
2
2
2
2
2
2
2
2
2
2
2
2
2
2
2
2
2
2
2
2
2
2
2
2
2
2
2
2
2
2
2
2
2
2
2
2
2
2
2
2
2
2
2
2
2
2
2
2
2
2
2
2
2
2
2
2
2
2
2
2
2
2
2
2
2
2
2
2
2
2
2
2
2
2
2
2
2
2
2
2
2
2
2
2
2
2
2
2
2
2
2
2
2
2
2
2
2
2
2
2
2
2
2
2
2
2
2
2
2
2
2
2
2
2
2
2
2
2
2
2
2
2
2
2
2
2
2
2
2
2
2
2
2
2
2
2
2
