*Vertices 300
*Edges
1 58
1 74
1 90
1 149
1 150
1 168
1 275
2 15
2 47
2 59
2 80
2 94
2 113
2 116
2 123
2 141
2 199
2 251
2 290
3 39
3 66
3 124
3 127
3 138
3 252
4 13
4 57
4 71
4 78
4 84
4 119
4 120
4 170
4 202
4 223
4 238
4 259
4 264
4 277
4 292
5 17
5 51
5 81
5 157
5 160
5 230
5 251
6 20
6 83
6 147
6 177
6 193
6 217
6 237
7 21
7 72
7 77
7 126
7 219
7 269
7 291
8 76
8 79
8 102
8 104
8 162
8 187
8 204
8 254
8 280
9 16
9 19
9 63
9 68
9 93
9 108
9 130
9 192
9 231
9 246
9 274
9 276
9 298
10 35
10 169
10 173
10 264
10 277
10 278
11 51
11 69
11 98
11 100
11 105
11 121
11 129
11 153
11 166
11 195
11 230
11 263
12 75
12 89
12 125
12 137
12 159
12 199
12 212
12 282
13 41
13 45
13 57
13 129
13 258
13 260
14 36
14 38
14 126
14 140
14 190
14 195
14 211
14 249
14 268
15 31
15 33
15 39
15 95
15 123
15 136
15 203
15 287
16 38
16 59
16 71
16 76
16 81
16 242
16 260
17 44
17 120
17 121
17 123
17 160
17 174
17 258
18 112
18 123
18 173
18 200
18 278
19 22
19 23
19 31
19 33
19 50
19 54
19 110
19 152
19 203
19 243
19 298
20 59
20 83
20 88
20 118
20 129
20 153
20 155
20 222
20 225
21 72
21 91
21 107
21 128
21 135
21 227
21 295
22 23
22 73
22 76
22 135
22 152
22 220
22 238
22 280
22 291
23 31
23 57
23 60
23 76
23 104
23 123
23 132
23 134
23 147
23 151
23 177
23 186
23 201
23 203
23 248
23 291
24 41
24 43
24 75
24 109
24 198
24 222
25 29
25 56
25 63
25 174
25 219
25 236
25 276
26 49
26 85
26 132
26 155
26 163
26 165
26 206
26 296
27 29
27 30
27 116
27 130
27 184
27 216
27 278
28 62
28 124
28 130
28 177
28 282
29 42
29 116
29 174
29 184
29 216
30 44
30 74
30 96
30 124
30 209
30 246
30 255
30 267
30 288
31 33
31 39
31 130
31 236
31 243
32 44
32 121
32 160
32 197
32 247
32 261
33 50
33 136
33 188
33 250
34 70
34 186
34 235
34 244
35 73
35 98
35 106
35 139
35 149
35 152
35 179
35 255
35 274
36 42
36 65
36 129
36 131
36 193
36 241
36 249
36 278
37 39
37 86
37 108
37 121
37 179
37 211
37 241
37 249
37 261
37 267
37 283
37 296
38 77
38 81
38 106
38 126
38 129
38 147
38 156
38 186
38 204
38 242
38 244
39 64
39 107
39 108
39 130
39 160
39 166
39 187
39 221
39 247
39 252
39 261
39 265
40 154
40 183
40 272
40 282
41 121
41 162
41 294
42 45
42 47
42 114
42 173
42 181
42 187
42 193
42 235
43 109
43 141
43 150
43 158
43 178
43 191
43 239
43 258
43 278
43 280
44 46
44 62
44 77
44 94
44 103
44 105
44 114
44 121
44 124
44 209
44 211
44 228
44 246
44 247
45 59
45 112
45 114
45 117
45 179
45 222
45 226
45 234
45 246
45 262
45 264
46 55
46 61
46 62
46 93
46 106
46 112
46 118
46 140
46 177
46 199
46 234
46 271
46 296
47 53
47 58
47 85
47 113
47 138
47 230
47 231
47 235
47 272
47 274
47 294
48 78
48 103
48 157
48 245
48 255
48 285
48 292
49 92
49 95
49 132
49 134
49 159
49 174
49 186
49 190
49 281
50 113
50 236
50 237
50 276
51 81
51 102
51 103
51 105
51 147
51 169
51 245
52 55
52 56
52 64
52 148
52 221
52 224
52 246
52 298
53 58
53 84
53 120
54 63
54 89
54 110
54 118
54 133
54 240
55 81
55 106
55 126
55 129
55 140
55 232
55 252
56 104
56 224
56 228
56 246
56 276
56 293
56 298
57 61
57 109
57 146
57 173
57 186
57 187
57 203
57 213
57 228
57 258
58 78
58 87
58 150
58 200
58 226
58 231
58 232
58 233
59 106
59 113
59 119
59 126
59 138
59 145
59 203
59 206
59 222
59 223
59 298
60 64
60 87
60 104
60 128
60 135
60 150
60 151
60 185
60 214
60 233
60 257
60 278
61 102
61 118
61 136
61 186
61 213
62 77
62 124
62 136
62 173
63 153
63 174
63 176
63 190
63 215
63 229
63 276
64 105
64 114
64 115
64 128
64 133
64 179
64 195
64 199
64 221
64 285
64 290
64 294
65 66
65 95
65 122
65 138
65 145
65 173
65 190
65 213
65 229
65 233
65 269
65 274
65 278
65 286
66 76
66 95
66 132
66 138
66 161
66 190
66 199
66 252
66 255
66 260
66 280
66 294
67 125
67 162
67 172
67 178
67 207
67 288
67 297
68 101
68 108
68 130
68 141
68 146
68 156
68 207
68 218
68 258
69 73
69 104
69 136
69 196
70 215
70 233
70 236
70 237
71 101
71 114
71 117
71 264
72 85
72 142
72 160
72 181
72 209
72 241
73 91
73 119
73 196
73 238
74 179
74 246
75 80
75 134
75 156
75 191
75 198
75 210
75 212
75 274
75 280
76 98
76 102
76 106
76 115
76 162
76 183
76 199
76 201
76 204
76 234
76 255
76 260
76 275
77 80
77 100
77 126
77 137
77 139
77 272
77 279
77 300
78 120
78 200
78 247
78 270
79 137
79 154
79 187
80 119
80 123
80 167
80 189
80 212
80 222
80 237
80 239
81 96
81 97
81 100
81 106
81 117
81 125
81 126
81 147
81 244
81 253
81 260
82 108
82 143
82 161
82 215
82 244
82 265
83 88
83 118
83 245
83 285
84 95
84 106
84 120
84 153
84 181
84 196
84 223
84 235
85 113
85 151
85 153
85 177
85 193
85 202
85 206
85 241
85 270
86 131
86 176
86 183
86 253
86 256
86 296
87 99
87 172
87 257
88 89
88 112
88 288
89 118
89 133
89 212
89 220
89 238
90 135
90 150
90 253
90 266
90 277
90 294
91 107
91 180
91 188
91 211
91 223
91 299
92 95
92 111
92 122
92 214
92 256
92 257
93 120
93 160
93 177
93 179
93 197
93 234
93 280
93 289
94 114
94 173
94 284
95 119
95 145
95 203
95 216
95 274
95 281
96 209
96 217
96 237
96 260
97 123
97 125
97 157
97 186
97 187
97 212
97 216
97 254
97 286
98 141
98 159
98 199
98 212
99 131
99 149
99 155
99 272
99 274
100 121
100 158
100 167
100 184
100 195
100 253
100 268
100 272
100 274
100 300
101 117
101 130
101 141
101 156
101 158
101 172
101 203
101 272
102 103
102 105
102 136
102 275
103 114
103 127
103 132
103 136
103 158
103 167
103 247
103 250
103 255
103 268
104 123
104 124
104 139
104 171
104 185
104 190
104 196
104 228
104 250
104 260
105 130
105 164
105 169
105 173
105 187
105 191
105 213
105 214
105 219
106 129
106 139
106 147
106 152
106 168
106 186
106 192
106 244
106 260
106 262
106 298
107 174
107 232
108 117
108 125
108 146
108 149
108 180
108 207
108 244
108 261
108 277
108 279
109 121
109 135
109 137
109 146
109 258
109 264
110 116
110 193
110 282
111 122
111 132
111 148
111 181
111 206
112 137
112 173
112 234
112 253
113 151
113 193
113 206
113 230
113 276
114 124
114 133
114 147
114 162
114 211
114 228
114 237
114 273
114 277
114 290
114 294
115 156
115 201
115 215
115 290
116 141
116 172
116 193
116 216
116 245
116 278
117 125
117 149
117 173
117 188
117 192
117 195
117 230
117 264
118 133
118 142
118 153
118 213
118 240
119 125
119 126
119 168
119 170
119 188
119 222
119 261
119 275
119 286
120 149
120 202
120 300
121 123
121 258
122 147
122 149
122 150
122 201
122 213
123 140
123 151
123 173
123 186
123 188
123 189
123 251
123 255
123 271
123 289
123 290
124 130
124 196
124 261
125 162
125 245
125 286
126 137
126 146
126 185
126 190
126 221
126 222
126 241
126 262
127 152
127 168
127 230
127 239
127 250
127 262
128 171
128 185
128 251
128 257
128 296
129 150
129 186
129 195
129 203
129 213
129 222
129 223
129 252
129 260
130 164
130 180
130 191
130 196
130 216
130 266
130 300
131 148
131 193
131 205
131 209
131 214
131 274
132 134
132 177
132 190
132 254
132 255
133 195
133 295
134 212
134 221
135 146
135 150
135 209
135 220
135 267
135 284
135 290
136 137
136 145
136 166
136 173
136 213
136 234
137 148
137 190
137 234
137 257
138 141
138 145
138 147
138 165
138 189
138 193
138 250
139 142
139 143
139 147
139 160
139 212
139 283
140 162
140 163
140 182
140 190
140 211
140 240
140 253
140 290
140 300
141 145
141 147
141 158
141 173
141 176
141 196
141 199
141 224
141 278
141 285
141 286
142 153
142 160
142 206
142 270
143 147
143 266
144 219
144 228
145 149
145 165
145 177
145 183
145 211
145 223
145 225
145 234
145 259
145 281
146 186
146 216
146 244
146 274
147 177
147 201
147 204
147 211
147 295
148 207
148 209
148 224
148 269
149 150
149 165
149 189
149 193
149 202
149 232
149 234
149 262
149 274
150 188
150 195
150 201
150 220
150 253
150 275
150 277
151 175
151 230
151 233
151 256
151 258
151 262
151 284
152 164
152 239
152 291
152 298
153 161
153 176
153 177
153 180
153 193
153 202
153 208
153 240
153 281
153 298
154 172
154 211
154 272
154 279
154 299
155 209
155 214
155 272
156 164
156 186
156 194
156 198
156 233
156 258
156 274
156 276
156 280
156 290
157 212
157 218
157 280
158 167
158 196
158 255
159 174
159 203
159 212
159 243
159 260
159 279
159 295
160 174
160 186
160 197
161 177
161 180
161 216
161 244
161 260
162 184
162 190
162 213
162 214
162 237
162 245
162 264
162 272
162 277
162 293
162 294
163 283
164 209
164 216
164 233
164 239
164 258
164 290
165 177
165 206
166 171
166 176
166 196
166 210
166 261
166 263
167 195
167 210
167 235
167 239
167 243
167 253
168 201
168 222
168 246
168 262
169 210
169 265
170 187
170 212
170 247
170 275
171 190
171 210
171 227
171 254
171 289
172 174
172 272
172 278
172 284
172 285
172 290
173 187
173 190
173 192
173 204
173 228
173 278
174 206
174 215
175 240
175 268
175 294
176 196
176 222
176 248
176 256
176 263
176 273
177 186
177 199
177 234
177 257
177 297
178 191
178 216
179 194
179 249
179 255
179 262
180 243
180 299
181 183
181 200
181 208
181 280
182 201
182 212
182 229
182 264
182 277
182 295
183 195
183 234
183 247
183 272
183 276
183 280
183 295
184 223
184 241
184 293
184 297
185 233
186 199
186 224
186 242
186 244
186 251
186 257
186 258
186 262
187 190
187 193
187 204
187 207
187 214
187 216
187 220
187 224
187 235
187 247
188 195
188 222
188 251
188 261
188 264
188 266
188 271
189 190
189 193
189 199
189 222
189 230
189 232
189 246
189 251
189 278
190 214
190 223
190 252
190 300
191 212
191 227
191 245
191 250
191 252
191 280
192 272
193 207
193 224
193 236
193 278
193 297
195 213
195 220
195 234
195 268
195 278
195 280
195 284
195 285
195 287
195 295
196 224
196 286
197 261
199 217
199 272
199 280
199 282
199 294
200 256
200 262
201 262
201 277
201 290
201 295
202 223
202 236
202 259
202 276
203 220
203 223
203 260
203 295
204 241
204 249
204 298
205 236
205 287
205 291
206 270
206 294
207 209
207 217
207 225
207 252
207 268
208 280
208 298
209 267
209 272
209 288
209 292
210 243
211 234
211 249
211 253
211 272
211 295
211 298
212 218
212 219
212 247
212 251
212 280
212 295
213 237
213 258
213 263
213 270
213 278
213 285
213 287
214 257
214 278
214 294
216 220
216 221
216 244
216 286
217 237
217 268
217 282
217 285
219 228
219 273
219 291
219 295
220 238
220 244
220 253
220 286
221 224
221 241
221 242
221 249
222 246
222 248
222 286
223 236
223 248
223 266
223 295
224 257
226 237
226 255
226 266
226 300
227 250
227 283
228 246
228 293
229 264
229 283
229 286
230 239
230 251
230 264
231 274
232 252
232 287
233 236
233 274
234 235
234 277
234 281
234 296
235 277
236 237
236 265
236 297
237 257
237 265
237 285
237 286
237 294
238 292
241 249
241 275
242 243
243 279
244 253
244 274
245 250
245 284
245 285
246 260
247 266
247 272
247 291
248 257
248 272
248 285
249 283
250 264
250 283
251 271
251 295
252 255
252 287
252 295
253 274
254 280
254 289
255 288
256 257
257 272
257 285
258 262
259 281
259 288
259 289
261 277
261 279
262 274
263 270
264 277
264 283
266 300
267 272
268 269
272 276
272 282
272 292
272 294
273 291
274 290
276 282
277 293
278 285
280 282
280 289
280 290
282 287
284 285
284 290
*Classes
1
1
1
1
1
1
1
1
1
1
1
1
1
1
1
1
1
1
1
1
1
1
1
1
1
1
1
1
1
1
1
1
1
1
1
1
1
1
1
1
1
1
1
1
1
1
1
1
1
1
1
1
1
1
1
1
1
1
1
1
1
1
1
1
1
1
1
1
1
1
1
1
1
1
1
1
1
1
1
1
1
1
1
1
1
1
1
1
1
1
1
1
1
1
1
1
1
1
1
1
1
1
1
1
1
1
1
1
1
1
1
1
1
1
1
1
1
1
1
1
1
1
1
1
1
1
1
1
1
1
1
1
1
1
1
1
1
1
1
1
1
1
1
1
1
1
1
1
1
1
2
2
2
2
2
2
2
2
2
2
2
2
2
2
2
2
2
2
2
2
2
2
2
2
2
2
2
2
2
2
2
2
2
2
2
2
2
2
2
2
2
2
2
2
2
2
2
2
2
2
2
2
2
2
2
2
2
2
2
2
2
2
2
2
2
2
2
2
2
2
2
2
2
2
2
2
2
2
2
2
2
2
2
2
2
2
2
2
2
2
2
2
2
2
2
2
2
2
2
2
2
2
2
2
2
2
2
2
2
2
2
2
2
2
2
2
2
2
2
2
2
2
2
2
2
2
2
2
2
2
2
2
2
2
2
2
2
2
2
2
2
2
2
2
2
2
2
2
2
2
