*Vertices 300
*Edges
1 97
1 98
1 122
1 273
1 290
2 40
2 69
2 73
2 78
2 84
2 109
2 159
2 210
2 239
2 246
3 189
3 222
3 254
4 55
4 64
4 79
4 90
4 115
4 119
4 141
4 202
5 8
5 15
5 39
5 41
5 74
5 219
5 270
5 285
6 86
6 186
7 139
7 146
7 151
7 169
7 225
7 233
7 256
8 13
8 35
8 41
8 43
8 54
8 74
8 125
8 142
8 156
8 184
8 229
8 245
8 272
8 273
9 16
9 18
9 50
9 67
9 85
9 94
9 107
9 121
9 148
9 224
9 249
9 250
9 256
9 260
9 295
10 60
10 84
10 93
10 95
10 119
10 139
10 152
10 154
10 161
10 178
10 207
10 235
10 239
10 249
10 257
11 13
11 16
11 17
11 21
11 46
11 47
11 130
11 143
11 205
11 267
11 283
12 46
12 124
12 200
12 227
12 257
12 282
13 27
13 43
13 82
13 104
13 110
13 128
13 131
13 137
13 143
13 152
13 212
13 270
14 15
14 41
14 95
14 141
14 223
15 26
15 41
15 92
15 95
15 235
15 236
15 297
16 47
16 72
16 85
16 135
16 218
17 21
17 97
17 149
17 161
17 165
17 199
17 202
17 279
18 67
18 81
18 133
18 153
18 180
18 214
18 218
18 220
18 253
19 31
19 52
19 81
19 127
19 183
19 213
19 221
19 249
19 252
19 260
20 21
20 45
20 50
20 65
20 150
20 161
20 165
20 242
20 245
20 256
20 284
20 296
21 50
21 65
21 202
21 214
21 251
22 32
22 59
22 67
22 82
22 100
22 101
22 105
22 203
22 204
23 50
23 68
23 123
23 127
23 147
24 33
24 38
24 40
24 45
24 80
24 126
24 173
24 195
24 210
24 298
25 32
25 42
25 60
25 84
25 87
25 119
25 188
25 251
26 35
26 109
26 150
26 165
26 246
26 280
27 71
27 143
27 298
28 49
28 73
28 123
28 136
28 173
28 257
29 57
29 88
29 90
29 124
29 157
29 186
29 202
29 207
29 271
30 202
30 224
30 244
30 269
31 49
31 70
31 81
31 127
31 136
31 249
32 36
32 37
32 42
32 95
32 100
32 161
32 195
32 265
32 300
33 45
33 46
33 52
33 54
33 65
33 84
33 111
33 119
33 138
33 191
33 227
33 241
33 272
33 285
34 106
34 143
34 151
34 152
34 160
34 170
35 43
35 50
35 69
35 75
35 77
35 117
35 118
35 127
35 148
35 150
35 221
35 295
36 66
36 95
36 106
36 199
36 258
37 205
37 251
37 268
38 91
38 145
38 228
38 274
39 109
39 130
39 150
39 156
39 195
39 211
40 43
40 75
40 97
40 98
40 121
40 126
40 156
40 244
41 74
41 87
41 92
41 117
41 129
41 134
41 252
41 282
41 299
42 60
42 84
42 87
43 51
43 54
43 71
43 94
43 98
43 104
43 125
43 131
43 135
43 137
43 143
43 148
43 173
43 242
43 274
43 276
44 109
44 140
44 167
44 201
44 233
44 238
44 285
45 49
45 52
45 65
45 93
45 113
45 136
45 138
45 160
45 266
46 50
46 75
46 90
46 124
46 137
46 138
46 140
46 149
47 135
47 141
47 142
47 192
47 229
47 300
48 56
48 65
48 78
48 107
48 199
48 256
48 266
49 62
49 70
49 135
49 136
49 145
49 232
49 233
49 256
49 282
50 69
50 71
50 75
50 124
50 127
50 138
50 148
50 150
50 176
50 203
50 226
50 227
51 93
51 94
51 97
51 203
52 57
52 135
52 183
52 192
52 291
53 159
53 208
53 222
54 138
54 257
55 90
55 102
55 126
55 179
56 76
56 78
56 89
56 102
56 196
56 230
57 70
57 88
57 135
57 178
57 183
57 234
58 65
58 76
58 223
58 240
58 274
58 297
59 75
59 101
59 167
59 256
60 79
60 95
60 141
60 219
61 82
61 97
61 98
61 141
61 155
61 226
61 273
61 278
61 298
62 145
62 204
62 240
63 146
63 158
63 172
63 183
63 226
63 237
63 300
64 89
64 141
64 238
65 136
65 148
65 161
65 182
65 225
65 265
66 72
66 77
66 112
66 118
66 124
66 137
66 146
66 149
66 156
66 164
66 169
66 213
67 87
67 94
67 100
67 105
67 117
67 121
67 122
67 133
67 148
68 91
68 104
68 154
68 249
68 261
68 275
69 71
69 73
69 116
70 135
70 136
70 290
71 73
71 93
71 101
71 104
71 138
71 215
71 259
72 124
72 238
72 286
73 84
73 116
73 119
73 139
73 233
74 82
74 128
74 171
74 173
75 84
75 121
75 122
75 127
75 139
75 182
75 276
75 298
76 77
76 78
76 174
76 298
77 112
77 118
77 120
77 193
78 188
78 199
78 210
78 218
78 256
79 90
79 123
79 136
79 156
79 176
79 185
79 217
79 274
80 107
80 167
80 217
80 231
80 246
80 247
80 254
80 300
81 89
81 147
81 198
81 218
82 98
82 101
82 128
82 167
82 177
83 86
83 265
84 87
84 119
84 121
84 122
84 137
84 139
84 148
84 185
85 100
85 152
85 163
85 184
85 248
85 255
85 263
86 240
87 114
87 117
87 136
87 253
88 160
88 226
89 230
89 297
90 105
90 115
90 124
90 137
90 152
90 248
90 251
90 257
91 112
91 177
91 200
91 204
91 215
91 269
92 102
92 154
92 185
92 240
93 94
93 123
93 136
93 138
93 156
93 197
93 222
93 244
93 249
93 281
94 97
94 155
94 158
94 189
94 234
94 256
94 272
94 275
95 141
95 254
95 258
96 213
96 217
96 224
96 252
96 285
97 98
97 122
97 124
97 138
97 149
97 195
97 266
98 122
98 169
98 179
98 193
98 231
98 297
99 118
99 131
99 190
99 244
99 288
100 101
100 105
100 171
100 229
101 267
102 188
102 209
102 240
102 280
103 209
103 210
103 228
103 262
104 135
104 148
104 217
104 280
104 286
105 115
105 154
105 269
105 283
105 286
106 199
107 121
107 148
107 179
107 187
107 258
107 270
108 126
108 129
108 184
108 198
108 201
108 296
109 122
109 130
109 140
109 150
109 183
109 229
109 257
109 300
110 137
110 143
110 172
110 266
111 217
111 222
111 227
112 124
112 137
112 274
113 233
114 120
114 136
114 182
114 194
114 203
114 220
114 237
114 241
114 264
114 279
114 282
115 124
115 140
115 183
116 124
116 211
116 214
116 256
116 283
117 129
117 133
117 185
117 248
117 278
118 120
118 197
119 148
119 157
119 162
119 202
119 216
120 126
120 211
120 227
120 264
121 148
121 165
121 201
121 265
122 130
122 133
122 157
122 158
122 284
123 136
123 147
123 149
123 256
123 281
124 137
124 140
124 146
124 149
125 131
125 164
125 187
126 133
126 173
126 258
126 264
126 281
126 296
127 223
128 143
128 166
128 182
128 204
128 226
129 193
129 219
129 281
130 138
130 174
130 181
130 186
130 216
130 272
131 176
132 167
132 202
133 170
133 237
133 267
133 281
133 291
134 156
134 202
134 236
135 203
135 241
135 253
136 149
136 266
137 143
137 146
137 170
137 178
137 185
137 199
137 227
137 274
137 281
138 140
138 149
139 233
139 249
140 216
140 229
140 287
141 172
141 233
141 245
141 262
141 278
141 283
141 300
142 252
143 150
143 151
143 283
143 288
143 295
144 209
144 263
145 180
145 262
146 200
147 208
148 180
148 263
148 285
148 296
149 226
149 231
149 237
150 161
150 253
150 288
151 169
151 171
151 226
151 232
151 269
152 157
152 163
152 175
152 186
152 188
152 221
152 254
152 265
152 274
152 292
152 295
153 177
153 180
153 284
154 189
154 219
154 226
154 239
154 251
154 300
155 161
155 181
155 188
155 240
155 243
155 255
155 256
155 279
155 283
156 176
156 195
156 274
157 181
157 295
158 170
158 222
158 241
158 295
159 209
159 273
159 278
159 284
159 287
161 184
161 190
161 199
161 203
161 256
161 292
161 297
161 300
162 194
162 263
163 211
163 238
163 283
163 286
164 245
164 270
165 166
165 173
165 182
165 201
165 202
165 205
165 207
166 168
166 182
166 239
166 272
167 174
167 177
167 185
167 233
167 296
168 192
168 241
169 170
169 176
169 208
169 212
169 226
169 235
169 273
170 186
170 209
170 212
170 215
170 227
170 241
170 279
171 173
171 226
171 269
172 260
172 297
173 182
173 183
173 205
173 206
173 207
173 210
173 276
174 185
174 186
174 288
175 186
175 188
175 199
175 203
175 205
175 206
175 236
175 258
175 295
176 235
176 244
176 282
176 297
177 185
177 237
177 296
178 182
178 183
178 218
178 283
178 300
179 184
179 206
179 207
179 231
179 252
179 272
179 288
179 290
181 203
181 221
181 240
181 247
181 255
181 256
181 271
181 279
181 283
182 185
182 189
182 204
182 206
182 217
182 239
182 271
182 272
182 283
182 300
183 207
183 214
183 219
183 300
184 196
184 206
184 246
184 248
184 290
184 300
185 206
185 244
185 286
185 288
186 188
186 206
186 209
186 212
186 292
187 199
187 233
187 254
187 274
187 281
187 284
188 197
188 199
188 204
188 209
188 244
188 256
188 280
188 283
188 299
189 198
189 219
189 226
189 227
189 245
189 255
189 270
189 279
189 296
189 300
190 256
191 208
191 242
191 287
192 291
194 263
195 298
196 246
197 229
197 244
197 280
198 220
198 272
198 279
199 252
199 270
199 279
199 281
200 211
200 214
200 239
200 271
200 293
201 248
202 263
203 205
203 258
203 261
203 292
203 294
203 295
204 280
204 281
205 213
205 227
205 275
205 294
206 207
206 248
206 252
206 288
206 290
207 214
207 219
207 235
207 251
207 284
207 300
208 212
208 220
208 273
208 282
209 241
209 273
209 292
210 217
210 269
211 239
211 271
211 286
211 289
211 293
213 275
214 218
214 239
214 245
214 249
214 271
214 296
215 277
217 226
217 269
217 283
218 249
219 245
219 251
219 257
219 274
220 272
220 287
221 260
221 261
221 295
222 295
223 262
223 291
223 292
225 228
225 266
225 298
226 269
226 277
227 279
227 281
227 294
228 266
229 273
229 280
230 297
230 299
231 236
233 278
233 282
234 246
234 297
235 257
236 258
236 263
238 283
239 247
239 265
239 271
239 278
239 283
240 247
240 255
240 270
240 271
240 284
240 293
240 296
241 270
241 280
242 274
242 286
242 287
242 289
243 256
243 283
244 256
244 270
244 280
244 286
245 255
245 270
245 274
245 278
245 284
245 296
246 297
247 271
248 250
251 257
251 266
252 281
254 274
255 256
255 284
255 296
255 300
256 270
256 292
257 266
258 263
259 274
259 297
260 297
261 295
262 292
263 267
264 267
265 271
265 295
265 299
267 273
270 276
270 279
270 282
271 286
271 293
272 288
273 278
273 282
273 287
276 298
277 298
278 284
279 300
280 299
281 283
282 297
285 295
287 289
288 295
292 300
296 300
*Classes
1
1
1
1
1
1
1
1
1
1
1
1
1
1
1
1
1
1
1
1
1
1
1
1
1
1
1
1
1
1
1
1
1
1
1
1
1
1
1
1
1
1
1
1
1
1
1
1
1
1
1
1
1
1
1
1
1
1
1
1
1
1
1
1
1
1
1
1
1
1
1
1
1
1
1
1
1
1
1
1
1
1
1
1
1
1
1
1
1
1
1
1
1
1
1
1
1
1
1
1
1
1
1
1
1
1
1
1
1
1
1
1
1
1
1
1
1
1
1
1
1
1
1
1
1
1
1
1
1
1
1
1
1
1
1
1
1
1
1
1
1
1
1
1
1
1
1
1
1
1
2
2
2
2
2
2
2
2
2
2
2
2
2
2
2
2
2
2
2
2
2
2
2
2
2
2
2
2
2
2
2
2
2
2
2
2
2
2
2
2
2
2
2
2
2
2
2
2
2
2
2
2
2
2
2
2
2
2
2
2
2
2
2
2
2
2
2
2
2
2
2
2
2
2
2
2
2
2
2
2
2
2
2
2
2
2
2
2
2
2
2
2
2
2
2
2
2
2
2
2
2
2
2
2
2
2
2
2
2
2
2
2
2
2
2
2
2
2
2
2
2
2
2
2
2
2
2
2
2
2
2
2
2
2
2
2
2
2
2
2
2
2
2
2
2
2
2
2
2
2
