*Vertices 300
*Edges
1 2
1 37
1 68
1 93
1 104
1 258
2 8
2 34
2 60
2 79
2 84
2 104
2 121
2 135
3 12
3 18
3 28
3 124
3 134
3 233
4 42
4 49
4 70
4 72
4 182
4 191
4 230
4 253
4 256
4 270
4 284
4 299
5 11
6 25
6 67
6 102
6 150
6 274
7 43
7 89
7 206
7 248
8 98
8 103
8 105
8 292
9 30
9 41
9 71
9 201
9 255
9 267
9 275
10 57
10 85
10 94
10 127
10 158
10 183
10 187
10 198
10 216
11 52
11 186
11 193
12 15
12 23
12 66
12 124
12 132
12 237
13 44
13 52
13 70
13 86
13 111
13 144
13 155
13 160
13 190
13 253
14 32
14 110
14 112
14 139
14 254
14 286
14 294
15 80
15 185
15 200
15 285
16 24
16 58
16 149
16 157
16 162
16 283
17 18
17 62
17 74
17 169
17 181
17 188
17 271
18 59
18 73
18 115
18 144
18 202
18 256
19 71
19 118
19 136
19 202
19 205
19 256
20 26
20 27
20 41
20 44
20 52
20 55
20 64
20 66
20 72
20 118
20 127
20 134
20 138
20 168
20 199
20 205
20 218
21 26
21 49
21 72
21 86
21 134
21 138
21 162
21 189
21 222
21 263
21 267
21 281
22 52
22 227
23 61
23 125
23 260
23 285
23 291
24 35
24 39
24 113
24 123
24 149
24 208
24 275
25 40
25 67
25 119
25 150
25 270
25 300
26 72
26 79
26 165
26 205
26 249
26 287
26 294
26 299
27 44
27 52
27 99
27 131
27 133
27 277
28 85
28 92
28 124
28 177
28 203
28 226
28 253
28 256
28 281
29 64
29 105
29 108
29 160
29 213
29 243
29 250
30 40
30 41
30 127
30 163
30 168
30 226
30 256
30 289
30 296
31 181
31 189
31 208
31 222
31 242
32 38
32 112
32 122
32 136
32 177
32 247
34 66
34 79
34 122
34 128
34 176
34 195
34 255
35 99
35 123
35 131
35 139
35 210
35 233
35 245
35 246
35 256
35 257
36 80
36 127
36 134
36 153
36 292
37 38
37 120
37 159
37 195
37 231
37 243
38 54
38 96
38 120
38 122
38 128
38 172
38 220
38 247
39 50
39 70
39 188
39 253
40 106
40 163
40 168
40 192
40 236
40 270
41 52
41 80
41 106
41 127
41 215
41 220
41 275
41 296
42 243
43 50
43 52
43 67
43 70
43 73
43 77
43 85
43 181
43 184
43 206
43 225
43 247
44 52
44 76
44 135
44 212
44 250
44 271
44 282
45 75
45 172
45 174
46 66
46 67
46 85
46 123
46 169
46 198
46 206
46 207
46 214
46 240
46 290
47 89
47 122
47 265
47 266
48 142
48 177
48 199
48 229
48 275
49 70
49 189
49 203
49 219
49 261
49 264
49 267
49 297
50 70
50 73
50 93
50 112
50 170
50 215
50 230
51 62
51 149
51 154
51 159
51 186
51 195
51 219
51 246
51 257
52 155
52 185
52 212
52 218
52 227
52 250
52 264
52 285
53 87
53 88
53 120
53 145
53 154
53 165
53 211
53 235
53 260
53 293
54 128
54 137
54 154
54 164
54 178
54 241
54 243
54 283
55 56
55 69
55 199
55 205
55 218
55 276
56 125
56 126
56 130
56 142
56 164
56 185
56 197
56 264
56 279
57 84
57 127
57 139
57 183
57 221
58 73
58 77
58 102
58 105
58 149
58 165
58 200
58 205
58 213
58 243
58 262
59 64
59 83
59 98
59 149
59 194
59 265
60 122
60 134
60 135
60 188
60 216
60 283
61 89
61 155
61 190
61 243
61 260
61 279
61 296
62 72
62 74
62 78
62 120
62 125
62 135
62 136
62 140
62 175
62 185
62 201
62 222
62 248
62 256
62 271
62 276
62 292
62 300
63 101
63 137
63 138
63 159
63 188
63 222
63 242
63 249
63 300
64 83
64 98
64 134
64 140
64 168
64 194
64 252
64 295
64 298
65 258
65 260
66 67
66 83
66 88
66 118
66 120
66 123
66 132
66 291
67 80
67 85
67 118
67 123
67 127
67 171
67 190
67 246
68 82
68 89
68 104
68 119
68 134
68 210
68 216
68 266
68 269
69 77
69 106
69 123
69 138
69 191
69 199
69 227
69 234
69 237
69 256
70 80
70 86
70 115
70 127
70 160
70 165
70 166
70 215
70 253
71 136
71 165
71 201
71 267
71 282
72 120
72 175
72 201
72 207
72 215
72 223
72 224
72 249
72 270
73 77
73 105
73 139
73 161
73 165
73 170
73 272
73 275
73 282
74 93
74 249
74 263
74 279
74 282
74 294
74 296
75 273
76 146
77 102
77 149
77 155
77 175
77 192
77 225
77 239
77 252
78 79
78 136
78 186
78 242
78 255
78 277
79 81
79 175
79 214
79 287
79 291
80 90
80 127
80 150
80 200
80 210
80 244
81 126
81 214
81 283
82 104
82 107
82 196
82 265
82 296
83 132
83 183
83 265
83 283
83 297
83 300
84 134
84 190
84 279
85 88
85 92
85 117
85 165
85 256
85 267
85 287
86 196
86 245
86 259
86 281
87 145
87 152
87 185
87 260
87 266
87 275
87 284
88 101
88 107
88 114
88 117
88 120
88 158
88 181
88 192
88 235
88 296
88 300
89 125
89 200
89 216
89 225
89 243
89 244
89 265
89 296
90 137
91 153
91 229
91 244
91 245
91 271
91 294
92 141
92 258
92 262
93 95
93 108
93 112
93 171
93 197
93 231
93 235
93 236
93 246
93 256
93 258
93 263
93 279
94 104
94 111
94 127
94 170
94 208
94 273
94 277
95 127
95 196
95 231
95 246
96 160
96 172
96 175
96 207
96 220
96 233
96 288
97 134
97 296
98 212
98 218
98 237
98 252
99 113
99 115
99 121
99 131
99 210
99 233
99 236
99 239
99 251
99 252
100 225
100 249
100 262
100 294
100 300
101 104
101 134
101 158
101 177
101 204
101 242
101 255
101 292
101 298
101 300
102 105
102 108
102 112
102 167
102 185
102 231
102 243
102 274
102 285
103 135
103 150
103 185
103 188
103 192
103 230
103 242
103 256
103 263
103 287
104 107
104 114
104 127
104 134
104 198
104 220
104 237
104 242
104 269
104 273
104 292
105 157
105 194
105 200
105 213
105 229
105 274
105 292
105 298
106 112
106 156
106 227
106 256
106 282
107 165
107 192
107 205
107 262
107 276
107 296
108 113
108 193
108 199
109 245
109 259
109 289
110 161
110 192
110 213
110 244
110 286
110 294
111 155
112 156
112 167
112 174
112 175
112 205
112 238
113 115
113 208
113 223
113 275
113 282
114 116
114 138
114 165
114 235
114 266
114 288
115 165
115 202
115 207
115 236
115 267
116 138
116 165
116 185
116 242
117 123
117 221
117 257
117 296
118 130
118 135
118 221
118 248
118 256
118 271
119 152
119 275
119 300
120 132
120 138
120 159
120 195
120 224
120 273
120 277
121 127
121 186
121 195
121 269
122 135
122 136
122 177
122 210
122 234
122 247
122 255
123 136
123 140
123 217
123 265
123 298
124 134
124 256
125 126
125 135
125 202
125 219
125 291
126 130
126 185
126 248
126 270
127 164
127 195
127 231
127 246
128 183
128 232
129 141
129 184
129 262
130 132
130 184
130 270
130 283
131 133
131 136
131 210
131 256
132 149
133 134
133 140
133 143
133 187
133 217
133 252
133 263
133 276
133 291
133 293
133 295
134 140
134 164
134 237
134 257
134 270
135 136
135 185
135 201
135 230
135 234
135 271
135 276
135 282
136 175
136 177
136 232
136 253
136 256
136 265
136 267
136 292
137 138
137 144
137 161
137 183
137 242
137 243
137 280
137 285
138 185
138 193
138 195
138 205
138 263
138 281
139 240
139 256
139 275
139 300
140 164
140 182
140 217
140 256
140 273
140 276
140 298
141 172
141 248
141 262
142 185
142 229
142 285
143 170
143 204
143 214
144 154
144 212
146 169
146 187
146 236
147 155
147 162
147 241
148 156
148 162
148 183
148 192
148 195
148 207
148 273
149 194
149 239
149 240
149 254
149 283
149 290
150 263
151 154
151 159
151 172
151 174
151 205
151 258
151 260
152 192
152 230
153 193
153 245
153 286
153 292
153 294
154 188
154 211
154 275
154 295
155 190
155 212
155 237
155 239
156 170
156 214
156 277
157 198
157 200
157 293
158 201
158 251
159 188
159 204
159 246
159 285
160 250
161 185
161 221
161 275
162 192
162 236
162 241
162 292
163 193
163 195
163 283
163 289
164 241
164 246
164 294
164 295
165 205
165 267
165 276
166 180
166 182
166 202
166 242
166 273
166 287
167 299
169 206
169 220
169 235
169 247
170 204
170 231
170 277
171 212
171 258
171 265
172 174
172 285
174 175
174 187
174 208
175 177
175 192
175 205
175 229
175 240
175 275
175 288
175 300
176 182
176 255
177 226
177 275
177 278
178 222
178 238
178 283
178 287
179 239
180 199
180 234
180 246
180 295
180 300
181 208
181 225
181 235
182 210
182 255
182 270
182 273
182 285
182 287
183 228
183 297
184 196
184 278
185 217
185 222
185 242
185 249
185 264
185 272
186 187
186 232
186 233
186 252
187 208
187 211
187 252
187 291
188 230
188 240
188 269
189 207
189 234
189 259
190 197
190 237
190 279
191 232
191 241
192 229
192 230
192 241
192 292
193 195
193 227
194 213
196 237
196 242
196 245
196 275
197 235
197 246
197 257
197 261
197 279
198 212
198 231
198 242
199 219
199 234
200 225
200 247
201 221
201 276
201 282
201 290
202 216
202 264
202 287
203 219
203 226
203 241
204 269
204 295
205 229
205 243
205 260
205 300
206 234
206 241
206 248
206 255
207 215
207 217
207 233
207 283
207 287
208 271
208 287
209 232
209 233
210 255
210 274
211 253
212 216
212 239
212 242
212 258
212 260
213 240
214 231
214 277
215 248
215 280
215 287
216 260
217 238
217 242
217 283
217 289
217 290
218 237
218 271
219 239
219 252
219 291
220 247
220 266
220 292
221 257
221 261
221 271
222 281
223 260
224 294
224 298
225 247
225 260
226 241
226 275
230 256
230 292
231 285
232 233
233 275
235 242
235 261
235 286
237 275
238 287
238 290
239 251
239 252
240 290
242 245
243 258
243 260
243 276
244 286
245 286
246 257
246 295
246 300
247 287
249 294
250 254
252 291
252 297
253 256
253 269
255 264
256 263
258 267
260 293
260 297
264 272
266 284
268 296
270 277
271 287
273 285
275 278
275 282
281 282
282 290
283 289
283 300
284 299
286 291
286 299
290 296
293 295
293 297
294 298
295 300
*Classes
1
1
1
1
1
1
1
1
1
1
1
1
1
1
1
1
1
1
1
1
1
1
1
1
1
1
1
1
1
1
1
1
1
1
1
1
1
1
1
1
1
1
1
1
1
1
1
1
1
1
1
1
1
1
1
1
1
1
1
1
1
1
1
1
1
1
1
1
1
1
1
1
1
1
1
1
1
1
1
1
1
1
1
1
1
1
1
1
1
1
1
1
1
1
1
1
1
1
1
1
1
1
1
1
1
1
1
1
1
1
1
1
1
1
1
1
1
1
1
1
1
1
1
1
1
1
1
1
1
1
1
1
1
1
1
1
1
1
1
1
1
1
1
1
1
1
1
1
1
1
2
2
2
2
2
2
2
2
2
2
2
2
2
2
2
2
2
2
2
2
2
2
2
2
2
2
2
2
2
2
2
2
2
2
2
2
2
2
2
2
2
2
2
2
2
2
2
2
2
2
2
2
2
2
2
2
2
2
2
2
2
2
2
2
2
2
2
2
2
2
2
2
2
2
2
2
2
2
2
2
2
2
2
2
2
2
2
2
2
2
2
2
2
2
2
2
2
2
2
2
2
2
2
2
2
2
2
2
2
2
2
2
2
2
2
2
2
2
2
2
2
2
2
2
2
2
2
2
2
2
2
2
2
2
2
2
2
2
2
2
2
2
2
2
2
2
2
2
2
2
