*Vertices 300
*Edges
1 64
1 71
1 94
1 111
1 118
1 125
1 142
1 157
1 171
1 175
1 188
1 202
1 228
2 5
2 17
2 57
2 126
2 130
2 274
2 276
2 289
2 294
3 84
3 116
3 129
3 140
3 216
4 15
4 31
4 39
4 43
4 71
4 107
4 273
5 17
5 39
5 57
5 61
5 68
5 92
5 126
5 127
5 168
5 176
5 254
5 256
6 11
6 20
6 60
6 129
6 150
6 211
7 36
7 47
7 50
7 66
7 82
7 118
7 136
7 164
7 253
7 271
8 35
8 45
9 42
9 79
9 81
9 119
9 144
9 193
9 221
9 253
9 274
10 15
10 21
10 62
10 71
10 83
10 97
10 150
10 192
10 205
10 238
11 12
11 107
11 191
12 66
12 76
12 95
12 100
12 107
12 108
12 164
12 207
12 210
12 248
12 258
13 40
13 51
13 53
13 59
13 65
13 74
13 85
13 91
13 93
13 109
13 113
13 166
13 191
13 231
13 267
13 298
14 18
14 26
14 29
14 48
14 96
14 118
14 169
14 171
14 284
15 71
15 111
15 132
15 143
15 175
15 239
15 244
15 286
15 288
16 28
16 31
16 43
16 64
16 67
16 80
16 87
16 94
16 97
16 143
16 249
16 283
16 294
17 41
17 57
17 66
17 75
17 97
17 162
17 163
17 165
17 174
17 177
17 232
17 266
17 290
18 26
18 40
18 79
18 86
18 96
18 106
18 122
18 164
18 173
18 177
18 253
18 254
18 284
19 72
19 79
19 81
19 82
19 84
19 142
19 148
19 168
20 41
20 104
20 110
20 129
20 204
20 209
20 226
21 38
21 43
21 103
21 107
21 171
21 197
21 205
21 206
21 211
21 218
22 34
22 76
22 88
22 104
22 135
22 285
23 27
23 35
23 43
23 48
23 157
23 183
23 229
23 232
23 233
23 280
24 129
24 150
24 188
25 57
25 178
25 227
25 270
26 138
26 195
26 205
27 162
27 244
27 280
28 37
28 67
28 80
28 87
28 94
28 95
28 118
28 164
28 229
29 43
29 68
29 73
29 84
29 96
29 109
29 136
29 147
29 148
29 182
29 184
29 212
29 263
30 183
30 243
30 271
30 299
31 94
31 137
31 242
31 266
31 270
31 273
31 284
32 57
32 118
32 153
32 157
32 268
33 69
33 80
33 110
33 121
33 124
33 143
33 151
33 157
33 166
33 203
33 222
34 78
34 116
34 136
34 166
34 246
35 45
35 63
35 102
36 105
36 118
36 136
36 137
36 163
37 62
37 87
37 99
37 108
37 136
37 205
37 218
37 248
37 269
37 283
38 54
38 105
38 163
38 184
38 206
38 223
38 231
39 71
39 90
39 93
39 126
39 166
40 86
40 101
40 102
40 113
40 284
41 49
41 61
41 73
41 90
41 148
41 165
41 176
41 196
41 200
41 254
41 276
41 292
41 295
42 55
42 71
42 144
42 265
43 57
43 103
43 104
43 110
43 144
43 183
43 212
43 218
43 221
43 283
44 89
44 95
44 96
44 148
44 159
44 170
45 70
45 116
45 131
45 139
45 143
45 272
45 273
45 277
46 62
46 77
46 83
46 136
46 137
46 197
46 297
46 298
47 52
47 64
47 118
47 141
47 265
47 293
48 54
48 68
48 114
48 141
48 185
48 215
48 241
48 246
49 70
49 109
49 143
49 172
49 224
49 250
49 276
50 93
50 101
50 164
50 185
50 233
50 244
50 255
51 54
51 59
51 70
51 74
51 108
51 207
51 245
51 286
52 105
52 118
52 154
52 179
52 214
53 85
53 91
53 94
53 162
53 239
53 244
53 277
54 58
54 76
54 82
54 83
54 103
54 105
54 118
54 185
54 187
54 202
54 215
54 241
54 243
54 285
55 63
55 103
55 106
55 122
55 129
55 265
56 132
56 199
57 114
57 123
57 124
57 130
57 153
57 207
57 212
57 255
57 294
58 161
58 174
58 214
58 215
58 219
58 248
58 253
58 279
58 283
59 60
59 74
59 85
59 95
59 99
59 103
59 108
59 139
59 170
59 206
59 212
59 224
59 245
59 290
60 74
60 103
60 129
60 186
60 194
60 212
60 237
60 271
60 290
61 68
61 88
61 98
61 110
61 176
61 253
61 292
62 71
62 83
62 90
62 125
62 129
62 157
62 216
62 235
62 269
63 102
63 110
63 151
63 161
64 80
64 84
64 88
64 103
64 112
64 185
64 188
64 190
64 206
64 254
64 281
64 289
65 113
65 166
65 168
66 117
66 164
66 229
66 232
66 290
67 89
67 118
67 119
67 198
68 96
68 114
68 157
68 161
68 274
69 101
69 172
69 203
69 213
69 256
69 267
69 291
69 292
70 81
70 109
70 143
70 172
70 190
70 224
71 107
71 134
71 149
71 159
71 167
71 175
71 247
71 265
72 81
72 114
72 247
73 76
73 81
73 104
73 136
73 155
73 161
73 173
73 184
73 196
73 212
74 87
74 122
74 297
75 97
76 79
76 81
76 125
76 128
76 161
76 207
76 285
76 294
77 138
77 183
77 197
77 219
77 297
78 82
78 92
78 95
78 98
78 135
78 147
78 237
78 246
78 261
79 81
80 88
80 143
81 125
81 142
81 168
81 184
81 224
82 98
82 142
82 243
83 105
83 194
83 236
83 243
83 245
83 282
83 293
84 116
84 117
84 128
84 148
84 263
84 289
84 296
85 109
85 117
85 177
85 187
85 231
86 178
86 192
86 224
87 99
87 134
87 237
88 110
88 178
88 221
88 264
89 96
89 116
89 119
89 131
89 170
89 209
89 210
89 279
90 113
90 134
90 183
90 200
90 204
91 159
92 127
92 147
92 176
92 186
92 205
92 298
93 101
93 103
93 166
93 241
93 264
94 243
95 108
95 109
95 132
95 135
95 166
95 176
95 241
95 270
95 293
96 125
96 148
96 223
97 98
97 158
97 195
97 206
97 272
97 279
98 106
98 167
98 192
98 201
98 237
98 272
98 287
99 139
99 259
99 269
99 279
100 182
100 227
100 248
101 102
101 112
101 143
101 203
101 213
101 286
102 131
102 151
102 196
102 209
102 251
102 256
102 258
103 106
103 188
103 241
104 110
104 136
105 137
105 194
105 214
106 122
106 129
106 196
106 204
106 287
107 210
107 211
108 123
108 124
108 135
108 240
108 257
108 259
109 115
109 176
109 181
109 227
110 151
110 233
111 152
111 195
111 234
111 288
112 145
112 206
112 295
113 114
113 204
113 267
113 278
113 289
113 296
114 138
114 139
114 247
114 262
114 296
115 121
115 209
115 220
115 234
115 254
116 148
116 174
116 256
117 229
118 141
118 153
118 164
118 175
118 237
118 285
118 293
119 153
119 193
119 221
119 253
119 268
119 281
120 163
120 187
120 217
120 232
120 282
121 234
121 244
122 180
122 191
122 204
122 220
122 270
122 297
123 124
123 217
123 226
123 269
124 143
124 157
124 286
125 129
125 253
126 165
126 206
126 215
126 219
127 142
127 152
127 298
128 145
128 273
128 296
129 150
129 214
129 239
129 244
130 133
130 137
130 153
130 196
130 268
130 276
131 154
131 191
131 223
131 256
131 267
131 279
131 282
132 136
132 207
132 208
132 257
132 263
132 286
133 149
133 212
133 239
134 149
134 202
134 218
134 230
134 237
134 238
134 261
134 285
134 288
135 147
135 151
135 261
136 140
136 208
136 212
137 197
137 205
137 221
137 225
137 276
137 281
138 139
138 197
138 216
138 247
139 206
139 217
139 247
139 277
139 298
140 208
140 242
140 266
141 185
141 201
141 297
142 171
142 246
143 216
143 286
144 181
144 195
144 296
145 178
145 215
145 243
145 262
145 273
145 291
145 294
146 194
146 268
147 156
147 173
147 182
147 194
147 229
147 238
147 290
148 200
148 250
148 296
149 162
150 200
151 166
151 172
151 261
152 178
152 195
152 215
152 225
152 246
152 262
152 294
153 176
153 196
153 220
153 224
153 237
153 246
153 272
153 281
153 290
154 158
154 175
154 183
154 198
154 214
154 246
154 250
154 259
154 264
154 267
154 274
154 275
154 287
155 180
155 217
155 231
155 244
155 266
155 267
155 271
155 282
155 284
156 173
156 182
156 229
156 235
157 228
157 233
157 246
157 249
157 272
157 296
158 192
159 177
159 185
159 210
159 211
159 214
159 295
161 183
161 265
161 279
161 281
162 200
162 239
162 244
163 181
163 206
163 223
163 232
163 268
164 177
164 191
164 206
164 233
164 244
164 261
164 271
164 290
165 176
165 178
165 181
165 227
165 254
165 280
165 285
165 295
166 178
166 203
166 270
167 175
167 181
167 200
167 249
167 262
167 270
167 287
167 294
168 184
168 215
168 250
168 254
168 263
169 171
169 238
170 189
170 274
170 290
170 299
171 209
171 211
171 235
171 264
172 203
172 228
172 249
172 261
172 270
172 272
172 284
172 296
173 190
173 253
173 268
174 193
174 218
174 232
174 248
174 281
175 198
175 250
175 266
176 181
176 220
176 227
176 241
176 244
176 257
177 191
177 214
177 251
177 255
177 270
177 282
178 184
178 187
178 191
178 195
178 206
178 270
178 280
178 295
179 219
179 233
179 292
180 194
181 200
181 223
182 203
182 238
182 241
182 260
182 277
183 264
183 265
183 270
183 279
183 284
184 187
184 196
184 206
184 233
184 251
185 187
185 188
185 198
185 291
185 295
186 202
186 223
186 236
186 237
186 290
186 298
187 195
187 202
188 230
188 235
188 270
188 284
189 274
189 297
190 232
190 253
190 266
190 271
190 277
190 281
191 206
191 212
191 214
191 250
191 259
191 270
191 272
191 274
192 197
192 201
192 237
192 249
192 252
192 271
193 232
193 296
194 245
195 205
195 206
195 235
195 270
195 288
195 293
196 209
196 251
196 256
196 268
196 293
197 205
197 224
197 245
197 271
198 242
198 287
198 291
199 242
199 291
200 203
200 241
201 232
201 238
202 215
202 237
203 221
203 241
204 209
204 215
204 226
204 256
204 269
205 206
205 208
205 221
205 235
205 238
205 269
205 283
206 215
206 231
206 246
206 247
206 261
206 272
206 277
207 216
207 222
207 242
207 245
207 285
208 221
208 263
208 286
209 210
209 224
209 235
209 238
209 251
209 282
209 288
209 299
210 211
210 299
211 214
211 246
212 250
212 255
212 271
212 300
213 217
213 220
213 234
213 268
213 292
213 294
214 239
214 253
215 220
215 224
215 246
215 250
215 256
215 262
215 282
216 222
216 247
217 244
217 267
217 282
217 284
217 298
218 261
218 269
218 285
219 233
220 227
220 234
220 257
220 272
221 225
221 256
221 293
222 245
223 232
223 236
223 267
224 228
224 245
224 256
224 258
224 260
224 272
224 286
224 290
224 296
225 246
225 262
227 243
227 244
227 256
227 265
227 293
228 273
228 296
230 264
230 275
230 276
230 284
230 294
230 297
232 238
232 252
232 281
233 249
233 251
233 255
233 270
234 235
234 238
234 254
234 280
235 238
235 251
235 280
235 284
235 286
235 290
236 281
236 282
237 287
238 280
238 288
239 244
240 259
240 261
240 267
241 293
242 258
242 291
243 245
243 247
243 291
243 299
244 265
245 247
245 262
245 263
245 282
245 300
246 254
246 272
246 278
247 265
248 253
248 262
248 271
248 283
248 294
248 297
249 270
250 262
250 282
251 282
252 292
255 282
256 267
256 269
256 293
257 261
257 300
258 286
259 261
259 274
259 279
259 287
260 277
260 289
260 294
261 285
262 268
262 293
262 294
262 296
262 300
263 300
264 275
265 283
265 285
266 271
266 277
267 272
267 293
268 294
269 275
270 284
273 277
274 289
274 294
280 288
282 284
285 295
286 288
286 297
288 294
288 297
288 299
290 296
294 297
*Classes
1
1
1
1
1
1
1
1
1
1
1
1
1
1
1
1
1
1
1
1
1
1
1
1
1
1
1
1
1
1
1
1
1
1
1
1
1
1
1
1
1
1
1
1
1
1
1
1
1
1
1
1
1
1
1
1
1
1
1
1
1
1
1
1
1
1
1
1
1
1
1
1
1
1
1
1
1
1
1
1
1
1
1
1
1
1
1
1
1
1
1
1
1
1
1
1
1
1
1
1
1
1
1
1
1
1
1
1
1
1
1
1
1
1
1
1
1
1
1
1
1
1
1
1
1
1
1
1
1
1
1
1
1
1
1
1
1
1
1
1
1
1
1
1
1
1
1
1
1
1
2
2
2
2
2
2
2
2
2
2
2
2
2
2
2
2
2
2
2
2
2
2
2
2
2
2
2
2
2
2
2
2
2
2
2
2
2
2
2
2
2
2
2
2
2
2
2
2
2
2
2
2
2
2
2
2
2
2
2
2
2
2
2
2
2
2
2
2
2
2
2
2
2
2
2
2
2
2
2
2
2
2
2
2
2
2
2
2
2
2
2
2
2
2
2
2
2
2
2
2
2
2
2
2
2
2
2
2
2
2
2
2
2
2
2
2
2
2
2
2
2
2
2
2
2
2
2
2
2
2
2
2
2
2
2
2
2
2
2
2
2
2
2
2
2
2
2
2
2
2
