*Vertices 300
*Edges
1 6
1 14
1 38
1 62
1 100
1 102
1 136
1 150
1 162
1 165
1 173
1 181
1 189
1 220
2 69
2 233
3 19
3 32
3 47
3 61
3 99
3 101
3 157
3 164
4 7
4 70
4 106
4 187
4 189
5 6
5 27
5 34
5 66
5 112
5 117
5 120
5 148
5 149
5 150
5 218
5 248
5 250
5 276
5 280
5 283
6 45
6 67
6 112
6 117
6 148
6 173
6 268
7 205
8 95
8 166
8 232
8 289
9 36
9 39
9 182
9 225
9 238
9 298
10 55
10 96
10 176
10 212
10 219
10 226
11 25
11 67
11 100
11 138
11 146
12 29
12 39
12 48
12 63
12 103
12 148
12 160
12 187
12 202
12 269
12 282
13 25
13 27
13 67
13 77
13 82
13 86
13 117
13 118
13 124
13 144
13 228
13 239
13 257
14 62
14 89
14 139
14 147
14 150
14 224
14 227
15 56
15 78
15 80
15 132
15 141
15 158
15 184
15 188
15 194
15 240
15 300
16 19
16 45
16 46
16 49
16 56
16 63
16 114
16 129
16 294
16 300
17 32
17 43
17 45
17 55
17 86
17 103
17 118
17 129
17 139
17 177
17 253
17 291
18 75
18 100
18 112
18 125
18 147
18 152
18 190
18 253
19 32
19 34
19 54
19 58
19 93
19 101
19 119
19 137
19 259
19 300
20 32
20 61
20 72
20 80
20 116
20 125
20 221
20 274
21 25
21 28
21 63
21 71
21 107
21 109
21 118
21 126
21 128
21 183
21 250
21 291
22 28
22 123
22 148
22 154
22 191
23 98
23 185
23 186
23 200
24 26
24 41
24 45
24 48
24 49
24 75
24 113
24 237
25 36
25 64
25 67
25 105
25 109
25 139
25 140
25 143
25 211
25 215
26 78
26 86
26 106
26 147
26 153
26 168
26 201
26 207
27 64
27 82
27 149
27 185
27 218
27 224
27 233
27 270
27 277
28 68
28 71
28 123
28 142
28 250
29 39
29 48
29 62
29 67
29 71
29 95
29 103
29 130
29 225
29 298
30 114
30 160
30 190
31 48
31 52
31 133
31 155
31 170
31 196
31 214
31 234
31 282
31 284
32 43
32 52
32 100
32 101
32 103
32 109
32 125
32 207
32 266
33 291
34 58
34 117
34 128
34 283
35 49
35 89
35 102
35 172
35 270
36 39
36 57
36 64
36 67
36 74
36 158
36 175
36 284
37 44
37 56
37 72
37 88
37 108
37 126
37 156
37 201
37 210
37 247
38 39
38 55
38 67
38 72
38 73
38 100
38 103
38 109
38 163
38 189
38 191
38 199
38 215
38 258
38 262
38 265
38 289
39 60
39 71
39 72
39 75
39 78
39 95
39 114
39 125
39 265
40 67
40 73
40 86
40 112
40 168
40 192
40 198
40 253
41 46
41 52
41 65
41 97
41 145
41 191
41 252
42 51
42 76
42 94
42 113
42 139
42 170
42 176
42 299
43 98
43 163
43 214
43 229
44 48
44 49
44 90
44 101
44 102
44 108
44 147
44 187
44 192
44 232
44 288
45 46
45 49
45 67
45 70
45 91
45 106
45 114
45 124
45 129
45 144
45 148
45 179
46 55
46 86
46 97
46 107
46 110
46 114
46 129
46 147
46 155
46 182
46 191
46 221
46 288
47 66
47 293
48 49
48 52
48 90
48 154
48 201
48 226
49 67
49 102
49 162
49 279
49 284
50 68
50 71
50 83
50 84
50 92
50 133
50 180
50 287
51 57
51 62
51 94
51 100
51 146
51 165
51 181
51 194
51 229
51 232
51 259
51 260
52 97
52 101
52 109
52 158
53 141
53 276
54 58
54 87
54 93
54 113
54 136
54 143
54 155
54 199
54 203
54 235
55 66
55 118
55 129
55 143
55 150
55 189
55 212
56 78
56 92
56 97
56 132
56 135
56 158
56 183
56 247
56 269
56 294
57 74
57 86
57 136
57 137
57 212
57 232
57 298
58 119
58 178
58 199
58 231
59 141
59 166
59 281
60 71
60 72
60 75
60 89
60 125
61 66
61 80
61 86
61 94
61 99
61 165
61 193
61 198
61 225
62 89
62 100
62 130
62 156
62 165
62 180
62 187
62 220
62 265
62 283
62 293
63 71
63 114
63 118
63 148
63 180
63 202
63 247
63 269
63 296
64 67
64 84
64 98
65 105
66 99
66 219
66 276
66 290
67 109
67 112
67 136
67 164
67 174
67 192
67 233
67 265
68 71
68 92
68 100
68 186
68 198
69 83
69 115
69 168
69 204
70 111
70 179
70 257
71 72
71 75
71 92
71 124
71 142
71 174
71 203
71 216
71 235
72 78
72 103
72 109
72 116
72 121
72 147
72 204
72 284
73 79
73 104
73 191
73 275
73 293
74 90
74 108
74 168
74 175
74 236
74 268
75 89
75 100
75 113
75 157
75 162
75 177
75 198
75 202
76 84
76 107
76 176
76 236
76 249
77 120
77 218
77 256
77 272
78 79
78 113
78 121
78 147
78 163
78 183
78 194
78 202
78 206
78 231
78 256
78 270
79 113
79 185
80 94
80 198
80 300
81 84
81 98
81 159
81 276
81 281
82 86
82 128
82 133
82 144
82 230
82 242
82 287
83 192
83 231
83 251
83 259
83 260
84 98
84 180
84 263
85 121
85 135
85 184
85 273
85 284
86 118
86 132
86 147
86 262
86 275
86 294
86 297
87 199
87 214
87 247
87 278
87 285
88 98
88 109
88 167
88 213
88 225
89 130
89 255
90 101
90 119
90 197
90 299
91 124
91 142
91 166
91 224
91 261
91 267
92 123
92 132
92 216
92 255
92 267
92 290
93 110
93 127
93 178
93 260
94 274
95 166
95 178
95 204
95 296
96 145
96 219
96 267
97 129
97 145
97 223
97 269
97 281
98 117
98 124
98 140
98 166
98 186
98 213
98 289
99 107
99 126
99 141
99 271
99 275
100 125
100 134
100 136
100 143
100 199
100 215
100 233
100 297
100 298
101 108
101 112
101 125
101 148
101 152
101 169
101 205
101 207
101 248
102 113
102 129
102 150
102 154
102 162
102 194
102 201
102 257
102 293
103 125
103 127
103 130
103 180
103 187
103 199
103 219
103 268
103 296
104 107
104 129
104 293
105 140
105 154
105 155
105 182
105 221
105 274
106 124
106 189
106 213
106 221
106 239
106 257
106 292
107 126
107 128
107 129
107 165
107 240
108 126
108 138
108 144
108 158
108 168
108 258
109 143
109 215
109 278
109 286
110 147
110 167
110 187
110 241
110 253
110 273
112 136
112 150
112 193
112 224
112 253
113 119
113 120
113 203
113 237
113 253
114 124
114 156
114 178
114 224
114 260
114 265
115 168
115 171
115 179
115 192
116 152
116 159
116 263
117 124
117 149
117 154
117 180
117 188
117 240
117 250
118 126
118 177
118 189
118 216
118 217
119 181
119 201
119 240
120 127
120 144
120 159
120 174
120 203
120 210
120 212
120 218
120 258
120 273
121 135
121 174
121 181
121 220
122 135
122 233
122 266
123 191
123 208
123 250
124 142
124 144
124 234
124 235
124 282
125 154
126 128
126 136
126 201
126 210
126 230
126 238
126 271
127 161
127 174
127 199
127 267
128 173
128 230
128 292
129 154
129 157
129 163
130 162
130 171
131 212
131 294
132 147
132 213
132 232
132 249
132 254
132 272
132 275
132 277
132 291
133 160
133 196
133 198
133 287
134 215
134 265
136 143
136 150
136 181
136 204
136 219
136 230
136 288
136 298
137 219
137 232
137 253
137 300
138 144
138 146
138 208
138 237
138 245
138 298
139 215
139 227
139 280
139 299
140 166
140 203
140 250
141 204
141 244
141 275
142 196
142 235
142 250
143 148
143 150
143 181
143 184
143 233
145 149
145 203
145 223
145 300
146 147
146 204
146 232
147 163
147 173
147 213
147 232
147 250
147 271
148 169
148 299
149 160
149 172
149 255
149 284
150 160
150 224
151 168
151 172
151 174
151 235
151 246
152 156
152 178
152 180
152 182
152 205
152 228
152 240
152 248
152 253
152 268
152 294
153 192
153 201
154 212
154 222
154 226
154 227
154 270
154 281
154 293
155 170
155 231
155 232
155 235
155 236
155 248
155 288
156 179
156 182
156 185
156 224
156 235
156 260
156 283
157 164
157 177
157 187
157 206
157 274
157 294
157 295
158 189
158 191
158 298
159 256
159 258
159 263
159 284
159 285
160 163
160 166
160 223
160 232
160 249
160 255
160 269
160 285
160 289
161 186
161 199
161 206
162 185
162 201
162 244
162 248
162 252
163 166
163 201
163 231
163 232
164 181
164 187
164 244
165 198
165 208
166 191
166 223
166 231
166 260
166 281
166 285
166 289
166 300
167 179
167 184
167 195
167 216
167 241
167 253
168 198
168 201
168 235
168 246
168 270
168 289
168 292
169 208
169 232
169 249
169 269
169 295
169 296
170 176
170 250
170 299
171 179
171 216
172 179
172 194
172 216
172 224
172 228
173 200
173 233
173 248
173 265
173 286
174 199
174 246
174 258
175 235
175 243
175 279
176 199
176 236
176 240
176 249
176 253
176 255
176 261
176 283
177 189
177 217
178 224
178 231
178 260
179 185
179 208
179 216
179 220
179 273
180 205
180 240
180 263
180 265
180 272
180 283
180 293
180 296
181 184
181 230
181 260
182 187
182 191
182 268
182 274
182 288
182 298
183 202
183 232
184 191
184 195
184 233
185 192
185 230
185 235
185 252
185 277
186 205
186 296
187 208
187 224
187 245
187 249
187 253
187 260
187 262
187 268
187 275
187 288
187 300
188 209
188 240
188 277
189 216
189 239
189 262
189 298
190 257
191 202
191 203
191 210
191 236
191 244
191 252
191 267
191 280
192 198
192 218
192 231
192 241
192 251
192 253
192 259
192 265
192 288
193 253
194 212
194 231
194 260
194 283
195 207
195 241
197 246
197 288
197 289
198 202
198 246
198 287
198 292
199 206
199 214
199 225
199 233
199 266
199 271
199 278
199 283
199 289
199 298
200 244
200 248
200 279
200 281
201 231
201 239
201 257
201 270
202 236
202 244
203 204
203 214
203 218
203 236
203 244
203 247
203 266
203 295
204 238
204 266
204 275
204 282
204 297
205 254
205 262
205 296
206 270
206 294
207 224
207 260
207 280
208 235
208 249
208 255
208 260
208 273
208 296
209 291
210 229
210 267
210 280
211 261
212 218
212 222
212 283
213 232
213 236
213 250
213 264
213 292
214 229
214 266
214 284
215 265
215 280
216 220
216 240
216 255
216 279
217 218
217 224
217 280
218 224
218 233
218 236
218 266
218 270
218 295
219 281
219 288
219 290
219 298
219 300
220 237
220 240
220 255
220 265
220 279
220 281
221 261
222 225
222 283
223 226
223 237
224 228
224 260
224 266
224 280
224 300
225 283
226 227
226 281
227 259
227 270
228 239
229 267
229 271
229 278
229 284
229 297
230 252
231 288
231 294
232 236
232 249
232 250
232 254
232 264
232 292
233 244
233 265
233 284
233 286
234 238
234 282
234 284
234 291
234 297
235 243
235 246
235 296
236 244
236 250
236 253
236 255
236 288
237 253
237 298
238 271
238 297
240 253
240 255
240 277
240 300
241 259
242 246
242 289
243 246
244 248
245 249
245 260
245 268
245 288
246 270
246 287
246 289
247 253
248 279
248 281
249 262
249 282
250 280
251 259
251 260
251 265
253 255
253 294
254 282
255 260
256 272
257 292
258 265
258 285
258 286
260 288
260 300
261 286
262 275
265 284
266 278
266 280
266 285
267 297
268 287
269 282
269 295
270 292
270 294
271 276
271 278
274 300
276 278
277 291
278 279
278 286
279 281
281 285
284 293
285 300
294 297
*Classes
1
1
1
1
1
1
1
1
1
1
1
1
1
1
1
1
1
1
1
1
1
1
1
1
1
1
1
1
1
1
1
1
1
1
1
1
1
1
1
1
1
1
1
1
1
1
1
1
1
1
1
1
1
1
1
1
1
1
1
1
1
1
1
1
1
1
1
1
1
1
1
1
1
1
1
1
1
1
1
1
1
1
1
1
1
1
1
1
1
1
1
1
1
1
1
1
1
1
1
1
1
1
1
1
1
1
1
1
1
1
1
1
1
1
1
1
1
1
1
1
1
1
1
1
1
1
1
1
1
1
1
1
1
1
1
1
1
1
1
1
1
1
1
1
1
1
1
1
1
1
2
2
2
2
2
2
2
2
2
2
2
2
2
2
2
2
2
2
2
2
2
2
2
2
2
2
2
2
2
2
2
2
2
2
2
2
2
2
2
2
2
2
2
2
2
2
2
2
2
2
2
2
2
2
2
2
2
2
2
2
2
2
2
2
2
2
2
2
2
2
2
2
2
2
2
2
2
2
2
2
2
2
2
2
2
2
2
2
2
2
2
2
2
2
2
2
2
2
2
2
2
2
2
2
2
2
2
2
2
2
2
2
2
2
2
2
2
2
2
2
2
2
2
2
2
2
2
2
2
2
2
2
2
2
2
2
2
2
2
2
2
2
2
2
2
2
2
2
2
2
