*Vertices 300
*Edges
1 15
1 41
1 53
1 90
1 106
1 149
1 153
1 229
1 277
2 4
2 20
2 33
2 84
2 108
2 135
2 145
2 147
2 177
2 179
2 193
2 196
2 201
2 214
2 286
3 28
3 52
3 76
3 96
3 125
3 199
3 214
3 269
3 285
4 20
4 33
4 37
4 84
4 147
4 153
4 167
4 273
4 282
4 286
4 288
5 26
5 31
5 69
5 154
5 188
5 203
5 262
6 79
6 149
6 150
6 225
7 13
7 22
7 59
7 67
7 92
7 116
7 163
7 171
7 174
7 179
7 180
7 183
7 200
7 227
7 242
7 268
7 273
8 57
8 60
8 80
8 83
8 111
8 119
8 124
8 145
8 148
8 152
8 176
8 183
8 199
8 203
8 204
8 251
8 270
9 52
9 114
9 115
9 162
9 290
9 297
9 300
10 18
10 27
10 88
10 150
10 152
10 163
10 165
10 170
10 174
10 287
10 290
10 295
11 13
11 30
11 46
11 55
11 214
11 233
11 235
12 36
12 49
12 75
12 108
12 159
12 192
12 204
12 232
12 234
12 235
12 252
13 22
13 30
13 33
13 50
13 55
13 60
13 73
13 89
13 133
13 181
13 214
13 235
13 236
13 238
13 253
13 267
13 300
14 82
14 106
14 145
14 147
14 154
14 180
14 182
14 229
14 259
14 279
15 21
15 33
15 42
15 78
15 106
15 107
15 109
15 113
15 125
15 130
15 145
15 147
15 159
15 233
15 243
15 245
15 258
15 264
15 288
15 293
16 128
16 144
16 150
16 168
16 278
17 74
17 170
17 188
18 53
18 158
18 162
18 163
18 165
18 217
18 260
18 271
18 279
18 287
18 290
18 295
19 141
19 186
19 238
20 37
20 144
20 147
20 197
20 286
20 290
20 291
21 37
21 42
21 84
21 109
21 127
21 135
21 175
21 191
21 197
21 218
21 260
21 296
21 297
22 35
22 52
22 78
22 159
22 162
22 174
22 175
22 178
22 198
22 236
22 238
22 300
23 45
23 96
23 102
23 114
23 133
23 176
23 210
23 215
23 242
23 270
24 32
24 101
24 117
24 139
24 158
24 164
24 176
24 201
24 252
24 267
25 64
25 103
25 104
25 122
25 144
25 173
25 228
25 279
26 39
26 48
26 103
26 104
26 111
26 154
26 178
26 208
26 222
26 231
26 279
27 33
27 50
27 53
27 56
27 90
27 92
27 128
27 138
27 152
27 155
27 199
27 224
27 244
27 271
27 287
28 60
28 96
28 108
28 118
29 43
29 51
29 80
29 93
29 155
29 165
29 191
29 200
29 221
29 232
29 250
29 271
29 277
29 288
29 299
29 300
30 43
30 53
30 56
30 60
30 62
30 91
30 106
30 133
30 145
30 224
30 225
30 233
30 250
30 253
30 293
31 69
31 79
31 239
32 118
32 139
32 147
32 180
33 36
33 38
33 42
33 99
33 110
33 138
33 165
33 201
33 224
33 253
33 269
33 271
33 299
34 72
34 74
34 90
34 98
34 122
34 133
34 151
34 155
34 177
34 178
34 205
34 211
34 237
34 256
34 293
34 296
35 37
35 48
35 77
35 95
35 134
35 135
35 136
35 137
35 164
35 175
35 183
35 215
35 220
35 266
35 286
35 300
36 47
36 49
36 50
36 57
36 67
36 75
36 76
36 88
36 134
36 194
36 201
36 207
36 253
36 256
36 269
36 271
36 273
36 274
36 281
37 42
37 61
37 62
37 84
37 95
37 127
37 139
37 152
37 155
37 180
37 278
37 288
37 290
37 300
38 152
38 158
38 160
38 170
38 178
38 179
38 193
38 223
38 224
38 261
38 295
39 48
39 59
39 109
39 111
39 134
39 154
39 206
39 231
39 261
40 80
40 81
40 83
40 119
40 138
40 141
40 143
40 154
40 164
40 176
40 177
40 185
40 226
40 255
40 270
41 52
41 153
41 179
41 216
41 218
41 286
42 109
42 111
42 113
42 145
42 191
42 205
42 211
42 216
42 236
42 239
42 258
42 288
43 89
43 102
43 109
43 115
43 142
43 164
43 188
43 204
43 205
43 216
43 250
43 252
43 271
44 169
44 236
44 279
45 87
45 115
45 251
46 55
46 80
46 91
46 101
46 138
46 140
46 155
46 157
46 160
46 203
46 289
46 294
46 295
47 50
47 92
47 102
47 114
47 126
47 138
47 144
47 190
47 228
47 232
47 253
47 257
47 273
47 281
47 293
48 52
48 67
48 111
48 122
48 137
48 162
48 247
49 99
49 128
49 165
49 271
50 104
50 110
50 134
50 191
50 199
50 253
50 273
51 65
51 81
51 101
51 104
51 107
51 124
51 136
51 137
51 165
51 219
51 232
51 258
51 270
51 289
52 53
52 132
52 162
52 189
52 208
52 285
53 56
53 58
53 90
53 197
53 220
53 241
53 243
53 260
53 266
53 276
53 293
54 62
54 70
54 76
54 106
54 123
54 130
54 194
54 241
55 138
55 164
55 267
55 289
55 292
56 71
56 132
56 162
56 243
56 246
56 250
56 275
56 297
57 80
57 108
57 128
57 168
57 170
57 173
57 176
57 179
57 183
57 201
57 216
57 226
57 251
58 75
58 133
58 154
58 155
58 186
58 206
58 293
59 68
59 160
59 164
59 167
59 180
59 183
59 200
59 231
59 242
59 246
59 300
60 88
60 89
60 108
60 111
60 119
60 121
60 198
60 253
60 267
60 274
61 95
61 139
61 205
62 96
62 102
62 106
62 130
62 137
62 140
62 143
62 191
62 210
62 247
62 264
63 67
63 77
63 81
63 100
63 124
63 130
63 144
63 162
63 192
63 235
63 270
63 280
63 289
64 91
64 111
64 168
64 228
64 274
65 101
65 126
65 193
65 213
65 217
65 242
65 260
65 261
66 148
66 157
66 161
66 229
67 116
67 150
67 158
67 162
67 281
68 76
68 96
68 142
68 183
68 251
68 269
68 274
69 75
69 165
69 172
69 239
69 242
69 288
70 76
70 81
70 89
70 123
70 130
70 153
70 216
70 253
70 267
70 270
70 271
71 86
71 94
71 173
71 190
71 208
71 271
71 297
72 74
72 98
72 170
72 177
72 178
72 189
72 219
72 237
72 256
73 85
73 89
73 98
73 103
73 144
73 154
73 195
73 202
73 203
73 222
73 236
73 257
74 79
74 101
74 170
74 244
74 263
75 108
75 146
75 154
75 164
75 194
75 210
75 222
75 242
75 250
75 267
76 112
76 125
76 142
76 194
76 251
76 269
77 100
77 139
77 180
77 192
77 215
77 261
77 286
77 289
77 292
78 156
78 188
78 236
78 249
78 257
78 273
78 293
79 236
79 239
80 81
80 157
80 165
80 200
80 233
80 294
80 299
81 119
81 123
81 152
81 176
81 233
81 250
81 253
81 256
81 270
82 106
82 147
82 171
82 172
82 242
82 279
82 300
83 138
83 179
83 183
83 224
84 87
84 101
84 115
84 197
84 279
84 282
85 89
85 184
85 190
85 200
85 246
85 289
86 91
86 99
86 111
86 125
86 147
86 165
86 166
86 167
86 184
86 190
86 256
86 269
86 288
87 101
87 179
87 189
87 251
87 274
87 297
88 108
88 111
88 136
88 137
88 153
88 171
88 235
88 267
88 274
88 300
89 100
89 137
89 152
89 166
89 170
89 195
89 246
89 271
90 98
90 114
90 116
90 154
90 155
90 173
90 187
90 191
90 196
90 212
90 235
90 244
90 251
90 260
90 279
90 293
91 111
91 133
91 157
91 167
91 168
91 203
91 242
91 256
92 116
92 122
92 144
92 180
92 181
92 199
92 203
92 225
92 256
92 274
93 119
93 188
94 168
94 173
94 175
94 180
94 208
94 214
94 218
94 287
95 158
95 172
95 178
95 257
95 300
96 166
96 187
96 251
96 273
96 285
97 210
97 226
97 280
98 100
98 141
98 144
98 169
98 187
98 197
98 223
98 273
99 111
99 128
99 162
99 165
99 167
99 190
99 253
99 272
99 288
100 124
100 137
100 139
100 235
100 249
100 267
100 299
101 117
101 139
101 189
101 196
101 258
101 263
101 282
101 289
102 115
102 126
102 170
102 210
102 212
102 223
102 224
102 276
102 289
103 122
103 141
103 178
103 190
103 200
103 202
103 279
104 122
104 134
104 136
104 180
104 250
105 113
105 122
105 134
105 179
105 191
105 211
105 214
105 224
105 245
106 135
106 143
106 225
106 233
106 250
106 259
106 288
107 179
107 205
107 219
107 241
107 251
107 252
107 279
108 128
108 193
108 220
108 232
108 245
108 273
109 111
109 123
109 151
109 216
109 239
109 288
109 291
110 238
110 258
110 271
111 134
111 183
111 199
111 291
112 224
112 243
112 268
112 274
112 283
112 293
113 121
113 134
113 186
113 195
113 206
113 236
113 253
113 257
113 270
113 272
114 116
114 166
114 167
114 212
114 242
114 243
114 244
114 259
114 279
114 293
114 300
115 162
115 164
115 170
115 197
115 205
115 210
115 255
115 289
116 124
116 166
116 171
116 187
116 188
116 235
117 267
118 147
118 195
118 232
118 257
119 181
119 183
119 221
119 248
119 253
119 258
119 266
120 235
121 131
121 196
121 282
122 211
122 259
122 279
122 285
122 294
123 195
124 170
124 188
124 192
124 199
124 203
124 208
124 219
124 235
124 274
125 169
125 221
125 269
125 278
126 137
126 193
126 210
126 223
126 232
126 242
126 244
126 247
126 289
127 182
127 191
127 211
127 259
127 297
128 158
128 168
128 248
128 271
128 287
129 143
129 174
129 291
130 143
130 158
130 262
130 280
130 285
131 149
131 154
131 222
131 299
132 148
132 163
132 202
132 275
133 138
133 177
133 193
133 196
133 203
133 210
133 215
133 239
133 242
133 286
133 293
134 135
134 177
134 206
134 214
134 215
134 220
135 145
135 215
135 292
135 296
136 137
136 150
136 158
136 180
136 187
136 279
137 166
137 223
137 271
138 199
138 202
138 267
138 278
138 279
138 293
138 294
139 280
140 143
140 155
141 155
141 172
141 178
141 215
141 221
141 237
141 255
141 285
141 289
142 147
142 168
142 176
142 205
142 216
142 252
143 176
143 202
143 242
143 255
143 279
144 151
144 187
144 197
144 203
144 226
144 256
145 182
145 186
145 201
145 215
146 180
146 200
146 210
146 227
146 230
146 249
147 180
147 184
147 216
147 256
147 264
147 286
147 290
148 157
148 199
148 203
149 229
149 281
150 152
150 158
150 168
150 193
150 199
150 225
150 253
150 259
150 288
151 158
151 212
151 218
151 287
152 170
152 192
152 193
152 199
152 224
152 235
152 253
152 259
152 290
153 167
153 204
153 205
153 216
153 245
153 296
154 155
154 208
154 222
154 247
154 262
154 267
154 279
154 292
155 167
155 184
155 227
155 248
155 255
155 277
155 288
156 172
156 249
157 167
157 211
157 259
158 165
158 174
158 178
158 201
158 218
158 220
158 265
158 277
158 287
159 180
159 187
159 210
159 238
159 240
159 245
159 252
159 273
160 217
160 231
160 294
160 295
160 300
162 165
162 180
162 241
162 247
162 290
162 297
163 174
163 179
163 217
163 274
163 279
163 295
163 296
164 167
164 220
164 231
164 255
164 267
165 174
165 271
165 288
166 256
167 184
167 195
167 212
167 216
167 231
167 248
168 175
168 260
168 277
169 184
169 187
169 196
169 197
169 209
169 211
169 251
169 278
169 292
170 178
170 187
170 188
170 210
170 224
170 236
170 289
171 300
172 179
172 242
172 255
172 279
173 197
173 226
173 242
173 279
173 284
174 178
174 200
174 291
175 236
175 258
175 296
176 183
176 186
176 199
176 252
176 270
177 193
177 194
177 196
177 206
177 214
177 230
177 234
177 256
178 205
178 211
178 238
178 242
178 259
178 261
178 296
179 197
179 224
179 245
179 251
179 255
179 279
180 206
180 214
180 227
180 228
180 261
180 268
180 286
180 290
181 258
181 269
182 194
182 210
182 225
182 234
182 259
184 190
184 209
184 212
184 264
186 206
186 221
186 270
186 280
187 188
187 205
187 211
187 251
187 273
187 275
187 279
187 292
188 203
188 208
188 219
188 226
188 252
189 266
189 285
189 288
190 200
190 232
190 233
190 289
191 210
191 279
192 219
192 235
192 254
192 268
192 291
193 242
193 253
193 260
193 261
193 290
193 297
194 196
194 210
194 255
194 259
195 236
195 248
195 257
196 209
196 221
196 233
196 251
196 259
196 266
196 282
196 297
197 218
197 276
197 279
197 282
197 291
198 222
199 269
200 202
200 210
200 232
200 273
201 207
201 220
201 226
201 269
202 279
203 226
203 239
204 210
204 216
204 234
204 249
204 250
204 275
205 211
205 251
205 252
205 296
206 214
206 231
206 234
206 253
206 256
206 270
206 272
207 220
207 246
208 274
208 285
209 233
209 248
210 212
210 214
210 230
210 234
210 240
211 259
211 294
212 218
212 276
212 279
212 287
213 217
213 262
214 234
214 256
214 283
215 221
215 267
215 292
217 262
217 274
217 295
218 251
218 287
219 234
219 241
220 266
220 297
220 300
221 280
221 282
221 289
222 241
222 264
222 267
224 232
224 261
225 233
225 246
226 239
227 252
227 277
229 244
231 267
232 257
232 273
233 248
233 280
234 275
235 267
235 268
236 273
236 288
238 252
238 273
239 288
240 273
241 247
241 266
241 292
242 279
242 286
242 293
243 246
243 281
243 293
244 247
245 283
245 293
247 279
248 253
248 272
249 289
250 285
251 274
251 292
251 296
253 256
253 271
253 272
255 285
257 286
258 269
258 271
259 293
259 297
260 297
261 290
264 285
265 294
267 292
267 293
268 277
270 289
271 299
274 289
276 293
277 287
289 294
294 299
*Classes
1
1
1
1
1
1
1
1
1
1
1
1
1
1
1
1
1
1
1
1
1
1
1
1
1
1
1
1
1
1
1
1
1
1
1
1
1
1
1
1
1
1
1
1
1
1
1
1
1
1
1
1
1
1
1
1
1
1
1
1
1
1
1
1
1
1
1
1
1
1
1
1
1
1
1
1
1
1
1
1
1
1
1
1
1
1
1
1
1
1
1
1
1
1
1
1
1
1
1
1
1
1
1
1
1
1
1
1
1
1
1
1
1
1
1
1
1
1
1
1
1
1
1
1
1
1
1
1
1
1
1
1
1
1
1
1
1
1
1
1
1
1
1
1
1
1
1
1
1
1
2
2
2
2
2
2
2
2
2
2
2
2
2
2
2
2
2
2
2
2
2
2
2
2
2
2
2
2
2
2
2
2
2
2
2
2
2
2
2
2
2
2
2
2
2
2
2
2
2
2
2
2
2
2
2
2
2
2
2
2
2
2
2
2
2
2
2
2
2
2
2
2
2
2
2
2
2
2
2
2
2
2
2
2
2
2
2
2
2
2
2
2
2
2
2
2
2
2
2
2
2
2
2
2
2
2
2
2
2
2
2
2
2
2
2
2
2
2
2
2
2
2
2
2
2
2
2
2
2
2
2
2
2
2
2
2
2
2
2
2
2
2
2
2
2
2
2
2
2
2
