*Vertices 300
*Edges
1 6
1 29
2 9
2 23
2 43
2 65
2 82
2 87
2 130
3 48
3 68
3 97
3 120
3 150
3 152
3 165
3 193
3 219
3 241
3 289
4 12
4 22
4 95
4 183
4 245
4 267
4 286
5 81
5 102
5 133
5 171
5 184
5 207
5 232
5 255
6 13
6 29
6 56
6 85
6 141
6 186
6 196
6 280
7 16
7 21
7 146
7 209
7 232
7 248
7 250
8 150
8 225
8 294
9 11
9 39
9 43
9 87
9 90
9 92
9 107
9 142
9 160
9 215
9 262
10 15
10 49
10 194
10 214
10 236
10 237
10 291
11 20
11 40
11 48
11 62
11 106
11 113
11 142
11 155
11 158
11 160
11 216
11 224
11 235
12 16
12 62
12 80
12 88
12 95
12 115
12 145
12 260
12 267
13 34
13 56
13 58
13 83
13 84
13 86
13 150
13 155
13 168
13 197
13 201
13 210
13 235
13 253
13 280
13 286
14 15
14 53
14 54
14 71
14 76
14 116
14 220
14 236
14 262
14 276
15 54
15 59
15 76
15 135
15 211
15 236
15 239
15 262
15 294
16 24
16 37
16 62
16 100
16 158
16 176
16 211
16 264
16 288
17 98
17 108
17 126
17 138
18 45
18 81
18 94
18 128
18 161
18 203
19 43
19 54
19 59
19 73
19 107
19 108
19 129
19 144
19 156
19 196
19 197
19 240
19 258
19 268
19 270
19 287
20 113
20 143
20 151
20 157
20 174
20 195
20 200
21 27
21 108
21 146
21 268
22 35
22 95
22 108
22 124
22 218
22 221
22 239
23 53
23 87
23 104
23 134
23 162
23 177
23 178
23 204
24 38
24 213
24 228
24 288
25 40
25 48
25 84
26 35
26 84
26 90
26 116
26 157
26 163
26 209
26 230
26 259
27 45
27 67
27 99
27 114
27 122
27 136
27 157
27 231
27 264
27 274
28 41
28 55
28 59
28 67
28 111
28 126
28 150
28 252
28 297
29 34
29 84
29 134
29 161
29 177
29 198
29 234
29 253
30 31
30 40
30 43
30 67
30 74
30 91
30 93
30 99
30 105
30 113
30 119
30 122
30 125
30 126
30 137
30 160
30 186
30 217
30 246
30 264
30 278
30 291
31 50
31 62
31 65
31 91
31 221
32 33
32 38
32 41
32 42
32 51
32 94
32 96
32 112
32 115
32 132
32 136
32 150
32 212
32 223
32 261
33 35
33 38
33 41
33 45
33 58
33 112
33 132
33 139
33 141
33 148
33 166
33 197
33 223
33 225
33 239
33 273
34 58
34 214
34 219
34 243
34 259
35 47
35 100
35 105
35 108
35 197
35 228
35 247
35 254
35 273
35 281
36 72
36 75
36 99
36 101
36 117
36 123
36 204
36 245
37 43
37 79
37 114
37 118
37 123
37 172
37 197
37 211
37 291
38 45
38 56
38 75
38 131
38 139
38 157
38 200
39 43
39 84
39 90
39 121
39 135
39 192
39 294
40 48
40 85
40 91
40 98
40 100
40 107
40 142
41 42
41 67
41 86
41 144
41 148
41 227
41 260
41 294
42 90
42 96
42 100
42 134
42 176
42 177
42 252
42 293
43 45
43 49
43 50
43 67
43 90
43 92
43 96
43 107
43 118
43 127
43 160
43 165
43 173
43 215
43 218
43 222
43 252
43 277
43 280
44 46
44 52
44 53
44 62
44 82
44 121
44 163
44 166
44 185
44 239
44 245
45 80
45 81
45 84
45 88
45 131
45 165
45 200
45 264
46 90
46 107
46 115
46 139
46 156
46 162
46 235
46 252
46 291
47 58
47 86
47 87
47 99
47 101
47 105
47 135
47 159
47 214
47 227
47 296
48 98
48 167
48 172
48 182
48 202
48 216
48 222
48 241
48 264
49 109
49 127
49 162
49 181
49 237
49 280
50 65
50 77
50 83
50 84
50 91
50 115
50 118
50 121
50 123
50 127
50 131
50 162
50 233
51 54
51 68
51 69
51 75
51 99
51 122
51 123
51 195
51 212
52 101
52 121
52 166
52 229
52 233
52 240
53 68
53 82
53 87
53 185
53 192
54 60
54 65
54 68
54 120
54 122
54 123
54 131
54 164
54 211
54 220
54 222
54 229
54 233
54 280
55 59
55 79
55 87
55 92
55 114
55 120
55 170
55 210
55 249
56 83
56 200
56 207
56 262
57 68
57 115
57 120
57 148
57 234
57 263
57 284
58 74
58 75
58 86
58 148
58 150
58 184
58 199
58 219
58 232
58 238
59 65
59 82
59 92
59 111
59 114
59 117
59 129
59 170
59 179
59 211
59 287
60 65
60 89
60 114
60 137
60 153
60 159
60 229
60 233
60 240
60 284
61 70
61 113
61 157
61 205
61 228
62 80
62 85
62 91
62 117
62 128
62 154
62 172
62 185
62 193
62 224
62 230
62 256
62 280
63 184
63 227
63 281
64 94
64 114
64 119
64 141
64 151
64 173
65 82
65 121
65 150
65 162
65 199
65 229
65 241
66 80
66 89
66 110
66 172
66 184
66 190
67 77
67 111
67 144
67 145
67 160
67 230
67 264
67 274
68 120
68 152
68 164
68 178
68 248
69 78
69 122
69 141
70 172
70 182
70 208
70 218
70 284
70 290
71 76
71 103
71 121
71 149
71 246
71 288
72 98
72 100
72 121
72 163
72 174
72 183
72 193
73 106
73 119
73 258
73 270
73 289
74 86
74 91
74 126
74 150
74 271
75 81
75 101
75 115
75 123
75 126
75 131
75 171
75 184
75 218
75 238
75 269
75 293
76 88
76 106
76 135
76 179
76 205
76 228
76 289
77 103
77 116
77 121
77 167
77 173
78 258
78 293
79 210
79 211
79 229
80 165
80 188
80 202
80 216
80 260
81 88
81 131
81 133
81 161
81 209
81 269
82 117
82 118
82 166
82 241
82 269
82 271
82 286
83 86
83 98
83 104
83 108
83 118
83 131
83 295
83 296
84 87
84 90
84 121
84 137
84 165
84 180
84 198
84 199
84 201
84 220
84 297
85 98
85 100
85 101
85 116
85 127
85 180
85 185
85 256
86 87
86 99
86 116
86 130
86 131
86 148
86 244
86 284
86 294
87 114
87 120
87 130
87 134
87 152
87 199
87 236
88 106
88 111
88 131
88 135
88 139
88 151
88 170
88 198
88 257
88 260
89 104
89 114
89 132
89 187
89 246
89 265
90 134
90 139
90 141
90 178
90 259
91 109
91 113
91 148
91 149
91 179
91 181
91 184
91 231
91 287
92 127
92 141
92 151
92 189
92 208
92 247
92 296
93 127
93 143
93 156
93 164
93 169
93 197
93 291
94 97
94 114
94 121
94 136
95 104
95 129
95 135
95 162
95 247
95 279
96 127
96 148
96 189
96 265
96 293
97 119
97 136
97 147
97 163
97 175
97 188
97 217
97 232
97 241
97 246
97 260
98 99
98 100
98 101
98 107
98 108
98 143
98 174
98 197
98 238
98 239
98 258
98 282
99 101
99 116
99 122
99 125
99 142
99 277
99 298
100 114
100 130
100 134
100 143
100 145
100 176
100 184
100 189
100 231
100 281
101 124
101 142
101 159
101 204
101 284
101 295
102 133
102 137
102 201
102 263
103 114
103 149
103 157
103 167
103 180
103 194
103 204
103 276
104 108
104 132
104 162
104 187
104 197
105 122
105 281
106 113
106 119
106 129
106 135
106 143
106 151
106 176
106 220
106 243
106 265
107 127
107 173
107 174
107 201
107 208
107 218
107 245
107 252
108 126
108 131
108 134
108 138
108 187
108 197
108 199
108 225
108 228
108 257
108 267
108 268
108 269
108 270
108 296
109 127
109 181
109 252
109 283
110 184
110 234
110 291
111 120
111 126
111 139
111 184
111 217
111 245
112 146
112 196
112 205
112 223
112 230
112 280
112 287
113 219
113 221
113 228
113 235
113 287
113 291
114 130
114 144
114 149
114 154
114 197
114 264
114 267
114 296
115 122
115 131
115 145
115 176
115 193
115 233
115 263
116 121
116 127
116 163
116 250
116 262
117 118
117 141
117 174
117 185
117 267
118 119
118 123
118 141
118 197
118 225
118 252
118 267
118 295
119 123
119 151
119 154
119 175
119 190
119 259
120 139
120 148
120 178
120 234
121 133
121 137
121 144
121 161
121 173
121 192
121 246
121 268
121 276
121 296
122 141
122 218
122 274
122 298
123 147
123 151
123 154
123 162
123 184
123 190
123 202
123 269
124 142
124 145
124 182
124 218
125 127
125 144
125 230
125 291
126 160
126 260
126 288
126 293
127 148
127 173
127 250
127 264
127 291
128 155
128 241
129 135
129 201
129 279
130 207
131 189
131 221
131 233
131 260
131 281
131 288
132 187
132 237
133 161
133 176
134 139
134 177
134 197
134 234
135 159
135 294
136 166
136 182
136 200
136 231
136 241
137 217
137 251
138 167
139 141
139 157
139 164
139 214
139 243
139 297
140 166
140 180
140 183
140 199
140 210
140 265
141 173
141 225
141 238
141 255
142 159
143 166
143 169
143 195
143 201
143 256
144 154
144 248
144 268
144 280
144 283
145 169
145 176
145 230
145 256
146 229
146 242
147 163
147 172
147 182
147 202
148 179
148 187
148 189
148 243
148 251
148 260
148 284
148 289
149 179
149 187
149 197
149 289
150 199
150 223
150 235
150 239
150 252
150 253
150 277
150 299
151 158
151 176
151 186
151 190
151 198
151 201
151 218
151 243
151 244
152 178
152 208
152 216
152 241
152 253
153 220
153 254
153 256
153 290
154 172
154 173
154 197
154 200
154 207
154 269
154 280
154 286
155 168
155 180
155 188
155 192
155 204
155 213
155 276
155 286
156 181
156 184
156 197
156 229
156 235
156 240
156 249
156 281
157 163
157 200
157 204
157 274
158 176
158 178
158 186
158 196
158 204
158 244
159 173
159 229
159 240
159 249
159 272
159 294
159 296
160 161
160 165
160 216
160 246
160 252
160 260
160 296
161 162
161 185
161 212
161 247
161 268
162 168
162 279
162 291
163 235
163 239
163 288
164 169
164 248
164 249
164 285
164 286
165 180
165 192
165 201
165 218
165 243
165 297
166 169
166 180
166 199
166 209
166 282
166 289
167 191
167 222
167 241
167 257
168 169
168 186
168 256
168 259
169 186
169 197
169 199
169 201
169 218
169 256
169 282
169 291
170 179
170 213
170 227
170 249
170 257
170 289
170 296
170 299
171 184
171 220
171 222
171 243
171 251
171 255
171 294
172 182
172 190
172 208
172 260
172 270
172 284
172 291
173 213
173 222
173 241
173 245
173 249
173 272
173 276
173 280
173 286
173 299
174 185
174 208
174 228
174 233
174 252
174 257
175 182
175 202
175 235
175 270
176 220
176 261
176 265
177 191
177 198
177 201
177 243
177 257
177 285
178 211
179 225
179 240
179 289
180 188
180 192
180 199
180 209
180 210
180 213
180 276
180 286
180 300
181 184
181 217
181 225
181 238
181 252
181 284
181 287
181 294
181 300
182 195
182 207
182 212
182 218
182 222
182 231
182 234
182 270
183 193
183 233
183 239
183 247
183 259
183 262
183 288
183 296
184 215
184 217
184 232
184 235
184 238
184 269
184 281
184 287
184 288
185 193
185 212
185 230
185 245
185 248
185 253
185 256
185 293
186 196
186 217
186 229
186 233
186 245
186 259
186 270
187 189
187 237
187 241
187 255
187 271
188 193
188 232
189 221
189 231
189 255
190 226
191 253
191 254
191 257
191 283
192 276
193 241
194 291
195 234
195 270
196 223
196 233
196 245
196 258
197 202
197 211
197 225
197 235
197 239
197 267
197 280
197 296
198 219
198 277
198 299
199 201
199 213
199 241
199 257
199 276
200 258
200 262
200 274
200 286
201 210
201 218
201 243
201 244
201 251
201 256
201 257
201 263
202 216
202 296
204 227
204 260
205 219
205 228
205 230
205 267
206 214
206 242
206 272
206 284
206 285
207 225
207 232
207 236
207 269
207 270
208 218
208 228
209 213
209 227
209 230
209 296
210 246
211 248
211 259
211 288
212 247
212 270
213 299
213 300
214 242
214 243
214 259
214 272
215 260
215 277
215 280
216 230
216 241
216 253
217 246
218 228
218 243
218 252
218 255
219 228
219 267
219 297
220 251
220 254
220 262
220 266
220 280
222 249
222 255
222 264
222 272
222 280
222 286
222 288
222 299
223 230
223 233
223 259
223 268
224 234
224 253
225 269
225 283
225 289
225 294
226 265
227 260
227 289
227 296
227 299
228 233
228 257
228 267
228 268
229 233
229 240
229 242
229 251
229 252
229 259
229 284
230 248
230 260
230 267
231 255
232 289
233 259
234 239
234 253
234 254
234 291
237 264
238 249
239 253
239 262
239 288
240 243
240 251
240 259
240 289
241 257
241 271
241 276
241 292
242 252
243 251
243 257
243 265
243 285
245 259
245 263
245 286
246 278
247 296
248 250
248 256
248 259
249 257
249 285
251 262
252 253
252 283
252 291
253 254
253 262
253 288
253 291
253 293
254 266
255 271
255 294
257 275
258 286
259 267
260 267
260 291
260 293
261 278
265 271
269 271
269 283
269 293
270 289
275 277
275 299
276 292
276 298
277 280
277 299
280 287
280 288
280 292
280 299
281 288
282 289
284 294
285 286
288 292
294 300
299 300
*Classes
1
1
1
1
1
1
1
1
1
1
1
1
1
1
1
1
1
1
1
1
1
1
1
1
1
1
1
1
1
1
1
1
1
1
1
1
1
1
1
1
1
1
1
1
1
1
1
1
1
1
1
1
1
1
1
1
1
1
1
1
1
1
1
1
1
1
1
1
1
1
1
1
1
1
1
1
1
1
1
1
1
1
1
1
1
1
1
1
1
1
1
1
1
1
1
1
1
1
1
1
1
1
1
1
1
1
1
1
1
1
1
1
1
1
1
1
1
1
1
1
1
1
1
1
1
1
1
1
1
1
1
1
1
1
1
1
1
1
1
1
1
1
1
1
1
1
1
1
1
1
2
2
2
2
2
2
2
2
2
2
2
2
2
2
2
2
2
2
2
2
2
2
2
2
2
2
2
2
2
2
2
2
2
2
2
2
2
2
2
2
2
2
2
2
2
2
2
2
2
2
2
2
2
2
2
2
2
2
2
2
2
2
2
2
2
2
2
2
2
2
2
2
2
2
2
2
2
2
2
2
2
2
2
2
2
2
2
2
2
2
2
2
2
2
2
2
2
2
2
2
2
2
2
2
2
2
2
2
2
2
2
2
2
2
2
2
2
2
2
2
2
2
2
2
2
2
2
2
2
2
2
2
2
2
2
2
2
2
2
2
2
2
2
2
2
2
2
2
2
2
