*Vertices 300
*Edges
1 35
1 55
1 71
1 76
1 105
1 107
1 117
1 172
1 186
1 248
1 271
2 4
2 34
2 134
2 136
3 7
3 40
3 53
3 101
3 112
3 132
3 138
3 172
3 234
3 261
3 266
3 276
4 34
4 77
4 112
4 162
4 194
4 200
4 204
4 223
4 247
4 260
4 272
4 279
5 24
5 88
5 109
5 200
5 264
5 266
6 8
6 13
6 49
6 79
6 157
6 276
7 19
7 48
7 132
8 46
8 68
8 79
8 96
8 99
8 100
8 119
8 150
8 196
8 212
9 33
9 59
9 89
9 109
9 148
9 217
9 238
10 27
10 36
10 81
10 202
10 222
10 233
11 53
11 62
11 93
11 134
11 150
11 159
11 171
12 125
12 164
12 177
13 79
13 224
13 235
14 55
14 73
14 107
14 194
15 20
15 31
15 34
15 55
15 77
15 99
15 191
15 193
15 216
16 185
16 189
16 204
16 210
16 223
16 251
17 24
17 99
17 101
17 117
17 118
17 237
17 248
17 274
18 21
18 30
18 34
18 60
18 90
18 139
18 176
18 199
18 213
18 244
18 289
19 29
19 51
19 61
19 98
19 111
20 45
20 47
20 55
20 95
20 99
20 173
20 197
20 198
21 90
21 103
21 110
21 151
21 160
21 162
21 171
21 179
21 205
21 230
21 244
21 247
21 272
21 273
21 292
22 35
22 66
22 224
22 284
23 70
23 97
23 112
23 163
23 193
23 204
23 255
24 85
24 99
24 117
24 118
24 264
25 29
25 72
25 89
25 102
25 124
25 140
25 186
25 194
25 243
25 265
26 155
26 187
26 201
26 205
26 263
26 286
27 49
27 152
28 115
28 150
28 279
29 41
29 176
29 180
29 186
29 261
29 268
30 40
30 52
30 68
30 85
30 90
30 105
30 120
30 173
30 218
30 276
30 287
31 99
31 134
31 230
32 86
32 134
32 273
33 41
33 54
33 98
33 119
33 140
33 148
34 77
34 176
35 57
35 66
35 97
35 130
35 160
35 232
35 249
36 81
36 120
36 130
36 209
36 248
36 274
37 48
37 70
37 84
37 122
37 143
37 174
37 177
37 215
37 264
38 261
39 77
39 116
39 134
39 136
39 186
39 227
40 54
40 58
40 85
40 119
40 256
40 290
41 43
41 65
41 98
41 136
41 240
42 69
42 104
42 105
42 118
42 121
42 148
42 159
42 170
42 179
42 250
42 280
42 286
42 288
43 65
43 157
44 65
44 77
44 85
44 99
44 159
44 228
44 255
44 259
44 267
45 55
45 78
45 93
45 95
45 109
45 152
45 173
45 174
45 195
46 110
46 138
46 201
46 286
47 61
47 93
47 144
47 184
47 259
48 200
48 221
48 286
49 75
49 155
50 121
50 149
50 229
50 255
50 284
51 54
51 57
51 63
51 111
51 124
51 216
51 229
51 232
51 240
51 293
52 68
52 85
52 87
52 96
52 253
52 268
52 281
53 54
53 124
53 169
53 185
53 257
54 62
54 71
54 99
54 111
54 119
54 123
54 124
54 171
54 189
54 234
54 291
54 295
55 105
55 107
55 117
55 145
55 177
55 194
56 111
56 155
56 248
56 284
57 58
57 74
57 103
57 115
57 120
57 188
57 205
57 249
57 253
57 286
57 288
58 103
58 119
58 131
58 155
59 70
59 98
59 141
59 162
59 182
59 231
59 267
60 90
60 114
60 151
60 170
60 224
60 251
61 123
61 184
61 186
61 196
61 232
61 275
61 293
62 84
62 93
62 143
62 179
62 290
63 168
63 231
63 259
63 278
63 281
63 298
64 198
64 231
64 274
64 297
65 141
65 228
66 91
66 97
66 204
66 240
66 243
66 258
66 283
67 74
67 175
67 193
67 229
68 96
68 206
68 291
69 94
69 104
69 113
69 148
69 202
69 244
69 253
69 289
70 191
70 205
70 231
70 295
71 99
71 102
71 117
71 121
71 124
71 128
71 145
71 153
71 162
71 195
71 239
72 92
72 179
73 91
73 156
73 166
73 244
73 256
73 279
74 75
74 115
74 164
74 206
74 209
74 222
74 248
74 271
75 115
75 285
76 155
76 172
76 180
76 229
77 87
77 99
77 159
77 175
77 186
77 194
77 199
77 240
77 259
78 95
78 125
78 136
78 162
78 226
78 262
78 271
79 99
79 141
79 147
79 184
79 239
79 271
80 85
80 87
80 92
80 106
80 137
80 183
81 88
81 117
82 133
82 241
82 255
82 259
82 294
83 110
83 135
83 140
83 229
83 296
84 143
84 207
84 300
85 90
85 99
85 119
85 125
85 137
85 183
85 186
85 198
85 207
85 229
86 93
86 120
86 134
86 236
86 274
87 96
87 99
87 104
87 140
87 169
88 255
88 256
88 268
88 277
88 285
88 288
89 102
89 109
89 129
89 140
89 247
89 284
90 169
90 236
90 246
90 268
90 289
91 219
91 258
92 177
92 187
92 252
92 273
93 134
93 180
93 195
93 259
93 263
93 270
94 104
94 281
94 293
95 176
95 245
95 293
96 99
96 104
96 120
96 124
96 151
96 227
96 253
97 112
97 131
97 163
97 193
98 140
98 149
98 197
99 159
99 203
99 253
100 158
100 206
100 297
101 110
101 138
101 188
101 229
102 105
102 133
102 145
102 154
102 165
102 177
102 195
102 217
102 218
102 222
102 237
102 296
103 110
103 183
103 254
103 299
104 108
104 114
104 118
104 121
104 148
104 284
105 118
105 120
105 218
105 237
105 271
105 293
107 120
107 272
107 295
108 132
108 170
108 242
108 294
109 143
109 152
109 202
109 228
109 235
109 236
109 285
110 135
110 138
110 180
110 198
110 208
110 247
110 249
110 274
110 281
110 287
111 152
111 172
111 192
111 201
112 116
112 151
112 175
112 178
112 194
112 212
112 264
113 161
113 209
113 246
113 261
113 265
114 121
114 251
115 174
115 209
115 248
115 285
116 126
116 138
116 190
116 200
116 204
116 210
116 213
116 219
116 292
117 124
117 128
117 206
117 211
117 218
117 239
117 251
118 132
118 134
118 170
118 179
118 185
118 199
118 290
119 124
119 299
120 124
120 128
120 130
120 134
120 182
120 205
120 260
120 295
120 300
121 145
121 148
121 149
121 225
121 230
121 232
121 233
121 254
122 142
122 170
122 181
122 250
122 253
122 275
123 182
123 189
123 234
123 275
124 128
124 134
124 151
124 259
124 279
125 146
125 157
125 232
126 152
126 184
126 200
126 221
126 273
126 285
127 160
127 233
127 256
127 285
127 300
128 134
128 190
128 206
128 211
128 238
128 260
128 261
129 140
129 264
130 131
130 185
130 210
131 161
131 181
131 190
131 226
131 246
131 289
131 294
133 167
133 211
133 241
133 255
133 261
133 298
134 136
134 167
134 189
134 205
134 277
135 140
135 151
135 190
135 204
135 224
135 281
136 152
136 240
136 266
136 272
137 157
137 170
137 172
137 218
138 154
138 180
138 189
138 213
138 272
138 280
139 162
139 244
139 271
139 296
140 204
140 228
140 264
141 150
141 184
141 196
141 198
141 271
141 296
142 173
142 205
142 281
142 287
143 207
143 212
143 236
143 279
143 289
144 205
144 255
144 259
145 199
145 216
145 292
146 157
146 170
146 204
147 174
147 239
147 290
148 167
148 194
148 296
149 202
149 205
149 206
149 208
149 220
149 225
150 196
150 280
151 171
151 258
151 259
151 288
152 225
152 240
152 250
152 256
153 218
153 229
153 239
153 247
153 272
153 277
153 285
153 287
153 296
154 161
154 180
154 181
154 212
154 227
154 258
154 296
155 157
155 248
156 239
156 269
156 296
158 179
158 200
158 214
158 219
158 248
158 290
158 299
159 206
160 208
161 214
161 232
161 246
162 179
162 205
162 211
162 212
162 241
162 259
162 271
163 164
163 172
163 185
163 264
164 174
164 185
164 192
164 251
164 268
164 280
164 294
165 182
165 188
165 277
165 287
166 181
166 184
166 185
166 208
166 299
167 222
167 243
167 247
167 296
168 214
168 279
168 298
169 216
169 267
169 268
170 219
170 250
170 260
170 286
170 288
171 204
171 243
171 251
171 288
171 295
171 296
172 266
172 286
172 287
172 298
173 205
174 181
174 189
174 228
174 261
174 280
174 282
174 290
174 297
175 176
175 231
176 177
176 208
176 214
176 252
176 253
176 262
177 252
177 262
178 180
178 235
178 292
179 191
179 231
179 235
179 253
179 290
179 297
179 300
180 188
180 289
180 292
181 183
181 232
181 264
181 281
181 297
181 299
182 188
182 216
182 234
182 264
182 285
182 286
183 186
183 207
183 225
183 288
183 292
184 226
184 240
185 192
185 207
185 257
185 263
185 264
185 281
187 205
187 263
188 190
188 277
188 278
189 277
189 282
190 213
190 277
191 216
191 281
192 204
192 221
192 277
192 278
192 294
193 206
193 257
194 200
194 214
194 216
194 240
194 281
196 246
196 290
197 201
197 234
197 276
198 208
198 213
198 244
199 205
199 213
199 268
199 271
199 292
200 214
200 221
200 223
200 285
201 258
202 253
203 223
203 253
204 221
204 251
204 283
205 206
205 217
205 225
205 241
205 268
205 288
205 295
206 257
207 225
207 251
207 257
208 214
208 252
208 255
209 215
209 273
209 292
210 213
211 218
211 227
211 241
212 259
212 296
213 288
213 292
214 246
214 299
215 242
215 261
215 266
215 278
215 292
216 281
217 252
217 293
218 229
218 232
218 239
218 245
218 247
218 277
218 287
219 242
219 246
219 252
219 260
219 290
221 273
222 239
222 253
222 281
222 296
223 251
223 253
223 268
223 293
224 295
225 227
225 236
225 250
225 265
226 240
226 289
228 229
228 231
228 240
228 282
228 286
228 297
229 235
229 246
229 284
231 297
232 252
232 255
232 297
234 268
234 276
234 286
234 293
235 253
235 285
235 292
236 246
236 250
236 263
236 285
236 286
236 289
237 283
238 248
238 259
238 261
238 271
239 242
239 249
239 266
239 292
239 296
240 289
240 297
241 255
241 259
242 247
242 249
242 258
242 272
242 283
242 296
243 258
243 296
244 291
246 266
246 275
246 286
246 290
247 260
247 272
247 273
247 277
248 271
248 274
248 281
249 258
250 256
250 265
250 274
250 286
250 288
251 257
251 268
251 283
252 255
252 293
253 256
253 262
253 274
253 281
253 286
253 288
254 274
254 281
254 299
256 277
256 285
256 286
259 261
259 277
259 278
259 282
259 286
260 272
260 273
260 274
260 288
260 290
261 266
261 280
261 282
262 283
263 289
264 266
264 274
264 281
264 282
264 285
264 286
265 274
265 291
266 272
266 292
266 298
268 293
268 295
271 274
272 273
274 281
277 278
277 285
278 285
281 285
282 286
282 297
283 289
286 287
288 292
*Classes
1
1
1
1
1
1
1
1
1
1
1
1
1
1
1
1
1
1
1
1
1
1
1
1
1
1
1
1
1
1
1
1
1
1
1
1
1
1
1
1
1
1
1
1
1
1
1
1
1
1
1
1
1
1
1
1
1
1
1
1
1
1
1
1
1
1
1
1
1
1
1
1
1
1
1
1
1
1
1
1
1
1
1
1
1
1
1
1
1
1
1
1
1
1
1
1
1
1
1
1
1
1
1
1
1
1
1
1
1
1
1
1
1
1
1
1
1
1
1
1
1
1
1
1
1
1
1
1
1
1
1
1
1
1
1
1
1
1
1
1
1
1
1
1
1
1
1
1
1
1
2
2
2
2
2
2
2
2
2
2
2
2
2
2
2
2
2
2
2
2
2
2
2
2
2
2
2
2
2
2
2
2
2
2
2
2
2
2
2
2
2
2
2
2
2
2
2
2
2
2
2
2
2
2
2
2
2
2
2
2
2
2
2
2
2
2
2
2
2
2
2
2
2
2
2
2
2
2
2
2
2
2
2
2
2
2
2
2
2
2
2
2
2
2
2
2
2
2
2
2
2
2
2
2
2
2
2
2
2
2
2
2
2
2
2
2
2
2
2
2
2
2
2
2
2
2
2
2
2
2
2
2
2
2
2
2
2
2
2
2
2
2
2
2
2
2
2
2
2
2
