*Vertices 300
*Edges
1 58
1 158
1 185
1 277
1 293
1 297
2 35
2 77
2 79
2 143
2 170
2 172
2 174
2 204
2 231
2 232
2 255
3 13
3 67
3 148
3 154
4 18
4 51
4 151
4 194
4 280
5 31
5 56
5 88
5 102
5 195
5 210
6 18
6 46
6 63
6 73
6 96
6 107
6 151
6 198
6 271
7 21
7 24
7 99
7 155
7 194
7 206
8 19
8 45
8 86
8 158
8 162
9 20
9 62
9 146
9 188
9 203
9 239
9 245
9 292
10 114
10 162
10 166
10 267
10 269
11 30
11 35
11 73
11 195
11 207
11 235
11 246
11 295
11 297
12 44
12 52
12 69
12 81
12 82
12 98
12 109
12 133
12 138
12 144
12 158
12 168
12 180
13 45
13 72
13 217
13 278
14 45
14 72
14 99
14 124
14 204
14 208
14 246
14 284
15 53
15 69
15 92
15 94
15 127
15 136
15 158
15 178
15 225
15 285
15 294
15 296
16 64
16 110
16 182
16 220
16 221
16 252
17 121
17 143
17 234
17 235
18 25
18 63
18 97
18 110
18 111
18 112
18 180
18 274
18 282
18 285
19 30
19 31
19 49
19 51
19 55
19 73
19 86
19 109
19 160
19 277
19 297
20 29
20 84
20 85
20 97
20 115
20 193
20 245
20 250
20 270
21 29
21 76
21 99
21 181
21 243
21 254
21 256
21 276
22 41
22 81
22 94
22 165
22 202
22 211
23 48
23 65
23 80
23 82
23 110
23 119
23 142
23 150
23 179
23 285
24 50
24 153
24 155
24 161
24 260
24 291
25 45
25 81
25 97
25 102
25 110
25 132
25 143
25 170
25 208
25 240
25 273
25 292
25 296
25 300
26 144
27 41
27 57
27 83
27 103
27 228
28 43
28 48
28 91
28 116
28 119
28 129
28 136
28 153
28 221
28 240
28 299
29 48
29 76
29 118
29 212
29 214
29 233
29 269
29 294
29 295
30 54
30 55
30 75
30 177
30 230
30 246
31 49
31 51
31 60
31 74
31 88
31 114
31 122
31 178
31 201
31 232
31 243
31 251
32 46
32 53
32 95
32 107
32 127
32 175
32 199
33 151
33 182
33 227
33 273
34 64
34 80
34 113
34 137
34 195
34 230
34 243
35 57
35 58
35 64
35 80
35 134
35 195
35 199
35 235
35 255
35 261
36 52
36 61
36 64
36 78
36 105
36 122
36 209
36 267
37 44
37 60
37 81
37 150
37 169
37 189
37 198
37 222
37 250
37 262
37 278
38 76
38 83
38 91
38 150
38 197
39 97
39 127
39 222
39 233
39 263
40 48
40 61
40 67
40 70
40 73
40 77
40 91
40 107
40 170
40 229
40 234
40 256
41 60
41 66
41 88
41 151
41 196
41 209
41 262
41 271
41 275
41 295
42 74
42 126
42 145
42 210
42 217
43 58
43 91
43 107
43 115
43 132
44 52
44 70
44 77
44 81
44 89
44 139
44 242
44 255
44 262
45 50
45 72
45 137
45 161
45 208
46 97
46 104
46 107
46 272
46 277
47 53
47 65
47 91
47 139
47 245
47 272
48 70
48 119
48 136
48 138
48 158
48 168
48 178
48 231
48 242
48 264
48 297
49 51
49 66
49 83
49 88
49 90
49 153
49 186
49 232
49 243
49 278
49 293
50 102
50 161
50 162
50 175
50 203
50 227
50 233
51 90
51 138
51 158
51 176
51 179
51 190
52 55
52 156
52 174
52 255
52 263
52 267
53 64
53 65
53 81
53 91
53 95
53 127
53 179
53 199
53 245
53 272
53 290
53 297
54 56
54 73
54 104
54 117
54 149
54 203
54 248
54 250
55 91
55 192
55 196
55 253
55 255
55 287
55 300
56 59
56 104
56 129
56 149
56 223
56 227
57 90
57 96
57 121
57 132
57 183
57 279
57 287
57 289
58 100
58 107
58 122
58 134
58 141
58 142
58 160
58 179
58 246
58 271
58 274
58 277
58 295
59 110
59 113
59 149
59 199
59 225
60 77
60 86
60 88
60 127
60 137
60 165
60 173
60 176
60 224
61 66
61 78
61 122
61 198
61 201
61 227
61 231
61 277
61 295
62 151
62 203
63 67
63 119
63 149
63 198
63 205
63 210
63 228
64 74
64 80
64 83
64 95
64 200
64 206
64 219
64 246
64 298
65 68
65 69
65 81
65 82
65 117
65 125
65 239
65 249
65 258
65 297
66 67
66 71
66 83
66 104
66 149
66 201
66 209
66 264
66 293
67 70
67 83
67 91
67 114
67 148
67 152
67 210
67 217
67 241
68 81
68 139
68 231
68 296
69 92
69 125
69 138
69 146
69 196
69 280
70 77
70 131
70 134
70 156
70 171
70 188
70 207
70 230
70 248
71 119
71 141
71 300
72 113
72 242
72 286
72 297
73 103
73 109
73 135
73 151
73 229
73 268
73 277
73 281
73 297
74 114
74 145
74 217
74 219
74 259
75 123
75 263
76 79
76 197
76 201
76 216
77 79
77 88
77 90
77 176
77 213
77 264
78 98
78 286
79 110
80 90
80 119
81 113
81 115
81 139
81 171
81 190
81 211
81 238
81 260
81 300
82 95
82 109
82 124
82 171
82 185
82 224
83 95
83 103
83 209
83 241
83 249
83 264
84 85
84 89
84 91
84 108
84 112
84 154
84 239
84 268
85 91
85 212
86 91
86 94
86 108
86 113
86 137
86 176
86 185
86 211
86 213
86 250
86 257
86 263
86 269
86 275
87 89
87 98
87 169
87 258
87 293
88 114
88 127
88 207
88 251
89 181
89 239
89 242
89 279
90 119
90 187
90 211
90 213
90 232
90 271
91 94
91 112
91 139
91 150
91 152
91 217
92 163
92 198
93 99
93 127
93 144
93 163
93 189
93 195
93 245
94 113
94 257
95 96
95 124
95 126
95 168
95 235
95 276
95 285
96 107
96 233
96 235
97 112
97 166
97 224
97 260
98 144
98 166
98 211
98 286
99 127
99 185
99 189
99 224
99 229
99 237
99 250
99 284
99 289
100 141
100 198
100 285
101 118
101 179
102 147
102 203
102 207
102 208
102 249
102 273
103 125
103 166
103 167
103 176
103 181
103 261
103 281
104 148
104 149
104 165
104 174
104 187
104 222
105 113
105 199
105 234
105 267
106 113
106 134
106 137
106 162
106 200
106 246
106 251
107 203
107 233
107 250
107 271
108 125
108 145
108 211
108 274
109 135
109 174
109 227
109 269
109 275
109 284
109 297
110 113
110 150
110 199
110 236
110 245
110 248
111 124
111 221
111 274
112 176
112 184
112 222
112 276
113 139
113 195
113 215
114 147
114 148
114 197
114 259
114 265
114 269
114 300
115 125
115 132
115 258
115 260
115 300
116 119
116 121
116 128
116 172
116 193
116 236
116 246
116 255
117 249
118 205
118 273
118 295
119 165
120 121
120 144
120 183
120 191
120 203
120 220
120 271
120 290
121 128
121 143
121 144
121 211
121 271
121 289
122 166
122 193
122 243
122 247
123 135
123 164
123 253
124 206
124 236
124 241
124 284
125 144
125 155
125 171
125 211
125 268
126 174
126 195
126 210
126 241
126 270
126 285
126 300
127 185
127 190
127 278
127 282
127 294
127 299
128 155
128 158
128 161
128 181
128 210
128 225
128 239
128 246
129 187
129 189
129 221
129 223
130 146
130 170
131 134
131 261
132 147
132 152
132 170
132 183
132 202
132 232
132 240
133 191
134 202
134 211
134 239
134 261
134 279
135 284
136 148
136 159
136 181
136 264
136 265
136 266
136 286
137 176
138 158
138 180
138 213
138 227
139 154
139 241
141 162
142 179
142 237
142 277
143 209
143 240
143 249
143 273
144 229
144 244
145 197
145 211
145 227
145 239
145 268
146 196
146 208
146 256
147 152
147 205
147 249
147 263
147 269
148 159
148 200
148 238
149 165
149 185
149 211
149 215
149 222
149 288
150 157
150 198
150 236
150 275
150 283
151 165
151 195
151 198
151 229
152 175
152 192
152 197
152 232
153 186
153 199
153 221
153 223
153 225
153 234
153 266
154 156
154 248
154 261
154 270
155 244
155 250
155 267
155 283
156 200
156 248
156 263
156 270
157 203
158 213
158 225
158 267
159 168
159 181
159 218
159 223
159 266
159 288
160 220
160 235
160 243
160 244
161 163
161 192
161 239
161 286
161 288
162 166
162 182
162 249
162 250
162 251
162 279
163 203
163 234
163 236
163 250
163 275
164 230
164 245
164 246
165 173
165 186
165 192
165 198
165 211
165 215
166 167
166 171
166 207
167 280
168 242
168 250
168 266
168 285
169 185
169 222
169 272
169 293
170 180
170 224
170 229
170 232
170 252
170 255
171 207
171 238
172 188
172 209
172 245
172 249
172 255
173 186
173 198
173 215
174 187
176 249
176 275
177 214
177 253
177 262
177 265
178 197
178 231
178 232
178 265
178 274
178 285
179 190
179 245
179 285
180 224
180 243
180 281
180 282
181 210
181 281
181 286
182 224
182 236
182 250
183 225
183 249
184 237
184 249
184 258
184 279
185 196
185 207
185 222
185 234
185 256
185 275
185 297
186 227
186 290
186 291
187 223
187 225
187 249
187 265
188 198
188 245
188 248
188 255
188 260
189 218
189 224
189 226
189 231
189 237
190 205
190 224
190 257
190 261
191 231
191 242
191 250
191 283
192 211
192 220
192 221
192 232
192 288
192 295
193 232
193 289
194 264
194 270
194 291
194 296
195 210
195 235
196 207
196 271
196 297
197 238
197 265
197 286
198 245
198 278
199 215
199 221
199 249
199 264
199 274
200 248
200 280
201 227
201 287
201 289
201 295
202 226
202 235
202 239
202 249
202 269
202 279
203 227
203 250
205 263
205 265
205 266
206 223
206 241
207 265
207 271
207 297
208 231
208 256
209 249
209 262
209 265
210 229
210 242
210 254
210 266
210 294
211 221
211 232
211 239
211 271
211 274
212 242
212 277
213 220
213 227
213 235
213 263
213 299
214 233
214 275
215 243
215 247
218 231
218 285
218 288
219 300
220 235
222 230
223 232
223 255
223 266
224 236
224 243
224 250
224 260
224 299
225 249
225 267
226 249
226 273
227 231
227 275
227 277
228 238
229 289
229 294
230 236
230 246
230 292
231 234
231 242
231 256
231 285
231 288
231 300
232 255
232 293
234 243
234 256
235 261
235 276
235 284
235 286
236 250
236 275
237 242
237 258
238 265
238 286
239 258
239 268
239 279
240 263
240 300
242 250
243 247
243 254
243 299
244 260
245 248
247 299
248 263
249 263
249 264
249 267
249 269
249 274
249 279
250 269
252 267
252 275
254 261
254 262
254 265
254 299
256 270
257 270
257 298
258 294
259 279
260 291
260 296
261 265
261 270
261 271
261 279
262 265
263 299
265 271
268 280
269 275
269 284
269 290
270 286
270 298
271 289
271 293
271 300
273 289
274 277
274 285
275 295
276 286
277 285
280 295
284 289
286 297
287 289
290 292
291 296
294 299
*Classes
1
1
1
1
1
1
1
1
1
1
1
1
1
1
1
1
1
1
1
1
1
1
1
1
1
1
1
1
1
1
1
1
1
1
1
1
1
1
1
1
1
1
1
1
1
1
1
1
1
1
1
1
1
1
1
1
1
1
1
1
1
1
1
1
1
1
1
1
1
1
1
1
1
1
1
1
1
1
1
1
1
1
1
1
1
1
1
1
1
1
1
1
1
1
1
1
1
1
1
1
1
1
1
1
1
1
1
1
1
1
1
1
1
1
1
1
1
1
1
1
1
1
1
1
1
1
1
1
1
1
1
1
1
1
1
1
1
1
1
1
1
1
1
1
1
1
1
1
1
1
2
2
2
2
2
2
2
2
2
2
2
2
2
2
2
2
2
2
2
2
2
2
2
2
2
2
2
2
2
2
2
2
2
2
2
2
2
2
2
2
2
2
2
2
2
2
2
2
2
2
2
2
2
2
2
2
2
2
2
2
2
2
2
2
2
2
2
2
2
2
2
2
2
2
2
2
2
2
2
2
2
2
2
2
2
2
2
2
2
2
2
2
2
2
2
2
2
2
2
2
2
2
2
2
2
2
2
2
2
2
2
2
2
2
2
2
2
2
2
2
2
2
2
2
2
2
2
2
2
2
2
2
2
2
2
2
2
2
2
2
2
2
2
2
2
2
2
2
2
2
