*Vertices 300
*Edges
1 10
1 45
1 60
1 71
1 89
1 101
1 131
1 134
1 143
1 149
1 180
1 214
1 273
1 296
2 14
2 84
2 172
2 228
3 22
3 36
3 55
3 68
3 93
3 142
3 147
3 150
3 188
3 225
3 259
4 47
4 79
4 124
4 140
4 191
4 225
4 262
5 22
5 41
5 79
5 101
5 144
5 214
5 233
5 284
6 45
6 90
6 102
6 113
6 142
6 149
6 171
6 222
6 238
6 239
6 264
6 286
6 293
6 295
7 44
7 62
7 110
7 120
7 147
7 177
7 230
7 271
7 272
7 282
7 283
8 9
8 19
8 25
8 44
8 55
8 72
8 73
8 101
8 117
8 126
8 142
8 150
8 173
8 197
8 235
8 269
8 286
9 43
9 72
9 81
9 126
9 145
9 204
9 235
9 290
10 39
10 75
10 126
10 136
10 143
10 175
10 182
10 279
11 178
11 181
11 203
11 215
11 220
12 13
12 14
12 23
12 38
12 40
12 49
12 62
12 70
12 76
12 79
12 80
12 81
12 84
12 99
12 115
12 123
12 140
12 150
13 62
13 94
14 28
14 36
14 58
14 72
14 76
14 84
14 166
14 240
14 242
14 246
15 21
15 76
15 80
15 84
15 132
15 187
15 232
15 239
16 17
16 26
16 119
16 193
16 208
16 279
17 21
17 34
17 45
17 71
17 134
17 135
17 140
17 143
17 157
17 169
17 171
17 172
17 187
17 193
17 203
17 246
17 258
17 269
18 32
18 41
18 115
18 254
19 72
19 73
19 94
19 110
19 184
20 26
20 30
20 41
20 52
20 58
20 63
20 68
20 69
20 80
20 84
20 130
20 132
20 133
20 158
20 181
20 247
20 249
20 277
20 299
21 40
21 64
21 75
21 160
21 168
21 171
21 187
21 238
21 242
21 253
21 298
22 58
22 66
22 101
22 133
22 163
22 225
22 259
22 271
23 24
23 38
23 79
23 87
23 125
23 140
23 146
23 148
23 171
23 222
23 261
23 265
23 297
24 125
25 28
25 32
25 37
25 38
25 39
25 44
25 55
25 82
25 107
25 127
25 135
25 155
25 167
25 169
25 194
25 234
26 31
26 57
26 68
26 78
26 80
26 105
26 119
26 138
26 163
26 172
26 249
26 268
26 271
27 28
27 128
27 187
27 198
27 270
27 277
27 279
27 281
28 35
28 56
28 57
28 62
28 72
28 86
28 112
28 117
28 169
28 193
28 199
28 216
28 217
28 243
28 279
29 219
29 282
29 290
30 33
30 41
30 52
30 69
30 81
30 113
30 136
30 153
30 187
30 226
30 265
31 78
31 104
31 105
31 296
32 44
32 60
32 77
32 79
32 93
32 95
32 115
32 123
32 127
32 185
32 219
32 281
32 289
33 51
33 136
33 156
33 160
33 211
34 56
34 134
34 143
34 148
34 169
34 258
34 276
34 277
35 44
35 50
35 167
35 189
35 217
35 293
36 93
36 100
36 274
37 39
37 74
37 106
37 121
37 194
37 208
37 231
37 270
38 39
38 125
38 136
38 140
38 144
38 160
38 168
38 213
38 243
39 79
39 144
39 182
39 231
39 248
39 249
39 278
39 279
40 70
40 79
40 89
40 99
40 131
40 156
40 168
40 191
40 192
40 208
40 211
40 232
40 236
40 242
40 249
41 69
41 81
41 144
41 145
41 170
41 192
41 195
41 247
41 250
41 271
42 98
42 120
42 155
42 215
42 263
42 285
43 45
43 66
43 73
43 74
43 82
43 90
43 102
43 113
43 116
43 126
43 145
43 242
44 63
44 93
44 95
44 157
44 188
44 196
44 206
44 220
44 223
44 237
44 240
44 282
44 284
44 290
44 299
45 81
45 82
45 92
45 113
45 143
45 177
46 69
46 298
47 83
47 139
47 166
47 170
47 234
48 59
48 93
48 109
48 118
48 126
48 154
48 217
48 224
49 59
49 76
49 89
49 135
49 155
49 159
49 262
50 76
50 84
50 108
50 189
50 233
50 239
51 56
51 180
51 282
52 89
52 98
52 113
52 166
52 187
52 225
52 249
52 288
53 57
53 142
53 167
53 206
53 236
54 59
54 103
54 147
54 188
55 64
55 68
55 72
55 78
55 93
55 101
55 142
55 150
55 154
55 244
55 270
55 281
56 57
56 68
56 71
56 79
56 86
56 107
56 120
56 134
56 147
56 229
57 68
57 122
57 148
57 167
57 185
57 237
57 279
58 72
58 133
58 137
58 166
58 174
58 192
58 233
59 86
59 103
59 107
59 118
59 139
59 161
59 195
59 198
59 250
59 263
59 286
60 70
60 71
60 77
60 91
60 101
60 143
60 149
60 155
60 255
61 104
61 163
61 164
61 226
61 284
62 72
62 193
62 207
62 271
62 286
63 80
63 84
63 166
63 207
63 246
63 262
63 269
63 285
63 290
63 293
64 150
64 205
65 74
65 106
65 114
65 118
65 221
65 295
66 177
66 242
66 259
67 76
67 84
67 88
67 121
67 140
67 146
67 207
68 77
68 96
68 107
68 122
68 134
68 138
68 150
68 151
68 163
68 171
68 229
68 237
68 243
68 260
69 80
69 81
69 84
69 233
69 271
69 284
70 71
70 79
70 81
70 135
70 140
70 155
70 156
70 177
70 248
70 249
70 263
71 86
71 91
71 120
71 135
71 178
71 255
71 261
71 262
71 269
71 282
72 94
72 117
72 119
72 126
72 159
72 169
73 110
73 295
74 106
74 115
74 124
74 145
75 126
75 183
75 187
75 206
75 210
75 213
75 268
76 79
76 84
76 88
76 91
76 99
76 104
76 222
77 82
77 93
77 96
77 115
77 157
77 185
77 238
78 223
78 234
78 270
78 284
79 99
79 116
79 123
79 133
79 140
79 143
79 144
79 146
79 147
79 249
79 254
80 84
80 176
80 226
80 287
80 292
81 83
81 92
81 177
81 280
82 126
82 127
82 136
82 157
82 226
82 280
82 281
83 108
83 128
83 145
83 189
83 205
83 296
84 99
84 104
84 108
84 140
84 201
84 292
85 107
85 144
85 179
85 185
85 197
85 231
85 238
85 253
85 289
86 98
86 169
86 211
86 216
86 243
86 263
87 101
87 119
87 219
88 121
88 167
88 170
88 173
88 216
89 131
89 158
89 180
89 202
90 102
90 107
90 109
90 116
90 127
90 190
90 238
91 134
91 290
92 112
92 116
92 227
92 289
92 293
93 95
93 115
93 126
93 127
93 137
93 163
93 188
93 216
93 218
93 293
94 126
94 202
94 237
95 124
95 131
95 137
95 162
95 172
95 191
95 203
95 231
95 239
95 283
95 285
96 249
96 275
97 176
97 190
97 216
97 260
98 147
98 149
98 166
98 200
98 221
98 280
98 281
99 140
99 165
99 180
99 194
99 199
99 211
99 236
100 174
100 215
100 241
101 143
101 177
101 198
101 235
101 240
102 129
102 222
102 238
102 251
102 290
102 293
103 141
103 161
103 238
103 250
103 277
104 152
104 156
104 164
104 183
104 289
104 293
104 296
105 130
105 195
105 202
106 124
106 221
107 127
107 135
107 138
107 139
107 264
107 298
107 300
108 128
108 236
108 260
108 265
108 288
109 126
109 127
109 135
109 168
109 230
109 289
110 230
110 295
111 172
111 261
112 133
112 219
112 227
112 248
112 249
113 123
113 149
113 150
113 222
113 228
114 117
114 197
114 221
114 271
115 123
115 124
115 140
115 146
115 157
115 193
115 244
116 123
116 178
117 125
117 221
117 241
118 123
118 183
118 205
118 281
118 283
118 299
119 135
119 138
119 147
119 155
119 219
119 222
119 225
119 244
119 289
120 149
120 168
120 171
120 230
120 249
121 199
121 208
121 216
121 272
122 194
123 127
123 150
123 180
123 205
123 249
123 282
124 191
125 140
125 144
125 165
125 210
125 213
125 275
126 201
127 135
127 139
128 201
128 247
129 198
129 277
130 153
130 158
130 188
130 192
130 195
130 233
131 162
131 174
131 203
131 236
131 280
132 171
132 239
132 291
132 299
133 137
133 147
133 166
133 227
134 149
134 241
134 247
134 276
135 147
135 200
135 237
135 239
135 246
135 257
135 261
135 262
135 281
135 299
136 186
136 213
136 226
136 246
136 255
136 280
137 164
137 241
137 272
138 189
138 205
138 265
139 170
139 197
139 286
139 291
140 143
140 146
140 147
140 157
140 254
140 293
140 295
141 189
141 266
142 222
142 252
143 214
143 287
143 288
143 295
144 185
144 233
144 235
144 284
145 189
145 190
145 250
146 166
146 167
146 171
146 196
146 239
147 166
147 180
147 186
147 188
147 209
147 225
147 258
147 259
147 268
147 272
147 278
148 261
148 277
149 200
149 210
149 217
149 227
149 230
150 193
150 205
150 270
151 160
151 237
151 299
152 156
153 171
153 217
153 265
153 278
154 192
154 233
155 165
155 167
155 181
155 263
155 300
156 168
156 263
157 167
157 191
157 193
157 208
157 216
157 232
157 300
158 171
158 181
158 209
158 228
158 240
158 269
160 213
160 236
160 237
160 299
161 180
161 188
161 281
161 290
161 293
162 208
162 245
162 270
162 285
163 188
163 220
163 240
163 258
163 259
164 168
164 170
164 241
165 181
165 199
165 211
165 228
165 251
166 178
166 182
166 183
166 233
166 242
166 246
166 271
166 278
166 281
166 282
167 173
167 191
167 196
167 241
167 291
167 293
167 294
167 295
168 213
168 242
168 296
169 218
169 257
170 192
170 195
170 250
170 264
170 282
171 186
171 217
171 230
171 231
171 239
171 243
171 258
171 265
171 269
172 175
172 196
172 203
172 225
172 247
172 286
172 294
173 204
173 213
173 235
173 245
173 269
173 274
174 191
174 192
174 198
174 233
174 254
174 280
175 185
175 196
175 203
175 218
175 249
175 260
176 190
176 195
176 210
176 223
176 226
176 250
176 258
176 268
177 198
178 182
178 246
178 271
178 288
179 195
179 197
179 278
180 181
180 188
180 194
180 257
180 266
180 282
180 300
181 190
181 199
181 228
181 257
181 282
181 300
182 183
182 244
182 262
183 187
183 209
183 234
183 262
183 280
183 281
183 283
184 193
184 284
184 298
185 254
185 260
185 284
186 195
186 197
186 211
186 250
186 253
186 258
186 275
186 278
187 206
187 210
187 227
187 238
187 245
187 253
187 300
188 189
188 194
188 195
188 209
188 255
188 280
188 281
188 299
189 195
189 224
189 233
189 239
189 257
189 258
189 266
189 292
190 212
190 216
190 256
190 260
190 274
190 277
190 291
190 300
191 192
191 193
191 194
191 208
191 232
191 233
191 249
191 270
191 285
191 291
192 198
192 233
192 250
193 223
193 284
194 208
194 266
194 270
194 280
194 281
195 209
195 211
195 224
195 255
196 203
196 272
196 300
197 208
197 220
197 222
197 231
197 250
197 271
197 278
197 286
198 207
198 228
198 240
198 279
198 286
199 247
199 257
200 218
200 221
200 251
200 262
200 274
200 290
200 293
201 273
202 220
202 240
203 215
203 225
203 246
203 249
203 269
203 300
204 217
204 265
204 269
204 274
205 217
205 265
206 271
206 299
207 226
207 286
207 290
208 231
208 270
208 280
208 298
209 240
210 222
210 223
210 227
210 250
210 258
210 275
210 279
211 232
211 236
211 242
211 275
212 216
212 235
212 245
212 285
212 300
213 220
213 231
213 243
213 245
215 266
216 243
216 300
217 223
217 265
217 278
219 248
219 277
219 289
219 293
220 231
220 240
220 299
221 293
222 227
222 252
222 261
222 264
222 279
222 286
223 250
223 258
223 268
223 284
226 241
226 258
226 259
226 280
226 284
226 290
226 292
227 251
227 252
227 267
227 292
228 279
228 300
229 237
231 265
231 289
232 241
232 275
232 285
233 242
233 246
233 256
235 256
235 263
236 237
237 243
237 250
237 264
237 299
238 245
238 253
238 277
239 257
241 292
242 271
243 257
243 259
243 260
244 270
245 300
246 255
246 282
247 249
247 294
248 249
248 262
248 275
249 275
249 278
249 299
250 264
250 278
251 262
252 297
254 280
255 282
256 277
258 259
258 266
258 267
258 280
258 290
258 292
258 299
259 260
260 288
261 270
261 298
262 281
263 265
263 297
264 298
265 269
265 297
266 287
266 299
267 292
269 284
270 289
270 293
270 298
271 272
271 277
273 284
273 296
275 285
277 289
278 286
280 281
281 290
283 285
287 299
289 290
289 293
290 293
291 294
291 300
294 295
*Classes
1
1
1
1
1
1
1
1
1
1
1
1
1
1
1
1
1
1
1
1
1
1
1
1
1
1
1
1
1
1
1
1
1
1
1
1
1
1
1
1
1
1
1
1
1
1
1
1
1
1
1
1
1
1
1
1
1
1
1
1
1
1
1
1
1
1
1
1
1
1
1
1
1
1
1
1
1
1
1
1
1
1
1
1
1
1
1
1
1
1
1
1
1
1
1
1
1
1
1
1
1
1
1
1
1
1
1
1
1
1
1
1
1
1
1
1
1
1
1
1
1
1
1
1
1
1
1
1
1
1
1
1
1
1
1
1
1
1
1
1
1
1
1
1
1
1
1
1
1
1
2
2
2
2
2
2
2
2
2
2
2
2
2
2
2
2
2
2
2
2
2
2
2
2
2
2
2
2
2
2
2
2
2
2
2
2
2
2
2
2
2
2
2
2
2
2
2
2
2
2
2
2
2
2
2
2
2
2
2
2
2
2
2
2
2
2
2
2
2
2
2
2
2
2
2
2
2
2
2
2
2
2
2
2
2
2
2
2
2
2
2
2
2
2
2
2
2
2
2
2
2
2
2
2
2
2
2
2
2
2
2
2
2
2
2
2
2
2
2
2
2
2
2
2
2
2
2
2
2
2
2
2
2
2
2
2
2
2
2
2
2
2
2
2
2
2
2
2
2
2
