*Vertices 300
*Edges
1 22
1 41
1 84
1 118
1 127
1 134
1 157
1 165
2 4
2 21
2 22
2 48
2 98
2 146
2 147
2 198
2 229
2 256
2 275
3 4
3 9
3 12
3 22
3 45
3 68
3 137
3 138
3 146
3 148
3 149
3 180
3 185
3 198
3 229
3 239
3 244
3 276
3 297
4 21
4 28
4 43
4 45
4 51
4 98
4 106
4 125
4 145
4 149
4 153
4 275
4 291
4 297
5 16
5 34
5 35
5 68
5 74
5 114
5 130
5 186
5 219
5 255
5 260
5 261
6 212
7 32
7 98
7 282
7 283
7 293
8 13
8 22
8 33
8 46
8 52
8 66
8 82
8 109
8 110
8 111
8 114
8 115
8 134
8 143
8 159
8 162
8 167
8 214
8 261
8 272
8 281
9 116
9 169
9 180
10 38
10 84
10 88
10 94
10 127
10 134
10 237
10 243
11 15
11 36
11 59
11 87
11 90
11 99
11 104
11 122
11 139
11 141
11 143
11 199
11 221
11 236
12 23
12 34
12 62
12 67
12 69
12 79
12 97
12 118
12 124
12 139
12 140
12 150
12 166
12 219
12 244
12 256
13 22
13 46
13 66
13 100
13 159
13 162
13 183
13 239
13 244
13 245
13 258
14 36
14 43
14 45
14 46
14 54
14 81
14 95
14 96
14 97
14 115
14 118
14 125
14 143
14 148
14 152
14 181
14 184
14 188
14 189
14 211
14 226
14 228
14 254
14 289
15 38
15 46
15 59
15 87
15 92
15 173
15 191
15 236
15 242
15 270
15 298
16 29
16 44
16 53
16 68
16 74
16 97
16 157
16 161
16 186
16 193
16 227
16 230
16 242
16 249
16 260
16 282
16 295
17 30
17 46
17 105
17 143
17 170
17 173
17 179
17 194
17 197
17 262
17 268
17 287
18 22
18 59
18 75
18 100
18 136
18 289
19 21
19 27
19 35
19 69
19 126
19 192
19 238
19 251
19 254
20 22
20 62
20 91
20 101
20 102
20 121
20 132
20 151
20 234
20 264
21 51
21 69
21 106
21 108
21 119
21 133
21 158
21 198
21 222
21 232
21 234
21 286
21 290
22 38
22 75
22 120
22 121
22 140
22 142
22 146
22 147
22 157
22 166
22 175
22 184
22 204
22 229
22 244
22 291
23 36
23 57
23 62
23 98
23 139
23 141
23 143
23 161
23 165
23 167
23 174
23 177
23 281
24 61
24 62
24 63
24 91
24 119
24 160
24 181
24 221
24 233
24 245
24 248
24 280
25 57
25 98
25 103
25 125
25 145
25 148
25 164
25 211
25 216
25 246
25 272
25 297
26 98
26 151
26 170
26 174
26 232
26 275
26 278
27 45
27 69
27 75
27 192
27 214
27 238
27 248
27 250
27 254
28 43
28 81
28 144
28 156
28 179
28 197
28 225
28 243
29 43
29 53
29 89
29 97
29 127
29 144
29 186
29 193
29 198
29 231
29 298
29 300
30 179
30 241
30 253
31 45
31 49
31 91
31 101
31 116
31 170
31 195
31 238
32 84
32 134
32 211
32 245
33 82
33 99
33 109
33 165
33 191
33 227
33 229
33 230
33 236
33 270
33 273
34 67
34 114
34 121
34 213
34 219
34 230
34 255
34 256
35 106
35 114
35 130
35 162
35 165
35 227
35 228
35 236
35 284
36 38
36 62
36 95
36 104
36 122
36 125
36 141
36 213
37 57
37 75
37 181
38 42
38 63
38 88
38 95
38 123
38 148
38 168
38 221
38 228
38 229
38 248
38 276
39 51
39 69
39 168
39 179
39 197
39 226
40 95
40 123
40 124
40 140
40 157
40 162
40 189
40 205
40 220
40 274
40 300
41 51
41 60
41 134
41 144
41 150
41 214
41 227
41 236
41 274
42 56
42 57
42 61
42 120
42 202
42 207
42 245
42 270
42 276
43 97
43 148
43 171
43 205
43 225
43 298
44 57
44 147
44 193
44 203
44 248
44 292
44 295
45 54
45 113
45 120
45 126
45 134
45 149
45 181
45 189
45 196
45 285
46 66
46 95
46 104
46 109
46 111
46 115
46 143
46 167
46 191
46 230
47 57
47 68
47 94
47 102
47 121
48 84
48 256
48 259
48 274
48 287
49 154
49 170
49 182
49 260
49 262
49 277
49 289
49 299
50 88
50 92
50 93
50 145
50 205
50 235
50 242
50 266
51 60
51 151
51 179
51 198
51 232
51 234
52 61
52 66
52 71
52 136
52 138
52 159
52 161
52 172
52 178
52 184
52 200
52 228
52 281
53 78
53 81
53 145
53 181
53 190
53 248
53 254
53 300
54 84
54 100
54 152
54 184
54 211
54 254
54 285
55 106
55 158
55 246
55 265
56 57
56 59
56 61
56 94
56 159
56 186
56 202
56 217
56 231
56 250
56 266
57 62
57 76
57 81
57 94
57 102
57 103
57 107
57 115
57 118
57 136
57 144
57 181
57 193
57 216
57 239
57 243
57 265
57 267
57 268
57 269
57 297
58 175
58 179
58 228
58 243
59 75
59 143
59 186
59 237
59 241
60 274
60 279
61 87
61 136
61 205
61 235
61 280
62 63
62 76
62 85
62 86
62 95
62 97
62 102
62 105
62 113
62 118
62 119
62 132
62 136
62 161
62 165
62 168
62 181
62 195
62 225
62 245
62 267
63 91
63 131
63 178
63 221
63 230
63 262
64 76
64 90
64 120
64 182
64 198
64 204
64 213
64 249
64 273
64 284
64 296
65 69
65 78
65 147
65 193
65 203
65 221
65 232
65 234
65 236
65 245
65 248
66 84
66 119
66 134
66 136
66 167
66 223
66 226
66 261
66 272
67 80
67 81
67 179
67 213
68 82
68 94
68 114
68 129
68 131
68 135
68 138
68 145
68 149
68 160
68 177
68 200
68 217
68 233
68 242
68 253
69 88
69 119
69 124
69 149
69 177
69 193
69 226
69 233
69 253
70 80
70 168
70 188
70 211
70 267
71 136
71 138
72 121
72 165
72 169
72 173
72 243
73 110
73 118
73 129
73 170
73 180
73 213
74 111
74 196
74 281
75 96
75 103
75 169
75 214
75 241
75 263
76 90
76 107
76 120
76 155
76 170
76 192
76 198
76 213
76 216
76 244
76 284
76 288
76 296
77 122
77 146
77 155
77 194
77 215
77 222
78 81
78 94
78 99
78 115
78 129
78 132
78 148
78 190
78 213
78 232
79 97
79 99
79 105
79 115
79 122
79 143
79 180
79 186
79 189
79 228
79 294
79 298
80 81
80 132
80 179
80 211
81 95
81 109
81 145
81 164
81 179
81 181
81 201
81 239
81 254
81 295
82 123
82 153
82 182
82 205
82 220
82 253
83 142
83 250
84 90
84 105
84 122
84 126
84 134
84 137
84 209
84 262
84 275
84 287
85 93
85 95
85 118
85 146
85 155
85 161
85 177
85 178
85 190
85 221
85 239
85 245
85 286
86 171
86 225
87 130
87 205
87 228
87 274
88 95
88 124
88 148
88 168
88 219
88 242
88 252
88 276
88 279
89 106
89 115
89 132
89 144
89 161
89 190
89 197
89 210
89 233
89 245
89 258
89 272
89 295
90 100
90 122
90 127
90 134
90 136
90 184
90 275
90 280
90 288
91 101
91 121
91 167
91 221
92 97
92 118
92 180
92 221
92 239
92 277
92 298
93 125
93 128
93 145
93 146
93 166
93 186
93 250
93 268
93 290
93 293
94 115
94 117
94 119
94 133
94 136
94 138
94 140
94 144
94 238
94 243
94 257
94 272
94 297
95 107
95 118
95 119
95 123
95 135
95 140
95 141
95 164
95 179
95 183
95 228
96 103
96 168
96 169
96 200
96 252
96 254
96 270
97 144
97 147
97 150
97 153
97 165
97 171
97 205
97 225
97 244
97 298
98 125
98 138
98 145
98 152
98 174
98 211
98 255
98 257
98 282
98 296
99 115
99 122
99 143
99 182
99 186
99 218
99 228
99 240
99 243
100 123
100 126
100 136
100 159
100 161
100 183
100 249
101 126
101 221
101 248
102 136
102 152
102 168
102 252
102 264
103 105
103 169
103 180
103 188
103 208
103 216
103 217
103 239
104 126
104 143
104 175
104 180
104 185
104 212
104 239
105 147
105 153
105 216
105 220
105 262
105 269
105 271
106 121
106 158
106 162
106 245
106 276
106 286
106 288
106 290
107 119
107 133
107 139
107 154
107 193
107 198
107 229
107 230
107 260
107 284
107 288
107 297
108 156
108 232
108 255
108 291
109 111
109 134
109 145
109 167
110 123
110 129
110 159
110 224
110 279
111 128
111 157
111 196
111 243
111 281
111 295
112 144
112 194
112 196
112 239
112 253
112 265
113 119
113 120
113 137
113 139
113 147
113 196
113 207
113 267
114 226
114 239
114 261
115 140
115 142
115 146
115 158
115 171
115 185
115 232
115 244
115 272
115 300
116 121
116 125
116 142
116 152
116 169
116 189
116 204
116 217
116 259
117 138
117 223
118 119
118 129
118 136
118 141
118 157
118 160
118 179
118 221
118 230
118 244
118 248
119 133
119 139
119 154
119 229
119 257
119 267
120 137
120 207
120 244
120 287
121 146
121 169
122 146
122 155
122 166
122 199
122 221
122 235
122 260
122 280
123 127
123 135
123 136
123 147
123 164
123 183
123 189
123 193
123 205
123 234
123 279
123 300
124 172
124 189
124 206
124 281
125 138
125 152
125 189
125 208
125 213
125 247
125 257
125 293
126 127
126 134
126 159
127 134
127 166
127 200
127 290
127 300
128 157
128 178
128 184
128 186
128 195
128 290
129 180
129 184
129 296
130 147
130 228
130 278
131 135
131 247
131 262
132 195
132 211
132 264
133 139
133 219
133 224
133 260
133 280
134 145
134 157
134 159
134 165
134 288
135 200
135 221
135 230
135 253
135 266
135 279
135 300
136 159
136 176
136 193
136 195
136 265
136 267
137 148
137 149
137 184
137 275
138 177
138 255
139 143
139 166
139 207
139 221
139 280
140 142
140 154
140 220
140 238
140 244
140 257
142 242
142 250
142 265
142 290
143 157
143 182
143 243
143 270
144 150
144 179
144 190
144 233
144 240
144 253
144 268
145 220
145 238
145 253
145 271
145 295
145 296
146 179
146 185
146 197
146 220
146 221
146 228
146 229
146 248
146 268
146 280
146 290
147 153
147 193
147 267
147 278
148 157
148 205
148 211
148 213
148 219
148 232
148 260
148 300
149 218
149 233
149 245
150 158
150 205
150 214
150 215
150 264
150 274
152 189
152 213
153 165
153 220
153 271
153 275
153 278
153 295
154 204
154 220
154 277
155 199
155 204
155 213
155 296
156 291
157 162
157 163
157 166
157 174
157 193
157 229
157 240
157 260
157 270
157 290
158 165
158 178
158 227
158 246
158 262
158 272
159 200
159 258
160 217
160 221
160 236
160 248
160 253
160 263
161 167
161 177
161 190
161 227
161 228
162 288
163 171
163 193
163 243
163 266
163 270
163 284
164 197
164 246
164 285
165 205
165 227
165 244
166 174
166 187
166 234
166 240
166 280
166 290
167 174
167 218
167 223
167 246
168 194
168 207
168 216
168 222
168 238
168 251
168 252
168 253
168 267
168 269
169 173
169 248
169 292
170 204
170 213
170 232
170 238
170 257
170 268
170 288
171 185
171 191
171 193
171 209
171 255
171 270
171 291
172 183
172 202
172 204
172 206
172 212
172 228
172 252
172 297
173 194
174 180
174 241
175 179
175 239
175 245
175 255
175 300
176 197
176 211
176 240
176 245
176 276
177 184
177 194
177 217
177 226
177 227
177 230
177 233
177 253
177 255
178 262
179 197
179 204
179 228
179 245
179 262
180 217
180 239
180 241
180 293
181 201
181 216
181 221
181 239
181 245
181 287
181 289
182 198
182 199
182 205
182 233
182 262
182 289
182 298
183 193
183 206
183 279
184 195
184 217
184 226
184 233
184 253
184 296
185 212
185 222
185 244
185 265
185 287
185 300
186 205
186 231
186 260
186 287
186 290
187 290
188 189
189 204
189 217
189 279
189 281
190 222
190 225
190 232
191 200
191 205
191 209
191 227
191 242
191 261
191 270
192 250
192 288
193 200
193 203
193 270
193 280
194 216
194 222
194 239
194 253
195 242
195 273
195 287
196 239
196 298
197 211
197 245
198 204
198 228
198 294
198 298
199 205
200 266
200 270
201 213
202 221
202 252
203 280
204 228
204 229
204 273
204 277
204 288
205 235
205 242
205 274
205 287
205 300
206 226
206 252
207 267
207 274
207 291
208 217
208 247
208 259
208 284
209 250
209 259
209 270
209 275
209 277
209 290
209 296
211 233
211 245
212 252
213 260
213 288
214 261
214 263
214 277
215 247
215 264
215 265
215 299
216 217
216 236
216 269
217 250
217 253
217 259
217 290
217 299
218 223
219 224
219 242
219 253
220 244
220 248
220 295
221 230
221 248
221 252
221 253
222 232
222 265
224 279
226 230
226 276
227 236
227 242
229 246
229 273
229 291
230 255
230 260
230 276
231 242
231 287
233 240
233 242
233 245
233 253
233 279
233 298
234 240
234 248
234 264
234 279
234 280
235 242
235 253
235 269
236 263
236 269
237 269
238 257
238 296
239 245
239 287
239 293
239 300
240 298
242 253
242 287
242 300
244 265
245 253
245 258
245 276
245 279
247 284
247 299
248 254
248 292
249 273
249 282
250 271
250 290
251 252
252 259
252 297
252 299
253 298
255 291
255 300
256 274
256 282
259 287
259 296
259 299
260 270
260 280
261 270
261 277
262 289
262 298
263 272
265 275
265 287
265 299
267 279
267 291
270 277
270 290
271 299
273 300
274 291
275 299
277 298
279 281
283 293
284 288
288 296
291 300
294 298
*Classes
1
1
1
1
1
1
1
1
1
1
1
1
1
1
1
1
1
1
1
1
1
1
1
1
1
1
1
1
1
1
1
1
1
1
1
1
1
1
1
1
1
1
1
1
1
1
1
1
1
1
1
1
1
1
1
1
1
1
1
1
1
1
1
1
1
1
1
1
1
1
1
1
1
1
1
1
1
1
1
1
1
1
1
1
1
1
1
1
1
1
1
1
1
1
1
1
1
1
1
1
1
1
1
1
1
1
1
1
1
1
1
1
1
1
1
1
1
1
1
1
1
1
1
1
1
1
1
1
1
1
1
1
1
1
1
1
1
1
1
1
1
1
1
1
1
1
1
1
1
1
2
2
2
2
2
2
2
2
2
2
2
2
2
2
2
2
2
2
2
2
2
2
2
2
2
2
2
2
2
2
2
2
2
2
2
2
2
2
2
2
2
2
2
2
2
2
2
2
2
2
2
2
2
2
2
2
2
2
2
2
2
2
2
2
2
2
2
2
2
2
2
2
2
2
2
2
2
2
2
2
2
2
2
2
2
2
2
2
2
2
2
2
2
2
2
2
2
2
2
2
2
2
2
2
2
2
2
2
2
2
2
2
2
2
2
2
2
2
2
2
2
2
2
2
2
2
2
2
2
2
2
2
2
2
2
2
2
2
2
2
2
2
2
2
2
2
2
2
2
2
