*Vertices 300
*Edges
1 9
1 14
1 33
1 100
1 136
1 137
1 214
1 249
1 258
1 263
1 297
2 42
2 44
2 92
2 250
2 283
3 143
3 157
3 231
4 9
4 40
4 80
4 90
4 116
4 170
5 128
5 158
5 197
5 226
5 252
5 259
6 10
6 17
6 54
6 78
6 100
6 165
6 167
6 220
6 252
6 279
6 281
7 22
7 30
7 59
7 67
7 192
7 226
7 255
7 288
8 17
8 103
8 116
8 138
9 82
9 90
9 97
9 104
9 129
9 136
9 141
9 177
9 224
9 296
10 26
10 86
10 91
10 99
10 100
10 106
10 107
10 136
10 154
10 227
10 258
10 259
10 279
11 89
11 93
11 133
11 134
11 251
11 264
11 267
12 134
12 147
12 150
12 175
12 235
12 247
12 253
12 285
13 38
13 55
13 108
13 116
13 128
13 176
13 275
14 37
14 43
14 53
14 63
14 95
14 105
14 114
14 120
14 145
14 210
14 212
14 263
14 268
14 300
15 34
15 60
15 65
15 89
15 98
15 114
15 133
15 201
15 209
15 219
15 267
15 294
15 297
16 17
16 44
16 56
16 94
16 103
16 111
16 137
16 144
16 196
16 217
16 234
16 240
16 270
17 24
17 41
17 51
17 59
17 60
17 62
17 78
17 94
17 98
17 103
17 116
17 137
17 202
17 234
17 279
18 45
18 46
18 90
18 96
18 116
18 137
18 191
18 216
18 242
19 57
19 76
19 100
19 104
19 108
19 116
19 133
19 199
19 208
19 211
19 299
20 43
20 76
20 148
20 169
20 242
20 275
21 49
21 59
21 148
21 155
21 171
21 187
21 202
22 45
22 54
22 59
22 62
22 67
22 137
22 228
22 269
22 273
22 276
23 75
23 131
23 146
23 159
23 246
23 251
23 291
24 29
24 144
24 145
24 184
24 192
24 202
24 210
24 218
24 221
24 283
25 37
25 115
25 193
25 239
25 253
25 255
26 31
26 71
26 73
26 90
26 91
26 242
27 37
27 47
27 71
27 77
27 130
27 139
27 188
28 103
28 126
28 255
29 50
29 69
29 98
29 117
29 122
29 126
29 158
29 181
29 218
29 223
29 225
29 238
29 293
30 39
30 41
30 51
30 67
30 131
30 262
30 284
31 71
31 94
31 99
31 156
31 164
31 182
31 272
32 101
32 148
32 285
33 124
33 130
33 147
33 297
34 89
34 114
34 164
34 212
34 225
34 287
35 111
35 155
35 199
35 235
35 247
36 41
36 171
36 229
36 231
36 264
37 39
37 43
37 145
37 188
37 255
37 273
38 108
38 274
39 43
39 50
39 117
39 131
39 170
39 183
39 199
39 207
39 209
39 236
39 241
39 267
39 269
39 279
39 280
39 299
39 300
40 80
40 97
40 145
40 256
41 44
41 51
41 52
41 64
41 68
41 70
41 152
41 172
41 179
41 252
41 277
41 279
42 44
42 65
42 77
42 127
42 169
42 242
42 297
43 64
43 71
43 75
43 91
43 119
43 130
43 139
43 148
43 149
43 152
43 156
43 173
43 202
43 209
43 233
43 269
44 45
44 52
44 56
44 68
44 80
44 87
44 137
44 143
44 161
44 172
44 263
44 267
44 283
45 46
45 50
45 56
45 62
45 90
45 136
45 137
45 170
45 179
45 290
46 58
46 79
46 148
46 163
46 179
46 195
46 217
46 296
47 51
47 291
48 57
48 119
48 172
48 185
48 215
48 251
49 69
49 120
49 122
49 188
49 212
49 261
50 69
50 105
50 151
50 168
50 170
50 171
50 261
50 292
51 70
51 78
51 137
51 279
51 291
52 140
52 143
52 252
52 263
52 291
53 95
53 122
53 125
53 153
53 180
53 186
53 213
53 285
53 293
54 62
54 78
54 137
54 176
54 182
54 289
55 99
55 108
55 109
55 153
55 231
55 240
55 269
56 87
56 140
56 218
56 249
57 61
57 88
57 104
57 119
57 200
57 240
57 258
58 59
58 79
58 85
58 97
58 148
58 249
58 277
58 296
59 62
59 65
59 111
59 127
59 137
59 148
59 171
59 176
59 201
59 224
59 260
59 272
59 273
60 97
60 112
60 114
60 130
60 139
60 209
60 234
60 242
60 275
60 287
61 119
61 253
62 136
62 137
62 213
62 248
62 284
63 114
63 173
63 185
63 277
64 152
64 186
64 298
65 120
65 122
65 127
65 130
65 139
65 140
65 186
65 199
65 270
66 67
66 158
66 183
66 191
66 200
66 246
66 274
66 276
67 94
67 138
67 219
67 246
67 289
68 71
68 80
68 86
68 172
68 176
68 198
68 296
69 124
69 171
69 187
69 188
69 226
69 252
69 257
69 276
69 287
70 71
70 122
70 190
70 193
70 211
70 216
71 91
71 104
71 130
71 139
71 191
71 211
71 218
71 250
72 155
72 185
72 233
73 91
73 109
73 205
73 212
74 81
74 119
74 173
74 267
75 131
75 132
75 157
75 173
75 208
75 209
75 246
75 264
76 89
76 100
76 133
76 149
76 169
76 189
76 199
76 203
76 239
77 86
77 100
77 135
77 139
77 142
77 182
77 274
77 290
78 164
78 167
78 168
78 179
78 212
79 101
79 148
79 161
79 166
79 178
79 206
80 111
80 143
80 155
80 256
80 289
80 296
81 130
81 139
81 153
82 89
82 97
82 141
82 142
82 224
82 254
83 129
83 136
83 138
83 177
84 86
84 106
84 155
84 189
84 249
84 256
84 287
84 296
85 121
85 222
86 100
86 155
86 183
86 210
86 266
86 290
86 296
87 179
87 239
88 240
88 273
89 133
89 141
89 196
89 201
89 241
90 96
90 108
90 116
90 128
90 174
90 242
90 250
90 266
90 279
91 99
91 106
91 136
91 149
93 110
93 128
93 133
93 158
93 164
93 174
93 234
94 102
94 138
94 144
94 182
94 201
94 247
95 120
95 122
95 169
95 180
95 214
96 128
96 207
96 233
97 130
97 136
97 139
97 145
97 199
97 232
97 296
98 117
98 126
98 137
98 169
98 209
98 265
98 288
99 101
99 109
99 129
99 136
100 136
100 137
100 149
100 172
100 185
100 191
100 224
101 148
101 155
101 175
102 144
102 177
102 277
102 292
102 298
103 157
103 186
103 189
103 213
104 128
104 144
104 171
104 177
104 187
104 221
104 230
104 298
105 130
105 170
105 192
105 200
105 238
105 298
105 299
106 115
106 135
106 154
106 171
106 172
106 174
106 239
106 273
106 281
107 178
107 200
107 260
107 267
107 294
108 116
108 241
108 272
108 299
109 131
109 156
109 178
109 194
109 196
109 205
109 225
109 247
110 128
110 268
111 199
111 240
111 262
111 264
112 115
112 159
112 161
112 185
112 251
112 275
113 141
113 229
113 254
114 185
114 186
114 263
114 268
114 287
115 176
115 180
115 181
115 190
115 193
115 216
116 137
116 149
116 217
116 279
117 122
117 141
117 236
117 241
117 251
117 293
118 130
118 148
118 150
118 160
118 264
118 290
119 149
119 151
119 173
119 220
119 232
119 259
119 287
120 122
120 177
120 212
120 215
120 217
120 251
121 286
122 159
122 161
122 172
122 212
122 225
123 152
123 185
123 191
123 241
123 271
123 287
124 130
124 171
124 188
124 219
124 234
124 262
124 297
126 172
126 198
126 199
126 286
127 140
127 270
128 171
128 173
128 275
129 136
129 152
129 189
129 222
129 239
130 139
130 150
130 157
130 162
130 170
130 171
130 191
130 272
130 290
131 208
131 246
131 247
131 255
131 283
131 284
131 289
132 157
132 198
132 208
132 231
132 243
133 174
133 181
133 258
133 268
134 237
135 193
135 265
135 291
136 137
136 172
136 222
136 225
136 237
136 258
136 263
137 148
137 159
137 198
137 258
137 271
137 276
137 298
138 156
138 168
138 177
138 194
138 246
138 295
139 149
139 150
139 164
139 186
139 191
139 216
139 218
139 270
139 278
140 213
140 246
140 263
140 294
141 142
141 161
141 190
141 215
141 229
141 251
141 299
143 169
143 263
143 296
144 145
144 170
144 192
144 221
144 243
144 247
144 250
145 170
145 232
146 151
146 166
146 168
146 174
146 204
146 224
146 261
147 223
147 253
147 256
147 258
147 261
147 267
148 156
148 264
148 272
148 282
149 186
149 189
149 217
149 259
151 168
151 174
151 175
151 182
151 187
151 232
151 246
151 261
151 283
151 286
151 289
151 299
152 167
152 189
152 202
152 220
152 235
152 249
152 256
152 277
152 280
152 299
153 236
153 241
153 269
153 295
154 161
154 162
154 189
154 196
154 202
154 208
154 213
154 220
154 226
154 272
154 284
154 286
154 294
155 199
155 207
155 296
156 186
156 208
156 264
156 272
156 292
156 295
156 300
157 172
157 198
157 213
157 297
158 162
158 210
158 223
158 232
159 162
159 180
159 185
159 251
159 298
160 164
160 189
160 274
160 290
160 291
161 220
162 188
162 189
162 195
162 208
162 226
162 229
162 232
162 251
162 278
163 195
163 206
163 233
163 271
163 284
163 285
164 191
164 218
164 274
165 166
165 195
165 279
165 284
166 174
166 178
166 213
166 246
166 284
166 285
167 172
167 176
167 177
167 198
167 202
167 235
167 256
167 260
167 275
167 281
168 200
168 292
169 170
169 178
169 211
169 242
169 252
169 256
169 266
170 242
170 256
171 222
171 231
171 239
171 245
171 267
171 276
172 185
172 190
172 198
172 225
172 238
172 240
172 273
172 277
172 299
173 182
173 209
173 234
173 244
173 260
173 275
173 277
173 295
174 221
174 228
174 253
174 258
174 262
174 279
175 178
175 246
175 256
175 271
175 289
176 181
176 254
176 260
176 261
176 275
176 296
177 178
177 206
177 235
177 281
178 188
178 206
178 256
178 295
179 282
180 212
180 243
180 245
180 269
180 284
180 298
182 249
182 260
182 275
182 289
182 295
182 299
183 185
183 191
183 219
183 233
183 237
183 271
183 274
183 293
184 249
184 277
185 191
185 202
185 215
185 227
185 233
185 240
185 248
185 271
186 188
186 189
186 283
186 295
187 201
187 221
187 228
187 230
187 255
187 283
187 289
188 189
188 195
188 213
188 219
188 226
188 261
188 278
188 293
188 295
189 254
189 274
189 283
189 293
189 295
190 200
190 208
190 216
190 229
190 289
190 299
191 215
191 216
191 227
191 229
191 233
191 271
191 285
191 293
191 299
192 221
192 246
192 251
192 257
192 264
192 292
193 239
194 200
195 219
195 268
195 271
195 284
195 295
196 205
196 210
196 214
196 217
196 230
196 284
197 204
198 212
198 227
198 229
198 235
198 271
198 277
198 284
198 285
199 210
199 214
199 272
199 298
200 280
200 292
200 294
200 299
201 224
201 283
202 220
202 227
202 233
202 249
204 224
204 239
204 242
204 245
204 266
205 210
205 214
205 225
205 281
206 216
206 225
206 263
206 271
206 295
207 296
208 243
208 245
208 272
208 280
208 286
208 289
208 299
209 234
209 264
209 269
209 277
209 290
210 283
210 300
211 216
211 252
212 217
212 246
212 270
212 284
212 299
213 217
213 220
213 260
213 284
213 294
214 221
214 225
214 228
214 243
214 249
214 283
214 298
215 248
215 251
215 274
216 225
216 229
216 263
216 273
217 230
217 233
217 246
217 279
217 284
217 299
218 231
218 240
218 243
218 273
218 278
218 281
219 293
219 295
219 297
220 246
220 287
221 228
221 262
222 227
222 229
222 231
222 236
223 232
223 245
223 253
223 261
224 262
225 238
225 263
225 299
226 252
226 276
227 229
227 233
227 285
228 266
228 283
229 238
229 251
229 273
231 236
232 237
232 254
232 279
233 285
233 286
233 299
236 241
236 250
237 250
237 279
237 293
238 240
238 263
238 273
240 270
240 273
240 277
240 299
242 266
243 269
243 279
243 281
244 275
245 276
245 286
246 257
246 274
246 284
246 285
246 289
247 283
247 285
248 265
249 256
249 268
249 277
249 289
250 279
252 276
253 255
254 259
254 260
254 271
254 274
254 294
255 283
256 267
256 295
256 296
258 259
258 260
258 267
259 260
259 272
259 280
260 261
260 271
260 272
260 275
260 280
260 294
260 298
260 299
261 283
261 286
261 299
264 292
264 295
267 276
267 285
267 294
269 279
269 281
269 300
270 284
271 290
271 298
273 299
274 290
274 291
274 293
275 287
275 294
275 295
276 287
277 299
280 286
280 299
283 289
284 285
284 289
286 289
286 299
289 299
290 298
*Classes
1
1
1
1
1
1
1
1
1
1
1
1
1
1
1
1
1
1
1
1
1
1
1
1
1
1
1
1
1
1
1
1
1
1
1
1
1
1
1
1
1
1
1
1
1
1
1
1
1
1
1
1
1
1
1
1
1
1
1
1
1
1
1
1
1
1
1
1
1
1
1
1
1
1
1
1
1
1
1
1
1
1
1
1
1
1
1
1
1
1
1
1
1
1
1
1
1
1
1
1
1
1
1
1
1
1
1
1
1
1
1
1
1
1
1
1
1
1
1
1
1
1
1
1
1
1
1
1
1
1
1
1
1
1
1
1
1
1
1
1
1
1
1
1
1
1
1
1
1
1
2
2
2
2
2
2
2
2
2
2
2
2
2
2
2
2
2
2
2
2
2
2
2
2
2
2
2
2
2
2
2
2
2
2
2
2
2
2
2
2
2
2
2
2
2
2
2
2
2
2
2
2
2
2
2
2
2
2
2
2
2
2
2
2
2
2
2
2
2
2
2
2
2
2
2
2
2
2
2
2
2
2
2
2
2
2
2
2
2
2
2
2
2
2
2
2
2
2
2
2
2
2
2
2
2
2
2
2
2
2
2
2
2
2
2
2
2
2
2
2
2
2
2
2
2
2
2
2
2
2
2
2
2
2
2
2
2
2
2
2
2
2
2
2
2
2
2
2
2
2
