*Vertices 300
*Edges
1 80
1 171
1 186
1 193
1 287
2 56
2 86
2 103
2 153
2 159
2 172
2 207
2 252
2 257
3 19
3 20
3 35
3 64
3 121
3 193
3 223
3 290
4 60
4 61
4 76
4 83
4 85
4 93
4 112
4 113
4 122
4 127
4 152
4 184
5 11
5 35
5 82
5 84
5 170
6 61
6 116
6 150
6 169
6 186
6 249
7 136
7 235
7 249
7 290
8 18
8 116
8 125
8 142
8 150
8 187
9 48
9 273
10 12
10 174
11 35
11 172
11 211
12 34
12 182
13 31
13 35
13 47
13 73
13 77
13 92
13 102
13 109
13 189
13 190
13 281
14 36
14 144
14 245
14 257
14 283
15 57
15 64
15 66
15 87
15 89
15 120
15 139
15 168
15 175
15 187
15 209
15 210
15 240
16 35
16 39
16 53
16 81
16 89
16 133
16 138
16 180
17 53
17 74
17 98
17 101
17 112
17 119
17 130
17 140
17 141
17 180
17 188
17 210
17 235
17 244
18 30
18 40
18 149
18 150
18 161
18 166
18 236
18 248
18 267
18 298
19 47
19 122
19 129
19 134
19 137
19 145
19 253
19 290
19 300
20 26
20 31
20 35
20 73
20 84
20 129
20 139
20 220
20 251
21 54
21 96
21 111
21 134
21 290
22 71
22 173
22 276
22 284
23 78
23 83
23 112
23 133
23 154
23 282
24 103
24 104
24 143
24 178
25 80
25 110
25 111
25 162
25 279
26 34
26 94
26 107
26 108
26 129
26 255
27 124
27 147
27 148
27 166
27 174
27 235
27 293
28 48
28 192
28 204
28 214
29 35
29 174
29 191
29 270
29 275
30 150
30 277
31 42
31 62
31 73
31 113
31 141
32 52
32 59
32 72
32 102
32 114
32 176
32 179
32 222
32 252
32 274
32 291
33 105
33 113
33 258
33 279
34 145
34 186
34 237
35 47
35 60
35 64
35 84
35 88
35 89
35 108
35 117
35 270
36 89
36 184
36 219
36 259
37 51
37 98
37 133
37 173
37 287
38 68
38 103
38 143
38 253
39 270
39 271
39 272
40 92
40 133
40 150
40 151
40 281
40 282
41 45
41 147
41 247
42 62
42 84
42 92
42 95
42 117
42 126
42 169
42 287
43 66
43 81
43 138
43 204
43 219
43 231
43 284
44 135
44 266
45 50
45 104
45 147
45 173
45 207
46 209
46 214
46 291
47 55
47 56
47 60
47 68
47 73
47 89
47 92
47 253
48 85
48 127
48 143
48 192
48 199
48 235
48 280
49 231
49 239
49 257
49 292
50 77
50 83
50 189
50 262
51 60
51 85
51 98
51 115
51 146
51 148
51 254
52 59
52 114
52 155
52 179
52 225
52 232
53 74
53 89
53 119
53 130
53 133
53 252
53 271
54 83
54 134
54 162
54 168
54 190
54 223
54 248
55 66
55 68
55 75
55 83
55 85
55 101
55 163
55 192
55 210
55 242
55 259
56 68
56 168
56 207
56 243
57 64
57 155
57 195
57 268
57 300
58 106
58 159
58 168
58 200
58 212
59 193
59 244
60 83
60 122
60 139
60 150
60 183
60 219
61 127
61 143
61 169
61 193
61 218
61 265
61 297
62 93
62 159
62 186
63 71
63 89
63 134
63 146
63 171
63 184
63 241
63 248
63 259
63 277
63 300
64 89
64 108
64 114
64 208
64 281
65 118
65 143
65 181
65 187
65 199
65 205
65 215
65 261
65 275
65 287
66 88
66 120
66 146
66 168
66 189
66 210
66 248
66 295
67 93
67 96
67 162
67 168
67 241
67 293
68 77
68 85
68 100
68 103
68 127
68 157
68 174
68 181
68 197
69 100
69 152
69 159
69 231
70 88
70 194
70 264
70 294
71 87
71 95
71 109
71 129
71 138
71 146
71 204
71 239
71 289
73 77
73 113
73 286
74 97
74 98
74 130
74 195
74 206
74 230
75 169
75 210
76 100
76 122
76 208
76 241
76 271
77 84
77 85
77 103
77 133
77 157
77 174
77 264
77 300
78 100
78 108
78 112
78 114
78 140
78 143
78 154
78 223
79 117
79 149
79 157
80 110
80 111
80 122
80 132
81 133
81 138
81 192
81 227
81 294
82 152
82 240
82 251
82 252
83 113
83 127
83 173
83 178
83 192
83 197
83 211
83 242
83 275
84 89
84 92
84 117
84 127
84 157
84 196
84 254
84 264
85 115
85 127
85 226
85 233
85 296
86 96
86 103
86 168
87 91
87 95
87 111
87 129
87 149
87 204
88 90
88 120
88 210
88 224
88 263
88 281
88 286
89 147
89 184
90 97
90 137
90 145
90 150
90 286
91 95
91 209
92 114
92 220
92 226
92 262
92 286
93 113
93 186
93 240
93 300
94 101
94 129
94 130
94 137
94 141
94 145
94 233
95 109
95 128
95 203
95 209
96 111
96 123
96 168
96 283
97 99
98 119
98 123
98 144
98 208
98 210
98 262
98 284
98 287
99 158
99 165
99 175
99 177
99 263
99 285
100 143
100 181
100 187
100 211
100 246
101 127
101 141
101 235
101 254
102 109
102 192
102 197
102 199
102 251
102 258
102 274
102 275
102 289
103 130
103 235
103 253
104 110
104 143
104 154
104 240
105 106
105 157
105 288
106 205
106 228
106 258
106 288
107 190
107 191
107 240
108 114
108 144
108 174
108 179
108 200
108 221
108 249
108 270
108 284
109 161
109 216
109 251
109 294
109 296
110 257
111 129
111 219
111 241
111 250
111 264
112 220
112 235
112 257
112 268
113 223
113 246
114 140
114 162
114 262
115 127
115 146
115 147
115 173
115 186
115 224
115 247
116 150
116 154
116 171
116 263
116 277
116 285
117 123
117 126
117 127
117 209
117 222
117 245
117 285
118 119
118 131
118 188
118 217
118 275
119 131
119 167
119 181
119 224
119 240
119 286
119 294
119 299
120 141
120 175
120 218
120 224
120 267
121 172
121 215
121 270
122 132
122 154
122 267
123 195
123 262
123 298
124 147
124 163
124 226
124 229
124 232
124 246
124 256
124 265
125 259
126 190
126 277
127 166
127 222
127 270
128 216
129 139
129 141
129 239
129 243
129 253
129 266
129 275
130 137
130 165
130 167
130 179
130 188
130 216
130 289
131 138
131 288
132 152
132 207
132 263
133 226
133 282
134 167
134 172
134 241
134 274
134 289
135 178
136 164
136 221
137 145
138 277
139 150
139 171
139 257
139 268
139 272
139 290
139 300
140 180
141 177
141 183
141 202
141 247
142 150
142 156
142 249
143 151
143 152
143 159
143 199
143 271
143 280
144 208
144 257
145 150
145 206
146 213
146 244
146 271
147 184
147 196
147 229
149 161
149 204
150 272
150 300
151 175
151 179
151 190
151 206
151 247
151 273
152 159
152 201
152 240
152 279
153 184
153 218
154 171
154 173
154 177
154 204
154 210
154 212
154 233
154 274
154 292
155 228
155 233
156 218
156 297
157 231
157 266
157 300
158 226
158 273
158 276
159 160
159 201
159 240
159 265
159 280
160 168
160 191
160 280
161 259
162 223
162 272
162 279
163 181
163 187
163 206
163 246
164 172
164 194
164 201
165 168
165 241
165 248
165 284
166 171
166 174
166 196
166 216
166 223
166 227
166 241
166 250
166 261
166 280
166 284
166 298
167 168
167 172
167 179
167 185
167 209
167 222
167 237
167 273
168 182
168 185
168 200
168 226
168 237
168 248
168 297
169 223
169 226
169 253
170 192
170 248
170 259
171 196
171 224
172 194
172 209
172 215
172 234
172 294
173 183
173 195
173 240
173 255
174 191
175 241
175 250
175 261
175 273
176 213
176 261
176 262
176 264
176 269
176 283
176 284
176 291
177 184
177 194
177 199
177 210
177 213
177 219
177 233
177 251
177 274
177 283
177 288
177 299
178 188
178 235
178 245
179 195
179 205
179 208
179 215
179 219
179 221
179 258
179 272
179 273
179 274
179 292
179 294
180 216
180 298
181 187
181 225
181 247
181 264
181 275
181 287
181 298
182 191
182 227
183 255
183 258
184 238
185 234
186 200
186 201
186 249
187 219
187 251
187 287
188 207
188 215
189 262
190 198
190 232
190 270
190 273
190 283
191 227
191 280
191 281
191 290
191 298
192 239
192 275
193 233
193 265
194 208
194 209
194 220
194 234
194 240
194 283
194 294
195 294
196 216
196 255
197 201
197 286
197 296
198 237
198 270
198 273
198 283
199 211
199 238
199 288
200 201
201 244
201 246
201 262
201 286
202 267
203 206
203 220
203 249
203 285
203 286
203 291
204 247
204 287
205 266
206 247
206 285
207 215
207 248
207 257
207 283
207 292
208 249
208 294
209 222
210 233
210 240
210 274
210 283
212 249
212 263
212 292
213 261
213 262
213 275
213 283
213 291
214 242
214 298
215 219
215 233
215 248
216 239
216 242
216 251
216 253
216 256
216 265
217 270
217 286
218 238
218 256
218 275
218 286
219 233
219 251
219 258
219 259
219 288
219 292
220 224
220 257
220 266
220 291
221 255
221 294
222 237
222 252
223 226
223 239
223 272
223 280
223 282
224 240
224 257
224 283
224 289
225 287
226 233
226 245
226 253
226 276
226 284
226 286
226 297
227 280
227 281
227 282
227 288
228 233
231 242
233 288
234 267
235 263
235 267
237 297
239 243
239 253
240 252
240 255
241 261
241 276
241 284
242 259
244 246
245 247
245 276
245 287
246 275
247 256
247 260
247 264
247 281
247 287
248 259
248 285
249 263
251 256
251 258
251 259
251 265
252 255
253 272
253 276
253 289
254 300
256 265
256 269
256 275
256 281
256 284
256 287
257 283
257 289
257 290
258 289
259 285
261 283
261 284
261 294
261 298
263 285
264 269
264 284
265 280
266 291
268 295
269 284
270 272
270 282
270 300
272 282
272 289
272 294
273 289
274 299
276 284
277 281
279 295
280 282
286 291
287 298
*Classes
1
1
1
1
1
1
1
1
1
1
1
1
1
1
1
1
1
1
1
1
1
1
1
1
1
1
1
1
1
1
1
1
1
1
1
1
1
1
1
1
1
1
1
1
1
1
1
1
1
1
1
1
1
1
1
1
1
1
1
1
1
1
1
1
1
1
1
1
1
1
1
1
1
1
1
1
1
1
1
1
1
1
1
1
1
1
1
1
1
1
1
1
1
1
1
1
1
1
1
1
1
1
1
1
1
1
1
1
1
1
1
1
1
1
1
1
1
1
1
1
1
1
1
1
1
1
1
1
1
1
1
1
1
1
1
1
1
1
1
1
1
1
1
1
1
1
1
1
1
1
2
2
2
2
2
2
2
2
2
2
2
2
2
2
2
2
2
2
2
2
2
2
2
2
2
2
2
2
2
2
2
2
2
2
2
2
2
2
2
2
2
2
2
2
2
2
2
2
2
2
2
2
2
2
2
2
2
2
2
2
2
2
2
2
2
2
2
2
2
2
2
2
2
2
2
2
2
2
2
2
2
2
2
2
2
2
2
2
2
2
2
2
2
2
2
2
2
2
2
2
2
2
2
2
2
2
2
2
2
2
2
2
2
2
2
2
2
2
2
2
2
2
2
2
2
2
2
2
2
2
2
2
2
2
2
2
2
2
2
2
2
2
2
2
2
2
2
2
2
2
