*Vertices 300
*Edges
1 22
1 34
1 78
1 104
1 105
1 124
1 150
1 263
2 33
2 35
2 74
2 79
3 32
3 117
3 118
3 126
3 148
3 155
4 29
4 103
4 119
4 213
4 225
4 230
5 76
5 121
5 206
6 25
6 68
6 137
6 161
6 165
6 212
6 223
6 226
6 269
7 27
7 36
7 38
7 49
7 62
7 119
7 120
7 170
7 209
7 238
7 241
7 271
7 272
7 292
8 34
8 86
8 89
8 104
8 109
8 121
8 166
8 195
8 196
8 201
8 224
8 238
8 281
9 82
9 101
9 232
9 275
10 33
10 34
10 56
10 63
10 71
10 89
10 129
10 143
10 230
10 251
10 258
10 286
11 31
11 79
11 86
11 104
11 108
11 117
11 123
11 227
11 234
11 256
11 261
11 279
11 293
12 18
12 30
12 46
12 132
12 235
12 244
13 30
13 62
13 82
13 95
13 119
13 140
13 142
13 174
13 179
13 233
13 246
13 261
13 282
14 26
14 57
14 149
14 288
14 289
15 47
15 51
15 67
15 102
15 113
15 191
15 237
15 250
16 100
16 223
16 286
17 23
17 45
17 79
17 90
17 226
17 288
18 52
18 167
18 208
18 235
18 263
18 265
18 292
19 238
20 56
20 62
20 90
20 105
20 183
20 197
20 202
20 272
20 276
21 86
21 108
21 122
21 144
22 61
22 66
22 80
22 113
22 150
22 164
22 238
22 256
22 264
22 271
22 291
23 45
23 194
24 34
24 40
24 51
24 103
24 195
24 208
24 270
25 59
25 64
25 75
25 132
25 158
25 185
25 205
25 223
26 57
26 113
26 151
26 164
26 176
27 57
27 119
27 128
27 191
27 206
27 236
27 242
27 244
27 253
27 268
27 272
28 65
28 117
28 128
28 193
28 238
28 249
28 277
28 280
29 76
29 103
29 111
29 124
29 148
29 160
29 186
30 71
30 132
30 140
30 181
30 192
30 248
31 76
31 79
31 104
31 111
31 122
31 127
31 191
31 267
32 51
32 126
32 175
32 213
32 265
32 275
33 55
33 114
33 165
33 195
33 199
33 258
33 285
34 54
34 56
34 68
34 78
34 104
34 111
34 124
34 143
34 147
34 155
34 179
34 219
34 230
34 255
34 256
34 259
34 286
34 289
35 68
35 160
35 250
35 253
35 263
36 70
36 120
36 204
36 214
37 45
37 46
37 104
37 119
37 131
37 209
37 273
38 62
38 113
38 119
38 253
38 271
38 278
39 169
39 252
39 277
40 69
40 78
40 90
40 102
40 103
40 104
40 252
40 269
41 186
41 199
41 210
41 221
42 51
42 64
42 101
42 107
42 220
43 50
43 178
43 221
43 232
43 233
44 73
44 76
44 89
44 102
44 109
44 111
44 128
44 131
44 136
44 170
44 218
45 46
45 54
45 59
45 171
45 182
45 206
46 59
46 143
46 244
46 295
47 191
47 234
47 271
47 275
49 170
49 171
50 72
50 73
50 168
50 179
50 258
50 286
51 147
51 164
51 175
51 184
51 191
51 195
51 223
51 264
51 269
51 270
51 273
53 68
53 76
53 79
53 111
53 122
53 170
53 184
53 189
54 93
54 100
54 127
54 204
54 219
55 88
55 145
55 175
55 179
56 106
56 144
56 272
56 290
57 60
57 113
57 131
57 153
57 178
57 218
57 268
57 289
57 296
58 95
58 106
58 144
58 169
58 186
58 262
59 64
59 199
59 244
59 246
60 81
60 86
60 91
60 92
60 113
60 130
60 167
60 171
60 184
60 206
60 214
60 239
60 256
60 266
61 67
61 89
61 113
61 130
61 145
61 162
61 173
61 181
61 199
61 217
62 65
62 102
62 119
62 142
62 147
62 219
62 240
62 292
63 115
63 193
63 230
63 237
63 295
64 101
64 133
64 190
64 253
65 119
65 152
65 221
65 233
65 266
66 108
66 122
66 255
67 80
67 103
67 113
67 143
67 150
67 167
67 252
67 297
68 91
68 104
68 119
68 124
68 132
68 171
68 172
68 189
68 216
68 223
68 263
68 269
69 108
69 252
69 281
70 82
70 91
70 146
70 147
70 188
70 292
71 181
71 193
71 248
71 261
72 270
72 271
73 135
73 156
73 193
73 201
74 79
74 118
74 168
74 239
75 88
75 103
75 133
75 159
75 185
75 206
75 243
75 282
75 294
76 111
76 122
76 167
76 284
77 92
77 155
77 163
77 202
77 250
77 268
78 92
78 101
78 124
78 234
78 256
78 269
79 129
79 147
79 155
79 207
79 239
79 272
79 279
79 293
79 294
80 113
80 147
80 150
80 250
80 277
81 92
81 95
81 109
81 129
81 234
81 239
82 91
82 121
82 189
82 230
82 282
82 296
83 87
83 142
83 153
83 164
83 174
84 92
84 102
84 154
84 179
84 181
84 199
84 234
85 148
85 156
85 273
86 91
86 100
86 104
86 109
86 112
86 121
86 122
86 136
86 140
86 192
86 224
86 256
87 145
88 103
88 111
88 115
88 126
88 133
88 145
88 158
88 212
88 214
88 216
88 249
89 103
89 121
89 129
89 136
89 185
89 190
89 217
89 224
89 241
90 123
90 163
90 169
90 193
90 202
90 222
90 274
90 282
90 297
91 100
91 121
91 132
91 194
91 230
92 109
92 234
93 190
93 214
93 242
93 254
93 280
93 294
94 114
94 131
94 167
94 230
94 247
95 206
95 233
95 282
96 103
96 117
96 152
96 188
96 199
96 251
96 296
97 111
97 261
98 171
98 230
98 248
98 252
98 260
99 126
99 161
99 204
99 226
99 300
100 121
100 190
100 204
100 207
100 221
100 286
101 107
101 178
101 189
101 195
101 210
101 232
101 234
101 270
101 289
102 103
102 128
102 136
102 147
102 191
102 287
103 119
103 133
103 245
103 247
103 287
103 296
104 111
104 112
104 119
104 123
104 163
104 179
104 210
104 217
104 224
105 131
105 164
105 168
105 178
105 182
105 183
105 238
105 250
105 255
106 144
106 267
106 300
107 118
107 187
107 274
107 297
108 122
108 123
108 126
108 131
108 156
108 211
108 231
109 130
109 132
109 136
109 138
109 166
109 190
109 200
109 217
110 115
110 128
110 198
110 200
110 210
110 234
110 276
111 117
111 128
111 136
111 147
111 152
111 219
112 122
112 274
113 119
113 145
114 156
114 173
114 194
114 247
114 272
114 281
115 166
115 187
115 246
115 249
115 268
116 259
116 289
117 126
117 135
117 152
118 120
118 126
118 187
118 221
119 120
119 128
119 140
119 142
119 147
119 155
119 245
119 253
119 272
119 273
119 284
119 292
120 169
120 188
120 251
121 143
121 165
121 180
121 185
121 199
121 225
121 258
121 281
121 285
122 123
122 131
122 144
122 160
122 180
122 214
122 236
122 244
122 252
122 262
122 285
123 138
123 156
123 165
123 220
123 237
124 133
124 160
124 207
124 211
125 126
125 152
125 226
126 146
126 157
126 158
126 184
126 226
126 264
126 275
126 289
126 290
126 296
127 184
127 208
127 267
127 296
128 212
128 226
128 242
128 249
128 276
128 288
129 227
130 150
130 171
130 257
131 178
131 180
131 218
132 164
132 176
132 177
132 194
132 225
132 232
132 245
133 147
133 184
133 210
133 252
133 262
134 215
135 156
135 190
135 228
136 203
137 154
137 200
137 226
137 248
137 300
138 174
139 151
139 168
139 193
139 198
139 201
139 299
140 156
140 192
141 205
141 261
141 282
142 253
142 296
143 149
143 270
143 293
143 297
144 266
144 290
144 298
145 158
145 165
145 279
146 176
146 205
146 213
146 292
147 152
147 186
147 195
147 210
147 245
147 294
149 204
149 266
149 293
150 171
150 173
151 194
151 208
151 230
152 208
152 274
152 294
153 218
153 224
153 234
154 217
154 300
155 205
155 207
155 221
155 235
155 251
155 254
155 266
155 272
156 176
156 192
156 247
156 251
156 273
156 286
156 300
157 276
158 185
158 249
158 285
159 161
159 164
159 168
159 230
159 294
160 180
160 186
160 214
160 229
160 236
160 263
160 271
161 253
161 294
162 173
162 174
162 192
162 250
162 255
163 191
163 244
164 165
164 168
164 173
164 176
164 179
164 258
164 267
165 232
165 242
165 247
165 267
165 268
165 280
166 178
166 187
166 206
166 227
166 238
166 246
166 271
166 291
166 299
167 226
167 236
167 288
168 169
168 219
168 230
170 184
170 256
171 173
171 174
171 182
171 197
171 248
171 257
171 263
172 181
172 190
172 197
172 263
172 284
172 285
173 183
173 192
173 240
174 181
174 192
174 203
174 241
174 263
174 275
174 280
174 281
174 293
175 278
175 283
176 213
176 226
176 230
176 231
176 247
176 248
176 251
176 267
176 296
176 300
177 185
177 188
177 218
177 279
178 195
178 208
178 213
178 291
178 292
179 258
179 277
179 286
180 252
180 258
180 270
180 281
181 237
181 285
181 293
182 197
182 238
182 284
183 197
183 240
183 293
184 190
184 195
184 205
184 229
184 259
185 205
185 222
185 225
185 258
185 269
185 280
185 286
186 192
186 200
186 210
186 254
186 262
186 266
186 279
186 286
186 294
187 188
187 195
187 218
187 245
187 249
187 284
187 289
188 251
188 259
188 284
189 228
189 229
189 230
189 261
189 270
189 299
189 300
190 194
190 207
190 285
190 299
191 209
191 236
191 237
191 244
191 256
192 203
192 286
193 201
193 227
193 228
193 254
193 261
193 262
193 272
193 282
193 283
194 208
194 264
194 299
195 208
195 218
195 239
195 292
196 203
196 219
196 251
196 296
197 273
197 276
197 284
198 234
198 257
198 299
199 221
200 204
200 210
200 226
201 229
202 252
202 265
202 270
203 241
203 268
203 280
203 281
203 293
204 214
204 245
204 284
205 254
205 269
205 283
206 214
206 227
206 242
206 264
206 272
206 283
206 299
207 221
207 228
208 274
208 297
209 241
209 257
210 217
210 245
210 254
210 262
211 260
212 223
212 233
212 243
212 249
212 260
212 269
212 300
213 291
214 283
214 299
215 232
215 289
215 294
216 221
216 223
216 294
217 222
217 224
217 245
217 250
217 284
217 285
217 298
218 239
218 279
219 230
219 289
220 237
220 246
221 266
221 294
222 258
222 269
222 285
223 225
223 269
224 234
224 298
225 261
226 228
226 248
226 250
226 288
227 228
227 264
227 271
227 272
228 300
229 244
229 259
229 271
229 275
229 289
229 292
229 299
229 300
230 251
230 296
231 300
232 259
232 267
232 289
232 294
232 296
233 244
233 246
233 300
235 240
235 246
235 254
235 283
236 273
236 288
240 246
240 247
242 243
242 267
242 274
242 275
243 274
243 275
244 271
245 253
245 254
245 284
245 285
245 294
246 254
247 256
247 267
247 281
248 300
249 268
250 255
250 268
251 289
251 290
251 296
252 270
254 261
254 262
254 283
254 294
255 257
255 296
256 271
256 279
256 289
258 277
258 285
258 286
259 289
259 292
259 299
260 300
261 262
262 279
262 285
263 285
264 276
264 289
265 271
265 278
266 279
266 293
268 280
268 289
268 294
269 280
270 273
271 275
271 278
271 292
273 275
273 284
274 275
274 281
274 296
274 297
275 276
275 281
280 290
280 294
280 298
281 292
281 296
285 286
288 289
289 290
290 298
292 296
294 296
*Classes
1
1
1
1
1
1
1
1
1
1
1
1
1
1
1
1
1
1
1
1
1
1
1
1
1
1
1
1
1
1
1
1
1
1
1
1
1
1
1
1
1
1
1
1
1
1
1
1
1
1
1
1
1
1
1
1
1
1
1
1
1
1
1
1
1
1
1
1
1
1
1
1
1
1
1
1
1
1
1
1
1
1
1
1
1
1
1
1
1
1
1
1
1
1
1
1
1
1
1
1
1
1
1
1
1
1
1
1
1
1
1
1
1
1
1
1
1
1
1
1
1
1
1
1
1
1
1
1
1
1
1
1
1
1
1
1
1
1
1
1
1
1
1
1
1
1
1
1
1
1
2
2
2
2
2
2
2
2
2
2
2
2
2
2
2
2
2
2
2
2
2
2
2
2
2
2
2
2
2
2
2
2
2
2
2
2
2
2
2
2
2
2
2
2
2
2
2
2
2
2
2
2
2
2
2
2
2
2
2
2
2
2
2
2
2
2
2
2
2
2
2
2
2
2
2
2
2
2
2
2
2
2
2
2
2
2
2
2
2
2
2
2
2
2
2
2
2
2
2
2
2
2
2
2
2
2
2
2
2
2
2
2
2
2
2
2
2
2
2
2
2
2
2
2
2
2
2
2
2
2
2
2
2
2
2
2
2
2
2
2
2
2
2
2
2
2
2
2
2
2
