*Vertices 300
*Edges
1 12
1 15
1 33
1 40
1 45
1 50
1 58
1 88
1 97
1 101
1 109
1 115
1 130
1 245
2 6
2 8
2 29
2 49
2 62
2 80
2 86
2 94
2 108
2 112
2 120
2 135
2 142
2 166
2 172
2 203
3 17
3 35
3 98
3 128
3 138
3 141
3 150
3 202
3 221
3 235
3 272
3 285
4 20
4 48
4 54
4 90
4 107
4 180
4 261
5 48
5 90
5 95
5 98
5 103
5 110
5 114
5 128
6 43
6 49
6 62
6 75
6 77
6 145
6 150
6 191
6 199
6 254
6 280
7 9
7 14
7 17
7 19
7 21
7 43
7 79
7 84
7 122
7 145
7 159
7 176
7 207
7 217
7 296
8 22
8 34
8 75
8 105
8 120
8 127
8 135
8 142
8 222
8 223
9 17
9 18
9 66
9 79
9 87
9 107
9 108
9 117
9 173
9 184
9 278
10 80
10 81
10 83
10 86
10 94
10 120
10 139
10 143
10 168
10 212
10 213
11 26
11 42
11 47
11 48
11 51
11 54
11 93
11 99
11 106
11 140
11 176
11 179
11 196
11 239
11 242
11 261
11 294
11 298
12 17
12 45
12 93
12 128
12 174
12 300
13 18
13 101
13 115
13 121
13 130
13 260
13 276
13 288
14 19
14 21
14 67
14 69
14 88
14 113
14 114
14 287
14 296
15 24
15 27
15 38
15 43
15 45
15 58
15 61
15 63
15 84
15 124
15 146
15 209
15 228
15 266
15 275
16 64
16 65
16 80
16 120
16 139
16 188
16 192
16 201
16 276
17 24
17 35
17 98
17 140
17 222
17 270
17 285
17 300
18 49
18 52
18 58
18 61
18 87
18 107
18 210
18 225
18 260
19 21
19 69
19 79
19 145
19 146
19 172
19 173
19 201
19 217
19 227
19 242
19 278
19 283
20 25
20 30
20 35
20 43
20 62
20 107
20 113
20 116
20 143
20 149
20 158
20 180
20 190
20 238
20 246
20 268
20 280
21 67
21 73
21 145
21 235
21 262
21 287
22 34
22 120
22 158
22 165
22 235
22 281
23 32
23 40
23 59
23 74
23 144
23 172
23 295
24 26
24 63
24 77
24 96
24 148
24 254
24 270
24 291
25 30
25 56
25 92
25 113
25 116
25 150
25 235
26 42
26 47
26 63
26 64
26 93
26 96
26 102
26 123
26 146
26 181
26 196
26 228
26 271
27 42
27 64
27 76
27 124
27 146
27 199
27 228
28 43
28 77
28 106
28 189
28 288
29 94
29 111
29 113
29 122
29 127
29 130
29 135
29 142
29 143
29 178
29 179
29 228
30 62
30 103
30 110
30 112
30 113
30 126
30 132
30 149
30 157
30 188
30 266
31 95
31 131
31 151
31 161
31 178
31 232
31 234
31 256
32 68
32 74
32 144
32 156
32 172
33 40
33 45
33 58
33 92
33 108
33 123
33 221
33 255
34 105
35 84
35 96
35 102
35 112
35 129
35 132
35 136
35 138
35 149
35 158
36 43
36 67
36 101
36 121
36 201
36 271
36 295
37 50
37 73
37 83
37 99
37 106
37 110
37 113
37 143
37 148
37 154
37 172
37 181
37 228
38 43
38 56
38 76
38 98
38 124
38 145
38 195
38 213
38 229
38 274
38 277
38 283
39 70
39 242
39 273
40 59
40 88
40 109
40 129
40 130
40 161
40 209
40 265
40 293
41 54
41 65
41 99
41 102
41 109
41 112
41 152
41 160
41 172
41 193
41 287
42 47
42 56
42 64
42 65
42 78
42 81
42 106
42 135
42 215
42 277
43 77
43 79
43 91
43 94
43 115
43 148
43 158
43 159
43 214
43 261
44 50
44 69
44 98
44 116
44 118
44 194
44 213
44 249
44 285
45 130
45 180
45 239
45 249
45 254
45 258
45 278
46 61
46 141
46 144
46 185
46 266
46 272
46 278
46 290
47 62
47 64
47 85
47 102
47 168
47 203
47 224
47 251
47 291
48 90
48 95
48 151
48 211
48 279
49 61
49 62
49 93
49 145
49 146
49 180
49 272
49 277
50 53
50 170
50 205
50 239
50 249
50 264
51 99
51 106
51 117
51 187
51 197
51 282
52 98
52 106
52 172
52 252
52 287
52 299
53 86
53 115
53 119
53 121
53 142
53 180
53 251
54 93
54 102
54 106
55 57
55 217
55 224
55 226
55 234
55 245
56 65
56 92
56 100
56 119
56 130
56 185
56 195
56 204
56 244
56 274
56 279
56 288
56 299
56 300
57 100
57 203
57 218
57 255
57 263
57 284
58 60
58 77
58 107
58 124
58 146
58 257
58 266
58 267
58 270
58 275
58 290
58 295
58 298
59 65
59 242
60 64
60 82
60 83
60 91
60 103
60 112
60 117
60 135
60 234
60 251
60 298
61 84
61 106
61 107
61 125
61 152
61 229
61 266
61 274
62 75
62 145
62 151
62 224
62 255
63 77
63 101
63 123
63 126
63 179
63 207
63 250
64 78
64 81
64 103
64 117
64 133
64 192
65 81
65 112
65 119
65 120
65 135
66 116
66 117
66 142
66 185
66 200
66 244
66 287
67 82
67 122
67 145
67 158
67 186
67 295
68 144
68 163
68 184
68 208
68 253
69 116
69 189
69 244
70 156
70 208
70 231
70 273
70 285
71 188
72 103
72 117
72 283
73 80
73 94
73 113
73 135
73 138
73 170
73 207
73 270
73 287
74 110
74 128
74 250
75 77
75 114
75 128
75 145
75 242
75 263
76 122
76 199
76 240
76 288
77 106
77 120
77 123
77 150
77 221
77 259
77 275
78 123
78 216
78 268
78 295
79 80
79 88
79 94
79 105
79 108
79 115
79 124
79 168
79 173
79 192
79 207
80 92
80 94
80 124
80 139
80 143
80 190
80 248
80 281
80 290
81 135
81 138
81 212
81 227
81 287
81 290
82 164
82 166
83 138
83 152
83 154
83 234
84 125
84 126
84 145
84 157
84 174
84 214
84 233
84 250
85 125
85 147
85 228
85 231
85 251
85 298
86 119
86 120
86 166
86 189
86 253
86 256
86 275
86 299
87 111
87 219
87 233
87 250
87 254
87 280
87 291
88 94
88 100
88 114
88 160
89 102
89 124
89 131
89 146
89 161
89 207
89 253
90 95
90 105
90 110
90 114
90 115
90 131
90 154
90 279
91 104
91 119
91 134
91 216
91 231
91 251
91 261
92 190
92 196
92 198
93 120
93 136
93 146
93 186
93 189
93 218
94 135
94 167
94 182
94 290
95 136
95 177
95 184
95 218
95 282
96 97
96 102
96 131
96 148
96 191
97 115
97 129
97 131
97 172
98 128
98 137
98 197
98 213
98 239
98 261
99 102
99 110
99 112
99 131
99 230
99 274
100 104
100 108
100 114
100 116
100 118
100 119
100 121
100 156
100 222
100 255
100 279
100 295
101 115
101 121
101 149
101 169
101 250
102 112
102 118
102 129
102 131
102 163
102 242
102 243
102 295
103 126
103 128
103 135
103 137
103 184
103 188
103 201
104 134
104 140
104 159
104 222
105 115
105 121
105 138
105 146
105 183
105 219
106 110
106 150
106 156
106 167
106 205
106 211
106 252
106 266
107 238
107 263
107 288
108 116
108 118
108 142
108 156
108 168
108 172
108 173
108 208
108 242
108 244
108 255
108 274
109 112
109 120
109 188
109 236
110 128
110 131
110 154
110 187
110 269
111 127
111 172
111 182
111 219
111 265
112 132
112 135
112 173
112 193
112 289
113 143
113 153
113 161
113 246
113 263
113 265
113 268
114 157
115 121
115 130
115 142
115 146
115 168
115 194
115 273
116 121
116 159
116 169
116 196
116 269
116 287
116 296
117 282
118 124
118 241
119 197
119 246
119 251
120 142
120 179
120 211
120 235
120 238
120 267
120 275
121 292
122 143
122 186
122 187
122 223
122 232
122 240
122 292
123 150
123 216
123 242
123 278
124 151
124 153
124 187
124 230
126 194
126 204
126 250
126 271
126 295
128 208
128 216
128 263
129 291
130 213
130 260
130 261
130 277
130 283
131 151
131 172
131 243
132 138
132 140
133 147
133 274
134 258
135 170
135 252
135 267
135 295
136 138
136 218
136 272
137 184
138 146
138 149
138 152
138 158
138 201
138 295
139 278
139 281
140 176
140 183
140 228
140 232
140 264
141 144
141 235
142 270
143 168
143 196
143 248
144 265
144 296
146 173
146 202
147 237
147 259
147 298
148 159
148 200
148 220
148 293
150 223
150 235
151 152
151 155
151 164
151 175
151 180
151 230
151 232
151 235
151 265
151 293
152 154
152 228
152 230
152 251
153 163
154 192
154 230
154 284
155 180
155 293
156 168
156 179
156 232
156 243
156 290
156 293
157 168
157 190
157 215
157 221
157 226
157 240
157 266
157 272
157 275
157 291
158 159
158 165
158 206
158 223
159 214
159 220
160 166
160 179
160 189
160 238
160 259
161 162
161 167
161 170
161 180
161 181
161 193
161 213
161 221
161 239
161 246
161 283
161 290
162 170
162 173
162 213
162 221
162 263
162 275
162 289
163 164
163 180
163 194
163 228
163 242
163 292
164 232
164 242
164 248
164 291
165 191
165 233
165 241
166 179
166 189
166 199
166 203
166 214
166 237
166 259
166 264
166 283
167 220
167 269
167 290
168 169
168 242
168 248
168 252
168 266
168 291
168 297
169 252
169 256
169 291
170 180
170 181
170 204
170 216
170 220
170 239
170 290
170 298
171 208
171 220
171 266
171 288
172 208
172 227
172 242
172 276
172 287
173 201
173 219
173 244
173 247
173 262
173 287
173 289
174 205
174 244
174 257
174 291
176 187
176 202
176 228
176 242
177 179
177 235
177 240
178 186
178 190
178 220
178 240
178 256
179 180
179 196
179 211
179 215
179 235
179 238
179 240
179 242
179 243
179 250
179 259
179 267
179 292
180 193
180 194
180 262
180 283
180 285
180 293
181 190
181 271
182 225
182 290
184 191
184 202
184 221
184 246
184 267
184 282
185 191
185 204
185 216
185 237
185 244
185 259
185 261
185 272
185 298
186 235
186 240
187 276
188 191
188 192
188 229
188 267
188 268
188 277
188 287
188 295
189 193
189 218
189 223
189 225
189 228
189 229
189 246
189 251
189 256
189 264
189 265
189 273
189 281
189 282
189 283
189 299
190 215
190 240
190 248
191 198
191 216
191 241
191 290
192 205
192 244
192 257
193 264
193 296
194 217
194 285
194 292
195 276
195 288
195 300
196 276
196 288
196 297
197 246
197 261
197 275
198 226
198 241
199 237
199 244
199 257
200 244
201 224
201 227
201 242
201 255
201 264
202 228
202 246
203 206
203 224
203 244
203 257
203 297
203 298
204 222
204 240
204 242
204 271
204 290
204 295
204 298
205 211
205 215
205 219
205 223
205 243
205 255
205 257
205 286
206 244
206 258
206 297
207 219
207 239
207 253
207 256
207 266
207 270
207 298
207 299
208 231
208 265
208 266
208 276
208 288
210 224
210 255
210 256
211 215
211 219
211 223
211 230
211 235
211 248
212 216
212 220
212 228
212 233
212 244
212 269
212 270
212 276
212 294
213 229
213 265
213 277
215 232
215 240
215 266
215 286
216 220
216 222
216 239
216 261
216 280
216 290
216 300
217 245
217 258
217 285
218 229
218 283
218 284
218 299
219 255
219 264
219 289
219 298
220 240
220 261
220 288
221 275
222 242
222 273
222 298
223 229
223 248
223 254
224 244
224 255
224 297
224 298
225 251
226 254
226 272
226 275
227 268
227 278
227 283
228 251
228 269
228 281
228 284
228 292
229 274
230 235
230 236
230 256
231 276
231 292
232 266
233 294
234 247
234 256
234 281
234 298
235 256
236 279
236 295
237 259
238 243
238 260
238 280
239 254
239 298
240 298
242 244
242 278
242 292
243 247
243 292
244 257
244 269
244 274
244 283
246 264
246 265
246 275
247 256
247 281
247 285
247 289
247 292
250 271
252 270
252 291
252 294
253 256
253 279
253 281
255 263
255 279
255 298
256 299
257 291
261 264
261 294
262 285
262 287
262 289
262 296
263 267
263 272
263 284
263 288
263 295
264 281
265 266
265 293
265 299
266 295
267 272
267 295
268 295
269 292
270 294
272 275
272 286
273 283
273 296
274 277
275 286
276 278
276 288
276 293
276 294
277 287
277 295
278 288
279 290
279 295
280 300
281 285
281 292
282 299
284 292
288 297
291 297
293 294
*Classes
1
1
1
1
1
1
1
1
1
1
1
1
1
1
1
1
1
1
1
1
1
1
1
1
1
1
1
1
1
1
1
1
1
1
1
1
1
1
1
1
1
1
1
1
1
1
1
1
1
1
1
1
1
1
1
1
1
1
1
1
1
1
1
1
1
1
1
1
1
1
1
1
1
1
1
1
1
1
1
1
1
1
1
1
1
1
1
1
1
1
1
1
1
1
1
1
1
1
1
1
1
1
1
1
1
1
1
1
1
1
1
1
1
1
1
1
1
1
1
1
1
1
1
1
1
1
1
1
1
1
1
1
1
1
1
1
1
1
1
1
1
1
1
1
1
1
1
1
1
1
2
2
2
2
2
2
2
2
2
2
2
2
2
2
2
2
2
2
2
2
2
2
2
2
2
2
2
2
2
2
2
2
2
2
2
2
2
2
2
2
2
2
2
2
2
2
2
2
2
2
2
2
2
2
2
2
2
2
2
2
2
2
2
2
2
2
2
2
2
2
2
2
2
2
2
2
2
2
2
2
2
2
2
2
2
2
2
2
2
2
2
2
2
2
2
2
2
2
2
2
2
2
2
2
2
2
2
2
2
2
2
2
2
2
2
2
2
2
2
2
2
2
2
2
2
2
2
2
2
2
2
2
2
2
2
2
2
2
2
2
2
2
2
2
2
2
2
2
2
2
