*Vertices 300
*Edges
1 7
1 20
1 42
1 67
1 88
1 106
1 130
1 134
1 165
1 235
1 240
2 70
2 75
2 80
2 96
2 104
2 109
2 112
2 133
2 151
2 155
2 198
2 199
2 201
2 207
2 279
2 281
2 294
3 46
3 157
3 162
3 173
3 175
3 226
3 233
3 259
3 265
3 273
4 8
4 20
4 37
4 81
4 90
4 162
4 187
5 46
5 94
5 114
5 123
5 164
5 212
6 30
6 54
6 130
6 173
6 274
7 79
7 106
7 197
7 198
7 281
8 20
8 43
8 251
8 268
9 45
9 53
9 82
9 105
9 118
9 215
9 217
9 219
9 249
9 277
9 279
9 289
10 58
10 60
10 64
10 92
10 101
10 168
10 169
10 176
10 193
10 232
10 249
10 289
11 74
11 118
11 120
11 138
11 184
11 199
11 242
11 256
11 259
11 275
12 39
12 59
12 64
12 76
12 121
12 145
12 193
12 212
12 219
12 271
13 37
13 57
13 69
13 78
13 81
13 119
13 161
13 187
13 263
14 31
14 41
14 60
14 63
14 70
14 100
14 113
14 126
14 132
14 134
14 144
14 183
14 184
14 200
14 280
14 284
14 290
14 300
15 16
15 21
15 115
15 186
15 218
15 276
15 277
15 289
16 20
16 31
16 35
16 57
16 62
16 76
16 87
16 102
16 115
16 154
16 179
16 225
16 240
16 248
16 255
16 298
17 21
17 42
17 46
17 62
17 161
17 228
17 232
17 256
17 283
17 287
17 292
17 296
18 23
18 24
18 75
18 78
18 133
18 168
18 262
18 299
19 117
19 165
19 179
19 214
19 229
19 231
19 232
19 268
20 35
20 37
20 49
20 77
20 87
20 90
20 98
20 116
20 130
20 141
20 145
20 187
20 216
20 233
20 235
20 240
20 268
20 275
21 31
21 32
21 46
21 77
21 124
21 165
21 218
21 255
21 260
21 299
22 27
22 54
22 181
23 24
23 131
23 147
23 166
23 198
23 211
23 217
23 258
23 261
23 268
23 273
23 277
24 41
24 48
24 78
24 131
24 134
24 141
24 148
24 190
24 200
24 212
24 217
24 262
24 268
24 277
24 280
25 95
25 279
26 49
26 50
26 69
26 77
26 104
26 142
26 160
26 195
26 215
26 223
26 240
26 272
26 296
27 54
27 57
27 58
27 80
27 152
27 155
27 199
27 211
27 240
27 244
27 273
28 75
28 192
28 243
28 274
28 281
29 123
29 189
29 292
30 98
30 100
30 131
30 142
30 182
30 225
30 245
30 289
31 39
31 76
31 119
31 134
31 144
31 146
31 148
31 164
31 177
31 223
31 236
31 297
31 299
31 300
32 46
32 126
32 140
32 165
32 172
32 255
32 270
33 46
33 57
33 87
33 129
33 140
33 202
33 264
34 35
34 75
34 146
34 186
34 196
35 44
35 59
35 90
35 186
35 196
35 213
35 257
35 261
35 268
36 38
36 47
36 59
36 96
36 142
36 146
36 195
36 200
36 246
36 255
36 259
36 281
36 292
37 71
37 78
37 100
37 120
37 122
37 124
37 125
37 132
37 244
37 263
37 291
38 71
38 134
38 200
38 244
38 270
38 281
39 49
39 93
39 129
39 132
39 134
39 150
39 158
39 177
39 250
39 271
39 280
39 282
40 97
40 199
40 251
40 275
41 63
41 70
41 134
41 141
41 143
41 192
41 281
41 285
41 286
42 43
42 51
42 70
42 90
42 107
42 114
42 116
42 129
42 134
42 161
42 177
42 206
42 228
42 253
43 46
43 90
43 94
43 107
43 114
43 127
43 129
43 171
43 206
43 276
44 60
44 189
44 257
45 82
45 108
45 179
45 182
45 206
45 231
45 273
45 276
45 297
46 62
46 100
46 125
46 129
46 132
46 157
46 165
46 170
46 176
46 213
46 216
46 232
46 233
46 273
46 292
47 58
47 59
47 70
47 106
47 122
47 152
47 253
47 265
47 287
48 87
48 156
48 164
48 173
48 200
48 212
48 213
48 222
48 251
48 255
48 258
48 260
48 261
48 281
48 284
49 77
49 98
49 131
49 147
49 176
49 177
49 182
49 214
49 252
49 259
50 52
50 53
50 65
50 68
50 70
50 78
50 81
50 108
50 112
50 116
50 118
50 134
50 137
50 159
50 215
50 222
50 230
50 277
50 294
50 296
51 57
51 80
51 101
51 161
51 202
51 203
51 237
52 81
52 118
52 245
52 259
52 284
52 286
52 288
52 289
53 159
53 162
53 236
53 279
54 89
54 95
54 115
54 130
54 155
54 159
54 245
54 259
54 293
55 73
55 88
55 115
55 133
55 149
55 175
55 183
55 215
55 224
55 259
55 276
55 288
56 104
56 123
56 184
56 238
56 244
57 58
57 62
57 113
57 145
57 159
57 161
57 170
57 202
57 231
58 169
58 185
58 186
58 207
58 213
58 227
58 234
58 237
58 244
58 253
58 270
58 294
59 170
59 177
59 219
59 228
59 252
59 253
59 259
59 269
60 184
60 193
60 257
60 265
61 78
61 81
61 120
61 128
61 133
61 175
61 179
61 213
61 244
61 246
61 255
61 281
61 290
62 113
62 126
62 208
62 256
63 65
63 69
63 100
63 132
63 143
63 150
63 222
63 271
63 275
64 183
64 193
64 215
65 69
65 137
65 194
65 229
66 89
66 179
66 213
66 230
66 241
66 262
66 263
66 282
67 106
67 122
68 137
69 117
69 119
69 137
69 143
69 152
69 186
69 201
69 271
69 275
69 283
69 296
70 80
70 83
70 100
70 112
70 134
70 201
70 217
70 221
70 239
70 245
70 285
70 287
70 290
70 293
71 120
71 122
71 173
71 240
71 261
71 264
72 99
72 181
72 193
72 266
73 112
73 206
73 267
74 217
74 253
75 95
75 146
75 168
75 192
75 207
75 231
75 277
75 281
75 299
76 80
76 103
76 122
76 131
76 145
76 154
76 161
76 195
76 209
76 212
76 223
76 229
76 240
76 248
76 271
76 278
77 98
77 126
77 150
77 156
77 195
77 216
77 232
77 235
77 240
77 246
77 255
78 131
78 152
78 203
78 222
78 244
78 255
78 260
78 270
78 280
79 151
79 198
79 225
79 237
79 251
79 266
79 285
80 101
80 134
80 195
80 199
80 201
80 203
80 207
80 239
80 287
81 92
81 107
81 121
81 122
81 124
81 128
81 143
81 162
81 187
81 212
81 222
81 286
81 297
82 206
82 215
82 277
83 88
83 90
83 98
83 103
83 109
83 127
83 136
83 152
83 153
83 154
83 179
83 217
83 224
83 227
83 228
83 270
83 273
83 289
83 297
83 300
84 88
84 97
84 116
84 135
84 142
84 152
84 233
84 283
85 92
85 188
85 214
85 216
86 113
86 153
86 275
87 103
87 117
87 181
87 236
87 249
87 254
87 262
87 264
87 266
88 98
88 105
88 149
88 152
88 191
88 219
88 228
88 288
89 95
89 102
89 115
89 180
89 210
89 226
89 262
89 263
89 293
89 299
90 94
90 109
90 232
90 233
91 114
91 121
91 141
91 200
91 253
91 274
91 275
92 124
92 166
92 168
92 175
92 177
92 182
92 188
92 191
92 205
92 231
92 246
92 256
92 266
92 286
92 290
92 293
93 177
93 187
93 213
93 269
93 270
94 119
94 123
94 269
94 276
95 259
95 261
95 277
96 137
96 154
96 207
96 243
96 281
96 292
97 131
97 201
97 212
97 232
97 246
97 263
97 273
98 152
98 177
98 214
98 231
99 254
99 264
100 107
100 126
100 132
100 145
100 150
100 169
100 183
100 195
100 222
100 225
100 284
101 151
101 176
101 203
101 213
101 290
102 115
102 125
102 170
102 194
102 252
102 287
103 142
103 181
103 201
103 247
103 254
103 262
103 264
103 297
103 300
104 165
104 207
104 223
104 235
104 296
105 106
105 155
105 219
105 240
105 249
105 269
106 122
106 168
106 198
106 240
107 121
107 128
107 212
107 253
107 283
108 112
108 137
108 160
108 162
108 182
108 206
108 220
108 243
108 272
108 289
109 133
109 150
109 168
109 207
109 221
109 227
109 228
109 299
110 164
110 249
110 250
110 267
111 127
111 155
111 239
112 126
112 129
112 134
112 194
112 230
112 241
112 269
112 294
113 126
113 167
113 183
113 230
113 236
113 275
113 282
114 141
114 171
115 125
115 126
115 178
115 218
115 270
115 273
115 277
115 293
116 119
116 123
116 137
116 142
116 196
116 254
116 279
117 264
118 152
118 217
118 222
118 284
118 294
119 158
119 162
119 164
119 265
119 269
119 271
119 273
119 300
120 166
120 223
120 256
120 263
120 298
121 123
121 130
121 141
121 155
121 157
121 237
121 286
121 294
122 124
122 128
122 132
122 143
122 163
122 168
122 188
122 278
123 137
123 157
123 188
123 204
123 205
123 244
123 254
124 154
124 163
124 168
124 188
124 284
125 132
125 158
125 252
125 287
126 134
126 161
126 195
126 232
126 246
126 270
126 290
126 295
127 128
127 152
127 184
128 159
128 184
128 222
128 246
128 248
128 251
129 134
129 176
129 197
129 216
129 230
130 157
130 175
130 201
130 274
130 275
131 147
131 178
131 211
131 212
131 222
131 232
131 246
131 268
131 273
132 140
132 157
132 172
132 177
132 183
132 213
132 224
132 261
133 175
133 264
134 212
134 269
134 287
136 153
136 163
136 168
136 180
136 216
137 147
137 193
137 222
137 243
137 246
137 279
138 185
138 186
138 242
138 257
138 265
139 230
139 282
139 295
140 161
140 163
140 168
140 172
140 173
140 196
140 202
140 220
140 224
140 227
140 240
140 261
140 281
141 182
141 184
141 192
141 200
141 212
141 275
141 285
142 193
142 201
142 246
142 283
142 289
143 162
143 172
144 148
145 161
145 181
145 183
145 193
145 194
145 216
145 218
145 225
145 226
145 228
145 293
146 200
146 231
146 266
146 281
147 187
147 219
147 221
147 223
148 172
148 177
148 269
148 294
148 300
149 150
149 193
149 207
149 211
149 228
149 249
149 256
149 269
150 195
150 227
150 249
150 258
150 280
150 295
151 155
151 198
151 213
151 221
152 164
152 179
152 186
152 191
152 217
152 240
152 270
153 168
153 180
153 205
153 224
153 255
153 258
153 261
153 266
153 271
154 163
154 166
154 179
154 229
154 243
154 298
155 157
155 198
155 227
155 237
155 239
155 269
156 166
156 175
156 233
156 255
156 276
157 175
157 201
157 204
157 213
157 244
157 259
158 160
158 173
158 235
158 284
159 161
159 184
159 199
159 208
159 224
159 245
159 250
159 275
159 289
160 178
160 193
160 215
160 221
160 246
160 260
160 272
160 273
160 289
161 165
161 182
161 195
161 231
161 246
161 260
162 167
162 172
162 182
162 183
162 187
162 227
162 255
162 265
162 273
162 279
162 291
163 168
163 172
163 192
163 246
163 294
163 295
164 212
164 229
164 240
164 249
164 265
165 204
165 219
165 235
165 239
165 255
165 260
165 268
165 278
166 202
166 258
166 266
166 298
167 171
167 172
167 183
167 184
167 251
168 195
168 197
168 200
168 202
168 232
168 240
168 250
168 258
168 267
168 278
168 293
168 299
169 222
169 252
169 259
170 186
170 231
170 259
170 292
171 183
171 217
172 181
172 182
172 240
172 246
172 281
172 283
172 291
173 233
173 240
173 264
173 284
174 209
174 265
175 201
175 231
175 259
175 264
175 276
175 286
176 230
176 245
176 252
176 290
176 291
176 295
177 191
177 214
177 222
177 228
177 269
178 184
178 216
178 273
179 206
179 213
179 217
179 229
179 281
180 190
180 206
180 258
180 261
180 266
180 267
180 293
181 193
181 216
181 238
181 266
182 195
182 220
182 227
182 231
182 272
182 276
182 277
182 289
183 215
183 218
183 223
183 241
184 238
184 248
184 250
184 251
184 261
184 266
184 273
184 275
184 289
185 186
185 253
186 265
186 277
186 292
187 273
188 205
188 266
188 284
190 208
190 212
190 267
190 274
191 222
191 256
191 293
192 230
192 264
192 295
193 246
193 249
193 256
194 226
194 258
194 274
194 287
195 197
195 216
195 229
195 232
195 246
195 249
195 268
195 270
195 295
196 240
196 268
197 232
198 221
198 251
198 257
198 258
198 281
198 294
199 211
199 224
199 240
199 247
199 250
200 246
200 250
200 280
200 284
201 236
201 242
201 254
201 275
201 286
201 288
201 297
202 258
203 229
203 233
203 255
204 241
204 278
205 209
205 220
205 224
206 227
206 237
206 267
206 270
206 272
206 274
207 243
207 249
207 279
208 265
208 267
208 272
208 274
209 224
209 248
210 253
210 280
210 293
211 212
211 228
212 222
212 246
213 215
213 231
213 252
213 259
213 260
213 270
213 297
214 216
214 260
215 218
215 257
215 270
215 295
216 226
216 266
217 293
217 294
218 225
218 276
219 221
219 223
219 260
220 292
222 223
222 228
222 252
222 260
222 284
222 291
222 296
222 297
223 227
223 241
223 267
223 290
223 295
223 296
223 298
224 258
224 264
224 271
224 288
224 296
225 255
225 262
225 266
225 299
227 237
227 240
227 253
227 267
227 294
229 231
229 249
230 241
230 275
230 282
230 295
231 234
231 252
231 259
231 299
232 268
233 240
233 255
233 284
233 285
234 253
234 259
235 284
236 249
236 262
236 275
236 297
237 266
237 286
238 248
239 278
240 249
240 273
241 267
241 291
243 274
243 298
244 290
244 297
245 289
246 262
246 266
246 278
246 289
247 294
247 300
248 266
249 253
249 256
249 258
249 275
249 297
250 267
250 299
251 261
252 259
253 256
253 259
253 265
253 274
254 297
255 266
255 281
256 280
257 258
257 265
257 295
258 261
258 280
258 294
259 264
259 265
260 272
261 264
261 266
261 294
262 299
263 285
264 288
264 294
264 295
264 300
265 269
265 300
266 278
267 274
270 280
271 275
272 273
273 289
277 289
281 285
283 287
283 296
285 286
286 288
290 295
294 300
*Classes
1
1
1
1
1
1
1
1
1
1
1
1
1
1
1
1
1
1
1
1
1
1
1
1
1
1
1
1
1
1
1
1
1
1
1
1
1
1
1
1
1
1
1
1
1
1
1
1
1
1
1
1
1
1
1
1
1
1
1
1
1
1
1
1
1
1
1
1
1
1
1
1
1
1
1
1
1
1
1
1
1
1
1
1
1
1
1
1
1
1
1
1
1
1
1
1
1
1
1
1
1
1
1
1
1
1
1
1
1
1
1
1
1
1
1
1
1
1
1
1
1
1
1
1
1
1
1
1
1
1
1
1
1
1
1
1
1
1
1
1
1
1
1
1
1
1
1
1
1
1
2
2
2
2
2
2
2
2
2
2
2
2
2
2
2
2
2
2
2
2
2
2
2
2
2
2
2
2
2
2
2
2
2
2
2
2
2
2
2
2
2
2
2
2
2
2
2
2
2
2
2
2
2
2
2
2
2
2
2
2
2
2
2
2
2
2
2
2
2
2
2
2
2
2
2
2
2
2
2
2
2
2
2
2
2
2
2
2
2
2
2
2
2
2
2
2
2
2
2
2
2
2
2
2
2
2
2
2
2
2
2
2
2
2
2
2
2
2
2
2
2
2
2
2
2
2
2
2
2
2
2
2
2
2
2
2
2
2
2
2
2
2
2
2
2
2
2
2
2
2
