*Vertices 300
*Edges
1 46
1 56
1 74
1 115
1 128
1 142
1 143
1 294
2 83
2 157
2 186
2 193
2 216
2 245
3 7
3 36
3 44
3 58
3 131
3 133
3 136
3 178
3 259
4 27
4 30
4 56
4 86
4 164
5 10
5 27
5 28
5 33
5 44
5 67
5 100
5 103
5 121
5 127
5 239
5 261
5 274
5 300
6 57
6 87
6 96
6 119
6 150
6 198
6 227
6 236
6 284
7 51
7 58
7 62
7 63
7 77
7 78
7 83
7 90
7 167
7 190
7 204
7 206
7 215
7 265
8 98
8 257
9 224
9 235
9 251
9 266
10 24
10 29
10 100
10 103
10 178
10 197
10 203
11 43
11 46
11 59
11 90
11 123
11 140
11 183
11 191
11 212
11 221
11 229
11 230
11 244
11 264
11 268
11 269
11 278
11 294
12 39
12 120
12 136
12 196
12 230
12 244
13 25
13 68
13 72
13 90
13 144
13 214
13 245
13 280
13 286
13 299
14 48
14 147
14 177
14 205
14 248
15 20
15 22
15 28
15 31
15 51
15 72
15 78
15 133
15 202
15 216
15 217
15 221
15 237
15 256
15 268
15 276
16 21
16 24
16 30
16 47
16 119
16 129
16 164
16 168
16 268
16 294
17 117
17 124
17 127
17 141
17 182
17 183
17 289
18 29
18 99
18 109
18 166
18 188
18 200
18 211
18 286
19 80
19 81
19 134
19 156
19 213
19 227
19 270
20 72
20 73
20 78
20 95
20 120
20 239
20 287
21 24
21 64
21 85
21 101
21 127
21 129
21 178
21 194
21 200
21 206
21 221
21 229
21 286
21 290
22 89
22 111
22 146
22 194
22 208
22 256
23 34
23 53
23 83
23 164
23 192
23 236
23 287
24 55
24 64
24 70
24 76
24 98
24 121
24 166
24 172
24 188
24 203
24 247
24 286
24 290
25 48
25 61
25 78
25 84
25 97
25 103
25 109
25 117
25 239
25 244
25 245
26 90
26 101
26 144
26 163
26 190
26 222
26 293
27 29
27 30
27 33
27 63
27 67
27 68
27 88
27 93
27 113
27 259
27 300
28 58
28 59
28 78
28 103
28 104
28 283
29 68
29 89
29 92
29 108
29 119
29 128
29 172
29 180
29 197
29 198
29 203
29 211
29 235
29 269
30 38
30 56
30 82
30 86
30 143
30 164
30 225
30 280
30 292
31 46
31 67
31 82
31 153
31 157
31 226
31 250
31 254
31 260
32 151
33 39
33 44
33 48
33 59
33 87
33 89
33 103
33 110
33 126
33 249
33 276
34 49
34 53
34 65
34 101
34 135
34 138
34 150
34 164
35 52
35 115
35 118
35 138
35 177
35 235
35 236
35 245
36 41
36 44
36 56
36 63
36 77
36 101
36 122
36 136
36 156
36 163
36 177
36 191
36 192
36 198
36 242
36 270
36 293
37 68
37 151
38 49
38 82
38 92
38 123
38 197
39 89
39 136
39 145
39 146
39 147
39 172
39 183
39 196
39 235
39 244
39 269
40 87
40 110
41 69
41 96
41 116
41 131
41 136
41 149
41 178
41 191
41 217
41 232
41 247
41 263
42 47
42 50
42 69
42 209
42 225
43 54
43 65
43 90
43 97
43 162
43 163
43 225
43 229
43 243
43 297
43 299
44 104
44 110
44 136
44 192
44 211
44 251
44 284
45 113
45 171
45 216
46 56
46 75
46 90
46 103
46 105
46 107
46 108
46 122
46 133
46 142
46 144
46 154
46 181
46 199
46 209
46 252
46 254
46 255
46 282
46 293
47 48
47 50
47 63
47 65
47 94
47 101
47 115
47 119
47 124
47 135
47 145
47 183
47 202
47 221
47 265
47 268
47 280
48 59
48 63
48 81
48 93
48 101
48 114
48 147
48 205
48 245
49 53
49 68
49 92
49 150
49 156
49 184
49 229
49 238
49 244
49 265
49 284
50 58
50 69
50 83
50 91
50 95
50 119
50 132
50 145
50 148
50 171
50 173
50 180
50 233
50 250
51 58
51 78
51 79
51 119
51 123
51 126
51 219
51 253
51 258
52 100
52 115
52 118
52 158
52 171
52 227
52 234
52 235
52 247
52 257
53 136
53 246
54 88
54 95
54 97
54 121
54 172
54 175
54 216
54 220
54 226
54 256
54 284
54 294
55 122
55 156
55 225
55 238
55 247
55 251
56 73
56 77
56 82
56 87
56 112
56 142
56 164
56 209
56 216
56 224
56 225
56 233
56 239
56 244
56 256
56 260
56 270
57 73
57 147
57 156
57 177
57 178
57 191
57 194
57 198
57 236
57 290
58 78
58 90
58 95
58 117
58 216
58 277
59 63
59 123
59 191
59 245
59 262
59 266
60 76
60 98
60 162
60 167
60 192
60 193
60 287
61 74
61 85
61 97
61 105
61 109
61 115
61 161
61 170
61 172
61 187
61 190
61 239
61 294
62 77
62 101
62 131
62 149
62 151
62 173
62 192
63 74
63 87
63 90
63 93
63 98
63 101
63 121
63 128
63 145
63 150
63 167
63 175
63 206
63 215
63 219
63 231
63 281
63 291
63 296
64 91
64 109
64 157
64 279
65 79
65 99
65 124
65 162
65 202
65 223
66 67
66 222
66 233
66 271
66 290
67 97
67 103
67 121
67 136
67 157
67 172
67 222
67 255
67 274
68 72
68 92
68 214
68 245
68 250
68 291
68 296
69 77
69 95
69 159
69 180
69 208
69 217
69 234
69 246
69 296
70 76
70 104
70 141
70 152
70 155
70 199
70 201
70 210
70 246
70 271
71 137
71 149
71 193
72 73
72 75
72 88
72 90
72 107
72 120
72 144
72 162
72 255
72 280
72 286
73 83
73 105
73 107
73 120
73 142
73 151
73 154
73 181
73 191
73 251
73 280
73 290
73 291
74 85
74 126
74 145
74 162
74 172
74 206
74 218
74 238
74 245
74 266
75 88
75 90
75 118
75 145
75 182
75 193
75 286
76 98
76 104
76 145
76 146
76 155
76 199
76 210
76 288
77 83
77 105
77 127
77 131
77 136
77 143
77 151
77 170
77 173
77 192
77 198
77 208
77 217
77 234
77 270
78 79
78 90
78 95
78 96
78 117
78 133
78 221
78 246
78 258
79 85
79 119
79 123
79 124
79 135
79 149
79 235
80 156
80 182
80 213
80 218
80 267
81 114
81 134
81 174
81 205
81 213
81 227
81 240
81 248
81 264
81 268
81 270
81 280
82 86
82 146
82 235
82 250
82 258
83 91
83 103
83 105
83 127
83 132
83 142
83 157
83 193
83 208
84 89
84 119
84 169
84 175
84 211
84 219
84 244
85 101
85 138
85 174
85 185
85 190
85 195
85 206
85 224
85 229
85 235
85 236
85 265
85 287
85 290
86 152
87 110
87 112
87 123
87 206
87 227
87 235
87 244
87 256
88 90
88 93
88 99
88 107
88 120
88 159
88 199
88 216
88 241
88 259
88 280
88 289
88 296
89 119
89 126
89 146
89 147
89 156
89 174
89 189
89 196
89 276
90 107
90 144
90 215
90 255
90 259
90 286
90 292
91 105
91 177
91 191
91 250
91 277
92 113
92 123
92 156
92 168
92 189
92 202
92 205
92 244
92 250
93 106
93 142
93 145
93 150
93 167
93 175
93 215
93 283
94 100
94 132
94 135
94 155
94 173
94 175
94 192
94 220
94 246
94 280
95 97
95 103
95 121
95 172
95 173
95 182
95 233
95 294
96 106
96 117
96 154
96 284
97 115
97 200
97 222
97 225
97 226
97 229
97 268
97 299
98 104
98 167
98 174
98 276
99 124
99 139
99 156
99 159
99 165
99 186
99 249
99 252
99 296
100 173
100 197
100 227
101 106
101 108
101 121
101 150
101 163
101 192
101 200
101 281
101 287
102 159
102 273
102 296
103 108
103 117
103 127
103 182
103 258
103 260
104 125
104 146
105 122
105 151
105 154
105 172
105 204
105 245
105 262
105 282
106 118
106 127
106 142
106 150
106 157
106 190
106 198
106 215
106 269
106 273
106 275
106 284
106 292
106 294
107 144
107 155
107 182
107 187
107 209
107 212
107 220
108 121
108 122
108 182
108 183
108 192
108 198
108 281
109 184
109 188
110 126
110 226
110 235
110 256
111 205
111 255
112 123
112 165
112 237
112 256
113 128
113 132
113 169
113 189
113 202
113 240
113 250
113 282
114 153
114 245
114 254
115 168
115 180
115 280
115 294
117 154
117 170
117 215
117 259
117 260
117 292
118 132
118 136
118 145
118 150
118 155
118 163
118 171
118 182
118 200
118 240
118 250
118 275
119 126
119 145
119 146
119 149
119 225
119 227
119 233
119 236
119 239
119 244
120 169
120 213
120 236
120 244
120 266
120 269
120 282
120 286
121 136
121 192
121 204
121 230
121 244
121 274
121 287
121 294
122 138
122 152
122 156
122 163
122 170
122 181
122 185
122 199
122 209
122 213
122 234
122 248
122 250
122 300
123 135
123 186
123 197
123 256
124 139
124 182
124 186
124 187
124 223
124 245
124 256
125 146
125 207
125 223
125 277
126 145
126 237
126 256
126 258
126 260
127 142
127 181
127 193
127 194
127 241
127 298
128 142
128 145
128 181
128 198
128 240
129 138
129 178
129 194
129 225
129 237
129 257
129 262
129 290
130 170
130 182
130 190
130 193
130 194
130 274
130 286
130 291
131 133
131 138
131 139
131 149
131 178
131 179
131 196
131 217
131 242
131 251
132 171
132 210
132 250
132 269
132 293
132 298
133 139
133 156
133 165
133 196
133 246
133 252
133 253
134 161
134 168
134 174
134 199
134 202
134 243
134 268
135 145
135 150
135 198
135 217
135 228
135 255
135 268
135 280
136 145
136 178
136 203
136 221
136 246
136 288
137 149
137 157
137 193
137 215
137 239
138 164
138 179
139 157
139 165
139 199
139 210
139 249
139 251
139 252
139 272
140 213
140 267
142 181
142 194
142 217
142 241
142 269
142 292
142 298
143 152
143 154
143 252
143 270
143 273
143 292
143 294
144 155
144 156
144 208
144 222
144 228
144 233
144 292
145 153
145 155
145 171
145 175
145 176
145 184
145 204
145 221
145 224
145 245
145 288
146 156
146 285
146 288
147 191
147 194
147 235
147 291
148 151
149 196
149 227
149 236
149 251
150 163
150 198
150 261
150 284
150 287
150 293
151 183
151 192
151 229
151 269
151 290
152 155
152 252
152 259
152 263
153 183
153 184
153 204
153 254
153 265
153 277
154 194
154 254
154 256
155 220
155 246
156 189
156 191
156 197
156 208
156 213
156 220
156 246
156 248
156 271
156 296
157 165
157 186
157 215
157 216
157 256
157 274
158 212
158 235
159 191
159 246
159 291
159 296
160 218
160 234
160 252
160 265
160 283
160 293
161 187
161 190
161 297
162 238
162 243
162 266
162 287
163 189
163 200
163 250
163 258
163 277
163 293
163 295
164 229
164 256
164 258
164 265
165 172
165 186
165 255
165 256
165 274
166 175
166 188
166 219
166 260
167 174
167 231
167 251
168 189
168 218
168 232
168 268
169 172
169 213
169 220
169 244
169 282
170 186
170 190
170 199
170 210
170 234
170 259
171 269
172 269
172 274
172 294
173 192
173 234
173 238
173 244
173 247
175 208
175 219
175 220
175 226
175 251
175 284
176 204
176 236
177 191
177 194
178 198
178 203
178 290
178 295
179 273
180 211
180 217
181 185
181 259
181 275
181 285
181 289
182 183
182 187
182 233
182 253
182 258
182 269
182 289
182 290
183 265
183 269
183 277
184 197
184 204
185 236
185 279
186 234
186 245
186 256
186 262
187 190
187 275
187 285
187 290
188 209
188 225
188 241
188 252
188 253
188 259
188 285
189 218
189 245
189 262
189 268
189 269
189 276
189 277
190 200
190 215
190 222
191 194
191 208
191 246
191 268
191 275
191 281
191 294
192 251
192 276
192 287
194 216
194 246
194 256
194 260
194 278
194 281
194 291
194 296
195 202
195 224
196 233
196 242
196 276
196 278
196 285
197 248
198 286
199 225
199 233
199 247
199 249
199 259
200 224
200 250
200 268
200 286
200 293
200 295
201 210
201 249
201 254
201 268
201 282
202 205
202 254
202 268
203 295
204 254
204 262
205 248
206 291
207 223
207 237
207 277
208 213
208 219
208 228
208 230
208 238
208 244
209 225
209 241
209 300
210 271
210 272
212 229
212 238
212 244
212 268
213 220
213 235
213 282
215 216
215 284
215 289
216 222
216 237
216 256
216 260
216 277
217 232
217 246
217 263
217 268
217 284
217 298
218 234
218 245
218 255
218 262
218 293
223 235
224 253
224 258
224 259
224 288
225 233
225 234
225 247
225 297
227 264
229 256
229 265
229 268
229 269
229 278
230 244
231 282
231 283
232 268
232 299
233 239
233 244
233 297
234 247
235 251
235 258
235 291
236 266
236 269
237 256
237 257
237 300
238 244
238 251
239 261
239 287
239 300
240 264
240 280
242 283
242 285
242 291
242 296
243 277
244 264
245 262
246 284
246 294
246 296
246 298
247 257
248 285
250 275
250 285
251 284
251 287
252 265
252 278
252 292
253 258
253 259
254 255
254 268
254 282
255 273
255 274
255 286
255 290
255 293
256 260
256 278
257 278
259 289
261 293
261 300
262 269
262 276
266 269
266 287
267 269
267 293
268 294
271 272
273 286
274 286
274 290
275 285
275 294
276 287
279 285
281 294
285 296
286 295
290 291
290 296
291 296
293 298
293 300
*Classes
1
1
1
1
1
1
1
1
1
1
1
1
1
1
1
1
1
1
1
1
1
1
1
1
1
1
1
1
1
1
1
1
1
1
1
1
1
1
1
1
1
1
1
1
1
1
1
1
1
1
1
1
1
1
1
1
1
1
1
1
1
1
1
1
1
1
1
1
1
1
1
1
1
1
1
1
1
1
1
1
1
1
1
1
1
1
1
1
1
1
1
1
1
1
1
1
1
1
1
1
1
1
1
1
1
1
1
1
1
1
1
1
1
1
1
1
1
1
1
1
1
1
1
1
1
1
1
1
1
1
1
1
1
1
1
1
1
1
1
1
1
1
1
1
1
1
1
1
1
1
2
2
2
2
2
2
2
2
2
2
2
2
2
2
2
2
2
2
2
2
2
2
2
2
2
2
2
2
2
2
2
2
2
2
2
2
2
2
2
2
2
2
2
2
2
2
2
2
2
2
2
2
2
2
2
2
2
2
2
2
2
2
2
2
2
2
2
2
2
2
2
2
2
2
2
2
2
2
2
2
2
2
2
2
2
2
2
2
2
2
2
2
2
2
2
2
2
2
2
2
2
2
2
2
2
2
2
2
2
2
2
2
2
2
2
2
2
2
2
2
2
2
2
2
2
2
2
2
2
2
2
2
2
2
2
2
2
2
2
2
2
2
2
2
2
2
2
2
2
2
