*Vertices 300
*Edges
1 18
1 20
1 39
1 70
1 73
1 94
1 230
1 298
2 30
2 179
3 12
3 15
3 19
3 57
3 60
3 74
3 80
3 87
3 89
3 90
3 92
3 105
3 113
3 123
3 130
3 140
3 148
3 151
3 162
3 212
3 232
3 254
3 270
3 280
4 20
4 24
4 60
4 66
4 72
4 80
4 94
4 133
4 139
4 164
4 226
4 236
4 238
4 276
5 28
5 41
5 44
5 54
5 134
5 147
5 163
5 190
5 207
5 229
6 7
6 31
6 52
6 56
6 60
6 74
6 123
6 131
6 204
6 216
6 220
6 243
6 293
7 25
7 27
7 36
7 46
7 52
7 60
7 126
7 140
7 167
7 179
7 235
8 29
8 36
8 51
8 59
8 63
8 75
8 101
8 104
8 111
8 129
8 149
8 170
8 178
8 216
8 241
8 279
9 29
9 57
9 80
9 82
9 96
9 97
9 125
9 138
9 145
9 157
9 214
9 256
10 26
10 34
10 36
10 123
10 135
10 227
10 264
10 268
11 63
11 93
11 111
11 130
11 140
11 148
11 266
12 15
12 19
12 28
12 80
12 119
12 163
12 222
12 280
13 22
13 71
13 91
13 95
13 152
13 186
13 265
13 282
14 20
14 97
14 99
14 117
14 121
14 137
14 143
14 149
14 199
14 220
14 236
14 256
14 295
15 21
15 45
15 53
15 79
15 87
15 130
15 157
15 232
15 256
15 264
15 287
15 298
16 64
16 75
16 79
16 102
16 149
16 202
16 211
16 224
16 281
17 20
17 32
17 41
17 44
17 47
17 49
17 91
17 130
17 136
17 242
17 258
18 30
18 39
18 103
18 160
18 161
18 177
18 178
18 187
18 230
18 285
18 289
19 20
19 53
19 70
19 72
19 89
19 106
19 130
19 138
19 166
19 219
19 259
19 269
19 276
19 288
20 44
20 60
20 62
20 70
20 72
20 92
20 97
20 99
20 104
20 120
20 150
20 178
20 183
20 280
20 284
21 53
21 130
21 152
21 186
21 233
21 246
21 271
21 282
22 58
22 186
22 188
22 194
22 208
22 221
22 295
23 25
23 62
23 116
23 131
23 170
23 255
23 265
24 40
24 56
24 58
24 62
24 72
24 75
24 79
24 92
24 100
24 111
24 208
24 219
25 44
25 46
25 94
25 101
25 111
25 113
25 116
25 126
25 133
25 137
25 139
25 172
25 183
25 190
25 266
25 282
26 28
26 32
26 109
26 123
26 131
26 167
26 189
26 204
26 246
27 60
27 80
27 95
27 181
27 215
27 253
27 263
27 267
27 282
27 285
28 31
28 57
28 80
28 120
28 123
28 133
28 134
28 174
28 189
28 194
28 261
28 291
29 81
29 104
29 107
29 117
29 138
29 145
29 157
29 283
30 34
30 102
30 103
30 118
30 143
30 165
30 178
30 187
30 189
30 196
30 243
30 281
31 46
31 80
31 133
31 142
31 210
32 39
32 53
32 81
32 180
32 246
33 267
34 35
34 52
34 60
34 102
34 110
34 135
34 143
34 186
34 246
35 102
35 135
35 294
35 295
35 296
36 55
36 67
36 75
36 80
36 110
36 135
36 136
36 142
36 149
36 196
36 197
36 234
37 73
37 136
37 170
37 179
37 222
37 278
38 43
38 56
38 116
38 123
38 131
38 151
38 180
38 192
38 208
38 250
38 292
39 85
39 92
39 117
39 120
39 127
39 171
39 180
39 213
39 214
39 229
39 232
39 245
39 253
39 298
40 62
40 66
40 75
40 79
40 85
40 100
40 119
40 206
40 219
40 281
40 288
41 44
41 57
41 87
41 94
41 120
41 122
41 129
41 139
41 148
41 166
41 256
41 263
41 270
42 45
42 114
42 123
42 131
42 153
42 167
42 179
42 196
42 242
42 271
42 300
43 131
43 160
43 208
43 226
43 227
43 234
43 253
44 46
44 48
44 116
44 130
44 147
44 152
44 190
44 242
44 258
44 263
44 299
45 53
45 128
45 131
45 167
45 242
45 287
46 113
46 116
46 244
46 285
47 48
47 49
47 82
47 97
47 124
47 178
47 261
47 263
48 66
48 124
48 130
48 223
48 276
49 52
49 80
49 97
49 124
49 133
49 246
49 252
49 298
50 115
50 133
50 139
50 204
51 63
51 86
51 92
51 108
51 111
51 144
51 258
51 276
51 293
52 60
52 121
52 165
52 169
52 170
52 175
52 217
52 244
52 246
52 277
53 124
53 130
53 238
53 246
53 248
53 249
54 98
54 117
54 146
54 207
54 213
54 229
54 245
54 256
55 91
55 95
55 99
55 110
55 196
55 201
55 258
55 280
55 300
56 79
56 116
56 123
56 149
56 165
56 196
56 216
56 237
56 279
56 289
56 290
57 120
57 123
57 157
57 204
57 211
57 212
57 213
57 254
57 259
58 208
59 129
59 160
59 216
59 292
60 80
60 95
60 135
60 143
60 175
60 232
60 285
60 293
61 115
61 175
61 245
61 295
62 72
62 116
62 198
62 218
62 238
62 284
63 90
63 111
63 227
63 229
63 232
63 268
64 75
64 92
64 149
64 165
64 171
64 199
64 208
64 211
64 216
64 256
64 267
64 276
65 156
65 164
65 166
65 292
66 72
66 121
66 132
66 170
66 213
66 223
66 226
66 248
67 86
67 108
67 123
67 136
67 154
67 172
67 191
67 196
67 204
67 269
67 271
67 291
68 220
69 80
69 87
69 122
69 136
69 145
69 243
70 72
70 73
70 84
70 106
70 120
70 140
70 141
70 165
70 199
70 223
70 234
70 272
70 274
70 300
71 186
71 216
71 226
71 240
71 249
71 251
71 275
72 75
72 121
72 140
72 194
72 238
72 251
72 255
72 264
72 287
73 86
73 106
73 119
73 141
73 144
73 162
73 196
73 215
73 226
73 261
73 300
74 123
74 166
74 211
74 222
74 238
75 76
75 87
75 92
75 111
75 130
75 136
75 142
75 149
75 171
75 202
75 256
76 240
76 246
76 256
77 78
77 142
77 161
77 260
77 263
77 274
77 278
78 89
78 138
78 200
78 274
79 85
79 92
79 116
79 120
79 149
79 180
79 216
79 278
79 279
80 133
80 142
80 145
80 173
80 197
80 263
80 291
81 107
81 135
81 138
81 157
81 219
81 231
81 232
81 253
81 288
81 300
82 97
82 142
82 165
82 231
82 253
82 272
82 289
83 89
83 146
83 174
83 188
83 222
83 252
83 298
84 85
84 98
84 126
84 129
84 200
84 267
84 271
84 274
85 92
85 94
85 103
85 126
85 129
85 161
85 262
85 281
86 141
86 173
86 179
86 191
86 271
87 92
87 104
87 136
87 140
87 148
87 149
87 184
87 229
87 270
88 165
88 230
88 262
89 130
89 138
89 146
89 172
89 248
89 267
89 291
89 296
89 299
90 142
90 197
90 232
90 251
91 95
91 138
91 173
91 253
91 254
91 258
91 293
92 113
92 120
92 144
92 151
92 181
92 232
93 148
93 172
93 214
93 254
93 272
93 279
94 103
94 139
94 200
94 289
94 297
95 166
95 169
95 202
95 232
95 233
95 253
95 278
95 299
96 125
96 215
96 240
97 100
97 104
97 117
97 124
97 138
97 169
97 261
98 152
98 154
98 207
98 239
98 271
99 104
99 110
99 117
99 135
99 150
99 164
99 180
99 265
99 284
99 297
100 117
100 119
100 160
100 185
100 191
100 223
100 267
100 281
101 111
101 174
101 213
101 282
101 295
101 299
102 118
102 149
102 186
102 196
102 206
102 228
102 271
102 281
102 300
103 177
104 111
104 117
104 149
104 223
104 270
105 113
105 124
105 142
105 209
105 228
105 245
105 262
105 263
106 144
107 138
107 199
107 283
108 141
108 169
108 186
108 198
108 271
108 281
109 125
109 276
109 279
110 135
110 153
110 164
110 206
110 280
111 149
111 189
112 195
113 116
113 123
113 139
113 140
113 162
113 172
113 209
113 250
113 283
114 195
114 205
114 207
114 209
114 231
114 232
114 241
114 263
114 295
115 124
115 183
115 248
116 123
116 129
116 139
116 194
116 254
116 261
117 160
117 169
117 197
117 212
117 223
117 240
117 245
117 267
117 276
117 286
118 213
119 144
119 163
119 244
120 166
120 181
120 209
120 228
121 149
121 210
121 213
121 230
121 236
121 241
121 244
121 248
121 251
122 139
122 255
123 131
123 204
123 232
123 249
123 254
124 192
124 196
124 238
124 244
124 248
124 263
124 287
124 290
125 145
125 180
125 214
125 299
126 166
126 175
126 268
126 274
127 204
127 218
127 253
127 272
128 135
128 148
128 225
128 227
129 133
129 148
129 150
129 157
129 170
129 178
129 197
129 254
129 259
129 271
130 192
130 234
130 249
130 265
130 269
130 299
131 153
131 170
131 210
131 299
131 300
132 170
132 256
133 139
133 142
133 178
133 225
134 148
134 174
134 229
134 260
134 278
135 143
135 153
135 212
135 215
135 227
135 268
135 300
136 140
136 142
136 196
136 243
136 258
136 271
137 199
137 243
137 266
137 290
138 154
138 157
138 162
138 183
138 199
138 241
138 254
139 166
139 178
139 200
140 148
140 167
140 172
140 179
140 190
140 234
140 235
140 279
140 286
141 150
141 255
141 261
142 161
142 176
142 184
142 186
142 195
142 197
142 227
142 233
142 263
143 199
143 221
143 257
143 295
144 300
145 256
145 291
146 178
146 213
146 220
146 225
146 239
146 254
146 299
147 201
147 207
147 293
148 150
148 152
148 159
148 166
148 168
148 225
148 260
149 184
149 202
149 220
149 256
150 151
150 210
150 292
151 206
151 213
151 228
151 281
152 159
152 182
152 187
152 213
152 239
152 242
152 282
152 286
153 210
153 298
153 299
154 159
154 230
155 233
156 166
156 232
156 278
156 288
157 193
157 203
157 212
157 218
157 235
157 240
157 253
157 259
158 184
158 211
158 212
159 185
159 187
160 187
160 285
160 292
161 165
161 187
161 200
161 262
161 289
162 279
163 171
163 186
163 229
163 233
163 244
164 205
164 252
165 169
165 170
165 189
165 196
165 208
165 214
165 222
165 230
165 244
165 245
165 262
165 272
165 278
165 299
166 232
166 236
166 245
166 262
166 268
166 269
166 288
166 297
167 189
167 193
167 203
168 178
168 225
169 170
169 183
169 222
169 236
169 241
169 281
170 172
170 175
170 180
170 195
170 222
170 241
170 245
170 265
170 277
170 299
171 173
171 196
171 199
171 200
171 229
171 267
171 291
172 175
172 237
172 277
172 278
172 279
172 283
172 286
172 291
173 179
173 208
173 225
173 291
173 293
174 244
174 251
174 289
175 214
175 217
175 237
175 245
175 277
175 278
176 191
176 227
176 245
177 192
177 248
177 252
177 257
178 207
178 225
178 231
178 233
178 235
178 284
178 300
179 200
179 235
179 257
179 271
179 281
179 293
180 214
180 265
180 272
180 284
181 263
182 225
182 239
182 275
183 199
183 200
183 213
183 236
183 247
183 266
183 283
184 227
184 271
185 187
185 213
186 216
186 231
186 233
186 266
186 282
187 200
187 213
187 251
187 262
187 281
187 289
189 193
189 222
189 262
189 272
191 197
191 208
191 231
191 277
191 291
192 228
192 248
192 265
193 203
193 294
194 221
194 239
194 255
194 261
194 287
194 295
194 297
195 200
195 205
195 241
195 249
195 263
195 289
196 211
196 215
196 226
196 229
196 232
196 262
196 269
196 273
196 290
196 300
197 286
197 291
198 210
199 200
199 214
199 221
199 229
199 236
199 262
199 272
199 283
199 293
200 215
200 258
200 262
200 289
200 293
200 296
200 300
201 207
201 212
201 259
202 296
203 259
203 280
204 253
204 256
204 262
204 264
204 268
204 269
204 271
204 291
205 252
206 228
206 280
207 259
208 277
208 293
209 217
209 228
209 248
209 253
209 291
209 295
210 244
211 212
211 269
212 269
212 286
213 226
213 232
213 236
213 247
213 248
213 269
213 281
214 272
214 278
214 299
215 263
215 275
215 289
215 300
216 237
216 276
217 277
217 295
218 253
218 286
219 223
219 234
219 288
220 239
220 256
221 222
221 249
221 252
221 255
221 257
221 269
221 272
221 287
221 289
222 230
222 233
222 257
222 260
222 278
222 289
222 299
223 231
223 234
223 276
225 233
225 258
225 293
226 273
226 275
226 300
227 268
228 248
228 253
228 280
228 291
229 247
229 270
230 262
231 232
231 233
231 234
231 269
231 278
232 233
232 257
232 262
232 269
232 288
233 266
233 278
235 240
235 284
235 300
236 247
236 283
236 288
237 240
237 276
237 277
238 297
239 242
239 254
239 297
240 245
240 259
240 276
241 263
241 265
242 286
243 258
245 262
245 264
245 278
245 286
246 247
246 270
247 270
247 288
249 251
249 289
249 294
251 294
252 257
252 269
252 291
252 298
253 272
254 258
255 297
256 264
257 269
258 285
258 293
259 286
260 278
261 287
262 264
262 277
262 288
264 268
264 277
264 287
266 287
268 297
270 288
271 281
271 291
271 293
273 300
279 291
283 286
283 291
284 292
285 296
286 291
287 297
289 293
291 293
298 299
*Classes
1
1
1
1
1
1
1
1
1
1
1
1
1
1
1
1
1
1
1
1
1
1
1
1
1
1
1
1
1
1
1
1
1
1
1
1
1
1
1
1
1
1
1
1
1
1
1
1
1
1
1
1
1
1
1
1
1
1
1
1
1
1
1
1
1
1
1
1
1
1
1
1
1
1
1
1
1
1
1
1
1
1
1
1
1
1
1
1
1
1
1
1
1
1
1
1
1
1
1
1
1
1
1
1
1
1
1
1
1
1
1
1
1
1
1
1
1
1
1
1
1
1
1
1
1
1
1
1
1
1
1
1
1
1
1
1
1
1
1
1
1
1
1
1
1
1
1
1
1
1
2
2
2
2
2
2
2
2
2
2
2
2
2
2
2
2
2
2
2
2
2
2
2
2
2
2
2
2
2
2
2
2
2
2
2
2
2
2
2
2
2
2
2
2
2
2
2
2
2
2
2
2
2
2
2
2
2
2
2
2
2
2
2
2
2
2
2
2
2
2
2
2
2
2
2
2
2
2
2
2
2
2
2
2
2
2
2
2
2
2
2
2
2
2
2
2
2
2
2
2
2
2
2
2
2
2
2
2
2
2
2
2
2
2
2
2
2
2
2
2
2
2
2
2
2
2
2
2
2
2
2
2
2
2
2
2
2
2
2
2
2
2
2
2
2
2
2
2
2
2
