*Vertices 300
*Edges
1 6
1 13
1 96
1 98
1 110
1 136
1 150
1 164
1 196
1 205
1 206
1 215
1 230
2 102
2 113
2 146
2 256
2 266
2 276
3 6
3 14
3 29
3 42
3 98
3 107
3 126
3 159
3 191
3 256
4 8
4 55
4 169
4 211
4 251
4 258
4 297
5 61
5 89
5 107
5 117
5 128
5 130
5 206
5 250
5 294
5 295
6 29
6 37
6 46
6 65
6 66
6 96
6 126
6 136
6 137
6 148
6 150
6 199
6 206
6 294
7 11
7 21
7 131
7 144
7 145
7 155
7 195
7 198
7 232
7 250
7 289
8 15
8 17
8 19
8 52
8 85
8 92
8 100
8 127
8 201
8 216
8 243
8 246
8 251
8 258
8 297
9 43
9 49
9 55
9 78
9 90
9 92
9 104
9 121
9 122
9 180
9 203
9 221
9 223
9 234
9 259
9 266
9 274
9 278
10 14
10 30
10 34
10 43
10 55
10 56
10 65
10 66
10 87
10 118
10 124
10 128
10 142
10 166
10 167
10 247
11 45
11 46
11 72
11 124
11 131
11 140
11 142
11 144
11 155
11 164
11 189
11 191
11 237
11 250
11 264
12 13
12 31
12 38
12 55
12 66
12 67
12 78
12 89
12 95
12 103
12 115
12 135
12 170
12 172
12 204
12 224
12 225
12 229
12 242
12 277
12 279
12 296
13 31
13 72
13 89
13 103
13 110
13 127
13 172
13 219
13 288
14 21
14 43
14 45
14 63
14 80
14 81
14 90
14 92
14 104
14 121
14 123
14 150
14 159
14 168
14 187
14 278
15 35
15 50
15 64
15 94
15 134
15 164
15 167
15 178
15 195
15 200
15 205
15 216
16 23
16 26
16 62
16 67
16 87
16 117
16 166
16 187
16 277
16 298
17 45
17 63
17 83
17 92
17 107
17 131
17 133
17 145
17 151
17 153
17 179
17 214
17 261
18 39
18 64
18 112
18 122
18 144
18 174
18 236
18 291
19 48
19 52
19 56
19 65
19 66
19 104
19 195
19 216
19 219
19 254
19 256
19 258
20 49
20 53
20 139
20 225
20 239
20 248
21 43
21 123
21 171
21 187
21 188
21 198
21 253
22 67
22 72
22 103
22 117
22 140
22 183
22 226
22 275
22 293
22 294
22 299
23 39
23 48
23 51
23 117
23 131
23 145
23 158
23 204
23 237
23 244
23 300
24 43
24 44
24 60
24 184
24 190
24 239
24 281
24 282
24 291
25 47
25 53
25 126
25 130
25 137
25 174
25 208
25 211
25 265
25 276
25 285
26 29
26 30
26 42
26 48
26 62
26 65
26 93
26 94
26 111
26 171
26 178
26 181
26 225
26 244
26 263
26 264
26 286
26 297
27 115
27 127
27 132
27 147
27 188
27 295
27 299
28 39
28 56
28 131
28 149
28 152
28 159
28 178
28 190
28 196
28 197
28 220
28 228
28 264
28 271
28 290
29 39
29 42
29 81
29 95
29 109
29 129
29 141
29 182
29 191
29 276
30 37
30 43
30 48
30 51
30 76
30 100
30 109
30 113
30 114
30 117
30 120
30 128
30 162
30 170
30 186
30 193
30 268
30 292
31 67
31 71
31 84
31 87
31 96
31 109
31 162
31 191
31 240
31 256
31 257
31 258
31 260
31 279
32 35
32 36
32 88
32 123
32 147
32 254
33 97
33 215
33 263
34 57
34 66
34 75
34 88
34 109
34 185
34 197
34 211
34 231
34 243
35 71
35 98
35 111
35 205
35 211
35 261
36 118
36 123
36 157
36 247
36 250
37 74
37 162
37 199
37 300
38 95
38 115
38 126
38 139
38 172
38 204
38 218
38 263
38 291
39 42
39 93
39 102
39 110
39 117
39 119
39 141
39 144
39 168
39 178
39 181
39 199
39 206
39 214
39 253
39 264
39 291
40 45
40 51
40 64
40 91
40 94
40 134
40 157
40 191
40 203
40 221
40 250
40 275
41 50
41 165
41 167
41 181
41 203
41 214
41 221
41 253
42 62
42 65
42 71
42 93
42 144
42 168
42 182
43 44
43 66
43 77
43 84
43 92
43 99
43 104
43 123
43 266
43 278
43 289
44 60
44 77
44 104
44 189
44 239
45 80
45 81
45 92
45 111
45 121
45 123
45 164
45 191
45 217
45 222
45 242
45 261
45 275
45 278
46 65
46 106
46 142
46 231
47 91
47 148
47 186
47 192
47 217
47 265
47 294
48 117
48 145
48 154
48 181
48 243
48 247
48 256
48 263
48 267
48 292
48 295
48 297
49 58
49 64
49 78
49 92
49 122
49 126
49 128
49 148
49 180
49 196
49 214
49 224
49 239
49 248
49 284
50 94
50 106
50 114
50 132
50 166
50 181
50 187
50 191
50 200
50 234
50 256
50 257
51 117
51 134
51 162
51 204
51 237
51 268
51 271
51 284
51 293
52 216
52 246
53 125
53 130
53 158
53 165
53 174
53 235
53 242
54 57
54 85
54 88
54 92
54 99
54 105
54 241
55 124
55 142
55 172
55 202
55 204
55 223
55 225
55 261
55 277
55 295
56 66
56 101
56 105
56 126
56 137
56 140
56 187
56 265
56 291
57 88
57 128
57 157
57 166
57 187
57 198
57 211
57 246
57 252
57 260
57 281
57 296
58 128
58 136
58 228
58 261
59 87
59 92
59 105
59 149
59 169
59 227
59 286
61 76
61 80
61 106
61 113
61 121
61 131
61 152
61 168
61 210
61 222
61 233
61 250
61 261
61 264
61 290
61 298
62 94
62 166
62 178
62 277
63 92
63 147
63 248
63 256
63 264
64 106
64 115
64 122
64 134
64 157
64 291
65 66
65 89
65 106
65 287
66 67
66 82
66 89
66 101
66 104
66 109
66 185
66 205
66 219
66 243
66 259
66 265
66 287
67 74
67 75
67 81
67 82
67 85
67 103
67 109
67 154
67 192
67 196
67 197
67 256
68 167
68 198
68 205
68 212
68 226
68 256
68 290
69 197
69 215
70 127
70 148
70 201
70 277
70 285
70 300
71 79
71 93
71 96
71 98
71 110
71 139
71 211
71 234
71 240
71 245
71 262
71 288
72 100
72 101
72 103
72 105
72 123
72 127
72 140
72 199
72 208
72 215
72 226
73 201
73 202
73 217
73 241
74 83
74 85
74 92
74 232
74 233
74 275
75 231
75 274
76 113
76 127
76 132
76 135
76 170
76 219
76 233
77 153
77 207
77 229
77 261
77 266
77 296
78 85
78 161
78 179
78 216
78 225
78 266
79 110
79 124
79 131
79 133
79 152
79 183
79 233
79 238
79 262
79 272
79 285
80 106
80 121
80 157
80 224
80 282
81 109
81 121
81 212
81 252
82 109
82 116
82 144
82 167
82 200
82 272
83 85
83 92
83 193
83 220
83 236
83 290
84 99
84 109
84 129
84 176
84 213
84 228
84 265
84 276
84 279
84 290
85 87
85 90
85 92
85 99
85 109
85 161
85 197
85 216
85 233
85 241
85 255
86 238
87 92
87 96
87 110
87 132
87 166
87 167
87 222
87 232
87 282
87 298
88 105
88 123
88 143
88 176
88 187
88 280
89 131
89 135
89 155
89 187
89 222
89 224
89 242
89 292
90 99
90 100
90 153
90 159
90 160
90 196
90 243
90 261
91 100
91 123
91 127
91 134
91 184
91 205
91 246
91 262
92 122
92 133
92 193
92 246
92 290
92 296
93 98
93 136
93 137
93 274
94 113
94 125
94 134
94 166
94 168
94 181
94 200
95 99
95 126
95 139
95 148
95 171
95 176
95 191
95 195
95 248
96 139
96 232
97 152
97 238
97 273
98 107
98 110
98 120
98 151
98 230
99 139
99 161
99 178
99 213
99 220
99 233
99 244
100 102
100 113
100 114
100 123
100 127
100 153
100 243
100 259
100 274
101 105
101 117
101 140
101 210
101 227
102 113
102 119
102 184
102 225
102 239
102 291
103 109
103 192
103 225
103 275
103 297
104 202
104 210
104 243
104 262
104 279
104 291
105 128
105 143
105 227
105 246
105 247
106 122
106 147
106 155
106 200
106 224
107 120
107 130
107 145
107 151
107 240
107 245
108 202
108 235
108 249
109 128
109 129
109 155
109 181
109 186
109 196
109 200
109 212
109 214
109 265
109 295
110 210
110 217
110 262
110 264
110 273
110 288
111 199
111 214
111 217
111 225
111 275
112 165
112 174
112 235
113 125
113 153
113 168
113 175
113 210
113 291
114 153
114 257
116 192
116 193
117 130
117 145
117 158
117 175
117 181
117 207
117 210
117 294
118 128
118 177
118 242
119 184
119 264
119 298
120 193
121 123
121 150
121 153
121 191
121 249
121 279
122 147
122 155
122 157
122 163
122 259
122 264
122 276
123 127
123 147
123 238
123 285
124 158
124 183
124 264
125 272
126 137
126 148
126 171
126 191
126 206
126 236
126 284
126 288
126 294
127 132
127 134
127 148
127 219
127 230
127 281
127 285
128 136
128 142
128 151
128 246
128 260
128 261
128 295
128 298
129 147
129 202
129 212
129 235
129 256
129 257
129 271
129 290
130 143
130 145
130 165
130 188
130 195
130 232
130 242
130 270
131 141
131 145
131 155
131 196
131 207
131 233
131 300
132 166
132 188
132 230
133 159
133 198
133 203
133 272
133 291
134 168
134 169
134 227
134 246
135 196
135 230
135 255
136 178
136 216
136 222
136 294
136 296
137 148
137 235
138 174
139 191
139 243
140 142
140 179
140 221
141 144
141 145
141 165
141 182
142 167
142 188
142 213
142 225
142 231
142 237
143 176
143 280
144 167
144 199
144 206
144 226
144 289
145 172
145 188
145 199
145 207
145 226
145 286
145 297
146 182
146 222
146 256
146 265
146 276
147 162
147 169
147 193
147 252
147 256
147 264
147 290
148 173
148 230
148 268
148 281
148 288
148 294
149 178
149 204
149 228
149 244
150 185
150 196
150 208
150 215
150 254
150 279
151 187
151 281
151 282
152 238
152 273
153 163
153 204
153 241
153 259
153 261
153 264
154 249
154 267
154 285
154 288
154 300
155 212
155 228
155 259
156 159
156 169
156 196
156 210
156 248
156 262
156 263
156 275
157 163
157 176
157 198
157 224
158 183
158 189
158 203
159 160
159 196
159 203
159 253
160 196
160 272
160 282
161 162
161 177
161 198
161 227
162 169
162 170
162 177
162 198
162 212
162 248
162 258
162 279
162 280
162 284
162 295
163 176
163 248
163 259
164 168
164 195
164 205
164 214
164 284
164 291
164 293
164 297
165 202
165 233
165 235
165 240
165 261
165 282
166 187
166 259
166 295
166 298
167 176
167 178
167 198
167 214
167 216
167 256
167 258
167 297
168 169
168 191
168 250
168 263
168 273
168 278
168 298
169 177
169 191
169 194
169 208
169 211
169 215
169 227
169 248
169 258
169 263
169 275
169 286
169 297
170 188
170 217
170 224
170 277
170 295
171 177
171 181
171 182
171 198
171 219
172 204
172 244
172 246
172 257
173 281
174 184
174 213
175 179
175 200
175 210
176 248
176 256
176 258
177 219
177 279
177 295
178 181
178 192
178 220
178 222
178 244
178 264
179 205
179 210
179 214
179 219
179 221
179 224
179 245
179 253
179 271
180 227
180 279
180 281
180 282
180 285
181 214
181 217
181 253
182 198
182 212
182 227
182 256
182 276
182 286
183 189
183 223
183 233
183 264
183 277
183 289
183 299
184 213
184 235
184 236
184 291
185 240
185 261
186 200
186 215
186 268
186 293
187 188
187 217
187 228
187 242
187 272
187 281
187 282
187 283
188 217
188 218
188 277
188 283
188 295
188 298
189 277
189 280
189 299
190 196
190 241
190 260
191 223
191 246
191 256
191 258
191 263
191 296
192 265
193 246
193 252
193 297
194 201
194 223
194 263
195 205
195 219
195 232
195 239
195 248
195 251
195 258
195 273
195 290
196 214
197 215
197 231
197 235
197 255
197 271
198 212
198 214
198 246
198 276
198 279
198 281
198 285
198 295
198 297
199 226
199 232
199 300
200 215
200 230
200 293
201 244
201 263
202 223
202 228
202 235
202 243
202 249
202 261
202 279
202 284
202 293
203 221
203 283
204 237
204 264
204 291
205 210
205 217
205 219
205 226
205 239
205 262
205 269
205 290
207 229
208 211
208 215
209 213
209 294
210 221
210 234
210 262
211 227
211 263
212 228
212 281
214 217
214 261
214 293
214 297
215 226
215 230
215 263
215 283
216 220
216 242
216 267
216 278
216 296
217 241
217 262
217 285
218 247
218 260
218 263
218 277
218 289
219 228
219 230
219 253
219 265
219 269
219 271
220 243
220 264
220 267
222 235
222 236
222 242
222 285
222 291
223 233
223 240
223 261
223 263
223 277
223 299
224 239
224 240
224 245
224 272
224 273
225 229
225 240
225 246
225 288
225 295
225 296
226 269
227 245
227 248
227 279
227 286
227 297
228 235
228 237
228 244
228 271
228 281
228 282
229 240
230 268
230 283
230 288
231 249
232 248
232 290
233 244
233 261
234 239
234 262
234 273
234 296
235 236
235 239
235 253
235 271
235 273
235 281
235 282
235 289
235 291
236 285
236 291
237 271
237 285
237 292
239 245
239 258
239 262
239 272
239 273
239 290
240 245
240 260
240 261
240 281
240 285
240 288
242 296
243 259
243 267
244 271
244 282
245 261
246 257
246 260
246 295
246 296
247 250
247 256
247 286
247 289
248 263
249 267
249 288
250 275
251 290
253 273
253 291
255 271
256 258
256 263
256 264
256 286
256 292
256 297
257 260
258 280
259 271
259 274
259 276
260 289
260 296
261 263
261 288
261 291
261 293
262 271
262 273
262 285
262 296
263 269
263 283
263 284
263 293
263 296
263 297
264 290
265 267
265 276
266 293
267 276
267 278
267 296
267 300
268 283
269 284
270 280
271 285
272 282
273 285
276 286
276 292
277 289
281 282
281 285
282 283
282 289
284 291
284 293
285 291
285 296
286 297
288 296
289 299
291 293
292 295
295 298
*Classes
1
1
1
1
1
1
1
1
1
1
1
1
1
1
1
1
1
1
1
1
1
1
1
1
1
1
1
1
1
1
1
1
1
1
1
1
1
1
1
1
1
1
1
1
1
1
1
1
1
1
1
1
1
1
1
1
1
1
1
1
1
1
1
1
1
1
1
1
1
1
1
1
1
1
1
1
1
1
1
1
1
1
1
1
1
1
1
1
1
1
1
1
1
1
1
1
1
1
1
1
1
1
1
1
1
1
1
1
1
1
1
1
1
1
1
1
1
1
1
1
1
1
1
1
1
1
1
1
1
1
1
1
1
1
1
1
1
1
1
1
1
1
1
1
1
1
1
1
1
1
2
2
2
2
2
2
2
2
2
2
2
2
2
2
2
2
2
2
2
2
2
2
2
2
2
2
2
2
2
2
2
2
2
2
2
2
2
2
2
2
2
2
2
2
2
2
2
2
2
2
2
2
2
2
2
2
2
2
2
2
2
2
2
2
2
2
2
2
2
2
2
2
2
2
2
2
2
2
2
2
2
2
2
2
2
2
2
2
2
2
2
2
2
2
2
2
2
2
2
2
2
2
2
2
2
2
2
2
2
2
2
2
2
2
2
2
2
2
2
2
2
2
2
2
2
2
2
2
2
2
2
2
2
2
2
2
2
2
2
2
2
2
2
2
2
2
2
2
2
2
