*Vertices 300
*Edges
1 22
1 62
1 85
1 120
1 187
1 201
2 10
2 34
2 61
2 84
2 100
2 109
2 135
2 166
2 248
2 279
3 9
3 52
3 65
3 96
3 199
4 33
4 46
4 76
4 87
4 118
4 126
4 206
4 235
4 275
5 48
5 72
5 83
5 143
5 175
5 176
5 244
5 272
6 23
6 25
6 73
6 93
6 116
6 198
6 288
7 28
7 44
7 72
7 91
7 117
7 144
7 146
7 147
7 212
8 28
8 29
8 43
8 50
8 68
8 76
8 81
8 111
8 112
8 147
8 230
8 244
8 255
8 264
9 17
9 29
9 40
9 46
9 57
9 65
9 88
9 94
9 118
9 121
9 140
9 157
9 163
9 205
9 207
9 221
9 235
10 19
10 32
10 57
10 68
10 84
10 92
10 97
10 109
10 143
10 188
10 214
10 286
11 21
11 59
11 125
11 126
11 140
11 223
11 255
11 282
12 29
12 39
12 40
12 69
12 110
12 123
12 163
12 174
12 184
12 185
13 31
13 72
13 75
13 81
13 95
13 101
13 104
13 120
13 146
13 277
13 299
14 33
14 66
14 79
14 126
14 131
14 135
14 160
15 157
15 162
15 206
17 20
17 28
17 29
17 118
17 134
17 143
17 144
17 147
17 190
17 199
17 269
18 62
18 95
18 103
18 105
18 114
18 145
18 147
18 228
18 259
19 21
19 32
19 90
19 120
19 134
19 140
19 143
19 149
19 286
20 29
20 54
20 56
20 77
20 104
20 118
20 134
20 192
20 199
20 242
20 270
20 271
20 297
21 26
21 29
21 30
21 47
21 126
21 134
21 143
21 185
21 296
22 23
22 31
22 62
22 67
22 70
22 85
22 111
22 142
22 151
22 228
23 36
23 70
23 89
23 99
23 118
23 168
23 192
24 33
24 124
24 126
24 188
24 197
24 227
24 242
24 260
25 38
25 76
25 88
25 116
25 129
25 146
25 184
25 224
25 260
26 42
26 44
26 134
26 143
26 219
26 253
26 272
27 41
27 50
27 77
27 80
27 86
27 90
27 111
27 116
27 123
27 125
27 127
27 140
27 145
27 167
27 204
27 216
27 220
27 284
27 293
28 31
28 40
28 73
28 96
28 134
28 137
28 144
28 146
28 153
29 40
29 76
29 140
29 154
29 163
29 207
29 288
30 37
30 52
30 73
30 155
30 190
30 218
30 237
30 254
30 263
31 48
31 68
31 74
31 111
31 125
31 128
31 146
31 185
31 244
31 265
31 273
31 278
31 283
32 34
32 58
32 71
32 84
32 109
32 113
32 139
32 148
32 195
32 231
33 49
33 64
33 67
33 81
33 107
33 113
33 230
33 235
33 258
34 35
34 58
34 59
34 78
34 92
34 117
35 61
35 91
35 95
35 100
35 110
35 211
35 213
35 293
36 40
36 89
36 116
36 155
36 156
36 169
36 179
36 222
37 67
37 80
37 113
37 130
38 53
38 55
38 76
38 88
38 94
38 102
38 104
38 125
38 134
38 229
38 283
38 297
39 50
39 91
39 99
39 117
39 172
39 184
39 225
40 88
40 89
40 98
40 130
40 132
40 144
40 155
40 185
40 206
40 220
40 284
41 69
41 70
41 103
41 123
41 150
41 245
41 249
42 115
42 128
42 171
42 253
42 296
42 298
43 145
43 230
43 256
43 262
43 265
44 178
44 194
44 212
44 241
44 272
44 286
45 68
45 71
45 86
45 97
45 99
45 150
45 160
45 210
46 57
46 87
46 189
47 67
47 107
47 142
47 169
47 176
47 180
47 185
47 186
47 195
47 280
48 87
48 88
48 149
48 185
48 244
48 255
48 256
48 269
48 282
49 107
49 127
49 148
49 153
49 183
49 189
49 228
49 275
50 184
50 242
50 255
50 279
51 112
51 181
52 94
52 96
52 102
52 105
52 155
52 259
52 269
52 287
53 88
54 66
54 71
54 77
54 113
54 173
54 222
54 227
54 260
55 111
55 134
55 140
55 192
56 94
56 98
56 185
56 256
56 262
57 65
57 67
57 97
57 100
57 105
57 113
57 121
57 126
57 129
57 238
57 249
58 127
58 177
58 225
58 236
58 239
59 65
59 80
59 82
59 97
59 117
59 125
59 130
60 188
60 268
60 291
60 295
61 100
61 135
61 208
61 241
61 274
62 79
62 259
62 285
62 288
63 87
63 174
64 67
64 79
64 85
64 98
64 109
64 140
64 214
64 218
64 223
64 257
64 266
64 286
65 82
65 91
65 149
65 193
65 199
65 212
65 217
65 300
66 79
66 103
66 123
66 131
66 187
66 202
66 260
67 111
67 113
67 122
67 126
67 142
67 277
67 298
68 81
68 84
68 86
68 97
68 111
68 126
68 189
68 200
68 218
68 244
69 70
69 72
69 77
69 95
69 127
69 129
69 148
69 195
69 249
69 251
69 258
69 264
70 103
70 110
70 123
70 248
71 74
71 96
71 116
71 125
71 129
71 139
71 210
71 240
71 260
71 267
71 289
72 104
72 117
72 155
72 202
72 240
72 263
72 264
73 99
73 105
73 107
73 118
73 128
73 129
73 144
73 158
73 192
73 198
74 126
74 139
74 164
75 95
75 120
75 146
75 269
75 292
76 83
76 101
76 118
76 124
76 147
76 222
76 225
76 253
76 258
77 92
77 190
77 199
77 220
78 101
78 219
78 247
78 276
79 93
79 98
79 123
79 131
79 256
79 288
80 86
80 94
80 156
80 157
81 153
81 218
81 244
81 262
81 277
82 87
82 88
82 94
82 102
82 118
82 130
82 141
82 142
82 150
82 157
82 182
82 193
82 212
82 215
82 263
82 273
82 294
83 135
83 173
83 188
83 208
83 282
84 86
84 102
84 110
84 196
84 223
84 243
84 249
86 94
86 110
86 153
86 167
86 175
86 212
86 230
87 88
87 131
87 149
87 174
87 203
88 92
88 97
88 113
88 130
88 215
88 221
88 270
89 186
89 189
89 233
89 279
90 97
90 101
90 105
90 110
90 111
90 116
90 150
90 152
90 180
90 247
90 268
90 279
90 293
90 294
91 100
91 117
91 138
91 217
91 284
91 287
92 120
92 182
92 214
92 258
92 270
93 113
93 115
93 198
93 212
93 227
94 105
94 121
94 141
94 142
94 157
94 185
94 217
95 100
95 114
95 147
96 234
96 264
96 289
97 100
97 104
97 130
97 189
97 223
97 257
97 279
97 285
98 100
98 109
98 123
98 185
98 196
99 118
99 150
99 182
99 184
99 265
99 272
100 185
101 120
101 149
101 193
101 207
101 214
101 247
101 256
102 117
102 139
102 155
102 223
102 238
103 106
103 110
103 117
103 125
103 143
103 147
103 182
103 202
103 244
103 252
103 271
104 120
104 297
105 116
105 118
105 121
105 141
105 248
105 259
105 269
105 273
105 278
106 118
106 202
106 246
106 268
107 123
107 129
107 198
107 214
107 228
107 273
107 280
109 162
109 169
109 221
110 111
110 120
110 187
110 226
110 266
110 268
110 274
110 293
111 126
111 158
111 244
111 268
111 283
112 171
112 181
112 251
113 126
113 129
113 215
113 227
113 264
113 273
114 145
114 224
114 225
115 124
115 128
115 129
115 147
116 220
116 252
116 281
117 124
117 147
117 165
117 188
118 141
118 144
118 147
118 155
118 201
118 206
118 237
119 141
119 151
119 242
120 140
120 146
120 158
120 201
120 214
120 226
121 151
121 239
122 146
122 160
122 231
122 236
122 276
122 277
123 146
123 150
123 152
123 154
123 243
123 270
124 147
124 188
124 208
124 218
125 129
125 140
125 267
125 282
125 283
126 139
126 144
126 187
126 197
127 129
127 189
127 284
128 129
128 170
128 182
128 193
128 266
128 278
129 201
129 267
129 300
130 132
130 135
130 143
130 165
130 180
130 189
130 193
130 202
130 205
130 222
130 229
130 238
130 286
131 166
131 285
132 135
132 145
132 254
133 146
133 181
133 240
133 260
134 143
134 263
135 186
135 208
135 279
135 292
136 201
137 142
137 169
137 220
137 275
137 281
138 242
138 287
140 143
140 167
140 183
140 229
140 266
141 142
142 164
142 169
142 225
143 158
143 202
143 295
143 299
144 226
144 261
144 292
145 181
145 208
145 226
146 150
146 154
146 190
146 260
146 277
147 182
147 222
147 237
147 244
148 195
148 276
149 162
149 174
149 193
149 194
149 299
150 154
150 198
150 247
151 174
151 183
151 193
151 228
151 257
151 268
151 274
151 283
151 291
152 166
152 180
152 185
152 219
152 243
152 247
152 256
152 270
152 287
152 294
153 167
153 175
153 183
153 218
153 275
154 187
154 274
155 156
155 190
155 218
155 259
155 264
155 297
156 161
156 165
156 217
156 259
157 163
157 169
157 205
157 206
157 221
157 224
157 225
157 294
158 268
158 299
159 193
159 222
159 241
159 243
159 262
160 165
160 182
160 193
160 208
160 217
160 242
160 246
161 165
161 196
161 206
161 225
161 273
162 169
162 194
162 242
162 282
163 170
163 247
163 258
163 297
164 207
164 221
164 225
164 258
165 176
165 190
165 217
165 222
165 230
165 238
165 246
165 259
165 267
165 269
165 292
166 171
166 192
166 198
166 206
166 227
166 271
166 294
167 212
167 245
167 297
168 172
168 178
168 194
168 197
168 212
168 240
168 261
169 176
169 196
169 197
169 212
169 215
169 223
169 226
169 243
169 265
169 270
169 280
170 195
170 206
170 224
170 225
170 226
170 238
170 241
170 243
170 258
170 264
171 222
171 253
171 298
172 184
172 185
172 188
172 192
172 231
173 188
174 207
174 274
175 184
175 185
175 219
175 230
175 252
175 264
175 296
176 190
176 197
176 223
176 230
176 243
176 246
176 267
176 280
177 181
177 190
177 191
177 245
177 248
178 224
178 251
178 261
179 222
179 231
179 254
179 262
180 195
180 200
180 202
180 221
180 275
180 279
180 294
181 226
181 236
181 243
181 260
182 202
182 246
182 258
182 277
183 193
183 207
183 229
183 274
184 187
184 236
184 252
185 186
185 191
185 192
185 212
185 219
185 237
185 252
185 280
185 297
186 189
186 216
186 280
187 202
187 262
187 274
187 276
187 281
188 190
188 191
188 231
188 281
188 291
189 233
189 255
189 263
189 269
189 279
189 285
190 220
190 246
190 254
190 263
190 281
191 192
191 226
191 231
191 233
191 243
191 245
191 258
191 279
191 282
192 198
192 237
193 194
193 195
193 205
193 212
193 223
193 241
193 244
193 258
193 259
193 262
193 266
194 215
194 226
194 272
194 284
194 299
195 241
195 266
195 268
196 249
196 273
197 208
197 212
197 224
198 243
198 247
198 258
198 288
199 230
199 242
199 266
199 271
200 205
200 228
200 258
200 294
201 267
202 229
202 246
202 252
202 275
202 276
202 299
203 238
203 254
203 272
203 289
204 216
204 260
205 221
205 247
206 224
206 225
206 227
207 217
207 221
207 235
207 247
208 224
208 232
208 242
209 212
209 239
209 267
211 217
211 273
212 217
212 219
212 267
213 217
213 293
214 228
214 280
215 227
215 243
215 284
215 299
216 220
217 246
217 273
218 223
218 227
218 232
218 244
218 259
218 277
219 230
219 260
219 276
220 238
220 272
220 275
221 246
221 258
221 296
222 229
222 262
222 292
223 244
223 247
223 255
223 257
223 266
223 291
224 225
224 243
224 247
224 251
224 260
224 264
225 239
225 247
225 251
226 243
226 249
227 257
227 259
228 243
228 258
228 265
228 280
229 266
229 275
229 283
229 297
230 244
230 246
230 258
230 276
230 295
230 296
231 236
231 276
232 242
232 259
232 272
232 294
233 253
233 299
234 264
235 275
237 259
237 289
237 294
238 257
238 272
239 267
240 260
240 295
241 244
241 259
241 269
241 274
242 265
242 282
242 287
243 258
243 270
244 265
246 292
247 256
247 258
248 269
250 256
250 295
252 256
253 296
253 299
254 263
254 281
255 263
255 269
255 279
256 262
257 279
257 291
258 294
258 296
259 269
259 294
260 285
260 289
260 295
262 276
266 268
266 279
266 291
267 268
267 285
267 291
268 274
268 279
268 285
268 291
269 274
269 294
270 297
271 294
273 286
277 299
279 294
*Classes
1
1
1
1
1
1
1
1
1
1
1
1
1
1
1
1
1
1
1
1
1
1
1
1
1
1
1
1
1
1
1
1
1
1
1
1
1
1
1
1
1
1
1
1
1
1
1
1
1
1
1
1
1
1
1
1
1
1
1
1
1
1
1
1
1
1
1
1
1
1
1
1
1
1
1
1
1
1
1
1
1
1
1
1
1
1
1
1
1
1
1
1
1
1
1
1
1
1
1
1
1
1
1
1
1
1
1
1
1
1
1
1
1
1
1
1
1
1
1
1
1
1
1
1
1
1
1
1
1
1
1
1
1
1
1
1
1
1
1
1
1
1
1
1
1
1
1
1
1
1
2
2
2
2
2
2
2
2
2
2
2
2
2
2
2
2
2
2
2
2
2
2
2
2
2
2
2
2
2
2
2
2
2
2
2
2
2
2
2
2
2
2
2
2
2
2
2
2
2
2
2
2
2
2
2
2
2
2
2
2
2
2
2
2
2
2
2
2
2
2
2
2
2
2
2
2
2
2
2
2
2
2
2
2
2
2
2
2
2
2
2
2
2
2
2
2
2
2
2
2
2
2
2
2
2
2
2
2
2
2
2
2
2
2
2
2
2
2
2
2
2
2
2
2
2
2
2
2
2
2
2
2
2
2
2
2
2
2
2
2
2
2
2
2
2
2
2
2
2
2
