*Vertices 300
*Edges
1 13
1 14
1 17
1 58
1 102
1 121
1 132
1 134
1 185
1 195
1 243
1 268
2 10
2 67
2 115
2 124
2 159
2 242
2 247
2 283
3 43
3 131
3 142
4 55
4 85
4 120
4 236
4 253
4 290
5 23
5 64
5 70
5 187
5 243
5 255
6 59
6 90
6 113
6 120
6 132
6 144
6 161
6 198
6 211
6 265
6 267
7 42
7 94
7 131
7 154
7 162
7 169
7 236
7 276
8 21
8 28
8 30
8 39
8 50
8 84
8 130
8 133
8 161
8 183
8 218
8 236
9 265
10 32
10 37
10 115
10 124
10 183
10 280
11 104
11 188
11 251
12 46
12 47
12 91
12 108
12 109
12 146
12 165
12 230
12 294
13 17
13 18
13 86
13 109
13 110
13 162
13 201
13 204
14 16
14 121
14 132
14 134
14 175
14 192
14 233
14 270
15 124
15 129
15 265
16 32
16 40
16 45
16 90
16 192
17 33
17 48
17 86
17 109
17 134
17 210
17 231
17 235
17 237
17 254
17 285
17 296
18 22
18 33
18 38
18 88
18 110
18 126
18 162
18 181
18 262
19 22
19 55
19 68
19 88
19 138
20 32
20 52
20 72
20 79
20 86
20 114
20 121
20 137
20 161
20 269
20 274
20 284
20 294
21 84
21 130
21 133
21 161
21 202
21 236
21 254
21 274
21 288
22 38
22 41
22 55
22 88
22 149
22 167
22 175
22 255
22 284
23 30
23 64
23 72
23 73
23 79
23 102
23 261
24 27
24 103
24 172
24 192
24 205
24 216
24 266
25 56
25 67
25 68
25 75
25 98
25 109
25 110
25 120
25 126
25 142
25 199
25 244
26 34
26 113
26 172
26 177
26 214
27 66
27 117
27 120
27 123
27 157
27 162
27 182
27 213
27 276
28 119
28 162
28 261
28 297
29 41
29 51
29 66
29 92
29 261
29 281
29 286
30 35
30 50
30 100
30 102
30 107
30 114
30 128
31 122
31 135
31 141
31 198
31 241
31 260
31 269
32 40
32 46
32 112
32 124
32 125
32 161
32 180
32 222
33 38
33 91
33 183
33 228
33 235
33 260
34 40
34 41
34 60
34 87
34 94
34 126
34 146
34 214
34 258
34 263
34 294
35 37
35 73
35 128
35 193
35 251
36 106
36 232
36 262
36 298
37 71
37 81
37 124
37 268
37 275
38 88
38 105
38 126
38 138
38 139
38 157
38 181
38 188
38 228
38 251
38 298
39 40
39 87
39 130
39 252
39 291
40 87
40 119
40 173
40 180
40 277
41 49
41 66
41 81
41 126
41 149
42 94
42 131
42 142
42 177
42 233
43 143
43 171
43 180
43 181
43 210
44 94
44 285
44 291
45 49
45 53
45 63
45 100
45 116
45 119
45 153
45 154
45 201
45 286
46 56
46 91
46 101
46 112
47 91
47 94
47 132
47 151
47 181
47 195
47 209
48 169
48 250
48 291
49 53
49 153
49 197
49 233
49 276
50 76
50 117
50 121
50 205
50 218
50 238
50 262
50 271
50 277
50 295
50 299
51 56
51 92
51 93
51 105
51 107
51 139
51 174
51 281
51 286
52 78
52 86
52 95
52 97
52 137
52 285
53 94
53 97
53 123
53 130
53 146
53 189
53 204
54 85
54 93
54 101
54 119
54 135
54 195
54 213
54 234
54 240
54 261
55 196
55 236
55 290
56 67
56 102
56 112
56 117
56 137
56 139
56 150
56 161
57 174
57 200
57 208
58 129
58 134
58 185
58 253
58 285
59 71
59 92
59 93
59 107
59 137
59 156
59 178
59 186
59 197
59 217
59 238
59 255
59 294
60 87
60 146
60 167
60 217
60 245
61 156
61 166
61 194
62 64
62 117
62 137
62 169
62 181
62 211
62 212
62 216
63 75
63 112
63 191
63 286
63 294
64 69
64 70
64 107
64 140
64 195
64 200
64 269
65 112
65 120
65 136
65 196
65 201
65 279
65 290
66 80
66 108
66 123
66 126
66 127
66 146
66 165
66 182
66 186
66 266
66 289
67 68
67 78
67 97
67 110
67 135
67 212
67 220
67 238
67 283
68 87
68 93
68 105
68 138
68 180
68 217
69 140
69 183
69 215
70 102
70 117
70 170
70 180
70 211
71 124
71 179
71 238
71 277
72 79
72 107
72 147
72 188
72 269
72 284
73 154
73 221
73 250
73 289
74 87
74 199
74 251
75 112
75 114
75 265
76 111
76 152
76 247
76 250
76 295
77 104
77 131
77 141
77 146
77 148
78 97
78 99
78 109
78 112
78 130
78 146
78 154
78 180
78 260
78 285
79 99
79 176
79 258
79 261
80 133
80 141
80 145
80 266
81 118
81 172
81 268
82 221
82 264
83 169
83 175
83 210
83 219
83 220
84 179
84 191
84 227
84 243
84 244
84 258
84 293
85 99
85 120
85 156
85 213
85 290
86 95
86 196
86 210
86 254
87 119
87 235
87 242
87 252
88 115
88 125
88 126
88 138
88 193
88 215
88 251
88 265
89 173
90 106
90 107
90 112
90 119
90 120
90 126
90 139
90 157
90 200
90 273
90 291
91 109
91 111
91 126
91 259
91 278
92 93
92 107
92 115
92 166
92 173
92 228
93 101
93 105
93 117
93 170
93 186
93 218
93 234
93 237
93 245
93 248
93 270
93 293
93 296
94 105
94 109
94 123
94 146
94 151
94 188
94 252
95 99
95 220
95 261
95 275
95 285
97 112
97 121
97 130
97 153
97 180
97 183
97 210
97 219
97 259
98 109
98 110
98 144
98 232
98 234
98 279
99 120
99 229
99 260
99 285
100 107
100 114
100 116
100 134
100 137
100 205
100 243
101 105
101 270
102 117
102 132
102 172
102 190
102 191
102 289
102 293
102 295
103 146
103 199
103 216
103 223
103 241
104 116
104 128
104 146
104 215
104 265
104 266
106 119
106 165
106 300
107 114
107 116
107 128
107 140
107 147
107 200
107 275
108 109
108 123
108 127
109 110
109 146
109 149
109 159
109 210
110 142
110 144
110 227
110 237
110 266
110 273
110 279
111 158
111 162
111 258
111 289
112 114
112 120
112 123
112 124
112 150
112 215
112 262
112 289
113 114
113 161
113 253
113 292
113 294
115 125
115 198
115 212
115 218
115 248
115 266
116 128
116 137
116 214
116 276
116 279
117 120
117 137
117 169
117 276
117 278
117 279
117 295
118 172
119 165
119 220
119 221
119 245
119 261
119 277
119 291
120 123
120 136
120 189
120 200
120 241
120 262
121 130
121 132
121 191
121 204
121 238
122 134
122 155
122 183
122 209
122 215
122 243
122 262
123 127
123 146
123 157
123 162
123 198
123 268
123 295
124 153
124 161
124 228
125 147
125 153
125 158
126 139
126 146
126 157
126 220
126 224
126 294
127 152
127 155
127 191
127 257
128 164
128 226
128 233
129 283
130 151
130 187
130 235
130 247
131 142
131 153
131 178
131 232
132 211
132 225
133 153
133 156
133 250
133 265
133 289
134 159
134 194
134 228
134 230
134 250
134 258
134 270
135 170
135 220
135 221
136 168
136 255
137 205
137 211
137 278
138 192
138 268
139 150
139 157
139 198
139 199
139 262
139 273
139 296
140 288
142 178
142 232
142 260
142 264
143 171
143 278
144 229
144 284
144 294
145 224
145 231
145 259
146 201
146 252
146 266
147 187
147 231
147 233
147 241
147 286
148 202
148 249
148 254
149 159
149 160
149 175
149 262
151 153
151 155
151 235
151 252
152 191
152 233
152 247
152 263
153 182
153 185
153 189
153 235
153 249
153 289
153 296
154 155
154 195
154 205
154 221
154 243
154 276
154 280
154 286
155 191
155 197
155 217
155 257
155 273
157 163
157 165
157 189
157 207
158 180
158 193
158 251
158 300
159 171
159 175
159 209
159 240
159 250
160 166
160 170
160 202
160 203
160 204
160 206
160 226
160 254
160 278
161 212
161 287
162 187
162 196
162 215
162 237
162 261
162 266
163 207
164 229
165 189
166 182
166 203
166 269
166 284
166 296
167 224
167 260
168 197
168 205
168 277
168 286
169 196
170 172
170 178
170 203
170 239
170 242
170 286
171 205
171 209
171 210
171 277
172 234
172 239
172 249
172 253
172 278
172 294
173 174
173 214
175 233
175 243
175 270
175 283
177 180
177 183
177 210
177 227
177 239
177 247
178 212
178 239
178 298
180 210
180 239
181 205
182 183
182 191
182 203
182 241
182 249
182 255
182 291
183 222
183 227
183 247
183 249
183 253
183 275
183 283
183 294
184 237
184 261
184 266
184 276
185 194
185 212
185 218
185 249
185 285
186 207
186 219
186 267
187 208
187 215
187 297
188 199
188 217
189 204
189 273
189 289
189 295
190 293
191 233
191 253
191 263
191 291
191 294
192 199
192 227
192 232
193 202
193 251
193 254
194 212
194 258
194 267
194 273
194 292
195 243
195 267
195 268
195 282
196 216
196 279
197 217
198 209
198 217
198 238
198 263
198 267
198 268
198 269
198 273
199 204
199 217
199 232
200 269
201 209
201 267
201 268
201 271
202 254
203 239
204 238
204 254
204 271
204 273
204 274
205 236
205 277
205 286
206 254
206 300
207 221
207 245
207 267
207 293
207 296
208 252
208 262
209 223
209 271
209 273
209 284
210 239
210 257
210 291
211 234
212 238
212 287
212 298
213 234
213 275
213 276
213 279
215 243
215 246
215 254
215 265
215 275
215 276
215 297
216 242
217 273
218 221
218 266
218 271
218 285
218 287
219 224
220 221
220 265
220 275
221 235
221 266
221 267
221 296
222 249
222 262
223 267
223 268
223 284
224 226
224 234
226 234
227 232
228 230
229 284
230 264
231 233
231 236
231 259
231 277
232 266
233 263
233 283
233 299
234 253
234 276
234 283
234 294
235 246
235 249
235 252
235 259
236 248
236 277
236 290
236 299
237 261
237 266
238 256
238 257
238 263
238 268
238 269
239 242
239 249
239 278
240 297
241 249
241 281
243 246
243 253
243 282
243 283
243 286
244 275
244 294
245 293
248 277
248 279
249 255
250 282
250 291
250 297
252 259
252 262
253 278
253 283
253 294
253 298
254 278
255 284
257 259
257 261
257 263
258 267
258 274
258 292
259 263
261 266
261 269
262 290
262 299
266 279
266 287
267 268
267 274
267 282
268 272
268 273
268 282
268 288
271 273
272 288
273 274
273 279
273 282
273 292
274 292
275 276
275 294
276 279
277 279
283 299
284 296
287 298
289 296
290 299
291 296
*Classes
1
1
1
1
1
1
1
1
1
1
1
1
1
1
1
1
1
1
1
1
1
1
1
1
1
1
1
1
1
1
1
1
1
1
1
1
1
1
1
1
1
1
1
1
1
1
1
1
1
1
1
1
1
1
1
1
1
1
1
1
1
1
1
1
1
1
1
1
1
1
1
1
1
1
1
1
1
1
1
1
1
1
1
1
1
1
1
1
1
1
1
1
1
1
1
1
1
1
1
1
1
1
1
1
1
1
1
1
1
1
1
1
1
1
1
1
1
1
1
1
1
1
1
1
1
1
1
1
1
1
1
1
1
1
1
1
1
1
1
1
1
1
1
1
1
1
1
1
1
1
2
2
2
2
2
2
2
2
2
2
2
2
2
2
2
2
2
2
2
2
2
2
2
2
2
2
2
2
2
2
2
2
2
2
2
2
2
2
2
2
2
2
2
2
2
2
2
2
2
2
2
2
2
2
2
2
2
2
2
2
2
2
2
2
2
2
2
2
2
2
2
2
2
2
2
2
2
2
2
2
2
2
2
2
2
2
2
2
2
2
2
2
2
2
2
2
2
2
2
2
2
2
2
2
2
2
2
2
2
2
2
2
2
2
2
2
2
2
2
2
2
2
2
2
2
2
2
2
2
2
2
2
2
2
2
2
2
2
2
2
2
2
2
2
2
2
2
2
2
2
