*Vertices 300
*Edges
1 9
1 19
1 50
1 56
1 57
1 74
1 91
1 92
1 95
1 105
1 123
1 140
1 150
1 166
1 187
2 185
2 206
2 225
2 227
2 229
2 299
2 300
3 34
3 47
3 76
3 95
3 96
3 106
3 110
3 116
3 121
3 255
3 263
3 279
4 139
4 162
4 165
4 178
5 9
5 65
5 68
5 89
5 103
5 108
5 122
5 129
5 134
5 158
5 264
5 281
6 10
6 11
6 34
6 42
6 46
6 73
6 96
6 122
6 134
6 140
6 142
7 29
7 61
7 63
7 77
7 107
7 117
7 134
7 157
7 174
7 178
7 187
7 205
7 214
7 224
7 236
7 240
7 242
7 247
7 259
8 231
8 236
8 247
9 53
9 68
9 74
9 95
9 123
9 163
9 247
9 255
9 264
9 265
9 281
9 299
10 17
10 32
10 34
10 61
10 64
10 209
10 300
11 32
11 46
11 124
11 144
11 164
11 210
12 21
12 43
12 54
12 83
12 96
12 100
12 119
12 140
12 180
12 287
12 297
13 16
13 23
13 24
13 30
13 68
13 70
13 72
13 99
13 103
13 111
13 114
13 151
13 245
13 263
13 287
14 20
14 21
14 25
14 31
14 44
14 58
14 62
14 70
14 88
14 103
14 105
14 114
14 216
14 264
14 295
15 51
15 66
15 78
15 85
15 90
15 128
15 136
15 145
15 174
15 299
16 46
16 67
16 82
16 99
16 106
16 160
16 171
16 183
16 246
16 278
17 50
17 61
17 73
17 179
17 209
17 226
17 231
17 254
17 267
17 281
18 31
18 82
18 83
18 95
18 106
18 125
18 167
18 274
19 59
19 74
19 85
19 95
19 130
19 154
19 156
19 171
19 189
19 195
19 228
19 232
19 253
19 256
19 271
19 281
19 291
20 25
20 31
20 45
20 87
20 105
20 160
20 193
20 221
20 247
20 253
20 262
20 291
21 25
21 50
21 105
21 114
21 140
21 153
21 177
21 219
21 274
22 38
22 40
22 117
22 135
22 211
22 226
22 235
22 270
23 111
23 126
23 163
23 262
23 264
23 290
24 45
24 100
24 106
24 111
24 157
24 189
24 190
24 192
24 216
24 218
24 239
24 256
25 58
25 70
25 105
25 206
25 225
25 250
25 271
26 68
26 96
26 108
26 142
26 245
26 287
27 39
27 86
27 92
27 94
27 138
27 150
27 257
28 59
28 85
28 93
28 115
28 128
28 132
28 201
28 229
28 278
29 107
29 178
29 297
30 87
30 103
30 111
30 148
30 176
30 187
30 206
30 290
30 294
31 66
31 82
31 83
31 93
31 103
31 125
31 151
31 165
31 189
31 205
31 211
31 216
31 274
31 284
31 296
31 300
32 46
32 61
32 64
32 81
32 86
32 102
32 108
32 117
32 124
32 134
32 148
32 171
32 181
32 292
33 49
33 56
33 81
33 93
33 115
33 120
33 160
33 179
34 42
34 52
34 53
34 62
34 73
34 76
34 79
34 103
34 121
34 169
34 175
34 240
34 251
34 273
34 280
34 300
35 62
35 71
35 86
35 114
35 125
35 154
35 169
35 171
35 172
35 190
35 194
35 257
35 273
35 274
35 300
36 45
36 66
36 67
36 169
36 202
36 235
36 248
36 251
37 41
37 86
37 120
37 125
37 127
37 131
37 158
37 208
37 265
38 40
38 70
38 77
38 78
38 114
38 127
38 258
38 265
38 293
38 299
39 65
39 70
39 72
39 114
39 133
39 138
39 168
39 200
39 211
39 257
39 285
39 293
40 60
40 78
40 117
40 127
41 125
41 185
41 218
41 253
41 291
42 52
42 53
42 55
42 62
42 71
42 76
42 79
42 103
42 106
42 113
42 121
42 122
42 134
42 140
42 147
42 246
42 297
43 91
43 128
43 136
43 140
43 247
44 105
44 124
44 125
44 168
44 176
44 211
44 217
44 224
44 240
44 278
45 87
45 158
45 162
45 218
46 64
46 82
46 134
46 197
46 256
47 106
47 110
47 135
47 143
47 222
47 255
47 286
47 291
47 295
48 76
48 200
48 246
48 285
48 298
49 60
49 69
49 148
50 91
50 105
50 114
50 130
50 139
50 150
50 159
50 221
50 250
50 259
50 276
50 289
50 300
51 78
51 122
51 125
51 135
51 143
51 152
51 211
51 267
52 121
52 140
52 196
52 225
52 241
52 246
52 266
52 299
53 71
53 73
53 100
53 106
53 113
53 128
53 134
53 149
53 196
53 219
53 249
53 276
53 295
53 297
54 57
54 75
54 96
54 110
54 140
54 147
54 186
55 122
55 157
55 175
55 222
55 240
55 246
55 275
56 79
56 81
56 98
56 106
56 120
56 150
56 192
56 208
56 253
57 75
57 110
57 140
57 144
57 150
57 196
57 296
58 68
58 105
58 111
58 230
58 246
58 261
59 84
59 128
59 132
59 135
59 167
59 183
59 197
59 200
59 218
59 227
59 228
59 250
59 260
59 277
59 289
60 69
60 102
60 127
60 148
60 160
60 161
60 169
60 191
60 234
60 257
60 294
61 101
61 107
61 108
61 166
61 184
61 211
61 251
62 71
62 76
62 88
62 163
62 194
62 271
62 295
63 169
63 193
63 240
63 299
64 81
64 86
64 102
64 124
64 134
64 295
65 82
65 106
65 129
65 133
65 148
65 222
65 246
65 252
65 289
66 67
66 90
66 128
66 134
66 171
66 173
66 211
66 235
66 244
67 97
67 99
67 101
67 177
67 222
67 270
67 279
67 290
68 103
68 108
68 111
68 122
68 142
68 183
68 204
68 287
69 92
69 99
69 148
69 210
69 279
70 72
70 77
70 78
70 94
70 99
70 114
70 155
70 168
70 220
70 245
70 268
70 293
71 87
71 154
71 249
71 259
72 94
72 170
72 186
72 220
72 243
72 268
73 162
73 190
74 95
74 119
74 123
74 176
74 206
74 232
74 271
74 283
75 109
75 144
75 153
75 178
75 212
75 238
75 295
75 298
76 110
76 116
76 212
76 300
77 78
77 107
77 117
77 119
77 130
77 168
77 178
77 299
78 174
78 247
78 262
79 82
79 102
79 106
79 121
79 148
79 200
79 229
79 270
79 286
81 96
81 98
81 102
81 109
81 110
81 134
81 143
81 145
81 181
81 200
81 204
81 253
81 274
81 280
81 296
82 83
82 99
82 103
82 106
82 176
82 222
82 260
83 89
83 96
83 125
83 183
83 186
83 198
83 205
83 277
84 194
84 217
84 225
84 271
84 283
85 128
85 130
85 142
85 206
85 213
85 217
86 125
86 131
86 170
86 273
86 276
87 103
87 154
88 245
88 266
89 118
89 122
89 128
89 142
89 231
89 274
90 128
90 145
90 235
91 109
91 136
91 174
91 204
91 209
91 289
92 94
92 123
92 133
92 148
92 150
93 97
93 115
93 173
93 205
94 112
94 114
94 132
94 216
94 263
94 281
94 300
95 111
95 150
95 154
95 160
95 187
95 242
95 254
95 255
96 100
96 105
96 110
96 118
96 119
96 121
96 140
96 142
96 297
97 101
97 177
97 236
97 256
98 120
98 143
98 145
98 163
98 204
98 210
98 226
98 230
98 237
98 241
98 245
98 246
98 249
98 263
98 280
98 286
98 289
99 125
99 148
99 164
99 246
99 279
99 280
99 287
100 106
100 113
100 149
100 165
100 173
100 219
100 293
101 108
101 109
101 111
101 115
101 184
101 222
101 244
101 263
101 281
102 124
102 148
102 206
102 229
102 244
103 133
103 148
103 204
103 206
103 284
104 175
104 190
104 226
104 257
104 267
104 295
105 140
105 147
105 156
105 160
105 176
105 261
105 264
106 159
106 165
106 222
106 233
106 286
107 117
107 164
107 166
107 190
107 213
107 228
108 124
108 134
108 185
108 186
108 211
108 242
108 251
109 110
109 121
109 180
109 184
109 262
109 282
109 289
110 121
111 126
111 160
111 245
111 287
112 132
112 296
113 128
113 134
113 136
113 175
113 192
114 116
114 132
114 153
114 154
114 155
114 163
114 217
114 219
114 250
114 271
115 161
115 286
116 198
116 208
116 271
117 134
117 135
117 137
117 145
117 153
117 178
117 206
117 232
117 240
117 246
117 264
117 271
117 283
117 285
118 128
118 142
118 280
119 130
119 140
120 131
120 162
120 166
120 178
120 221
120 237
120 243
120 295
120 296
121 147
122 134
122 143
122 158
122 163
122 165
122 175
122 184
123 150
123 265
124 125
124 153
124 168
124 214
124 240
124 278
125 135
125 164
125 190
125 263
125 279
126 185
126 215
126 223
126 235
126 258
126 298
127 160
127 169
127 234
127 240
127 251
127 276
127 284
127 285
128 136
128 213
128 219
128 282
128 283
128 299
129 133
129 174
130 156
130 171
130 202
130 256
130 276
131 167
131 175
131 177
131 219
131 239
132 195
132 263
132 289
133 148
133 211
133 258
134 171
134 206
134 232
134 248
134 264
134 300
135 137
135 143
135 145
135 200
135 211
135 267
136 140
136 174
136 257
136 299
137 153
137 212
137 269
138 166
138 227
138 257
138 285
139 144
139 152
139 229
139 233
139 298
140 147
140 247
140 266
140 297
141 188
141 242
141 298
142 280
143 145
143 163
143 182
143 247
143 267
143 276
143 291
143 295
144 164
144 168
144 279
144 298
145 163
145 226
145 249
145 255
145 263
145 291
146 231
147 238
147 264
147 292
148 258
148 294
149 196
149 210
149 232
150 161
150 285
150 286
150 290
151 155
151 174
151 175
151 205
151 219
151 253
151 264
152 160
152 176
152 206
152 225
152 255
152 267
153 155
153 172
153 178
153 214
153 224
153 294
154 193
155 174
155 175
155 178
155 179
155 218
155 294
156 258
156 285
157 187
157 191
157 208
157 224
157 240
157 260
158 162
158 165
158 246
158 254
158 263
158 271
158 280
158 284
159 186
159 198
159 225
159 250
160 176
160 208
160 210
160 224
160 240
160 278
160 300
161 181
161 188
161 212
161 238
161 286
161 297
162 177
162 178
162 206
162 238
162 249
162 294
163 178
163 184
163 244
163 263
163 279
163 284
163 290
163 295
164 207
164 213
164 236
164 259
164 268
165 185
165 199
165 218
165 235
165 245
165 254
165 260
165 263
165 271
165 280
165 284
165 289
166 181
166 189
166 243
166 251
167 193
167 266
168 186
168 215
168 239
168 246
168 252
168 277
168 289
169 201
169 237
169 251
169 273
169 281
169 289
170 181
170 201
170 229
170 243
170 244
170 257
170 265
170 293
171 189
171 248
171 273
172 214
172 237
173 229
173 235
173 244
174 187
174 205
174 241
174 264
175 219
175 240
175 264
175 267
176 206
176 224
176 225
176 230
176 250
176 261
176 278
177 192
177 200
177 206
177 215
177 239
178 238
178 256
178 270
178 295
179 185
179 294
180 206
180 230
180 262
180 297
181 208
181 212
181 238
181 243
181 258
181 298
182 203
182 227
182 238
182 256
183 197
183 225
183 250
183 277
183 287
184 244
184 284
184 286
185 214
185 218
185 223
185 242
185 276
186 198
186 205
186 213
186 252
186 253
186 268
187 218
187 228
187 240
187 241
187 294
188 286
189 243
189 274
189 279
190 226
190 256
191 210
191 218
191 230
191 260
191 262
192 239
193 213
193 236
193 266
193 299
194 257
195 203
195 205
195 237
195 245
195 253
195 263
195 275
195 278
195 289
195 292
197 200
197 209
197 287
198 205
198 271
198 283
199 284
199 296
200 204
200 206
200 291
200 293
201 229
201 242
201 244
201 281
201 283
201 291
201 293
201 300
202 248
202 255
202 267
203 216
203 227
203 275
203 276
204 273
204 275
205 253
205 267
205 268
205 272
205 291
206 297
206 300
207 212
207 213
207 236
208 224
208 240
208 243
209 287
210 224
210 230
210 262
210 285
210 300
212 213
212 236
212 238
212 258
212 286
212 297
212 298
213 236
213 268
213 286
214 218
214 240
214 294
215 235
215 246
216 223
216 239
216 257
216 267
216 276
216 281
216 293
218 227
218 235
218 260
218 294
218 299
219 258
219 274
219 298
221 236
221 238
221 253
221 259
221 291
221 298
221 300
222 263
223 242
223 267
223 276
223 284
223 288
224 240
224 285
225 230
225 241
225 250
225 278
225 299
226 249
227 260
227 272
227 299
228 241
229 244
229 251
229 263
229 281
229 289
230 262
230 282
232 253
232 291
233 282
234 236
235 248
236 247
236 259
236 268
237 275
238 253
238 256
238 264
238 275
239 246
239 257
239 277
240 274
240 300
241 286
241 298
241 299
242 276
242 283
243 293
244 284
244 286
245 263
245 266
245 279
246 251
246 263
246 277
246 280
246 285
246 289
246 300
247 259
247 299
249 254
249 294
250 278
250 287
251 281
251 289
252 277
253 291
254 280
254 294
255 264
255 267
257 285
257 291
257 293
258 298
259 276
260 294
262 282
263 266
263 278
263 279
263 289
264 267
264 275
264 292
265 293
267 272
267 284
267 288
270 290
270 295
271 283
272 299
274 281
274 288
274 300
275 292
276 285
276 295
277 287
280 296
281 291
281 300
282 299
285 293
285 300
286 297
286 298
290 295
291 293
291 300
*Classes
1
1
1
1
1
1
1
1
1
1
1
1
1
1
1
1
1
1
1
1
1
1
1
1
1
1
1
1
1
1
1
1
1
1
1
1
1
1
1
1
1
1
1
1
1
1
1
1
1
1
1
1
1
1
1
1
1
1
1
1
1
1
1
1
1
1
1
1
1
1
1
1
1
1
1
1
1
1
1
1
1
1
1
1
1
1
1
1
1
1
1
1
1
1
1
1
1
1
1
1
1
1
1
1
1
1
1
1
1
1
1
1
1
1
1
1
1
1
1
1
1
1
1
1
1
1
1
1
1
1
1
1
1
1
1
1
1
1
1
1
1
1
1
1
1
1
1
1
1
1
2
2
2
2
2
2
2
2
2
2
2
2
2
2
2
2
2
2
2
2
2
2
2
2
2
2
2
2
2
2
2
2
2
2
2
2
2
2
2
2
2
2
2
2
2
2
2
2
2
2
2
2
2
2
2
2
2
2
2
2
2
2
2
2
2
2
2
2
2
2
2
2
2
2
2
2
2
2
2
2
2
2
2
2
2
2
2
2
2
2
2
2
2
2
2
2
2
2
2
2
2
2
2
2
2
2
2
2
2
2
2
2
2
2
2
2
2
2
2
2
2
2
2
2
2
2
2
2
2
2
2
2
2
2
2
2
2
2
2
2
2
2
2
2
2
2
2
2
2
2
