*Vertices 300
*Edges
1 77
1 80
1 91
1 128
1 156
2 62
2 73
2 101
2 247
3 77
3 121
3 136
3 143
3 166
3 199
4 21
4 54
4 73
4 107
4 214
4 235
4 263
5 33
5 45
5 47
5 92
5 111
5 117
5 134
5 135
5 137
5 153
5 187
5 207
5 213
5 268
6 85
6 193
6 277
6 288
7 11
7 34
7 106
7 115
7 125
7 201
7 235
7 246
7 278
8 124
8 222
8 243
8 291
9 14
9 45
9 47
9 110
9 129
9 131
9 135
9 264
9 268
10 30
10 43
10 61
10 80
10 90
10 94
10 118
10 124
10 145
10 158
10 165
10 187
10 218
10 261
10 280
11 34
11 115
11 167
11 199
11 235
11 262
11 270
12 62
12 77
12 86
12 96
12 101
12 104
12 115
12 122
12 132
12 142
12 209
12 226
12 277
13 14
13 37
13 48
13 51
13 136
13 148
13 170
13 184
13 196
13 219
13 221
13 281
14 19
14 38
14 45
14 76
14 93
14 134
14 135
14 148
14 194
15 62
15 122
15 136
15 143
15 248
16 22
16 42
16 60
16 115
16 140
16 146
16 147
16 204
16 228
16 244
16 266
16 270
17 79
17 86
17 96
17 122
17 203
17 264
18 20
18 28
18 40
18 60
18 69
18 77
18 104
18 129
18 160
18 206
18 221
19 44
19 45
19 72
19 112
19 114
19 128
19 169
20 28
20 75
20 146
21 54
21 150
21 224
21 263
22 26
22 31
22 44
22 49
22 54
22 72
22 97
22 108
22 126
22 140
22 141
22 183
23 29
23 92
23 100
23 254
23 278
24 102
24 105
24 142
24 287
24 300
25 88
25 101
25 124
25 173
25 181
26 66
26 116
26 141
26 179
27 50
27 94
28 40
28 77
28 78
28 104
28 116
29 42
29 49
29 53
29 65
29 78
29 81
29 87
29 121
29 136
29 140
29 245
30 80
30 96
30 102
30 129
30 273
31 108
31 116
31 124
31 125
31 126
31 140
31 141
31 170
31 187
32 214
32 216
32 291
33 34
33 36
33 47
33 58
33 114
33 122
33 189
33 197
33 213
34 95
34 114
34 229
35 69
35 72
35 99
35 105
35 186
35 194
35 216
35 224
35 265
35 282
36 58
36 133
36 147
36 164
36 188
36 196
36 254
37 46
37 51
37 58
37 100
37 114
37 116
37 133
37 139
37 159
37 293
38 44
38 100
38 105
38 116
38 227
38 231
39 64
39 73
39 88
39 134
39 146
39 215
39 273
39 289
40 46
40 108
40 143
40 182
40 236
40 296
41 78
41 121
41 127
41 166
41 216
41 278
42 53
42 56
42 81
42 95
42 114
42 125
42 147
42 153
42 158
42 226
42 278
43 47
43 73
43 89
43 124
43 145
43 172
43 262
44 64
44 71
44 72
44 78
44 114
44 116
44 121
44 128
44 150
44 270
45 47
45 52
45 111
45 117
45 128
45 131
45 135
45 230
45 248
46 51
46 108
46 240
47 89
47 104
47 121
47 131
47 182
47 223
47 232
48 60
48 73
48 132
48 144
48 162
48 211
48 225
48 244
48 281
49 88
49 109
49 131
49 140
49 203
50 63
50 80
50 85
50 94
50 95
50 115
50 181
50 186
50 192
51 125
51 136
51 138
51 143
51 167
51 176
51 241
52 71
52 74
52 128
52 131
52 228
52 277
53 146
53 147
53 186
53 240
54 73
54 97
54 188
54 273
54 276
55 108
55 169
55 192
55 252
55 285
56 69
56 81
56 116
56 123
56 129
56 228
56 300
57 70
57 188
57 294
58 94
58 119
58 122
58 133
58 252
59 159
59 224
59 246
59 277
60 73
60 75
60 104
60 132
60 142
60 146
60 149
60 185
60 187
60 278
61 71
61 90
61 107
61 151
61 158
61 207
61 212
61 272
61 298
62 93
62 104
62 122
62 136
62 138
62 163
62 252
62 264
62 274
63 79
63 85
63 115
63 231
63 253
63 260
64 78
64 88
64 128
64 133
64 134
64 163
64 256
65 103
65 121
65 153
65 223
65 293
66 116
66 181
66 211
66 224
66 240
66 277
67 84
67 133
67 154
67 171
67 274
68 182
68 200
69 76
69 116
69 129
69 168
70 199
70 231
70 247
70 268
71 74
71 128
71 287
72 78
72 97
72 140
72 188
72 260
73 75
73 145
73 146
73 175
73 279
73 281
73 299
74 107
74 108
74 111
74 128
74 289
75 121
75 136
75 137
75 146
75 222
75 252
75 258
75 293
76 142
76 148
76 159
76 214
76 263
77 116
77 157
77 163
77 164
77 199
77 238
77 259
78 87
78 116
78 121
78 198
78 300
79 85
79 86
79 122
80 93
80 96
80 136
80 141
80 143
80 181
80 208
80 225
81 128
81 150
81 293
82 147
82 167
82 286
83 84
83 120
83 145
83 177
83 211
83 283
84 120
84 205
85 190
86 122
86 163
86 224
86 230
86 258
87 89
87 121
87 137
87 176
87 211
87 222
87 233
88 124
88 258
88 283
89 104
89 121
89 142
89 182
89 184
89 291
90 94
90 119
90 130
90 137
90 143
90 204
90 281
91 92
91 98
91 125
91 152
91 220
91 266
92 98
92 103
92 110
92 134
92 147
92 271
93 111
93 134
93 138
93 189
93 208
93 264
94 108
94 119
94 136
94 143
94 215
95 114
95 119
95 186
96 122
96 143
96 195
96 202
96 256
97 191
97 204
97 229
97 267
97 280
98 113
98 153
98 158
98 204
98 246
99 105
99 115
99 185
99 202
99 296
99 299
100 114
100 116
100 122
100 130
100 139
100 150
100 253
100 254
100 282
101 115
101 161
101 181
101 252
101 287
102 142
102 284
103 147
103 153
103 263
104 122
104 139
104 142
104 145
104 149
104 195
104 207
104 208
104 235
104 274
105 115
105 227
106 151
106 186
106 210
106 254
106 256
107 241
107 263
107 289
108 109
108 111
108 125
108 126
108 141
108 143
108 223
108 294
109 111
109 117
109 131
109 138
109 140
109 177
109 201
109 251
109 282
110 127
110 162
110 174
110 254
111 131
111 138
111 169
111 222
111 253
112 169
113 126
113 221
113 295
114 162
114 244
114 271
115 132
115 244
116 130
116 150
116 211
116 251
117 177
117 278
118 207
118 293
119 122
119 235
120 147
120 152
120 187
120 261
120 275
121 136
121 143
121 194
122 130
122 132
122 136
122 198
123 129
123 142
123 201
124 126
124 155
124 164
124 166
124 201
125 129
125 135
125 162
125 229
125 266
125 267
125 277
125 278
126 139
126 153
126 161
126 242
127 182
127 192
127 237
127 278
127 295
128 285
128 293
129 210
129 241
129 246
129 277
129 292
130 159
130 167
130 213
130 275
131 178
131 231
132 144
132 290
133 163
133 165
133 212
134 137
134 138
134 148
134 259
134 276
135 160
135 179
135 197
135 230
135 233
135 251
135 255
135 286
136 141
136 143
136 197
136 256
137 176
138 158
138 167
139 145
139 153
139 203
139 216
139 228
139 277
140 141
140 147
140 175
140 204
140 265
141 143
141 159
141 275
142 149
142 208
142 236
142 261
142 286
144 251
144 268
145 151
145 185
145 239
147 162
147 163
147 199
147 261
148 169
149 208
149 216
149 238
149 267
150 243
151 160
151 163
151 164
151 174
151 183
151 186
151 276
151 298
152 184
152 192
152 206
152 253
154 206
154 283
154 287
155 188
156 176
156 188
156 222
157 198
157 215
157 291
158 165
158 185
158 251
158 261
158 262
159 267
159 277
160 163
160 165
160 166
160 183
160 193
160 225
160 250
160 276
160 299
161 164
161 169
161 183
162 168
162 172
162 239
162 244
162 283
162 284
163 166
163 168
163 211
163 237
163 258
163 297
164 169
164 183
164 217
164 233
164 234
164 241
164 272
164 278
165 193
165 250
166 199
166 270
166 300
167 184
167 196
167 213
167 252
167 261
167 262
167 280
167 282
168 172
169 184
169 196
169 225
170 173
170 227
170 239
170 288
171 191
171 232
171 245
171 257
171 259
171 260
171 273
171 275
172 203
172 284
173 180
173 239
174 182
174 183
174 190
174 204
174 267
174 282
175 197
175 200
175 279
175 281
176 188
176 194
176 232
176 233
176 241
177 189
177 196
177 206
177 227
177 250
177 275
177 281
177 282
177 293
178 235
178 280
179 227
179 233
180 229
180 241
180 253
180 259
180 285
180 296
181 183
181 208
181 262
182 184
182 192
182 218
182 228
182 255
182 277
182 282
182 288
182 291
182 300
183 228
183 242
183 266
183 284
184 192
184 196
184 200
184 225
184 247
184 282
185 196
185 237
185 249
185 251
185 255
185 263
185 265
187 212
187 259
187 268
187 274
187 293
187 297
188 232
189 190
189 197
189 223
189 272
189 281
190 204
190 223
190 245
190 267
190 274
191 259
191 275
192 203
192 204
192 235
192 255
192 256
192 259
192 274
192 280
193 250
193 299
194 197
194 232
194 241
196 213
196 227
196 252
196 280
196 282
196 293
197 233
197 241
198 299
199 214
199 217
199 234
199 261
199 269
200 225
203 235
203 241
203 244
203 274
203 280
203 286
204 219
204 245
204 259
204 267
204 274
204 282
205 253
205 257
205 259
205 268
206 253
206 257
206 283
207 268
207 290
207 291
208 235
208 236
209 235
209 261
210 220
211 224
211 231
211 289
212 268
213 261
213 269
214 217
214 234
214 244
214 256
214 272
214 284
214 286
215 226
215 248
215 290
215 291
216 228
216 269
217 269
217 278
218 265
218 288
218 291
219 267
219 283
220 243
220 295
222 233
222 276
223 272
224 229
224 241
224 259
224 285
225 247
225 280
226 240
227 239
227 288
227 293
228 240
228 242
228 284
228 288
229 238
229 253
229 255
229 259
229 274
229 275
229 285
229 296
230 251
230 281
231 253
231 289
232 238
232 273
233 275
233 278
234 241
234 272
234 277
234 283
234 284
235 252
235 256
235 261
235 271
236 237
236 243
236 251
236 258
237 251
237 258
237 295
238 273
238 296
239 244
239 253
239 257
239 281
240 277
240 284
240 288
241 256
241 280
243 300
244 256
244 286
245 260
245 278
246 292
247 271
248 291
249 255
249 273
250 287
250 299
251 263
251 265
252 295
253 257
253 283
255 277
255 296
255 300
256 274
257 259
257 268
258 279
258 295
259 274
259 296
260 273
261 276
262 267
262 296
263 297
265 288
265 291
265 298
272 281
274 282
274 286
274 297
277 282
277 284
282 293
283 284
284 288
285 288
286 297
288 291
290 291
291 300
*Classes
1
1
1
1
1
1
1
1
1
1
1
1
1
1
1
1
1
1
1
1
1
1
1
1
1
1
1
1
1
1
1
1
1
1
1
1
1
1
1
1
1
1
1
1
1
1
1
1
1
1
1
1
1
1
1
1
1
1
1
1
1
1
1
1
1
1
1
1
1
1
1
1
1
1
1
1
1
1
1
1
1
1
1
1
1
1
1
1
1
1
1
1
1
1
1
1
1
1
1
1
1
1
1
1
1
1
1
1
1
1
1
1
1
1
1
1
1
1
1
1
1
1
1
1
1
1
1
1
1
1
1
1
1
1
1
1
1
1
1
1
1
1
1
1
1
1
1
1
1
1
2
2
2
2
2
2
2
2
2
2
2
2
2
2
2
2
2
2
2
2
2
2
2
2
2
2
2
2
2
2
2
2
2
2
2
2
2
2
2
2
2
2
2
2
2
2
2
2
2
2
2
2
2
2
2
2
2
2
2
2
2
2
2
2
2
2
2
2
2
2
2
2
2
2
2
2
2
2
2
2
2
2
2
2
2
2
2
2
2
2
2
2
2
2
2
2
2
2
2
2
2
2
2
2
2
2
2
2
2
2
2
2
2
2
2
2
2
2
2
2
2
2
2
2
2
2
2
2
2
2
2
2
2
2
2
2
2
2
2
2
2
2
2
2
2
2
2
2
2
2
