*Vertices 300
*Edges
1 13
1 56
1 66
1 95
1 117
1 122
1 172
1 179
1 191
1 213
1 253
1 255
1 273
2 29
2 43
2 55
2 87
2 104
2 109
2 184
3 131
3 161
3 180
3 243
3 297
4 211
5 9
5 34
5 36
5 37
5 120
5 128
5 134
5 170
5 175
5 180
5 199
5 214
5 219
5 245
5 246
5 257
5 258
5 264
5 269
5 271
5 282
6 29
6 54
6 55
6 82
6 98
6 109
6 113
6 127
6 179
6 225
6 255
7 48
7 71
7 94
7 100
7 123
7 129
7 158
7 188
7 189
7 191
7 201
7 207
7 212
7 218
7 221
7 263
7 267
7 289
8 11
8 12
8 43
8 63
8 70
8 111
8 182
8 184
8 187
8 199
8 206
8 258
8 285
9 35
9 43
9 64
9 81
9 84
9 86
9 104
9 125
9 128
9 158
9 284
10 154
10 196
10 203
10 217
10 231
10 283
11 60
11 63
11 67
11 76
11 109
11 111
11 113
11 134
11 169
11 173
11 187
11 209
11 210
11 254
11 255
11 267
11 274
11 285
12 13
12 20
12 50
12 67
12 69
12 70
12 76
12 94
12 104
12 111
12 112
12 125
12 218
12 221
12 252
13 69
13 76
13 82
13 98
13 102
13 147
13 246
13 279
14 42
14 144
14 183
14 189
14 195
14 197
14 260
14 300
15 18
15 53
15 86
15 94
15 180
15 203
15 216
15 240
15 247
15 252
16 50
16 72
16 78
16 114
16 208
16 254
16 271
17 54
17 125
17 166
18 31
18 53
18 135
18 200
18 298
19 27
19 47
19 49
19 67
19 144
19 154
19 167
19 169
19 185
19 189
19 210
19 221
19 229
19 233
19 239
19 246
19 248
19 282
20 21
20 54
20 125
21 24
21 61
21 72
21 82
21 102
21 115
21 134
21 144
21 206
21 262
21 267
22 42
22 52
22 83
22 88
22 108
22 209
22 258
22 271
22 282
23 44
23 150
23 173
23 178
23 183
23 234
24 70
24 82
24 98
24 102
24 172
24 192
24 193
24 267
24 275
24 290
25 148
25 251
26 27
26 60
26 111
26 114
26 125
26 208
27 46
27 144
27 146
27 278
28 59
28 105
28 116
28 123
28 189
28 237
29 33
29 55
29 78
29 108
29 127
29 135
29 175
30 186
30 287
31 39
31 61
31 78
31 135
31 191
31 233
31 236
31 276
32 37
32 60
32 108
32 120
32 145
32 172
33 66
33 91
33 98
33 126
33 137
33 175
33 189
33 200
33 240
34 105
34 132
34 192
34 206
34 212
34 228
34 236
34 241
34 259
34 269
34 270
34 278
34 285
35 55
35 86
35 125
35 207
35 260
35 277
35 284
36 39
36 60
36 72
36 120
36 177
36 187
36 290
36 291
37 39
37 118
37 120
37 134
37 184
37 219
38 151
38 159
38 187
38 192
38 206
38 228
38 236
38 279
39 44
39 72
39 118
39 120
39 250
39 273
40 115
40 166
40 179
40 206
40 213
40 225
40 264
40 279
41 42
41 59
41 74
41 99
41 108
41 149
41 222
41 259
41 281
41 300
42 60
42 73
42 74
42 108
42 112
42 182
42 232
42 260
42 286
43 62
43 104
43 109
43 153
43 159
43 167
43 199
43 224
43 251
43 258
44 49
44 110
44 147
44 176
44 250
44 256
44 268
44 273
44 298
45 110
45 120
45 127
45 166
46 58
46 65
46 89
46 92
46 94
46 114
46 161
46 219
46 220
46 233
46 244
46 248
46 259
47 52
47 67
47 93
47 154
47 158
47 173
47 208
47 280
47 285
48 64
48 71
48 75
48 81
48 94
48 100
48 142
48 152
48 214
48 261
48 267
48 278
49 154
49 230
49 231
49 273
50 76
50 114
50 141
50 160
50 184
50 191
50 237
50 265
51 168
51 181
51 206
51 217
51 243
51 278
52 83
52 88
52 93
52 95
52 108
52 184
52 232
52 242
52 251
52 293
53 111
53 162
53 203
54 110
54 125
54 160
54 255
54 283
55 64
55 87
55 130
55 182
55 220
55 224
55 260
55 277
56 71
56 103
56 122
56 258
56 264
56 280
57 99
57 143
57 217
57 256
57 277
58 65
58 79
58 94
58 117
58 185
58 250
59 74
59 123
59 149
59 175
59 178
59 188
59 189
59 204
59 233
59 276
60 70
60 108
60 114
60 120
60 129
60 134
60 143
60 145
60 151
60 182
60 255
61 78
61 267
61 289
62 159
62 167
62 189
62 237
62 245
63 88
63 102
63 149
63 152
63 169
63 182
63 187
63 198
63 206
63 239
63 257
63 270
63 274
63 294
64 84
64 130
64 142
64 150
64 171
64 184
64 230
64 231
64 232
64 239
65 71
65 89
65 114
65 161
65 171
65 248
65 255
65 266
65 294
66 95
66 98
66 100
66 117
66 240
66 273
67 75
67 76
67 111
67 114
67 118
67 120
67 125
67 133
67 144
67 173
67 181
67 185
67 210
67 217
67 248
67 255
67 282
69 102
69 115
69 147
69 149
69 182
69 246
70 71
70 82
70 129
70 218
70 263
71 103
71 171
71 188
71 207
71 258
71 266
71 289
72 131
72 144
72 211
72 271
73 94
73 112
73 144
73 145
73 180
73 188
73 189
73 192
73 201
73 210
73 215
73 259
73 271
73 276
74 84
74 98
74 211
74 222
74 248
74 300
75 93
75 142
75 192
75 217
75 251
76 114
76 115
76 118
76 141
76 221
77 179
77 263
77 292
78 86
78 108
78 123
78 129
78 161
78 208
78 252
78 289
79 90
79 105
79 118
79 146
79 170
79 174
79 185
79 275
79 281
80 82
80 170
80 178
80 195
80 211
80 266
81 104
81 113
81 130
81 173
81 219
81 230
81 276
81 278
82 98
82 216
83 116
83 202
83 212
83 282
84 117
84 120
84 130
84 139
84 141
84 142
84 147
84 150
84 280
85 108
85 143
85 169
85 175
85 276
86 95
86 125
86 152
86 161
86 165
86 194
86 203
86 217
86 225
86 257
86 292
86 295
87 105
87 184
87 232
88 103
88 152
88 167
88 198
89 110
89 137
89 171
89 265
90 146
90 174
90 210
90 229
90 257
91 126
91 137
91 140
91 179
91 222
91 229
92 110
92 137
92 163
92 189
92 193
92 208
92 233
92 244
93 95
93 154
93 214
93 216
93 269
93 285
94 100
94 112
94 172
94 193
94 233
94 252
94 256
95 161
95 179
95 183
95 189
95 210
95 236
95 242
95 250
95 251
95 266
95 276
95 282
95 292
95 293
95 295
96 164
96 195
96 204
96 283
96 298
97 110
98 170
98 188
98 200
98 240
99 132
99 179
99 213
99 224
99 234
99 253
99 269
99 270
99 275
100 273
100 278
101 167
101 223
101 224
101 226
101 266
101 267
101 268
101 296
102 115
102 118
102 149
102 219
102 222
102 239
102 257
102 259
102 277
102 286
102 291
103 127
103 154
103 170
103 186
103 190
103 240
103 258
103 280
104 109
104 235
104 259
104 261
105 123
105 209
105 244
105 278
106 169
106 175
106 224
106 241
106 272
106 299
106 300
107 153
107 165
107 180
107 203
107 233
107 234
107 286
108 143
108 169
108 177
109 113
109 146
109 226
109 251
109 261
110 125
110 137
110 168
110 217
110 268
111 124
111 133
111 199
112 163
112 192
112 247
112 252
112 256
112 260
112 281
112 284
113 173
113 219
113 226
114 120
114 125
114 165
114 219
114 220
114 255
115 118
115 166
115 219
115 249
115 259
115 277
115 287
116 119
116 123
116 164
116 168
116 172
116 176
116 202
116 227
117 118
117 123
117 129
117 139
117 143
117 250
117 253
117 255
117 262
117 274
117 277
117 280
118 141
118 184
118 237
118 250
118 281
119 248
119 287
120 139
120 152
120 170
120 219
120 246
120 271
121 140
121 159
121 164
121 168
121 192
121 195
121 257
122 155
122 172
122 217
122 239
123 129
124 133
124 151
124 153
124 160
124 175
124 176
124 209
124 251
124 258
124 275
125 142
125 165
125 230
126 132
126 188
126 231
127 166
127 239
128 155
128 176
129 166
129 274
130 150
130 171
130 176
130 219
130 240
131 163
131 166
131 176
131 191
131 222
131 271
132 188
132 206
132 224
132 269
132 279
133 139
133 173
133 253
133 276
134 187
134 219
135 185
135 199
135 200
135 203
135 217
135 279
135 281
135 291
135 295
136 168
136 180
136 212
137 239
137 246
138 151
138 171
138 175
138 202
138 205
138 220
138 265
138 298
139 141
139 197
139 280
140 179
140 192
140 204
140 224
140 230
140 259
140 296
141 173
141 249
141 281
142 188
142 189
142 230
142 261
143 171
143 233
143 235
143 262
143 277
143 290
143 291
143 298
144 189
145 189
145 226
145 247
146 163
146 174
146 229
146 266
147 198
147 256
147 258
147 273
149 180
149 191
149 203
149 214
149 227
149 276
150 231
150 232
150 239
150 272
152 174
152 190
152 247
152 257
152 292
152 300
153 199
153 286
154 158
154 208
154 221
154 231
154 280
155 166
155 214
156 223
156 261
157 182
157 232
157 248
157 259
157 260
158 173
158 202
158 221
158 232
158 300
159 191
159 229
159 235
160 175
160 191
160 263
160 275
160 292
161 180
161 293
163 194
163 208
163 222
163 239
163 259
163 262
163 268
164 172
164 176
164 205
164 222
164 238
164 259
164 262
164 265
164 284
165 196
165 203
165 236
165 260
165 285
165 288
166 191
167 231
167 265
167 267
168 172
168 206
168 217
168 227
168 270
168 296
169 175
169 183
169 210
169 233
169 234
169 267
170 188
170 198
170 245
171 175
171 178
171 209
171 219
171 226
171 229
171 244
171 247
171 255
171 266
171 277
171 294
172 174
172 176
172 179
172 193
172 222
172 228
172 287
172 296
173 178
173 230
173 233
173 276
174 186
174 190
174 280
174 287
175 176
175 178
175 209
175 244
175 246
175 257
176 191
176 298
177 183
177 207
177 299
179 213
179 225
179 229
179 245
179 255
179 280
180 203
180 206
180 258
180 263
180 271
180 293
181 186
181 188
181 198
181 210
181 237
181 254
181 271
182 188
182 232
182 246
182 254
182 260
182 279
183 207
183 233
183 234
183 240
183 285
184 232
185 245
186 223
186 230
186 240
186 287
187 191
187 289
188 189
188 198
188 207
188 278
189 210
189 215
189 229
189 236
189 242
189 266
189 278
190 245
190 246
191 201
191 289
192 240
192 247
192 259
192 290
192 300
193 208
193 269
193 298
195 197
195 204
196 230
196 260
196 283
197 250
198 244
198 245
199 226
199 256
199 258
199 291
200 298
201 231
201 234
201 254
201 256
201 270
201 289
202 212
202 265
203 215
203 216
203 225
203 236
203 263
203 283
203 293
204 218
204 233
204 259
204 276
204 283
205 265
206 238
206 245
206 254
206 270
206 278
206 279
207 223
208 254
208 262
208 284
209 254
209 279
209 282
210 229
210 234
210 242
210 270
210 271
211 248
211 259
212 240
212 247
212 257
212 278
212 279
213 225
214 269
215 272
217 251
217 258
218 263
220 224
220 276
220 281
220 291
220 297
220 298
221 231
221 247
221 280
221 300
222 238
222 259
222 264
222 281
223 226
223 230
224 294
224 296
226 230
226 247
226 249
226 255
226 294
227 296
228 248
228 259
228 280
228 287
229 235
229 242
229 245
230 276
230 287
231 257
231 289
232 260
233 234
233 235
233 276
233 285
233 291
233 300
234 270
236 250
236 285
237 245
237 271
237 281
238 259
238 264
238 279
239 268
239 272
239 282
240 247
241 269
241 282
241 299
243 297
246 279
246 282
247 249
247 255
247 300
248 259
248 267
249 281
249 294
250 254
250 266
250 277
250 285
251 253
251 256
251 258
251 261
251 266
252 289
253 258
253 275
254 271
254 274
254 279
256 258
257 289
257 294
258 264
258 271
259 267
259 281
260 284
260 297
261 289
262 279
262 280
262 284
262 287
263 271
263 292
263 293
264 281
264 299
265 280
265 287
265 298
266 282
266 296
267 279
270 283
272 300
273 290
276 290
276 291
277 290
278 288
280 287
281 291
281 295
283 288
286 290
286 291
286 295
287 296
289 294
290 291
291 295
291 298
297 298
*Classes
1
1
1
1
1
1
1
1
1
1
1
1
1
1
1
1
1
1
1
1
1
1
1
1
1
1
1
1
1
1
1
1
1
1
1
1
1
1
1
1
1
1
1
1
1
1
1
1
1
1
1
1
1
1
1
1
1
1
1
1
1
1
1
1
1
1
1
1
1
1
1
1
1
1
1
1
1
1
1
1
1
1
1
1
1
1
1
1
1
1
1
1
1
1
1
1
1
1
1
1
1
1
1
1
1
1
1
1
1
1
1
1
1
1
1
1
1
1
1
1
1
1
1
1
1
1
1
1
1
1
1
1
1
1
1
1
1
1
1
1
1
1
1
1
1
1
1
1
1
1
2
2
2
2
2
2
2
2
2
2
2
2
2
2
2
2
2
2
2
2
2
2
2
2
2
2
2
2
2
2
2
2
2
2
2
2
2
2
2
2
2
2
2
2
2
2
2
2
2
2
2
2
2
2
2
2
2
2
2
2
2
2
2
2
2
2
2
2
2
2
2
2
2
2
2
2
2
2
2
2
2
2
2
2
2
2
2
2
2
2
2
2
2
2
2
2
2
2
2
2
2
2
2
2
2
2
2
2
2
2
2
2
2
2
2
2
2
2
2
2
2
2
2
2
2
2
2
2
2
2
2
2
2
2
2
2
2
2
2
2
2
2
2
2
2
2
2
2
2
2
