*Vertices 300
*Edges
1 12
1 16
1 35
1 66
1 108
1 124
1 130
1 160
1 162
1 163
1 176
1 188
1 213
1 223
1 241
1 266
2 52
2 94
2 112
2 115
2 119
2 150
3 40
3 44
3 86
3 107
3 109
3 131
3 134
3 172
3 298
4 79
4 105
4 113
4 117
4 134
4 138
4 150
4 176
4 238
5 40
5 46
5 47
5 63
5 67
5 85
5 103
5 128
5 135
5 239
5 243
6 11
6 22
6 27
6 36
6 43
6 53
6 58
6 85
6 100
6 141
6 154
6 155
6 172
6 181
6 211
6 223
6 244
6 247
6 256
6 269
6 293
7 9
7 18
7 36
7 47
7 63
7 105
7 146
7 195
7 208
7 221
7 233
8 30
8 58
8 79
8 161
8 258
9 174
9 195
9 264
10 11
10 13
10 16
10 22
10 38
10 83
10 93
10 100
10 113
10 141
10 146
10 149
10 269
11 36
11 55
11 97
11 100
11 113
11 149
11 161
11 168
11 176
11 199
11 213
11 216
11 236
11 298
12 23
12 135
12 145
12 172
12 179
12 226
12 259
12 266
12 268
12 286
12 299
13 38
13 100
13 149
13 179
13 195
13 228
13 242
13 283
14 28
14 74
14 111
14 296
15 16
15 72
15 95
15 101
15 130
15 178
15 190
15 201
15 263
15 264
16 25
16 83
16 84
16 88
16 93
16 130
16 146
16 167
16 175
16 178
16 257
17 49
17 84
17 113
17 262
17 289
18 24
18 27
18 70
18 73
18 82
18 122
18 148
18 172
18 189
18 220
18 221
18 240
18 292
19 20
19 117
19 172
19 269
19 279
20 59
20 64
20 117
20 126
20 132
20 145
20 203
20 209
20 251
20 259
20 271
20 282
21 28
21 35
21 42
21 46
21 47
21 48
21 50
21 63
21 74
21 85
21 99
21 131
21 145
21 170
21 185
21 196
21 233
21 234
21 236
21 240
21 245
21 265
21 297
22 57
22 59
22 68
22 69
22 71
22 73
22 78
22 81
22 141
22 175
22 243
22 263
23 27
23 61
23 97
23 103
23 135
23 137
23 140
23 149
23 154
23 265
23 268
23 277
24 78
24 109
24 116
24 120
24 148
24 190
24 217
24 290
25 39
25 57
25 79
25 84
25 92
25 98
25 101
25 134
25 260
27 58
27 60
27 110
27 138
27 141
27 154
27 172
27 211
27 223
27 241
27 247
28 48
28 50
28 63
28 78
28 108
28 111
28 118
28 124
28 146
28 171
28 197
28 265
29 32
29 40
29 49
29 57
29 62
29 91
29 103
29 105
29 136
29 142
29 156
29 166
29 173
29 177
29 189
29 192
29 223
29 245
29 249
29 265
29 270
30 33
30 117
30 136
30 223
31 33
31 106
31 114
31 156
31 180
31 213
31 225
31 246
31 262
31 265
31 277
32 62
32 153
32 192
32 231
32 257
32 268
32 284
33 45
33 53
33 57
33 68
33 100
33 123
33 161
33 175
33 194
33 235
33 263
33 266
33 277
34 83
34 120
34 128
34 135
34 138
34 166
34 167
34 258
34 264
35 79
35 88
35 108
35 121
35 122
35 130
35 154
35 159
35 171
35 206
35 218
35 233
35 240
35 263
36 63
36 64
36 100
36 132
36 143
36 176
36 189
36 199
36 228
36 245
36 270
36 293
37 45
37 246
37 249
38 66
38 83
38 101
38 103
38 120
38 134
38 136
38 182
38 227
38 279
39 101
39 120
39 122
39 192
39 250
39 288
39 289
40 45
40 49
40 86
40 105
40 109
40 190
40 232
40 239
40 245
40 246
40 247
40 249
41 42
41 66
41 67
41 76
41 116
41 118
41 127
41 140
41 144
41 165
41 169
41 196
41 236
41 249
42 48
42 54
42 67
42 76
42 96
42 117
42 127
42 155
42 233
42 250
42 272
42 288
43 59
43 68
43 95
43 99
43 136
43 141
43 143
43 155
43 185
43 189
43 190
43 200
43 248
44 73
44 107
44 119
44 194
44 281
45 61
45 67
45 92
45 98
45 135
45 175
45 187
45 193
45 201
45 213
45 219
45 230
45 239
45 246
45 249
46 50
46 81
46 91
46 99
46 135
46 145
46 207
46 214
46 239
46 297
47 48
47 63
47 97
47 132
47 203
48 50
48 76
48 97
48 118
48 149
48 156
48 182
48 189
48 202
48 240
48 272
48 277
49 84
49 86
49 109
49 135
49 182
49 289
50 57
50 63
50 71
50 98
50 102
50 111
50 141
50 214
50 226
50 252
50 254
50 297
51 55
51 156
51 168
51 223
51 247
52 68
52 77
52 85
52 103
52 122
52 124
52 126
52 150
52 154
52 196
52 197
52 230
52 234
52 238
52 240
52 241
52 255
52 289
53 58
53 79
53 100
53 133
53 178
53 179
53 258
53 269
53 293
53 296
54 76
54 97
54 103
54 265
54 299
55 59
55 80
55 93
55 121
55 122
55 199
55 207
55 224
55 263
55 267
56 61
57 68
57 78
57 98
57 104
57 105
57 177
57 192
57 194
57 251
57 266
57 297
58 120
58 136
58 141
58 210
58 244
58 269
59 99
59 122
59 136
59 145
59 184
59 200
59 254
59 263
60 108
60 110
60 111
60 167
60 203
60 220
60 297
61 135
61 205
61 285
62 93
62 94
62 99
62 125
62 133
62 231
62 245
62 256
62 281
63 67
63 89
63 146
63 265
63 276
64 132
64 143
64 210
64 228
64 245
65 190
65 194
65 210
65 224
65 248
65 250
66 101
66 108
66 120
66 127
66 131
66 165
66 214
66 263
66 266
66 290
67 76
67 98
67 103
67 128
67 233
67 235
67 299
68 77
68 78
68 95
68 98
68 99
68 116
68 118
68 143
68 145
68 175
68 188
68 233
68 292
69 72
69 80
69 91
69 122
69 126
69 182
69 183
69 185
69 195
69 234
69 235
69 251
69 263
69 275
70 91
70 99
70 111
70 124
70 140
70 145
70 148
70 182
70 197
70 276
70 296
71 73
71 127
71 141
71 155
71 208
71 213
71 266
71 283
72 101
72 120
72 132
72 138
72 148
72 163
72 182
72 191
72 213
72 218
72 249
72 263
73 107
73 141
73 148
73 204
74 111
74 112
74 151
74 234
74 240
74 278
75 113
75 127
75 155
75 186
75 234
75 256
76 80
76 84
76 93
76 96
76 97
76 128
76 144
76 165
76 169
76 229
76 235
76 243
76 276
76 299
77 85
77 124
77 170
77 192
77 204
77 278
77 284
78 90
78 104
78 110
78 114
78 116
78 118
78 233
78 246
78 256
78 280
79 84
79 92
79 105
79 107
79 117
79 134
79 150
79 218
79 258
80 99
80 169
80 224
80 236
81 263
82 84
82 103
82 108
82 124
82 157
82 223
82 240
82 267
82 298
83 127
83 128
83 135
84 88
84 100
84 113
84 124
84 195
84 299
85 120
85 126
85 128
85 179
85 196
85 211
85 234
85 251
85 258
85 286
85 287
86 290
87 115
87 190
88 93
88 98
88 104
88 106
88 110
88 146
88 229
88 240
88 285
89 104
89 106
89 170
89 300
90 118
90 129
90 132
90 140
90 141
90 151
90 166
90 191
90 197
90 203
90 220
90 250
91 103
91 110
91 124
91 153
91 183
91 203
91 207
91 216
91 262
92 98
92 190
92 230
92 258
92 278
93 97
93 121
93 151
93 199
93 214
93 248
93 256
93 293
94 107
94 115
94 122
94 125
94 133
94 171
94 235
95 114
95 135
95 144
95 175
95 178
95 188
95 269
96 215
96 230
96 233
96 250
96 270
96 286
97 121
97 149
97 235
97 268
98 101
98 104
98 149
98 175
98 219
98 229
98 230
98 239
98 249
99 131
99 145
99 183
99 245
99 297
100 113
100 133
100 149
100 199
100 227
101 103
101 120
101 134
101 138
101 148
101 177
101 227
101 250
101 270
102 124
102 153
102 241
102 297
103 123
103 124
103 134
103 138
103 142
103 144
103 177
103 262
103 265
104 106
104 108
104 110
104 114
104 116
104 164
104 216
104 229
104 256
104 261
105 117
105 160
105 166
105 221
105 251
105 272
106 108
106 164
106 176
106 179
106 180
106 223
106 258
106 300
107 119
107 125
107 134
107 206
107 246
107 249
107 254
107 268
107 281
108 111
108 188
108 240
108 268
108 276
108 280
109 135
109 190
109 257
109 282
110 203
110 216
110 229
111 193
111 240
111 296
112 117
112 119
112 151
112 198
112 218
112 234
112 285
112 300
113 129
113 150
113 154
113 155
113 195
113 228
113 259
113 291
114 120
114 148
114 180
114 225
114 238
114 246
114 280
115 119
116 148
116 161
116 236
116 248
117 136
117 164
117 172
117 223
117 250
117 269
117 282
118 151
118 165
119 151
119 164
119 241
119 256
119 288
119 300
120 128
120 134
120 148
120 154
120 225
120 244
120 270
121 134
121 151
121 218
121 248
122 124
122 125
122 163
122 175
122 240
123 138
123 142
123 264
123 287
124 127
124 144
124 157
124 163
124 197
124 213
124 238
124 239
124 241
124 289
125 175
125 233
125 235
125 242
125 254
125 268
126 183
126 193
126 204
126 209
126 298
127 128
127 135
127 139
127 144
127 156
127 168
127 189
127 213
127 223
127 234
127 272
128 135
128 139
128 148
128 156
128 257
128 294
129 166
129 206
129 241
129 256
129 259
129 262
129 281
130 218
130 240
130 266
130 285
131 159
131 183
131 260
131 263
132 157
132 191
132 203
132 210
132 250
133 171
133 178
133 179
133 273
133 277
134 168
134 172
134 177
135 180
135 182
135 188
135 239
135 274
136 192
136 195
136 243
138 150
138 163
138 172
138 191
138 193
138 200
138 218
138 229
138 233
138 254
138 264
138 287
139 208
139 212
139 233
139 286
140 144
140 174
140 175
140 197
140 200
140 225
140 258
140 265
140 294
140 296
141 149
141 151
141 155
141 181
141 211
141 243
141 269
142 156
142 167
142 195
142 227
142 266
142 286
142 293
143 200
144 169
145 172
145 245
146 167
146 184
146 186
146 216
146 234
146 241
146 246
146 285
146 293
147 190
147 191
147 238
147 255
147 257
147 291
148 153
148 230
148 268
148 282
148 295
149 161
149 179
149 219
149 225
149 232
149 233
149 236
149 258
149 294
150 163
150 229
150 230
150 287
151 155
151 162
151 234
151 271
152 190
152 194
152 202
152 248
152 259
152 266
152 291
153 207
153 219
153 257
153 268
154 189
154 214
154 240
154 259
154 270
154 288
155 174
155 175
155 181
156 177
156 184
156 188
156 203
156 223
156 245
156 246
156 263
156 277
157 168
157 178
157 189
157 191
157 217
157 221
157 242
157 272
157 277
157 283
157 298
158 178
158 269
158 296
159 184
159 235
159 240
159 263
160 189
160 197
160 208
160 210
160 266
160 272
160 292
161 189
161 190
161 232
161 248
162 188
162 246
163 176
163 227
163 285
163 286
164 221
164 223
164 241
164 246
164 281
164 282
165 173
165 178
165 196
165 201
165 202
165 212
165 231
165 238
165 243
165 250
165 260
165 275
166 179
166 258
167 184
167 203
167 216
167 262
167 265
167 284
167 293
167 297
168 170
168 192
168 204
168 242
168 272
168 277
168 284
168 287
168 298
169 173
169 177
169 189
169 193
169 223
169 238
169 245
169 249
169 295
170 192
170 240
170 259
170 266
171 179
171 186
171 268
172 193
172 195
172 200
172 221
172 275
172 279
173 184
173 193
173 216
173 225
173 234
173 235
173 238
173 260
173 264
173 289
173 295
174 175
174 189
174 194
174 195
174 202
174 205
174 214
174 245
174 292
175 187
175 194
175 204
175 230
175 234
175 256
175 257
176 189
176 242
176 252
176 283
177 192
177 193
177 213
177 249
178 202
178 203
178 209
178 243
178 271
178 273
178 277
178 291
178 296
179 228
179 234
179 258
179 286
180 188
180 216
180 231
180 246
180 262
180 270
181 223
181 295
182 188
182 227
182 249
183 185
183 263
183 298
184 216
184 263
184 264
184 277
185 201
185 211
185 234
185 251
185 278
185 298
186 205
186 234
186 235
186 256
186 268
187 256
188 239
188 246
189 202
189 214
189 215
189 232
189 242
189 245
189 248
189 270
189 292
190 201
190 212
190 248
190 257
191 217
192 194
192 202
192 204
192 232
192 280
192 283
192 284
192 286
192 288
193 249
194 204
194 210
194 215
194 251
194 254
194 257
194 266
194 283
195 206
195 220
195 228
195 264
195 266
195 275
195 281
196 236
196 240
196 250
196 292
197 225
197 241
198 218
198 227
199 200
199 225
199 234
199 278
200 208
200 225
200 241
200 284
201 212
201 218
201 223
201 239
201 293
201 296
202 232
202 242
202 243
202 284
202 286
202 291
202 296
203 209
203 216
204 208
204 209
204 210
204 233
204 242
204 251
204 254
204 274
204 280
204 283
206 233
206 281
207 220
207 267
208 210
208 213
208 233
208 242
208 264
208 266
208 270
208 283
208 284
208 286
208 294
209 250
209 277
209 282
210 215
210 236
210 257
210 266
210 294
211 251
211 262
211 267
211 289
211 298
213 216
213 217
213 225
213 235
213 249
213 262
214 215
214 232
214 242
214 248
214 288
214 297
215 230
215 232
215 288
215 294
216 262
217 218
217 221
217 225
217 227
217 242
217 259
217 266
217 277
217 285
218 227
218 286
218 296
219 236
219 268
220 229
220 261
221 223
221 224
221 242
222 229
222 241
222 261
222 262
223 239
223 250
223 266
223 282
223 293
223 295
223 298
225 227
225 235
225 263
225 265
225 274
226 243
226 254
226 299
227 284
227 285
227 286
228 264
228 266
229 261
230 245
230 255
231 238
231 256
231 275
232 247
232 253
232 284
232 286
233 236
233 254
234 235
234 236
234 241
234 256
234 278
234 281
235 263
235 274
236 250
236 257
238 260
238 263
238 264
238 286
238 291
239 293
240 259
240 270
241 246
241 256
241 261
241 262
241 281
241 284
241 286
242 248
242 283
243 263
243 275
243 284
243 299
244 247
244 251
244 270
244 281
245 255
245 270
247 251
247 281
248 257
248 266
248 292
251 266
254 274
254 283
254 297
256 281
256 285
256 293
257 291
258 294
258 296
259 266
259 270
259 291
260 264
260 300
261 262
261 284
262 289
263 264
263 275
264 270
264 286
265 293
266 275
266 290
266 291
267 298
268 272
268 287
270 286
271 277
272 287
275 299
277 282
281 284
281 285
281 293
284 286
284 297
293 297
*Classes
1
1
1
1
1
1
1
1
1
1
1
1
1
1
1
1
1
1
1
1
1
1
1
1
1
1
1
1
1
1
1
1
1
1
1
1
1
1
1
1
1
1
1
1
1
1
1
1
1
1
1
1
1
1
1
1
1
1
1
1
1
1
1
1
1
1
1
1
1
1
1
1
1
1
1
1
1
1
1
1
1
1
1
1
1
1
1
1
1
1
1
1
1
1
1
1
1
1
1
1
1
1
1
1
1
1
1
1
1
1
1
1
1
1
1
1
1
1
1
1
1
1
1
1
1
1
1
1
1
1
1
1
1
1
1
1
1
1
1
1
1
1
1
1
1
1
1
1
1
1
2
2
2
2
2
2
2
2
2
2
2
2
2
2
2
2
2
2
2
2
2
2
2
2
2
2
2
2
2
2
2
2
2
2
2
2
2
2
2
2
2
2
2
2
2
2
2
2
2
2
2
2
2
2
2
2
2
2
2
2
2
2
2
2
2
2
2
2
2
2
2
2
2
2
2
2
2
2
2
2
2
2
2
2
2
2
2
2
2
2
2
2
2
2
2
2
2
2
2
2
2
2
2
2
2
2
2
2
2
2
2
2
2
2
2
2
2
2
2
2
2
2
2
2
2
2
2
2
2
2
2
2
2
2
2
2
2
2
2
2
2
2
2
2
2
2
2
2
2
2
