*Vertices 300
*Edges
1 22
1 32
1 53
1 90
1 128
1 138
1 267
2 4
2 21
2 92
2 148
2 158
2 162
2 165
2 186
2 218
2 226
2 235
2 256
2 259
2 279
3 23
3 28
3 86
3 94
3 169
3 237
3 247
3 285
3 291
4 11
4 21
4 34
4 46
4 62
4 103
4 136
4 181
4 203
4 207
5 11
5 36
5 84
5 95
5 101
5 102
5 162
5 180
5 233
5 237
5 238
5 259
6 39
6 80
6 89
6 120
6 129
6 131
6 141
6 234
6 241
6 282
6 299
7 47
7 98
7 109
7 139
7 229
8 18
8 47
8 48
8 68
8 70
8 79
8 155
8 184
8 229
8 232
8 246
8 267
8 268
8 277
9 15
9 46
9 241
10 38
10 62
10 86
10 94
10 96
10 113
11 42
11 46
11 61
11 82
11 96
11 122
11 128
11 157
11 217
11 234
11 241
11 242
11 281
12 36
12 45
12 101
12 115
12 134
12 189
12 191
12 199
12 251
12 273
12 276
13 39
13 61
13 80
13 91
13 93
13 101
13 102
13 125
13 131
13 153
13 171
13 172
13 222
13 273
13 293
14 34
14 62
14 85
14 126
14 141
14 198
14 278
14 296
14 300
15 43
15 62
15 94
15 124
15 126
15 127
15 160
15 242
16 19
16 61
16 134
16 159
16 192
16 297
16 300
17 20
17 25
17 52
17 56
17 97
17 104
17 119
17 174
17 250
18 76
18 119
18 147
18 155
18 161
18 184
18 207
18 208
18 295
18 296
19 49
19 54
19 159
19 171
19 172
19 235
19 256
19 263
19 268
19 271
19 297
20 25
20 32
20 40
20 157
20 190
20 268
20 274
21 25
21 64
21 99
21 103
21 127
21 163
21 165
21 195
21 209
22 60
22 87
22 128
22 141
22 220
22 243
22 256
22 263
22 290
22 296
23 59
23 72
23 101
23 124
23 189
23 190
23 197
23 205
23 207
23 247
23 282
23 294
24 50
24 95
24 98
24 103
24 106
24 112
24 129
24 137
24 154
24 182
24 188
24 223
24 247
24 291
25 32
25 44
25 103
25 113
25 115
25 153
25 157
25 186
25 190
25 245
25 288
26 41
26 70
26 110
26 131
26 167
26 177
26 222
26 257
27 50
27 142
27 154
27 165
27 174
27 195
27 202
27 284
27 294
28 33
28 94
28 122
28 147
28 201
28 222
29 40
29 63
29 133
29 146
29 150
30 49
30 225
30 242
30 244
30 280
30 283
31 45
31 125
31 299
32 38
32 39
32 52
32 72
32 74
32 95
32 103
32 126
32 128
32 169
32 179
32 182
32 194
32 207
32 217
32 223
32 226
32 244
32 247
32 282
33 37
33 47
33 51
33 94
33 121
33 122
33 133
33 156
33 165
33 207
33 220
33 242
33 282
34 35
34 62
34 104
34 141
34 181
34 203
34 237
34 242
34 244
34 276
34 300
35 82
35 104
35 133
35 151
35 156
35 185
35 270
35 296
36 60
36 90
36 101
36 114
36 127
36 145
36 157
36 172
36 180
36 185
36 190
36 219
36 290
37 56
37 58
37 267
37 282
38 67
38 86
38 128
38 172
38 179
38 194
38 197
38 214
38 217
38 232
38 257
38 295
39 80
39 97
39 102
39 141
39 169
39 255
39 296
40 63
40 77
40 84
40 112
40 116
40 157
40 185
40 207
40 208
40 268
41 106
41 131
41 178
41 199
41 235
41 257
41 259
41 279
42 57
42 61
42 68
42 150
42 153
42 162
42 179
42 208
42 218
42 235
42 239
42 241
42 256
42 265
42 294
43 69
43 167
43 175
43 207
43 235
43 242
44 97
44 111
44 121
44 164
44 170
44 186
44 199
44 217
45 115
45 125
45 134
45 152
45 166
45 191
45 193
45 237
46 61
46 82
46 241
46 264
46 281
47 81
47 90
47 100
47 109
47 139
47 152
47 155
47 195
47 197
47 226
47 279
47 280
48 70
48 92
48 108
48 154
48 155
48 157
48 159
48 172
48 202
48 232
48 277
48 293
48 294
48 296
49 83
49 131
49 175
49 193
49 200
49 204
49 208
49 220
49 222
49 231
49 248
49 249
49 256
50 95
50 106
50 107
50 114
50 127
50 129
50 142
50 224
50 246
50 279
50 282
50 296
51 68
51 191
51 203
51 207
51 234
51 235
51 239
51 244
51 282
51 288
52 72
52 74
52 112
52 124
52 130
52 137
52 155
52 218
53 134
53 192
53 199
53 222
53 267
53 273
54 171
54 214
54 227
54 232
54 276
55 66
55 77
55 82
55 130
55 181
55 183
55 185
55 213
55 217
55 218
55 278
56 171
56 174
56 183
56 198
57 68
57 141
57 147
57 173
57 180
57 205
57 265
57 268
58 230
58 276
58 282
59 72
59 162
59 165
59 174
59 182
60 85
60 140
60 165
60 168
60 180
60 207
60 219
60 226
60 276
60 285
61 80
61 115
61 122
61 134
61 172
61 192
61 218
61 231
61 266
61 277
61 300
62 94
62 96
62 104
62 113
62 122
62 132
62 280
63 192
63 234
64 87
64 95
64 99
64 142
64 219
64 244
64 293
65 91
65 118
65 154
65 206
65 261
65 285
66 77
66 116
66 132
66 141
66 156
66 178
66 187
66 212
66 231
66 300
67 83
67 108
67 125
67 151
67 287
68 86
68 207
68 246
68 267
68 268
68 294
69 82
69 146
70 108
70 183
70 184
70 222
71 77
71 107
71 132
71 195
71 240
71 257
71 275
72 101
72 124
72 160
72 162
72 165
72 218
72 268
73 80
73 97
73 113
73 162
73 201
73 221
73 284
74 154
74 159
74 176
74 180
74 221
74 223
74 249
74 263
74 285
75 179
75 211
76 115
76 119
76 147
76 219
76 228
77 82
77 156
77 159
77 212
77 217
77 249
77 250
77 263
77 275
77 297
78 162
78 188
78 244
78 253
78 297
79 83
80 91
80 93
80 101
80 131
80 153
80 176
80 203
80 229
80 235
80 236
80 243
80 276
80 284
81 100
81 166
81 280
82 246
82 250
83 86
83 175
83 243
84 90
84 95
84 102
84 105
84 113
84 116
84 123
84 131
84 182
84 203
84 204
84 233
84 238
84 258
84 265
84 275
85 140
85 235
85 267
86 87
86 94
86 138
86 212
86 237
86 238
87 91
87 99
87 121
87 141
87 166
87 212
87 214
87 222
88 225
88 233
88 251
89 109
89 123
89 164
89 225
89 279
89 292
89 296
90 100
90 256
90 267
91 118
91 154
91 189
91 197
92 106
92 159
92 165
92 183
92 217
92 224
92 235
92 270
92 292
93 161
93 190
93 208
93 236
93 241
93 272
93 276
93 284
94 96
94 132
94 165
94 176
94 177
94 180
94 190
94 237
94 242
94 288
95 112
95 126
95 151
95 172
95 182
95 194
95 200
95 237
95 268
95 293
96 140
96 200
96 212
96 234
96 242
96 282
96 285
97 111
98 109
98 140
98 205
98 223
98 252
99 118
99 129
99 174
99 186
99 299
100 132
100 155
100 249
100 279
101 202
101 251
102 243
102 259
102 277
103 181
103 190
103 201
103 209
104 119
104 237
105 252
105 258
106 121
106 124
106 129
106 159
106 177
106 178
106 183
106 208
106 223
106 235
106 247
106 279
107 120
107 132
107 200
107 241
107 257
107 275
107 282
108 205
108 223
108 236
108 255
108 261
108 275
108 293
109 116
109 123
109 225
109 232
109 237
109 260
110 167
110 198
110 231
110 270
111 138
111 200
112 130
112 139
112 182
112 184
112 268
113 123
113 162
113 215
113 249
114 127
115 191
115 229
115 234
115 282
116 178
116 183
116 196
116 258
116 288
117 143
117 286
118 134
118 174
118 200
118 209
119 148
119 158
119 207
120 158
120 171
120 280
121 141
121 164
121 166
121 214
121 282
122 126
122 201
122 291
122 300
123 191
123 204
123 225
123 238
123 262
123 275
123 283
124 126
124 160
124 197
124 208
124 210
124 214
124 234
124 247
124 259
124 268
125 166
125 200
125 276
126 141
126 149
126 160
126 162
126 198
126 206
126 278
126 291
126 299
126 300
127 160
127 185
127 187
127 195
127 215
127 249
128 136
128 159
128 172
128 217
128 263
128 274
128 290
128 297
128 299
129 257
130 131
130 155
130 158
130 179
130 180
130 181
130 205
130 212
130 213
130 272
131 199
131 203
131 206
131 247
131 276
131 284
131 293
132 222
132 225
132 231
132 240
132 283
133 146
133 258
133 279
133 284
133 287
133 291
133 296
133 299
134 166
134 231
134 246
134 291
135 164
135 265
135 273
135 284
136 172
136 196
136 207
136 248
137 188
137 194
137 223
137 247
138 152
138 200
138 215
139 161
139 173
139 184
139 197
140 207
140 212
140 224
140 233
140 252
140 276
141 166
141 205
141 220
141 243
141 296
141 299
142 170
142 186
142 219
142 248
142 268
142 284
142 293
142 294
143 238
144 158
145 157
145 183
145 190
145 227
146 158
147 157
147 295
148 162
148 274
149 291
150 161
150 239
152 153
152 165
152 168
152 182
152 185
152 193
152 194
152 195
152 201
152 203
152 207
152 214
152 215
152 218
152 231
153 183
153 218
154 223
154 277
154 285
154 289
154 290
155 165
155 217
155 226
156 185
156 186
156 219
156 256
157 222
157 277
158 180
158 218
158 250
159 171
159 263
159 268
161 194
161 241
161 255
161 258
161 275
162 192
162 299
163 182
163 195
163 294
163 300
164 257
164 266
164 283
165 174
165 176
165 179
165 181
165 182
165 190
165 220
165 226
165 227
165 260
165 289
166 177
166 195
166 260
167 235
167 239
167 271
167 292
168 181
168 190
168 198
168 206
168 207
168 218
168 280
168 294
168 297
169 195
169 220
169 226
169 287
170 186
172 180
172 196
172 219
172 266
172 278
172 293
172 295
172 297
173 180
173 197
173 203
173 205
173 217
173 226
174 243
175 294
176 179
176 190
176 249
177 195
177 203
177 300
178 206
178 248
178 261
179 181
179 221
180 205
180 229
180 272
180 285
181 185
181 207
181 211
181 226
181 237
181 251
181 260
182 259
182 300
183 190
183 196
183 292
184 219
185 207
185 218
185 219
185 290
185 294
186 217
186 226
186 229
186 256
187 207
187 289
188 237
189 276
190 196
190 279
190 280
190 289
190 296
191 197
191 203
191 222
191 227
191 244
191 255
191 262
191 275
192 222
192 245
192 262
192 299
193 200
193 203
193 268
194 195
194 201
194 207
194 258
195 220
195 255
195 260
195 294
196 204
197 203
197 214
197 234
197 247
197 253
197 258
197 278
197 279
197 280
197 291
199 206
199 273
199 291
200 268
200 273
200 282
201 215
202 251
202 294
203 207
203 214
203 247
203 255
203 273
203 279
203 282
203 283
203 293
204 256
204 263
204 265
204 294
206 208
206 261
206 265
206 273
206 280
206 291
207 265
207 282
207 294
208 220
208 265
210 259
210 270
212 285
213 228
213 245
213 269
213 278
214 227
214 231
214 271
214 281
215 224
215 249
215 263
216 235
216 239
216 269
216 276
216 285
217 219
217 226
217 274
217 280
217 297
218 252
218 266
219 226
219 295
220 226
220 243
221 256
222 231
223 261
223 285
224 233
224 246
225 283
227 266
228 235
228 271
228 278
229 246
229 265
229 272
229 278
229 279
229 290
229 292
230 236
230 261
232 271
232 276
233 246
233 263
234 247
234 251
234 257
234 261
234 278
234 282
235 239
235 271
235 292
236 240
236 261
236 265
236 272
237 238
237 260
237 276
237 294
237 300
238 294
239 292
242 244
244 253
244 280
244 298
245 269
245 276
246 250
246 278
246 298
247 255
247 275
247 280
247 287
247 291
248 265
251 264
251 286
255 275
256 294
257 262
257 275
257 278
257 293
258 284
259 277
260 286
261 278
262 275
262 286
264 281
265 272
266 283
269 276
271 274
273 282
273 300
277 289
277 294
278 295
279 292
279 296
282 283
286 295
292 295
296 299
*Classes
1
1
1
1
1
1
1
1
1
1
1
1
1
1
1
1
1
1
1
1
1
1
1
1
1
1
1
1
1
1
1
1
1
1
1
1
1
1
1
1
1
1
1
1
1
1
1
1
1
1
1
1
1
1
1
1
1
1
1
1
1
1
1
1
1
1
1
1
1
1
1
1
1
1
1
1
1
1
1
1
1
1
1
1
1
1
1
1
1
1
1
1
1
1
1
1
1
1
1
1
1
1
1
1
1
1
1
1
1
1
1
1
1
1
1
1
1
1
1
1
1
1
1
1
1
1
1
1
1
1
1
1
1
1
1
1
1
1
1
1
1
1
1
1
1
1
1
1
1
1
2
2
2
2
2
2
2
2
2
2
2
2
2
2
2
2
2
2
2
2
2
2
2
2
2
2
2
2
2
2
2
2
2
2
2
2
2
2
2
2
2
2
2
2
2
2
2
2
2
2
2
2
2
2
2
2
2
2
2
2
2
2
2
2
2
2
2
2
2
2
2
2
2
2
2
2
2
2
2
2
2
2
2
2
2
2
2
2
2
2
2
2
2
2
2
2
2
2
2
2
2
2
2
2
2
2
2
2
2
2
2
2
2
2
2
2
2
2
2
2
2
2
2
2
2
2
2
2
2
2
2
2
2
2
2
2
2
2
2
2
2
2
2
2
2
2
2
2
2
2
