*Vertices 300
*Edges
1 24
1 57
1 135
1 168
1 199
2 12
2 35
2 37
2 146
2 167
2 183
2 204
2 226
2 232
2 247
2 251
2 253
2 267
2 281
2 287
2 296
3 25
3 41
3 49
3 212
3 224
3 281
4 106
4 226
5 27
5 29
5 222
5 247
5 295
6 21
6 64
6 65
6 85
6 89
6 111
6 125
6 127
6 137
6 139
6 186
6 200
6 248
7 9
7 26
7 67
7 91
7 122
7 191
7 203
7 208
7 236
7 261
7 292
7 293
7 299
8 11
8 31
8 59
8 79
8 135
8 154
8 157
8 177
8 179
8 183
8 184
8 237
8 261
8 287
8 296
9 10
9 40
9 49
9 67
9 122
9 148
9 198
9 204
9 222
9 224
9 243
9 259
9 271
10 19
10 40
10 43
10 59
10 78
10 128
10 148
10 193
10 234
10 239
10 265
10 270
10 283
11 21
11 30
11 69
11 80
11 119
11 156
11 157
11 204
11 209
11 220
11 224
11 251
11 261
11 281
11 291
11 294
11 296
12 25
12 37
12 40
12 46
12 78
12 146
12 261
13 39
13 65
13 68
13 104
13 144
13 165
13 192
13 198
13 241
13 244
14 23
14 50
14 61
14 62
14 137
14 140
14 200
14 219
14 263
15 64
15 116
15 137
15 156
15 259
15 269
16 37
16 59
16 129
16 184
16 189
16 216
16 236
16 237
17 22
17 57
17 83
17 112
17 142
17 176
17 178
17 254
17 278
17 284
17 285
18 30
18 41
18 69
18 70
18 106
18 129
18 167
18 212
18 227
18 271
18 281
19 136
19 158
19 162
19 163
19 215
19 234
19 239
20 36
20 56
20 84
20 98
20 133
20 174
20 193
20 204
20 226
20 245
21 69
21 79
21 85
21 108
21 140
21 165
21 167
21 173
21 204
21 209
21 224
21 252
22 70
22 74
22 101
22 112
22 130
22 131
22 162
22 165
22 176
22 182
22 225
22 241
22 279
22 300
23 43
23 140
23 298
24 25
24 42
24 89
24 135
24 149
24 199
25 49
25 59
25 78
25 135
25 158
25 212
25 261
26 40
26 91
26 160
26 172
26 226
26 256
26 261
27 29
27 95
27 165
27 179
27 189
27 221
27 256
27 286
27 290
28 77
28 85
28 110
28 115
28 132
28 154
28 160
28 195
28 237
28 250
28 296
29 63
29 125
29 137
29 140
29 247
29 248
29 256
30 33
30 58
30 69
30 79
30 129
30 167
30 219
30 228
30 292
30 294
32 53
32 103
32 111
32 125
32 181
33 58
33 69
33 71
33 79
33 139
33 171
33 187
33 202
33 209
33 214
33 229
33 245
33 251
33 260
34 98
34 109
34 167
34 218
34 274
34 280
35 119
35 128
35 144
35 157
35 171
35 183
35 184
35 214
35 254
35 270
36 38
36 57
36 69
36 73
36 76
36 81
36 108
36 133
36 142
36 185
36 203
36 268
36 276
37 40
37 59
37 78
37 183
37 184
37 253
37 281
38 88
38 108
38 144
38 185
38 190
38 194
38 221
38 286
39 44
39 47
39 52
39 68
39 78
39 95
39 147
39 207
39 230
39 262
39 287
39 290
39 293
39 295
40 76
40 96
40 148
40 151
40 175
40 184
40 186
40 227
40 246
40 276
40 298
41 109
41 111
41 212
41 227
42 66
42 107
42 149
42 150
42 169
42 173
42 234
42 241
42 284
42 295
43 56
43 98
43 181
43 239
43 265
43 271
44 78
44 147
44 154
44 207
44 230
44 232
45 48
45 51
45 95
45 99
45 136
45 149
45 158
45 162
45 164
45 206
45 291
46 54
46 76
46 146
46 250
46 257
47 59
47 75
47 135
47 148
47 257
48 185
48 186
48 204
48 206
48 224
48 227
48 249
48 259
48 260
48 291
48 300
49 63
49 69
49 70
49 110
49 208
49 224
49 249
49 261
49 271
49 281
49 288
50 61
50 88
50 134
50 140
50 145
50 147
50 189
50 198
50 200
50 219
50 232
50 260
50 268
50 275
50 288
50 297
51 131
51 149
51 194
51 244
52 68
52 131
53 95
53 125
53 127
53 206
53 233
53 259
53 262
53 271
53 273
54 63
54 76
54 125
54 148
54 173
54 204
54 222
54 248
54 250
54 257
55 66
55 290
56 60
56 76
56 84
56 98
56 117
56 162
56 170
56 174
56 176
56 194
56 219
56 240
57 111
57 141
57 142
57 216
57 271
57 286
58 62
58 69
58 124
58 127
58 129
58 135
58 198
58 261
58 294
59 65
59 82
59 89
59 111
59 118
59 135
59 146
59 148
59 210
59 236
59 266
59 277
60 84
60 205
61 134
61 136
61 189
61 222
61 254
62 135
62 140
62 197
62 295
63 72
63 87
63 125
63 127
63 171
63 196
63 208
63 248
63 280
64 92
64 100
64 137
64 160
64 171
64 202
64 228
64 255
65 147
65 165
65 200
65 202
65 225
65 241
65 255
65 264
65 266
65 267
65 272
65 274
65 275
66 107
66 205
66 258
67 122
67 154
67 160
67 164
67 191
67 213
67 233
67 250
67 251
67 255
67 256
67 293
68 175
68 176
68 189
68 195
68 285
68 290
68 295
69 79
69 91
69 99
69 108
69 160
69 167
69 175
69 203
69 204
69 208
69 219
69 220
69 228
69 252
69 253
69 280
69 292
69 298
70 78
70 130
70 161
70 181
70 202
70 216
70 271
70 280
70 283
71 108
71 139
71 152
71 153
71 167
71 183
71 209
71 233
71 240
71 253
71 274
71 292
72 87
72 129
72 161
72 167
72 216
72 267
72 270
73 90
73 112
73 120
73 145
73 268
73 297
74 91
74 106
74 109
74 116
74 163
74 176
74 191
74 195
74 197
74 281
74 288
75 127
75 130
75 142
75 160
75 175
75 180
75 188
75 205
75 230
75 265
76 81
76 89
76 112
76 134
76 148
76 150
76 151
76 176
76 203
76 206
76 215
76 223
76 227
76 239
76 257
76 263
76 276
76 297
77 115
77 180
77 187
77 218
77 249
77 263
77 276
77 288
78 120
78 127
78 147
78 239
78 265
78 270
78 271
78 298
79 129
79 140
79 154
79 163
79 237
79 266
80 109
80 112
80 130
80 138
80 142
80 156
80 175
80 205
80 207
80 212
80 218
80 226
81 121
81 123
81 148
81 239
82 83
82 95
82 111
82 118
82 134
82 156
82 163
82 179
82 190
82 284
82 286
83 95
83 171
83 187
83 188
83 218
83 243
83 254
84 100
84 162
84 220
84 223
84 239
85 115
85 248
85 277
86 131
86 142
86 170
86 174
86 201
86 259
86 271
86 286
87 105
87 196
87 281
88 127
88 178
88 190
88 211
88 246
89 90
89 111
89 148
89 154
89 177
89 179
89 185
89 197
89 248
90 92
90 125
90 154
90 171
90 177
90 182
90 199
90 255
90 260
90 262
90 284
91 280
92 100
92 137
92 154
92 177
92 190
92 228
92 292
93 105
93 127
93 138
93 171
93 174
94 163
94 235
94 242
95 99
95 113
95 134
95 162
95 170
95 173
95 215
95 271
95 286
95 287
96 187
96 218
96 298
97 149
97 169
97 297
97 299
98 113
98 134
98 240
98 250
98 273
98 280
99 110
99 119
99 120
99 128
99 146
99 164
99 188
99 204
99 235
99 280
100 186
100 228
100 240
100 246
101 198
101 199
101 244
101 261
101 262
101 279
102 277
102 285
103 111
103 181
103 235
103 271
103 278
103 293
104 114
104 175
104 183
104 191
104 213
104 214
104 239
104 251
104 277
105 127
105 179
105 239
105 251
106 129
106 176
106 179
106 185
106 190
107 173
107 180
107 209
107 220
107 223
107 234
107 236
107 241
107 254
108 133
108 153
108 185
108 187
108 204
108 209
108 221
108 286
109 130
109 142
109 156
109 176
109 189
109 218
109 280
110 132
110 168
110 188
110 192
110 208
110 247
110 248
110 277
110 280
110 289
111 118
111 146
111 148
111 157
111 161
111 212
111 215
111 216
111 231
111 249
111 278
111 296
112 138
112 207
112 239
112 268
112 300
113 134
113 181
113 221
113 231
113 250
113 271
114 213
114 268
115 149
115 169
115 195
115 198
115 231
116 137
116 163
116 231
116 259
116 269
116 282
116 288
116 291
117 123
117 132
117 133
117 175
117 186
117 219
117 239
117 269
117 282
118 146
118 165
118 236
118 277
118 284
118 296
119 128
119 129
119 130
119 139
119 171
119 182
119 205
119 214
119 215
119 233
119 251
119 292
120 138
120 151
120 164
120 210
120 226
120 298
121 260
122 163
122 179
122 258
122 286
122 292
123 132
123 167
123 219
124 184
124 245
124 253
124 261
124 300
125 127
125 157
125 171
125 182
125 196
125 219
125 231
125 270
125 284
126 155
126 202
126 248
126 260
126 280
127 157
127 160
127 175
127 178
127 204
127 219
127 226
128 146
128 156
128 164
128 233
128 265
128 273
129 139
129 140
129 151
129 152
129 175
129 200
129 216
129 250
129 271
129 291
130 131
130 138
130 144
130 175
130 201
130 202
130 205
130 225
130 265
130 283
131 142
131 244
132 192
132 195
132 198
132 219
132 231
132 247
132 251
132 287
132 296
133 175
133 186
133 240
133 298
134 146
134 190
134 239
134 254
134 271
134 278
134 284
135 157
135 183
135 185
135 201
135 223
135 244
135 292
136 158
136 190
136 194
136 234
136 261
136 263
136 276
136 293
137 140
137 164
137 186
137 196
137 202
138 156
138 175
138 188
138 204
138 226
138 300
139 140
139 150
139 166
139 175
139 185
139 187
139 193
139 233
139 250
139 253
139 292
140 150
140 171
140 208
140 252
140 266
140 276
141 199
141 227
142 201
142 212
142 230
143 205
144 155
144 157
144 199
144 244
145 232
145 246
145 297
146 186
146 227
146 239
146 281
146 296
147 157
147 198
147 215
147 234
147 272
148 176
148 185
148 206
148 232
148 236
148 266
148 297
149 169
149 231
149 284
149 297
149 299
150 165
150 176
150 189
151 154
151 200
151 222
151 233
151 246
151 259
152 153
152 169
152 191
152 213
152 217
152 229
152 268
152 288
152 291
153 213
153 264
153 278
154 160
154 177
154 179
154 203
154 218
154 232
154 297
155 157
155 166
155 249
155 253
155 269
155 291
156 160
156 163
156 183
156 190
156 298
157 166
157 186
157 214
157 216
157 229
157 237
157 268
157 271
157 272
157 286
157 291
158 160
158 255
158 261
158 296
159 261
159 264
159 265
159 279
160 164
160 211
160 226
160 233
160 239
160 255
160 256
161 165
161 216
161 236
161 241
161 263
161 280
162 289
163 185
163 231
163 250
163 299
164 209
164 220
165 189
165 194
165 227
165 230
165 236
165 241
165 282
165 299
166 187
166 206
166 253
166 269
167 171
167 175
167 216
167 218
167 241
167 258
167 267
167 270
167 274
167 277
168 248
168 251
169 289
171 184
171 187
171 232
171 251
171 269
171 270
171 297
172 189
172 229
172 245
172 261
173 215
173 222
173 236
173 239
173 249
173 252
173 257
173 288
174 199
174 227
174 249
175 180
175 188
175 209
175 220
175 224
175 231
175 265
175 277
175 295
175 298
175 299
176 189
176 190
176 194
177 179
177 182
177 184
177 197
177 232
178 200
178 202
178 211
178 262
178 290
179 185
179 190
179 194
179 220
179 221
179 224
179 258
179 271
179 286
179 290
181 271
181 286
182 210
182 225
182 251
182 262
183 201
183 205
183 209
183 213
183 215
183 296
183 298
184 187
184 188
184 245
184 253
184 254
184 256
184 261
184 277
185 224
185 236
185 244
185 250
185 291
185 292
186 216
186 227
186 240
186 241
187 218
187 229
187 253
187 256
187 269
188 191
188 195
188 215
188 220
188 229
188 234
188 243
188 245
188 258
188 268
188 277
189 241
189 245
189 261
189 282
190 194
190 274
190 292
191 195
191 197
191 202
191 215
191 258
191 268
191 274
191 288
191 289
191 297
191 299
191 300
193 239
193 245
193 250
194 263
194 274
194 295
195 288
195 300
197 205
197 257
197 271
197 286
197 288
197 297
198 208
198 241
198 243
198 261
198 287
198 297
199 225
199 227
199 244
199 248
199 251
199 255
199 260
199 292
200 202
200 263
200 274
200 276
200 290
201 205
201 209
202 260
202 263
202 268
203 219
203 230
203 231
203 232
203 236
203 237
204 205
204 220
204 224
204 226
205 226
205 232
205 271
205 284
205 297
206 276
207 230
207 262
207 287
208 293
209 215
209 220
209 288
210 223
210 241
210 251
210 267
210 287
210 293
210 298
212 230
212 277
213 243
213 250
213 278
215 216
215 222
215 234
215 236
215 239
215 249
215 288
216 229
216 263
217 229
217 268
218 222
218 232
218 251
218 256
218 267
218 277
218 280
219 231
220 223
220 224
220 281
221 258
221 279
221 284
222 232
222 256
222 259
222 262
222 277
223 239
224 250
224 275
224 281
224 291
224 292
225 227
225 233
225 255
225 273
226 247
226 256
227 240
227 241
227 244
227 249
227 255
227 284
227 297
227 300
228 255
229 234
229 245
229 255
229 266
229 268
229 269
230 236
231 297
231 299
232 237
232 277
232 286
232 287
232 293
232 297
232 299
233 265
233 273
234 256
234 258
235 252
235 280
235 288
235 297
236 237
237 251
237 261
237 287
237 292
238 279
239 248
239 251
239 256
239 277
241 267
241 274
242 263
244 292
245 261
245 268
246 252
246 297
248 251
248 280
249 251
249 277
249 288
251 262
251 263
251 270
251 277
251 287
251 291
251 293
251 296
253 256
254 277
254 278
254 285
255 256
255 266
256 258
256 269
256 282
256 286
258 264
258 274
259 262
259 267
259 269
259 291
260 268
260 291
261 279
261 288
261 296
262 279
263 276
263 293
264 265
264 274
265 295
265 298
266 274
269 282
270 287
271 272
271 281
271 286
271 290
271 291
273 275
275 281
275 297
277 293
279 284
281 296
284 297
284 300
286 290
287 293
288 297
297 299
*Classes
1
1
1
1
1
1
1
1
1
1
1
1
1
1
1
1
1
1
1
1
1
1
1
1
1
1
1
1
1
1
1
1
1
1
1
1
1
1
1
1
1
1
1
1
1
1
1
1
1
1
1
1
1
1
1
1
1
1
1
1
1
1
1
1
1
1
1
1
1
1
1
1
1
1
1
1
1
1
1
1
1
1
1
1
1
1
1
1
1
1
1
1
1
1
1
1
1
1
1
1
1
1
1
1
1
1
1
1
1
1
1
1
1
1
1
1
1
1
1
1
1
1
1
1
1
1
1
1
1
1
1
1
1
1
1
1
1
1
1
1
1
1
1
1
1
1
1
1
1
1
2
2
2
2
2
2
2
2
2
2
2
2
2
2
2
2
2
2
2
2
2
2
2
2
2
2
2
2
2
2
2
2
2
2
2
2
2
2
2
2
2
2
2
2
2
2
2
2
2
2
2
2
2
2
2
2
2
2
2
2
2
2
2
2
2
2
2
2
2
2
2
2
2
2
2
2
2
2
2
2
2
2
2
2
2
2
2
2
2
2
2
2
2
2
2
2
2
2
2
2
2
2
2
2
2
2
2
2
2
2
2
2
2
2
2
2
2
2
2
2
2
2
2
2
2
2
2
2
2
2
2
2
2
2
2
2
2
2
2
2
2
2
2
2
2
2
2
2
2
2
