*Vertices 300
*Edges
1 55
1 58
1 144
1 146
1 205
2 51
2 105
2 190
2 222
2 243
2 262
2 289
3 33
3 38
3 50
3 60
3 66
3 117
4 13
4 26
4 32
4 33
4 37
4 39
4 48
4 64
4 69
4 82
4 85
4 91
4 92
4 148
4 191
4 248
4 262
4 266
5 13
5 22
5 36
5 69
5 81
5 82
5 148
5 225
6 42
6 129
6 141
6 171
6 181
6 210
6 212
6 277
6 293
6 300
7 17
7 34
7 43
7 45
7 68
7 88
7 142
7 149
7 154
7 162
7 166
7 270
7 287
7 292
7 296
7 300
8 66
8 76
8 119
8 126
8 131
8 138
8 142
8 145
8 214
8 242
9 75
9 175
9 214
10 102
10 137
10 143
10 144
10 146
10 203
10 215
11 42
11 43
11 94
11 152
11 233
11 267
11 286
12 19
12 42
12 153
12 221
12 300
13 20
13 21
13 26
13 32
13 36
13 37
13 57
13 81
13 85
13 103
13 122
13 127
13 141
13 150
13 251
14 20
14 219
14 241
14 276
15 29
15 39
15 45
15 83
15 109
15 123
15 138
15 141
15 149
15 245
15 271
16 30
16 203
16 298
17 32
17 69
17 74
17 89
17 234
17 235
17 247
18 99
18 104
18 264
18 275
19 156
19 182
19 219
19 223
19 267
19 287
20 36
20 184
20 277
21 42
21 45
21 68
21 90
21 108
21 114
21 122
21 128
21 138
21 141
21 159
21 161
21 214
21 220
21 226
22 41
22 62
22 77
22 92
22 129
22 138
22 155
22 156
22 202
23 28
23 77
23 125
23 148
23 231
23 238
23 280
23 285
24 42
24 99
24 122
24 139
24 141
24 194
24 201
24 213
24 217
24 242
24 300
25 102
25 133
25 272
25 277
25 294
26 82
26 91
26 121
27 52
27 76
27 84
27 223
28 162
28 238
28 264
29 51
29 123
29 149
29 156
29 174
30 53
30 61
30 81
30 96
30 99
30 107
30 193
30 249
30 264
31 69
31 163
31 291
31 299
31 300
32 38
32 64
32 69
32 140
32 168
32 207
32 220
32 263
32 266
32 288
33 37
33 50
33 127
33 164
33 169
33 214
34 45
34 71
34 147
34 149
34 174
34 222
34 229
34 253
34 272
34 289
34 296
35 95
35 112
35 162
35 252
35 274
36 103
36 285
37 110
37 120
37 136
37 148
38 50
38 60
38 117
38 196
38 277
39 48
39 106
39 123
39 126
39 138
39 141
39 182
39 259
40 63
40 92
40 101
40 103
40 134
40 158
40 183
40 228
40 230
40 280
41 106
41 108
41 113
41 126
41 138
41 150
41 158
41 168
41 177
42 48
42 58
42 73
42 122
42 141
42 166
42 186
42 267
43 45
43 56
43 77
43 152
43 166
43 196
43 200
43 203
43 213
43 226
43 230
43 270
43 288
44 108
44 131
44 167
44 205
44 214
44 221
44 229
45 51
45 78
45 97
45 138
45 142
45 171
45 173
45 210
45 239
45 289
46 48
46 53
46 91
46 92
46 129
46 131
46 159
46 220
46 242
47 98
47 116
47 126
47 134
47 135
47 137
47 138
47 156
47 187
47 291
48 73
48 92
48 119
48 129
48 141
48 148
48 161
48 172
48 194
48 203
49 95
49 111
49 112
49 160
49 175
49 218
50 117
51 62
51 72
51 122
51 149
51 222
51 277
52 73
52 145
53 81
53 140
53 152
53 207
53 213
53 243
53 279
54 60
54 108
54 150
54 287
54 292
55 128
55 140
55 242
56 77
56 158
56 180
56 187
56 212
56 224
56 226
56 231
56 272
56 284
56 288
57 61
57 72
57 104
57 150
57 165
57 242
57 276
57 283
58 70
58 188
58 229
60 157
61 64
61 72
61 96
61 104
61 116
61 118
61 140
61 196
61 233
61 238
61 274
61 278
62 96
62 122
62 156
62 168
62 216
62 222
62 300
63 113
63 158
63 183
64 140
64 148
64 179
64 219
65 151
65 168
65 185
65 208
65 211
65 297
66 76
66 119
66 131
66 196
66 212
66 218
66 242
66 253
66 278
66 292
67 68
67 76
67 88
67 135
67 188
67 225
67 243
67 244
67 248
67 275
67 283
67 285
68 87
68 88
68 114
68 140
68 186
68 219
68 257
68 297
69 74
69 81
69 168
69 213
69 215
69 227
69 235
69 267
69 274
70 182
70 212
70 214
70 223
70 256
71 102
71 105
71 149
71 151
71 181
71 240
72 104
72 118
72 150
72 209
72 295
73 141
73 145
73 180
74 81
74 238
75 94
75 111
75 251
75 264
75 277
76 291
77 92
77 125
77 129
77 226
77 237
78 89
78 120
78 138
78 142
78 290
79 160
79 225
79 226
79 258
80 118
80 135
81 82
81 91
81 107
81 140
81 235
81 272
81 287
81 288
82 121
82 168
82 194
82 203
82 261
83 98
83 109
83 165
83 233
84 97
84 115
84 139
84 144
84 185
84 223
85 147
85 148
85 150
86 193
86 220
86 230
86 244
87 114
87 117
87 160
88 96
88 135
88 140
88 154
88 166
88 210
88 287
88 294
88 300
89 92
89 101
89 120
90 97
90 118
90 138
90 164
90 185
90 248
91 170
91 173
92 94
92 101
92 107
92 111
92 119
92 129
93 192
93 250
94 111
94 141
94 215
94 288
95 111
95 112
95 292
96 116
96 135
96 156
96 160
96 218
96 239
96 264
97 126
97 138
97 139
97 175
97 197
97 208
97 222
97 276
98 109
98 134
98 175
98 205
99 104
99 107
99 117
99 169
100 118
100 162
100 183
100 213
100 284
101 120
101 183
101 249
101 292
102 151
102 153
102 165
102 242
103 126
103 127
103 131
103 166
103 183
103 186
103 211
103 267
103 284
104 117
104 119
104 178
104 188
104 295
104 300
106 120
106 133
106 139
106 177
106 235
106 245
106 253
107 119
107 164
107 203
107 262
107 273
107 293
108 125
108 136
108 150
108 155
108 178
108 214
108 219
109 138
109 142
109 261
110 116
110 136
110 142
110 208
110 222
111 224
111 288
112 132
112 197
113 150
113 176
113 181
113 198
113 202
113 238
114 117
114 124
114 128
114 173
114 193
114 206
114 207
114 243
115 144
115 146
116 126
116 176
117 185
117 200
117 287
118 147
118 223
118 229
118 253
118 264
119 173
119 189
119 197
119 219
119 225
119 259
119 300
120 133
120 136
120 253
121 200
121 205
121 258
121 261
121 272
121 282
121 287
122 127
122 141
122 186
122 194
122 228
122 291
123 134
123 141
123 188
123 217
123 228
123 241
123 243
123 264
124 197
125 136
125 148
125 179
125 186
125 190
125 254
126 137
126 138
126 187
126 217
127 131
127 166
127 177
128 153
128 157
128 202
128 252
129 141
129 155
129 179
129 223
129 272
129 290
129 293
130 185
130 193
130 221
130 223
130 226
130 260
130 268
130 286
131 145
131 149
131 178
131 179
131 221
131 223
131 235
132 213
132 247
132 262
133 139
133 162
133 253
133 269
134 243
135 137
135 140
136 150
136 190
136 207
136 212
136 213
136 220
136 243
137 144
138 142
138 161
138 168
138 184
138 260
139 143
140 148
140 189
141 200
141 203
141 208
141 233
141 283
142 173
142 202
142 239
142 289
143 144
143 146
143 148
143 183
143 219
143 238
143 265
143 266
143 284
144 146
144 148
145 149
145 202
145 213
145 267
145 293
146 211
147 150
147 183
147 220
147 229
147 234
147 283
148 248
148 284
149 216
150 155
150 214
150 219
150 242
151 187
151 189
151 194
151 203
151 206
151 273
151 280
151 299
152 156
152 171
152 183
152 211
152 217
152 273
152 283
152 286
153 173
153 191
153 209
153 250
153 252
153 300
154 167
154 186
154 194
154 203
154 235
154 253
154 257
154 273
154 281
154 283
154 285
154 293
155 159
155 164
155 165
155 185
155 195
155 230
155 232
155 248
156 183
156 192
156 283
157 171
157 185
157 232
157 276
157 278
158 159
158 194
158 201
158 212
158 276
159 165
159 220
159 234
159 239
159 248
159 276
160 176
160 184
160 213
160 218
160 236
160 253
160 254
161 190
162 211
162 269
162 286
163 175
163 256
163 268
163 291
164 168
164 169
165 248
165 283
167 191
169 280
170 195
170 222
170 272
171 184
171 185
171 213
171 230
171 277
171 281
171 286
173 217
173 257
173 273
173 281
173 284
173 293
173 300
174 176
174 191
174 250
175 268
175 290
176 189
176 191
176 206
176 213
176 218
176 243
177 186
177 239
177 244
178 189
178 223
178 253
178 287
179 199
179 223
179 238
179 255
179 292
180 187
181 213
181 240
181 281
182 186
182 204
182 208
182 267
182 278
183 189
183 192
183 199
183 203
183 238
183 272
183 274
183 276
183 283
183 286
184 236
184 257
184 277
184 295
184 300
185 211
185 229
185 232
185 263
185 276
185 283
185 288
186 189
186 203
186 230
186 234
186 239
186 246
186 253
186 259
186 267
186 271
186 287
186 291
187 190
187 273
188 207
188 245
188 258
188 269
189 206
189 223
189 238
189 271
189 275
189 280
189 287
189 288
190 245
190 273
190 293
191 213
191 250
191 269
191 281
192 218
192 219
192 221
192 265
192 273
192 275
192 287
192 293
194 201
194 203
194 228
194 235
194 283
194 293
195 211
195 215
195 221
195 224
195 248
195 260
195 261
195 272
199 238
200 213
200 287
201 231
201 261
201 287
202 207
202 248
202 251
202 269
202 293
203 228
203 283
205 291
206 223
206 243
206 280
207 220
207 226
207 251
207 258
207 265
207 269
208 222
208 257
208 260
208 261
208 267
208 284
208 289
209 232
209 240
209 254
209 300
210 300
211 264
211 272
211 286
211 288
212 218
212 253
212 270
213 276
213 281
215 225
215 232
215 248
216 232
217 240
217 254
217 257
217 286
218 221
218 248
218 253
218 293
219 237
219 240
219 251
219 254
219 272
220 269
221 242
221 258
221 272
221 274
221 288
221 293
222 227
222 251
222 272
222 274
222 277
222 289
223 231
223 255
223 275
223 287
224 240
224 248
224 282
225 232
225 259
225 275
226 265
226 271
227 235
227 242
227 272
227 277
227 293
227 300
228 279
230 231
230 248
230 259
230 267
230 281
230 284
231 261
231 281
231 287
232 255
232 263
232 276
234 239
234 253
234 267
235 267
235 281
236 254
236 257
236 269
236 277
236 295
237 251
240 254
240 282
241 292
242 272
242 283
245 258
246 274
246 291
247 263
248 273
248 293
249 271
251 254
251 269
251 272
251 274
252 274
252 291
253 261
253 291
255 263
255 274
255 288
257 262
257 269
257 281
257 284
257 285
257 297
257 300
258 293
259 274
259 288
260 261
262 284
264 288
265 271
265 275
267 271
267 274
267 278
267 288
268 289
269 288
270 292
271 275
271 288
272 274
272 277
272 288
273 286
273 293
274 283
274 288
274 291
276 281
276 283
277 289
277 295
281 284
281 287
284 297
285 293
287 291
293 300
*Classes
1
1
1
1
1
1
1
1
1
1
1
1
1
1
1
1
1
1
1
1
1
1
1
1
1
1
1
1
1
1
1
1
1
1
1
1
1
1
1
1
1
1
1
1
1
1
1
1
1
1
1
1
1
1
1
1
1
1
1
1
1
1
1
1
1
1
1
1
1
1
1
1
1
1
1
1
1
1
1
1
1
1
1
1
1
1
1
1
1
1
1
1
1
1
1
1
1
1
1
1
1
1
1
1
1
1
1
1
1
1
1
1
1
1
1
1
1
1
1
1
1
1
1
1
1
1
1
1
1
1
1
1
1
1
1
1
1
1
1
1
1
1
1
1
1
1
1
1
1
1
2
2
2
2
2
2
2
2
2
2
2
2
2
2
2
2
2
2
2
2
2
2
2
2
2
2
2
2
2
2
2
2
2
2
2
2
2
2
2
2
2
2
2
2
2
2
2
2
2
2
2
2
2
2
2
2
2
2
2
2
2
2
2
2
2
2
2
2
2
2
2
2
2
2
2
2
2
2
2
2
2
2
2
2
2
2
2
2
2
2
2
2
2
2
2
2
2
2
2
2
2
2
2
2
2
2
2
2
2
2
2
2
2
2
2
2
2
2
2
2
2
2
2
2
2
2
2
2
2
2
2
2
2
2
2
2
2
2
2
2
2
2
2
2
2
2
2
2
2
2
