*Vertices 300
*Edges
1 13
1 45
1 77
1 101
1 133
1 293
2 18
2 40
2 48
2 55
2 143
2 174
2 178
3 14
3 81
3 91
3 103
3 117
3 125
3 147
3 255
3 259
3 292
4 44
4 85
4 196
4 199
4 229
4 240
4 259
4 263
4 280
5 8
5 13
5 99
5 102
5 126
5 187
5 218
5 242
5 255
5 257
5 278
6 35
6 36
6 54
6 79
6 96
6 106
6 118
6 127
6 132
6 138
6 155
6 169
6 204
6 229
6 234
6 247
6 253
6 284
7 157
7 158
8 29
8 46
8 58
8 82
8 111
8 126
8 128
8 129
8 137
8 139
8 209
8 218
8 237
8 257
8 262
8 278
9 25
9 166
9 210
9 245
9 264
10 26
10 42
10 63
10 74
10 131
10 206
10 246
10 247
10 279
11 97
11 264
11 290
12 57
12 109
13 16
13 18
13 37
13 48
13 66
13 69
13 71
13 72
13 77
13 98
13 102
13 123
13 126
13 197
13 222
13 229
13 242
13 263
13 270
14 29
14 58
14 125
14 142
14 212
14 252
14 254
15 53
15 94
15 131
15 155
15 169
15 220
15 232
15 235
16 29
16 36
16 37
16 98
16 118
16 131
16 134
16 159
16 166
16 184
16 194
16 222
16 225
16 277
16 286
17 39
17 47
17 58
17 135
17 144
17 156
17 167
17 170
17 180
17 184
17 189
17 190
17 279
17 293
18 27
18 48
18 66
18 68
18 71
18 77
18 92
18 101
18 102
18 126
18 138
18 145
18 170
18 185
18 197
18 220
18 223
18 243
18 255
18 258
18 264
19 23
19 27
19 41
19 47
19 60
19 72
19 83
19 93
19 104
19 109
19 125
19 135
19 139
19 144
19 176
19 222
19 288
20 102
21 71
21 255
22 127
22 141
22 151
22 152
22 155
22 178
22 226
22 288
23 27
23 36
23 41
23 46
23 54
23 83
23 92
23 99
23 108
23 115
23 129
23 145
23 160
23 176
23 185
23 197
23 222
23 249
23 259
23 265
23 269
23 297
24 33
24 36
24 56
24 79
24 87
24 98
24 117
24 125
24 163
24 186
24 258
25 29
25 40
25 44
25 67
25 89
25 142
25 165
25 205
25 245
25 281
25 291
25 300
26 32
26 35
26 57
26 68
26 70
26 85
26 92
26 163
26 185
26 192
26 242
26 247
27 43
27 104
27 115
27 191
27 199
27 223
27 226
27 244
27 285
28 52
28 109
28 118
28 137
28 138
28 170
28 173
28 195
28 261
29 49
29 58
29 97
29 100
29 130
29 131
29 162
29 175
29 186
29 193
29 237
29 262
30 49
30 60
30 101
30 126
30 128
30 137
30 150
30 156
30 159
30 170
30 173
30 190
30 203
30 234
30 242
30 282
31 59
31 177
31 201
31 209
31 224
31 248
31 252
31 262
31 276
32 35
32 58
32 66
32 70
32 118
32 128
32 137
32 145
32 266
33 53
33 56
33 122
33 124
33 152
33 247
33 259
34 90
34 102
34 105
34 138
34 158
34 207
34 233
34 244
34 248
34 252
34 262
34 263
34 267
34 273
34 287
35 80
35 114
35 137
35 141
35 186
35 250
36 54
36 98
36 143
36 184
36 209
36 246
36 279
36 294
37 165
37 170
37 171
37 230
38 62
38 63
38 84
38 183
38 259
39 114
39 117
39 171
39 180
39 195
39 223
39 237
40 44
40 55
40 64
40 76
40 159
40 190
40 191
40 196
40 197
40 198
40 213
40 224
40 232
40 233
40 236
40 257
40 283
40 286
41 62
41 102
41 204
42 44
42 61
42 98
42 206
42 267
43 71
43 104
43 107
43 171
43 172
43 223
44 55
44 61
44 64
44 78
44 80
44 87
44 89
44 105
44 114
44 120
44 123
44 159
44 196
44 197
44 281
44 283
44 286
45 74
45 101
45 149
45 192
45 251
45 268
45 293
45 297
45 299
46 50
46 67
46 68
46 94
46 95
46 108
46 111
46 120
46 129
46 130
46 142
46 185
46 200
46 222
46 225
46 237
46 243
46 247
46 252
46 259
46 260
46 269
47 58
47 135
47 144
47 164
47 180
47 272
47 281
48 71
48 138
48 162
48 185
48 197
48 220
49 82
49 101
49 112
49 175
49 193
49 203
49 225
49 226
49 299
50 94
50 146
50 209
50 238
50 241
50 243
50 283
50 285
50 289
50 297
51 64
51 80
51 105
51 152
51 182
51 193
51 197
52 109
52 174
52 183
52 245
52 285
52 300
53 94
53 171
53 244
53 259
53 297
53 299
54 115
54 138
54 141
54 160
54 167
54 185
54 209
54 266
55 143
55 148
55 159
55 178
55 195
55 237
56 87
56 119
56 122
56 151
56 186
56 223
56 263
56 267
56 274
57 85
57 103
57 109
57 146
57 155
57 210
57 260
57 279
58 113
58 137
58 159
58 167
59 193
59 224
59 247
60 88
60 144
60 188
60 267
60 278
60 282
61 77
61 123
61 134
61 161
61 187
61 210
61 242
61 270
61 291
61 295
62 170
62 195
62 237
62 276
62 298
63 78
63 84
63 130
63 131
63 162
63 170
63 215
64 80
64 117
64 118
64 173
64 200
64 265
64 282
65 80
65 84
65 87
65 97
65 100
65 125
65 170
65 256
65 292
65 297
66 101
66 103
66 131
66 145
66 175
66 197
66 230
66 244
66 267
66 268
66 277
67 77
67 110
67 142
68 92
68 109
68 129
68 142
68 252
68 269
68 285
68 290
69 72
69 77
69 78
69 89
69 170
69 185
69 206
69 295
71 72
71 92
71 107
71 117
71 126
71 201
71 223
71 255
72 104
72 125
72 135
72 172
72 259
73 124
73 185
73 207
73 263
73 267
73 287
73 289
74 159
74 190
74 206
74 293
75 117
75 184
75 192
75 211
75 223
75 228
75 246
75 260
75 279
75 282
76 119
76 246
76 271
76 281
76 286
76 291
77 123
77 180
77 206
77 210
77 229
77 280
77 295
78 84
78 87
78 180
78 181
78 197
78 198
78 210
78 228
78 242
78 295
79 87
79 108
79 117
79 127
79 132
79 163
79 173
79 176
79 192
79 197
79 247
79 256
79 295
79 297
80 186
80 229
80 250
81 82
81 89
81 93
81 167
81 259
82 85
82 93
82 112
82 143
82 155
82 215
82 227
82 252
82 262
83 85
83 172
83 185
83 192
83 297
84 92
84 100
84 152
84 176
84 200
84 210
84 212
85 92
85 141
85 155
85 157
85 240
85 279
85 280
85 294
85 300
86 102
86 154
86 160
86 182
86 193
86 204
86 236
86 246
86 251
86 256
86 260
86 287
86 300
87 125
87 133
87 153
87 163
87 175
87 226
87 258
87 273
87 285
88 136
88 144
88 159
88 171
88 190
88 206
88 255
88 259
88 267
88 288
89 114
89 196
89 206
89 212
90 104
90 158
90 173
90 209
90 219
90 237
90 248
90 297
91 125
91 189
91 195
91 236
91 259
91 283
92 113
92 173
92 176
92 184
92 191
92 215
92 279
93 106
93 132
93 135
93 139
93 232
93 249
94 220
94 232
94 244
94 251
94 259
94 297
95 133
95 183
95 228
95 247
95 259
95 260
95 263
96 121
96 138
96 240
96 286
97 154
97 201
97 236
97 237
97 254
97 281
97 297
98 192
98 209
98 225
98 251
99 110
99 167
99 194
99 222
100 140
100 149
100 162
100 223
100 256
100 276
100 292
100 297
101 133
101 156
101 159
101 171
101 175
101 201
101 213
101 215
101 246
102 123
102 204
102 259
102 263
103 147
103 175
103 210
103 225
103 242
103 243
103 277
103 285
104 105
104 115
104 125
104 191
104 219
104 240
104 284
105 118
105 121
105 138
105 183
105 197
105 209
105 216
105 238
105 241
105 243
105 287
106 127
106 163
106 172
106 196
106 232
108 117
108 130
108 131
108 202
108 219
108 221
108 256
109 135
109 170
109 185
109 261
109 262
109 285
110 149
110 162
110 167
110 194
110 223
110 287
111 122
111 141
111 155
111 162
111 181
111 239
111 247
111 258
111 289
112 121
112 143
112 148
112 150
113 159
113 163
113 236
113 271
113 277
113 283
114 117
114 196
114 242
114 283
115 178
115 225
115 244
116 167
116 196
116 216
116 266
116 296
117 154
117 178
117 195
117 225
117 228
117 231
117 251
117 255
117 261
117 282
118 137
118 138
118 144
118 166
118 173
118 209
118 238
118 266
118 288
119 147
119 246
119 274
119 282
120 200
120 239
120 261
120 283
121 130
121 138
121 148
121 180
121 188
121 252
121 278
121 293
121 298
122 152
122 157
122 182
122 203
122 224
122 237
122 247
122 283
122 285
122 289
123 134
123 163
123 192
123 199
123 210
123 220
123 240
123 257
123 285
124 158
124 263
125 192
125 201
125 210
125 226
125 242
125 245
125 255
125 258
125 260
125 297
126 142
126 215
126 231
126 258
126 262
127 155
127 158
127 164
127 192
127 204
127 212
127 253
127 284
127 297
128 137
128 177
128 217
128 221
129 225
129 247
129 248
129 275
129 287
129 297
130 131
130 148
130 170
130 207
130 252
130 256
130 275
130 287
131 159
131 162
131 169
131 186
131 193
131 194
131 237
131 244
131 262
131 277
131 283
132 178
132 184
132 249
133 175
133 225
133 242
134 159
134 194
134 212
134 243
134 269
134 280
135 144
135 262
136 144
136 178
136 181
136 261
137 167
137 175
137 221
137 242
137 258
138 153
138 162
138 241
138 253
138 284
138 293
139 187
139 194
139 216
139 238
139 254
139 270
139 271
140 168
140 179
140 201
140 229
140 230
140 280
140 292
141 155
141 167
141 186
141 187
141 229
141 263
142 181
142 225
142 254
143 148
143 150
143 155
143 162
143 174
143 178
143 215
143 241
143 262
144 161
144 166
144 169
144 188
144 199
144 240
144 255
144 261
144 264
144 288
145 176
145 184
145 194
145 230
145 249
145 254
145 263
145 267
145 271
145 285
145 290
146 200
146 227
146 261
147 154
147 175
147 176
147 215
147 231
147 236
147 239
147 251
147 255
147 259
147 265
147 282
147 289
148 150
148 241
148 259
148 263
148 283
149 167
149 203
149 231
149 239
149 248
149 256
149 296
150 156
150 236
150 241
150 248
150 283
150 297
151 153
151 160
151 178
151 184
151 226
151 248
151 263
151 274
152 182
152 210
153 243
153 248
153 250
153 258
153 296
154 236
154 251
155 162
155 175
155 178
155 180
155 223
155 239
155 258
155 278
155 291
155 299
155 300
156 169
156 170
156 171
156 190
156 193
156 201
156 203
156 217
156 257
156 277
157 158
157 163
157 173
157 217
157 271
157 274
158 173
158 176
158 180
158 192
158 213
158 249
158 271
158 297
159 190
159 213
159 253
159 257
159 258
159 278
159 286
160 163
160 184
160 210
160 219
160 260
160 266
161 187
161 200
161 211
161 282
161 288
162 170
162 186
162 215
162 247
163 182
163 184
163 192
163 196
163 207
163 223
163 257
163 267
163 271
163 273
163 285
164 192
164 272
165 172
165 173
165 230
165 284
165 291
166 168
166 178
166 245
166 288
167 200
167 203
167 211
167 244
167 248
167 258
167 289
167 294
168 201
168 272
169 170
169 233
169 235
169 255
169 261
169 262
169 277
169 284
170 185
170 215
170 219
170 220
170 236
170 261
170 297
171 190
171 195
171 261
172 291
173 176
173 197
173 230
173 247
173 288
173 291
174 233
174 270
175 203
175 225
175 230
175 237
175 258
175 265
175 291
176 193
176 200
176 249
176 265
176 271
177 221
177 248
177 276
177 297
178 202
178 205
178 225
178 229
178 233
178 251
178 288
179 201
179 272
180 184
180 187
180 213
180 223
180 258
180 293
180 295
180 299
182 193
182 197
182 200
182 265
182 282
182 289
183 197
183 238
183 259
183 263
183 300
184 223
184 249
184 263
184 279
184 286
185 241
185 243
185 297
186 188
186 202
186 229
187 257
187 270
187 291
187 299
188 211
188 264
188 278
188 293
188 298
189 299
190 253
190 278
191 215
191 221
191 236
191 246
191 254
191 286
191 295
192 248
192 249
192 282
192 285
192 297
193 194
193 257
193 265
194 207
194 214
194 254
194 257
194 269
194 285
194 295
195 213
195 224
195 237
195 261
195 292
196 232
196 234
196 262
196 266
196 271
196 273
197 216
197 241
197 243
197 264
197 278
197 282
197 290
198 210
198 245
198 286
198 295
199 240
200 207
200 211
200 227
200 249
200 282
201 246
201 252
201 297
202 205
202 209
202 221
202 229
202 237
202 249
203 205
203 218
203 258
203 268
203 277
203 278
205 218
205 245
206 267
207 219
207 227
207 252
207 268
207 272
207 277
207 285
207 287
207 294
208 264
209 237
209 238
209 252
209 279
210 242
210 245
210 246
210 260
210 270
210 283
210 285
210 287
211 223
211 282
211 298
212 253
213 223
213 292
215 262
215 268
215 283
216 238
216 244
216 296
217 268
217 277
218 245
219 220
219 236
220 236
221 254
223 259
223 263
223 295
224 225
224 226
224 227
224 233
224 247
224 257
224 292
225 226
225 233
225 252
225 265
227 294
228 231
228 268
228 276
229 234
229 249
229 250
229 279
229 280
230 258
230 267
231 268
231 276
231 295
232 257
233 238
233 255
233 257
233 270
233 284
233 288
234 239
234 242
234 262
234 266
234 280
234 284
235 274
236 246
236 254
236 283
237 278
238 249
238 254
238 270
238 271
238 275
238 288
238 294
239 242
239 243
239 273
239 289
239 296
240 257
240 280
240 286
240 288
241 243
242 266
243 244
243 264
243 267
243 269
243 285
243 296
244 273
244 277
244 294
244 296
245 268
245 283
245 299
246 260
246 274
246 279
246 291
247 269
247 295
248 297
249 271
249 290
250 296
251 297
252 262
252 276
254 281
254 295
255 264
255 267
255 284
255 285
255 287
255 292
256 275
256 276
257 265
258 278
258 291
259 260
259 263
259 300
260 266
260 279
260 287
260 291
261 284
261 290
262 263
262 266
262 283
263 267
263 285
264 278
264 282
264 290
264 292
267 282
267 285
268 277
268 299
269 271
270 283
270 289
271 290
272 281
274 281
275 294
276 295
277 294
277 299
279 280
282 285
283 289
287 291
287 292
289 296
290 292
291 300
*Classes
1
1
1
1
1
1
1
1
1
1
1
1
1
1
1
1
1
1
1
1
1
1
1
1
1
1
1
1
1
1
1
1
1
1
1
1
1
1
1
1
1
1
1
1
1
1
1
1
1
1
1
1
1
1
1
1
1
1
1
1
1
1
1
1
1
1
1
1
1
1
1
1
1
1
1
1
1
1
1
1
1
1
1
1
1
1
1
1
1
1
1
1
1
1
1
1
1
1
1
1
1
1
1
1
1
1
1
1
1
1
1
1
1
1
1
1
1
1
1
1
1
1
1
1
1
1
1
1
1
1
1
1
1
1
1
1
1
1
1
1
1
1
1
1
1
1
1
1
1
1
2
2
2
2
2
2
2
2
2
2
2
2
2
2
2
2
2
2
2
2
2
2
2
2
2
2
2
2
2
2
2
2
2
2
2
2
2
2
2
2
2
2
2
2
2
2
2
2
2
2
2
2
2
2
2
2
2
2
2
2
2
2
2
2
2
2
2
2
2
2
2
2
2
2
2
2
2
2
2
2
2
2
2
2
2
2
2
2
2
2
2
2
2
2
2
2
2
2
2
2
2
2
2
2
2
2
2
2
2
2
2
2
2
2
2
2
2
2
2
2
2
2
2
2
2
2
2
2
2
2
2
2
2
2
2
2
2
2
2
2
2
2
2
2
2
2
2
2
2
2
