*Vertices 300
*Edges
1 16
1 24
1 32
1 33
1 39
1 89
1 96
1 100
1 104
1 111
1 121
1 130
1 225
1 243
1 272
1 276
2 3
2 17
2 31
2 32
2 41
2 76
2 102
2 154
2 187
2 196
2 217
2 247
2 269
2 285
3 8
3 31
3 52
3 99
3 100
3 102
3 126
3 137
3 156
3 186
3 238
3 246
4 52
4 73
4 93
4 112
4 125
4 150
4 153
4 185
4 251
4 265
4 292
5 33
5 49
5 72
5 85
5 96
5 98
5 99
5 110
5 113
5 114
5 115
5 130
5 131
5 133
5 134
5 141
5 163
5 230
5 273
6 34
6 49
6 65
6 72
6 81
6 87
6 95
6 105
6 130
6 171
6 215
6 242
6 266
7 13
7 147
7 154
7 232
7 238
7 271
8 37
8 52
8 75
8 85
8 89
8 110
8 113
8 137
8 153
8 190
8 279
8 295
9 90
9 115
9 168
9 177
9 204
9 282
9 292
10 39
10 40
10 52
10 87
10 95
10 166
10 211
10 270
11 24
11 38
11 50
11 219
11 275
12 39
12 98
12 121
12 210
12 221
12 245
13 22
13 70
13 71
13 72
13 147
13 154
13 182
14 20
14 57
14 82
14 110
14 140
14 155
14 166
15 43
15 53
15 61
15 74
15 103
15 109
15 129
15 139
15 172
16 48
16 62
16 79
16 96
16 102
16 110
16 139
16 165
16 183
16 208
16 284
17 35
17 104
17 274
18 208
18 217
18 229
18 239
18 291
18 298
19 61
19 129
19 269
19 282
20 43
20 57
20 82
20 108
20 133
20 140
20 200
21 34
21 52
21 55
21 69
21 84
21 93
21 115
21 136
21 193
22 50
22 64
22 70
22 72
22 99
22 125
22 142
22 143
22 147
22 184
22 249
23 99
23 103
23 105
23 131
23 136
23 142
23 149
23 207
23 224
23 280
24 25
24 32
24 69
24 83
24 91
24 111
24 112
24 157
24 231
24 282
25 64
25 105
25 120
25 149
25 156
25 157
25 175
25 176
25 188
26 47
26 53
26 60
26 64
26 94
26 106
26 114
26 167
26 224
27 117
27 121
27 152
27 167
27 213
27 275
28 62
28 63
28 66
28 87
28 108
28 110
28 137
28 161
29 30
29 85
29 95
29 146
30 85
30 104
30 111
30 131
30 146
30 233
30 284
30 294
31 32
31 36
31 52
31 99
31 102
31 125
31 128
32 36
32 88
32 94
32 96
32 100
32 104
32 112
32 118
32 121
32 225
32 237
32 298
33 64
33 110
33 113
33 130
33 136
33 149
33 222
33 244
34 37
34 40
34 69
34 85
34 86
34 87
34 95
34 118
34 172
34 266
34 275
35 52
35 144
36 64
36 200
36 203
36 208
36 233
36 255
36 298
37 61
37 63
37 72
37 73
37 75
37 88
37 96
37 118
37 125
37 129
37 135
37 137
37 138
37 213
37 222
37 234
37 235
37 289
38 41
38 51
38 59
38 65
38 106
38 115
38 124
38 143
38 166
38 188
38 189
38 202
38 217
38 280
38 300
39 44
39 121
39 142
39 167
39 213
39 262
39 270
39 281
40 43
40 62
40 66
40 68
40 87
40 102
40 125
40 137
40 166
40 242
41 59
41 65
41 285
42 73
42 97
42 110
42 113
42 141
42 239
42 268
43 61
43 74
43 82
43 102
43 103
43 108
43 129
43 137
43 138
43 140
43 197
43 200
43 237
43 242
43 256
43 267
43 295
43 298
44 255
44 291
45 85
45 106
45 140
45 153
45 176
45 200
45 206
45 226
45 228
45 257
45 286
45 295
46 91
46 94
46 149
46 250
46 267
47 79
47 104
47 108
47 111
47 114
47 152
47 168
47 176
47 278
47 291
48 62
48 79
48 96
48 146
48 175
48 208
48 282
48 286
49 99
49 125
49 131
49 136
49 149
49 215
50 68
50 73
50 75
50 99
50 104
50 111
50 125
50 128
50 143
50 192
50 219
50 225
50 251
51 167
51 189
51 220
51 245
51 285
52 61
52 77
52 84
52 93
52 114
52 115
52 144
52 150
52 250
53 61
53 63
53 85
53 94
53 100
53 129
53 132
53 178
53 204
53 237
54 90
54 115
54 166
55 84
55 117
55 144
55 179
55 183
55 208
55 272
55 288
56 114
56 122
56 127
56 145
56 147
56 190
56 200
56 241
56 295
57 253
58 59
58 60
58 122
58 138
58 147
58 164
58 286
58 296
59 60
59 72
59 98
59 122
59 138
59 145
59 147
59 174
59 184
59 218
59 235
59 251
59 258
59 271
59 272
59 286
60 167
60 216
60 229
60 296
61 84
61 112
61 129
61 137
61 144
61 252
62 63
62 87
62 137
62 141
62 201
62 202
62 231
62 237
62 244
63 87
63 94
63 99
63 118
63 125
63 132
63 137
63 143
63 204
63 211
64 123
64 136
64 175
64 193
64 203
64 208
65 124
65 171
65 245
65 265
65 274
66 67
66 78
66 102
66 106
66 108
66 131
66 139
66 262
66 277
66 284
66 286
67 68
67 102
67 125
67 136
67 216
68 107
68 125
68 185
69 81
69 87
69 115
69 118
69 130
69 136
69 205
69 215
69 231
69 236
69 279
70 123
70 125
70 136
70 142
70 195
70 226
71 147
71 217
71 258
72 81
72 98
72 120
72 133
72 147
72 163
72 213
72 291
73 75
73 125
73 173
73 179
73 202
73 213
74 110
74 129
74 139
74 141
74 150
74 177
74 211
74 238
74 283
75 82
75 89
75 113
75 138
75 187
75 189
75 219
75 225
75 248
76 247
76 282
76 288
77 93
77 129
77 137
77 141
77 202
77 236
78 88
78 103
78 112
78 136
78 256
78 262
78 280
79 105
79 106
79 123
79 146
79 221
79 235
79 261
79 272
80 105
80 108
80 129
80 132
80 252
80 286
81 147
81 167
81 170
81 211
82 102
82 116
82 123
82 133
82 136
82 151
82 163
82 189
82 206
82 233
82 235
82 291
83 84
83 132
83 177
83 179
83 231
83 238
83 283
84 144
84 157
84 179
84 183
84 194
84 208
84 290
85 94
85 95
85 101
85 153
85 176
85 230
86 195
86 266
87 93
87 102
87 113
87 129
87 137
87 141
87 165
87 166
87 200
87 237
88 90
88 91
88 99
88 101
88 106
88 112
88 118
88 128
88 129
88 142
88 144
88 180
88 192
88 209
89 91
89 98
89 100
89 120
89 186
89 272
90 91
90 115
90 158
90 162
90 177
90 222
90 234
90 282
91 94
91 98
91 100
91 101
91 112
91 113
91 170
91 192
91 207
91 226
91 249
91 273
91 282
92 151
92 286
93 137
93 141
93 164
93 193
93 226
93 251
93 278
93 296
94 100
94 129
94 212
94 224
94 237
94 246
94 249
95 118
95 172
95 297
96 106
96 111
96 113
96 114
96 118
96 121
96 128
96 129
96 130
96 145
96 146
96 158
96 183
96 273
97 120
97 201
97 239
97 252
97 287
98 120
98 121
98 133
98 138
98 152
98 166
98 174
98 181
98 209
99 112
99 118
99 125
99 128
99 131
99 188
99 213
99 253
99 256
99 259
100 186
100 258
100 280
101 112
101 113
101 129
101 142
101 148
101 226
101 233
101 258
101 280
101 281
101 288
102 106
102 123
102 128
102 189
102 197
102 205
102 229
102 267
102 277
102 280
103 129
103 137
103 280
104 111
104 114
104 171
104 176
104 181
104 218
104 234
104 237
104 274
104 275
104 284
105 108
105 120
105 132
105 148
105 149
105 202
105 266
105 267
105 268
106 128
106 146
106 153
106 171
106 185
106 261
106 272
106 275
106 277
106 286
106 292
106 293
107 125
107 147
107 160
107 264
107 282
108 114
108 132
108 154
108 198
108 225
109 146
109 172
109 206
109 247
109 286
110 113
110 139
110 141
110 160
110 161
110 260
110 264
111 130
111 131
111 181
111 192
111 219
111 243
111 251
111 284
111 290
112 118
112 123
112 136
112 144
112 145
112 150
112 175
112 180
112 203
112 205
112 245
112 279
112 289
113 114
113 136
113 141
113 169
113 226
113 288
114 123
114 152
114 168
114 250
115 158
115 163
115 166
115 188
115 197
115 238
115 262
115 265
116 198
116 293
117 153
117 162
117 192
117 213
118 131
118 143
118 144
118 195
118 266
119 127
119 165
120 121
120 175
120 208
120 209
120 243
120 287
121 167
122 132
122 140
122 145
122 158
122 264
123 130
123 136
123 159
123 228
123 250
123 256
123 261
123 284
123 291
123 294
124 143
124 166
124 216
124 260
125 131
125 136
125 143
125 149
125 150
125 179
125 184
125 185
125 259
126 134
126 150
126 198
126 223
126 277
127 228
128 192
129 137
129 144
129 200
129 252
130 136
130 146
130 149
130 278
131 149
131 221
132 145
133 147
133 196
133 213
133 217
133 291
134 172
134 223
134 227
134 242
134 246
134 275
135 191
135 213
135 248
135 276
136 144
136 149
136 167
136 193
136 275
137 232
137 251
137 262
137 273
138 142
138 166
138 210
138 256
138 272
138 274
139 161
139 284
139 286
140 153
140 163
140 219
141 150
141 222
141 227
141 269
141 287
141 290
142 166
142 185
142 200
142 209
142 220
142 281
142 286
142 300
143 193
143 215
143 254
143 280
144 145
144 153
144 219
144 290
145 240
145 263
145 297
146 200
146 284
147 160
147 241
147 295
148 149
148 191
148 204
148 233
148 235
148 249
148 276
149 167
149 190
149 194
149 250
149 267
149 280
150 209
150 222
150 223
150 287
151 168
151 178
151 197
151 206
151 219
151 267
151 286
152 190
152 203
152 223
152 245
153 163
153 190
153 213
153 246
153 257
153 295
154 204
154 214
154 225
154 269
154 288
154 289
155 185
155 247
156 176
156 178
156 281
157 160
157 176
157 194
157 282
158 183
158 202
158 211
158 255
158 257
158 263
158 273
159 198
159 221
159 246
159 261
159 288
159 295
160 166
160 194
160 264
161 196
161 278
162 185
162 215
162 254
162 279
163 168
163 197
163 205
163 267
164 196
164 203
164 212
164 228
164 236
164 245
164 263
164 272
164 278
164 295
165 183
165 235
165 237
165 272
166 176
166 240
166 243
166 264
166 283
166 286
166 300
167 182
168 178
168 197
168 198
168 204
168 205
168 211
168 219
168 281
168 290
169 202
169 204
169 238
169 255
169 290
169 296
170 193
170 262
170 284
171 234
171 275
171 286
172 275
172 297
173 179
173 183
173 203
173 222
173 234
173 258
173 263
173 265
173 272
174 184
174 224
174 271
175 187
175 208
176 188
176 200
176 228
176 230
176 257
176 258
176 264
176 280
176 286
177 196
177 231
177 250
177 265
177 278
178 219
178 248
178 281
179 202
179 245
179 290
179 300
180 204
180 234
180 275
180 290
182 184
182 257
183 202
183 228
183 257
183 263
183 272
183 285
183 288
183 297
184 185
184 240
184 246
184 257
185 187
185 200
185 206
185 223
185 225
185 247
185 251
185 255
185 267
185 273
185 276
185 279
185 281
185 293
185 300
186 238
186 265
187 225
187 285
188 196
188 202
188 253
188 291
189 235
190 194
191 196
191 199
191 204
191 205
191 215
191 219
191 232
191 237
191 248
191 253
191 254
191 276
191 279
192 225
193 203
193 215
193 296
193 297
194 226
194 299
195 238
195 290
196 197
196 212
196 217
196 241
196 253
196 278
197 205
197 219
197 241
197 267
197 293
197 296
198 223
198 243
198 256
198 261
199 205
199 243
200 206
200 228
200 245
200 255
200 258
200 283
200 284
200 291
200 295
201 231
201 239
202 214
202 222
202 234
202 255
202 291
203 212
203 221
203 224
203 228
203 245
203 272
203 279
204 205
204 211
204 214
204 233
204 269
204 275
204 282
204 290
204 291
205 211
205 214
205 231
205 234
205 237
205 253
205 276
205 289
206 233
207 223
207 251
207 277
207 298
208 239
209 220
209 222
209 234
209 242
210 221
210 261
210 274
210 279
210 297
211 224
211 238
211 257
211 265
211 269
211 270
211 271
212 217
212 224
212 241
213 232
213 233
213 235
213 241
213 259
213 262
213 294
214 215
214 220
214 254
214 267
214 269
214 273
214 289
214 291
215 232
215 236
215 237
215 254
215 267
215 276
215 279
218 234
219 241
219 248
219 251
219 281
220 289
221 223
221 251
221 261
221 273
221 279
221 300
222 234
222 289
223 243
223 251
223 273
223 277
223 298
224 249
224 268
224 271
225 288
226 257
226 299
227 242
228 261
228 263
229 244
229 298
230 263
230 282
230 288
232 238
232 242
232 266
232 269
233 241
233 276
233 277
233 288
233 291
233 294
234 289
234 290
235 272
236 279
236 295
237 282
237 288
237 298
238 252
238 265
238 266
238 269
238 271
238 273
238 283
238 287
238 290
238 292
238 294
240 243
240 277
241 253
241 267
241 276
241 278
241 280
241 294
242 252
242 266
242 298
243 277
245 255
245 258
245 265
245 279
246 264
246 274
246 279
246 295
247 286
248 276
249 281
250 261
250 265
250 278
250 284
251 273
251 277
251 287
251 290
252 266
252 271
252 273
252 287
254 267
255 258
255 265
255 267
255 291
255 293
255 295
256 259
256 261
256 283
256 300
257 271
258 272
258 280
258 291
258 297
261 273
261 288
262 267
262 281
262 284
262 293
263 285
263 297
264 274
265 283
265 292
267 281
267 293
268 271
269 282
269 291
270 281
272 285
273 287
273 289
274 295
274 297
275 290
276 279
276 294
277 294
279 293
279 295
279 300
280 294
282 286
282 288
282 292
283 300
287 290
290 291
290 294
290 296
*Classes
1
1
1
1
1
1
1
1
1
1
1
1
1
1
1
1
1
1
1
1
1
1
1
1
1
1
1
1
1
1
1
1
1
1
1
1
1
1
1
1
1
1
1
1
1
1
1
1
1
1
1
1
1
1
1
1
1
1
1
1
1
1
1
1
1
1
1
1
1
1
1
1
1
1
1
1
1
1
1
1
1
1
1
1
1
1
1
1
1
1
1
1
1
1
1
1
1
1
1
1
1
1
1
1
1
1
1
1
1
1
1
1
1
1
1
1
1
1
1
1
1
1
1
1
1
1
1
1
1
1
1
1
1
1
1
1
1
1
1
1
1
1
1
1
1
1
1
1
1
1
2
2
2
2
2
2
2
2
2
2
2
2
2
2
2
2
2
2
2
2
2
2
2
2
2
2
2
2
2
2
2
2
2
2
2
2
2
2
2
2
2
2
2
2
2
2
2
2
2
2
2
2
2
2
2
2
2
2
2
2
2
2
2
2
2
2
2
2
2
2
2
2
2
2
2
2
2
2
2
2
2
2
2
2
2
2
2
2
2
2
2
2
2
2
2
2
2
2
2
2
2
2
2
2
2
2
2
2
2
2
2
2
2
2
2
2
2
2
2
2
2
2
2
2
2
2
2
2
2
2
2
2
2
2
2
2
2
2
2
2
2
2
2
2
2
2
2
2
2
2
