*Vertices 300
*Edges
1 76
1 115
1 135
1 154
1 164
1 173
1 228
2 13
2 19
2 85
2 88
2 93
2 101
2 125
2 151
2 169
2 217
2 252
2 261
4 10
4 36
4 111
4 128
4 162
4 163
4 176
4 287
4 292
5 27
5 32
5 54
5 55
5 80
5 99
5 116
5 149
5 245
5 276
5 291
6 40
6 42
6 85
6 101
6 104
6 187
6 271
7 42
7 58
7 72
7 101
7 124
7 186
7 225
7 235
7 269
7 281
7 282
8 9
8 42
8 64
8 68
8 74
8 79
8 80
8 126
8 135
8 160
8 198
8 243
8 266
9 27
9 29
9 42
9 51
9 69
9 87
9 103
9 136
9 204
9 221
9 249
9 265
9 267
9 280
9 292
10 17
10 36
10 59
10 61
10 90
10 123
10 128
10 144
10 150
10 187
10 211
10 213
10 250
10 260
10 271
11 24
11 37
11 56
11 128
11 226
11 278
12 40
12 42
12 66
12 79
12 100
12 105
12 137
12 140
12 173
12 194
12 198
12 204
12 211
12 226
12 236
12 248
13 55
13 77
13 93
13 111
13 152
13 172
13 194
13 205
13 217
13 237
13 248
13 256
14 43
14 65
14 103
14 222
14 245
14 290
14 299
15 16
15 96
15 109
15 111
15 179
15 201
15 236
15 251
15 288
16 18
16 90
16 96
16 101
16 124
16 158
16 161
16 183
16 192
16 197
16 201
16 250
16 251
16 288
17 62
17 69
17 90
17 96
17 100
17 106
17 214
17 242
17 294
18 48
18 67
18 95
18 124
18 144
18 149
18 209
18 240
19 85
19 88
19 105
19 125
19 170
19 273
19 282
20 39
20 47
20 53
20 73
20 83
20 100
20 118
20 145
20 166
20 234
20 240
20 282
20 293
21 123
21 187
21 271
21 275
22 24
22 92
22 126
22 141
22 155
22 176
22 218
22 225
22 297
23 40
23 58
23 62
23 81
23 100
23 110
23 118
23 206
23 227
24 37
24 92
24 174
24 176
24 200
24 273
25 63
25 225
25 228
25 261
25 264
25 278
25 287
26 225
26 244
27 60
27 87
27 112
27 116
27 163
27 212
27 270
27 280
27 288
27 292
28 52
28 55
28 121
28 141
28 181
28 261
28 271
28 289
29 32
29 75
29 131
29 136
29 137
29 156
29 190
29 254
29 256
29 263
29 280
29 288
29 296
30 95
30 184
30 194
30 296
31 55
31 75
31 123
31 129
31 187
31 300
32 45
32 75
32 98
32 116
32 123
32 160
32 193
32 248
32 259
33 39
33 58
33 65
33 81
33 110
33 113
33 167
33 176
33 179
33 217
33 227
33 262
33 267
33 269
33 271
34 65
34 86
34 99
34 156
34 270
34 271
35 89
35 160
35 177
35 235
35 261
35 264
36 70
36 111
36 118
36 128
36 144
36 166
36 174
36 176
36 222
36 230
36 232
36 247
36 256
36 290
36 297
37 92
37 254
37 297
38 119
38 130
38 138
38 177
38 194
38 250
38 299
39 46
39 51
39 53
39 140
39 218
39 247
40 100
40 104
40 105
40 118
40 120
40 192
40 211
40 226
40 241
40 248
41 62
41 100
41 138
41 162
41 177
41 203
41 213
41 227
42 51
42 69
42 79
42 84
42 101
42 160
43 50
43 73
43 108
43 186
43 222
43 253
43 266
43 268
44 48
44 108
44 110
44 119
44 129
44 152
44 154
44 162
44 198
44 201
44 205
44 237
44 240
44 263
44 280
44 282
45 98
45 123
45 136
45 187
45 229
45 230
45 259
45 268
45 295
45 296
46 83
46 163
46 200
46 208
46 218
46 226
47 53
47 83
47 115
48 74
48 82
48 83
48 85
48 108
48 115
48 129
48 135
48 144
48 198
48 219
48 229
48 267
48 270
48 273
48 276
48 282
49 132
49 249
50 73
50 121
50 180
50 234
50 266
50 268
50 272
50 285
50 295
51 53
51 107
51 123
51 127
51 128
51 135
51 136
52 76
52 109
52 151
52 199
52 261
52 292
53 72
53 73
53 85
53 100
53 113
53 130
53 282
53 292
54 80
54 143
54 155
54 167
54 185
54 291
55 67
55 87
55 93
55 106
55 123
55 135
55 141
55 149
55 155
55 163
55 181
55 200
55 208
55 256
55 280
55 297
56 128
56 169
56 208
57 70
57 112
57 186
57 212
57 243
57 263
58 81
58 101
58 112
58 217
59 70
59 122
59 170
59 204
59 206
59 220
59 250
59 274
60 79
60 84
60 116
60 150
60 173
60 176
60 213
60 214
60 290
61 63
61 135
61 144
61 150
61 165
61 171
61 187
61 250
61 260
61 294
62 100
62 162
62 206
62 242
63 104
63 115
63 123
63 128
63 135
63 152
63 192
63 197
63 232
63 240
63 283
63 294
64 67
64 68
64 161
64 190
64 232
64 233
64 243
64 260
65 99
65 102
65 176
65 213
65 237
65 267
65 280
66 79
66 140
66 256
66 269
67 114
67 149
67 179
67 188
67 189
67 193
67 203
67 224
68 74
68 85
68 100
68 111
68 144
68 145
69 79
69 96
69 101
69 163
69 166
69 253
70 104
70 112
70 128
70 155
70 166
70 232
70 239
70 270
71 99
71 141
71 145
71 163
71 228
71 233
71 272
71 275
72 85
72 98
72 106
72 113
72 243
72 263
72 269
72 271
73 91
73 108
73 119
73 120
73 139
73 154
73 181
73 186
73 252
73 255
73 262
73 292
74 80
74 86
74 110
74 144
74 224
74 231
74 237
74 281
74 286
75 116
75 129
75 190
75 248
75 275
76 92
76 109
76 118
76 135
76 159
76 164
76 215
76 245
76 260
76 273
77 93
77 108
77 192
77 205
77 237
78 105
78 136
78 181
78 259
79 80
79 84
79 105
79 231
79 272
80 84
80 104
80 110
80 137
80 144
80 167
80 210
80 260
80 268
80 283
81 110
81 209
81 216
81 230
81 275
82 120
82 217
82 219
82 268
82 273
82 285
83 106
83 115
83 215
83 240
84 110
84 137
84 150
84 167
84 231
84 251
85 88
85 92
85 98
85 101
85 124
85 144
85 151
85 195
85 200
85 210
85 219
85 243
85 252
85 273
85 288
86 156
86 171
86 210
86 224
86 281
87 201
87 297
88 152
88 212
88 256
88 261
88 298
89 139
89 169
89 180
89 199
89 204
89 221
89 235
89 241
90 96
90 106
90 154
90 239
90 242
91 119
91 172
91 292
91 297
92 114
92 118
92 172
92 178
92 273
93 108
93 111
93 158
93 174
94 147
94 257
94 258
94 300
95 194
95 234
95 237
95 242
96 106
96 145
96 162
96 163
96 184
96 192
96 194
96 233
96 299
97 113
97 132
97 174
97 178
97 210
98 100
98 101
98 123
98 144
98 219
98 252
98 273
98 288
99 116
99 132
99 139
99 141
99 161
99 163
99 169
99 175
99 213
99 245
99 256
99 272
100 111
100 114
100 118
100 145
100 202
100 206
100 224
100 267
101 117
101 124
101 126
101 182
101 186
101 203
101 204
101 206
101 218
101 241
101 243
101 252
102 144
102 206
102 212
102 237
102 238
102 267
102 298
103 131
103 141
103 149
103 162
103 196
103 198
103 200
103 260
103 263
103 267
103 288
104 167
104 234
104 253
104 270
105 137
105 227
105 289
106 115
106 141
106 150
106 166
106 187
106 197
106 213
106 266
107 117
107 123
107 126
107 135
107 147
107 160
107 161
107 170
107 198
107 266
107 280
108 117
108 126
108 139
108 154
108 186
108 200
109 159
109 179
109 193
109 259
109 288
110 119
110 130
110 179
110 203
110 210
110 218
110 233
110 252
110 277
110 279
110 294
111 133
111 157
111 172
111 235
111 256
112 186
112 239
112 249
112 292
112 298
113 217
113 239
113 292
114 118
114 141
114 187
114 245
114 275
115 135
115 197
115 215
115 226
115 229
115 240
115 291
116 146
116 214
116 259
117 126
117 130
117 135
117 170
117 294
118 202
118 224
119 130
119 142
119 152
119 201
119 237
119 247
119 255
120 252
120 257
121 148
121 227
121 271
122 171
122 204
122 241
122 268
122 285
122 299
123 135
123 145
123 149
123 150
123 166
123 174
123 181
123 183
123 187
123 197
123 198
123 213
123 232
123 247
123 280
123 286
124 203
124 250
124 293
125 212
125 236
125 291
126 198
126 210
126 241
126 246
126 266
127 135
127 187
127 198
127 222
127 248
127 266
128 135
128 195
128 233
128 248
128 270
128 287
128 294
129 156
129 160
130 138
130 166
130 184
130 194
131 136
131 155
131 162
131 235
131 300
132 139
132 155
132 161
132 256
132 272
132 290
132 295
132 300
133 151
133 235
133 240
133 282
134 150
134 164
134 175
134 177
134 194
134 202
134 213
134 239
134 261
134 291
135 173
135 198
135 287
136 156
136 160
136 166
136 229
136 237
136 249
136 254
136 295
136 296
137 275
137 280
138 183
138 247
138 273
138 296
139 199
139 200
140 256
141 166
141 187
141 200
141 201
141 218
141 227
141 260
141 264
141 271
141 275
141 277
141 289
142 218
142 222
142 247
142 248
142 266
143 250
143 271
143 274
144 210
144 238
144 240
144 277
145 150
145 161
145 163
145 232
145 247
146 186
146 203
147 186
147 215
147 258
147 266
148 156
148 190
148 202
148 210
148 246
148 276
149 165
149 193
149 208
149 242
149 297
150 154
150 176
150 189
150 197
150 213
150 250
150 271
151 166
151 194
151 198
151 202
151 218
151 223
151 253
151 277
151 282
152 183
152 256
152 263
152 282
152 296
153 167
153 252
153 294
154 176
155 166
155 297
155 300
156 160
156 175
156 178
156 190
156 231
156 252
156 254
156 262
156 270
156 271
156 272
157 162
157 181
157 192
157 220
157 252
157 263
158 206
158 225
158 244
158 266
158 272
158 274
159 244
160 178
160 271
160 272
160 280
161 163
161 192
161 196
161 200
161 225
161 232
161 261
161 273
161 280
162 181
162 192
162 241
162 263
162 300
163 226
163 269
163 280
163 288
164 177
164 203
164 216
164 221
164 227
164 249
164 262
164 294
165 195
165 234
165 243
165 260
166 174
166 188
166 194
166 218
166 240
166 253
166 277
166 282
166 286
167 172
167 189
167 229
167 234
167 253
167 268
167 297
168 222
168 251
168 290
169 175
169 208
171 177
171 203
171 221
171 222
171 260
171 285
171 290
172 259
172 268
172 297
173 201
173 212
173 236
174 200
174 253
174 256
174 286
175 184
175 194
175 208
175 231
175 272
175 290
175 291
176 218
176 225
177 179
177 202
177 203
177 221
177 225
177 261
178 297
179 203
179 217
180 187
180 201
180 240
180 264
180 268
180 295
181 252
181 271
181 289
181 300
182 218
182 247
183 197
183 215
183 254
183 270
183 295
183 296
184 194
184 227
184 248
185 288
186 235
186 264
186 278
187 189
187 198
187 200
187 213
187 214
187 264
187 266
187 271
187 278
187 282
187 294
188 189
188 213
188 234
188 261
188 277
189 197
189 198
189 234
190 231
190 256
190 271
191 285
192 214
192 220
192 241
193 251
193 259
193 267
193 298
194 227
194 248
194 282
195 234
195 269
195 290
195 294
196 211
196 225
196 261
196 281
197 213
197 254
198 213
198 215
198 238
198 240
198 248
198 261
198 264
198 266
198 267
198 282
200 226
200 244
200 273
200 278
201 217
201 227
201 236
201 240
201 262
201 288
202 214
202 223
202 264
202 278
202 282
203 221
204 206
204 221
204 241
205 244
205 263
206 221
206 238
206 242
206 266
206 279
207 225
207 259
207 281
207 286
207 298
208 217
209 211
209 250
210 246
210 277
211 250
212 236
212 292
212 298
213 225
213 248
213 261
214 220
214 251
214 252
214 294
215 266
215 272
215 291
217 229
217 240
217 268
217 283
218 247
218 277
219 223
220 225
220 274
222 234
222 248
222 251
222 290
223 232
224 263
225 244
225 261
225 274
225 281
225 292
226 278
227 262
227 294
228 287
229 268
229 270
229 276
229 291
230 275
230 278
230 286
231 270
233 246
233 248
234 269
234 290
234 291
234 300
235 278
237 265
238 279
239 245
240 282
240 283
240 295
242 266
242 268
242 285
245 279
245 299
246 277
247 290
249 262
249 294
249 298
251 259
251 267
252 262
252 271
252 294
252 300
253 284
253 287
254 270
254 287
255 271
255 299
256 270
259 298
260 283
261 292
262 294
263 271
264 271
264 278
266 267
266 272
266 291
267 280
268 270
268 276
268 285
268 295
269 280
269 288
269 290
270 287
275 283
275 289
276 290
276 291
277 282
277 286
278 286
279 299
280 288
281 286
282 295
290 291
295 296
*Classes
1
1
1
1
1
1
1
1
1
1
1
1
1
1
1
1
1
1
1
1
1
1
1
1
1
1
1
1
1
1
1
1
1
1
1
1
1
1
1
1
1
1
1
1
1
1
1
1
1
1
1
1
1
1
1
1
1
1
1
1
1
1
1
1
1
1
1
1
1
1
1
1
1
1
1
1
1
1
1
1
1
1
1
1
1
1
1
1
1
1
1
1
1
1
1
1
1
1
1
1
1
1
1
1
1
1
1
1
1
1
1
1
1
1
1
1
1
1
1
1
1
1
1
1
1
1
1
1
1
1
1
1
1
1
1
1
1
1
1
1
1
1
1
1
1
1
1
1
1
1
2
2
2
2
2
2
2
2
2
2
2
2
2
2
2
2
2
2
2
2
2
2
2
2
2
2
2
2
2
2
2
2
2
2
2
2
2
2
2
2
2
2
2
2
2
2
2
2
2
2
2
2
2
2
2
2
2
2
2
2
2
2
2
2
2
2
2
2
2
2
2
2
2
2
2
2
2
2
2
2
2
2
2
2
2
2
2
2
2
2
2
2
2
2
2
2
2
2
2
2
2
2
2
2
2
2
2
2
2
2
2
2
2
2
2
2
2
2
2
2
2
2
2
2
2
2
2
2
2
2
2
2
2
2
2
2
2
2
2
2
2
2
2
2
2
2
2
2
2
2
