*Vertices 300
*Edges
1 13
1 38
1 63
1 72
1 183
1 233
1 254
1 282
1 293
2 38
2 45
2 60
2 62
2 66
2 94
2 117
2 161
2 175
2 204
2 209
2 299
3 41
3 58
3 65
3 99
3 106
3 107
3 142
3 143
3 193
3 220
3 283
3 287
3 288
4 18
4 20
4 53
4 76
4 103
4 120
4 124
4 131
4 144
4 155
4 181
4 240
4 291
5 77
5 101
5 188
5 222
5 268
6 31
6 59
6 97
6 139
6 151
6 153
6 160
6 246
6 277
7 11
7 13
7 35
7 36
7 60
7 134
7 141
7 218
7 232
7 245
7 257
7 292
7 295
8 14
8 22
8 25
8 33
8 70
8 74
8 82
8 95
8 138
8 147
8 175
8 219
8 230
8 253
9 42
9 43
9 63
9 72
9 77
9 79
9 96
9 132
9 145
9 146
9 158
9 162
9 171
9 200
9 204
9 219
9 256
10 42
10 55
10 59
10 62
10 63
10 72
10 94
10 119
10 160
10 163
10 169
10 289
11 91
11 140
11 223
11 284
11 297
12 90
12 156
12 219
13 38
13 53
13 150
13 209
13 217
13 233
13 245
14 25
14 40
14 45
14 76
14 95
14 109
14 114
14 128
14 138
14 140
14 152
14 162
15 44
15 83
15 106
15 124
15 137
15 139
15 149
15 165
15 223
15 232
15 238
15 263
15 269
15 272
15 288
16 57
16 85
16 99
16 105
16 129
16 143
16 235
16 297
17 19
17 38
17 54
17 94
17 156
17 159
17 233
17 234
17 261
17 267
17 298
18 76
18 81
18 185
18 202
19 32
19 38
19 60
19 92
19 104
19 116
19 178
19 193
19 223
19 228
19 233
19 242
19 254
19 264
19 276
19 280
19 285
19 293
20 38
20 53
20 73
20 124
20 131
20 195
20 216
20 229
20 257
20 261
20 279
20 280
21 138
21 150
21 197
21 214
21 285
21 286
22 26
22 41
22 54
22 70
22 73
22 75
22 99
22 104
22 152
22 165
22 213
22 283
22 295
23 55
23 63
23 95
23 178
23 215
23 240
23 257
23 275
23 278
24 38
24 44
24 48
24 62
24 83
24 90
24 136
24 198
24 223
24 224
24 230
24 251
24 265
24 270
24 275
24 290
25 33
25 70
25 74
25 89
25 177
25 199
25 291
26 32
26 58
26 60
26 99
26 108
26 137
26 142
26 165
26 171
26 213
26 244
26 246
27 65
27 106
27 125
27 179
27 181
27 200
27 218
27 281
28 32
28 94
28 126
28 138
28 151
28 173
28 201
28 254
28 285
29 37
29 59
29 73
29 78
29 113
29 121
29 144
29 153
29 176
29 244
29 258
29 293
29 298
30 31
30 33
30 40
30 51
30 53
30 60
30 66
30 86
30 121
30 127
30 137
30 199
30 255
30 259
30 289
31 76
31 112
31 127
31 138
31 140
31 141
31 153
31 251
31 255
31 259
32 41
32 60
32 82
32 94
32 104
32 109
32 130
32 137
32 142
32 159
32 224
32 244
32 275
33 60
33 66
33 116
33 128
34 61
34 84
34 88
34 91
34 92
34 115
34 125
34 136
34 196
34 205
34 212
34 221
34 241
34 242
34 256
34 270
34 297
34 300
35 40
35 60
35 83
35 84
35 86
35 91
35 125
35 132
35 139
35 190
35 195
35 198
35 280
35 292
35 294
36 44
36 141
36 171
36 199
36 217
36 272
36 289
37 73
37 75
37 99
37 122
37 124
37 144
37 183
37 208
37 237
38 60
38 64
38 86
38 103
38 115
38 128
38 229
38 237
38 280
39 102
39 162
39 230
39 297
40 41
40 44
40 45
40 48
40 59
40 60
40 90
40 109
40 138
40 177
40 181
40 206
40 225
41 45
41 94
41 104
41 107
41 134
41 142
41 166
41 192
41 195
41 224
41 249
41 270
41 282
42 55
42 56
42 63
42 77
42 80
42 81
42 91
42 92
42 181
42 189
42 201
42 202
42 215
43 123
43 204
43 235
43 240
43 263
43 282
44 48
44 119
44 137
44 171
44 189
44 196
44 261
44 272
44 273
44 276
44 298
45 62
45 95
45 138
45 152
45 176
45 195
46 53
46 74
46 96
46 99
46 111
46 143
46 144
46 186
46 201
46 243
46 277
46 284
47 50
47 86
47 111
47 121
47 132
47 137
47 146
47 229
47 241
47 267
47 296
48 83
48 199
48 290
48 298
49 181
49 186
49 198
49 222
49 268
50 56
50 63
50 72
50 89
50 90
50 102
50 106
50 115
50 120
50 138
50 157
50 183
50 197
50 216
50 267
50 293
51 82
51 95
51 117
51 140
51 248
51 284
51 291
51 296
52 206
53 56
53 62
53 65
53 91
53 125
53 163
53 209
53 216
53 227
53 259
53 280
54 70
54 73
54 75
54 77
54 81
54 94
54 157
54 192
54 248
54 267
54 268
55 63
55 91
55 151
55 181
55 189
55 218
55 275
55 294
56 81
56 116
56 125
56 138
56 249
56 270
56 280
57 69
57 85
57 105
57 122
57 124
57 169
57 171
57 191
57 212
57 215
58 98
58 124
58 141
58 142
58 171
58 223
59 87
59 120
59 147
59 160
59 186
59 196
59 198
59 225
59 260
59 274
59 289
60 66
60 103
60 109
60 121
60 125
60 128
60 133
60 137
60 198
60 211
60 237
60 268
61 74
61 92
61 135
61 136
61 189
61 195
61 223
61 232
61 298
61 300
62 83
62 94
62 136
62 175
62 216
62 248
62 296
63 72
63 91
63 92
63 103
63 135
63 151
63 178
63 198
63 216
63 229
63 266
64 71
64 78
64 101
64 116
64 117
64 132
64 146
64 202
64 237
64 272
65 70
65 86
65 106
65 110
65 111
65 125
65 145
65 170
65 179
65 188
65 189
65 200
65 218
65 224
65 242
65 256
65 276
66 67
66 78
66 102
66 127
66 133
66 157
66 206
66 211
66 297
67 93
67 98
67 126
67 127
67 160
67 214
67 240
67 261
67 286
68 112
68 137
68 157
68 237
68 251
69 85
69 87
69 135
69 236
69 281
70 81
70 82
70 116
70 125
70 128
70 165
70 233
70 253
70 278
71 72
71 78
71 132
71 144
71 176
71 254
71 285
71 297
72 78
72 79
72 103
72 133
72 146
72 205
72 237
72 282
73 75
73 77
73 82
73 124
73 177
73 178
73 217
73 248
74 85
74 96
74 130
74 147
74 175
74 180
74 220
74 298
75 81
75 82
75 124
75 157
75 199
75 247
76 86
76 101
76 109
76 114
76 120
76 130
76 132
76 138
76 140
76 141
76 146
76 178
76 219
77 92
77 112
77 132
77 139
77 147
77 149
77 152
77 165
77 194
77 215
77 235
77 248
77 251
77 268
78 117
78 121
78 123
78 141
78 144
78 157
78 167
78 176
78 206
78 227
78 253
78 284
78 293
78 297
79 103
79 111
79 149
79 164
79 171
79 231
79 249
79 251
80 181
80 206
80 236
80 252
80 261
81 125
81 202
82 95
82 98
82 109
82 127
82 177
82 198
82 202
82 211
82 217
82 262
83 139
83 275
84 103
84 110
84 125
84 133
84 221
84 238
84 255
84 267
84 278
84 288
85 220
85 236
85 271
86 101
86 132
86 146
86 218
86 237
86 259
86 280
87 96
87 112
87 134
87 135
87 152
87 225
88 90
88 93
88 136
88 168
88 184
88 196
88 214
88 219
89 106
89 142
89 226
89 244
90 106
90 109
90 112
90 175
90 181
90 198
90 219
90 279
90 289
91 92
91 125
91 189
91 208
91 270
92 139
92 147
92 148
92 154
92 180
92 194
92 241
92 266
92 293
93 160
93 238
94 119
95 257
96 142
96 171
96 186
96 196
96 248
96 283
97 159
97 169
97 246
97 267
97 277
98 102
98 124
98 213
98 214
98 272
98 297
99 122
99 143
99 213
99 233
99 275
100 233
101 120
101 132
101 180
101 268
101 269
102 108
102 115
102 157
102 162
102 220
102 263
102 280
102 297
103 128
103 192
103 246
103 277
103 279
103 288
103 291
103 299
104 109
104 111
104 137
104 152
104 178
104 280
105 114
105 129
105 297
106 107
106 143
106 188
106 200
106 221
106 226
106 242
106 247
106 256
106 273
106 279
106 288
106 294
107 112
107 205
107 215
107 223
107 282
108 150
108 151
108 163
108 175
108 215
108 220
108 230
108 246
108 249
108 273
108 280
108 296
109 110
109 118
109 130
109 137
109 206
109 244
110 130
110 133
110 184
110 200
110 236
110 255
111 121
111 152
111 164
111 242
111 261
111 267
111 277
111 291
112 134
112 152
112 175
112 219
112 225
112 251
112 255
113 153
113 284
114 117
114 138
114 152
114 240
114 295
115 129
115 136
115 142
115 171
115 229
115 241
116 128
116 132
116 223
116 228
116 244
116 280
117 140
117 146
117 172
117 257
117 284
117 295
117 299
118 153
119 136
119 171
119 174
119 210
119 219
119 233
119 291
120 140
120 268
120 289
121 202
121 240
121 244
121 254
121 264
121 267
122 144
122 172
122 193
122 198
122 201
122 275
122 288
123 151
123 173
123 216
123 227
123 235
123 240
123 298
124 131
124 191
124 242
124 272
125 190
125 208
125 242
125 257
125 265
125 269
126 160
126 185
126 227
126 270
126 285
127 129
127 154
127 260
127 270
128 138
128 156
128 207
128 214
128 233
128 278
129 226
129 248
129 287
129 296
130 180
130 221
131 209
131 231
132 146
132 164
132 171
132 179
132 202
132 245
132 268
133 195
133 215
133 260
133 278
133 282
134 195
134 257
135 276
135 281
135 300
136 205
137 140
137 143
137 159
137 235
137 288
137 296
138 162
138 164
138 175
138 194
138 195
138 201
138 231
138 251
138 294
139 198
139 239
140 141
140 143
140 167
140 183
140 219
140 235
140 251
140 284
141 142
141 256
141 297
142 171
142 193
142 258
142 268
142 270
143 220
143 235
143 279
143 283
144 146
144 157
144 181
144 183
144 201
144 227
144 236
144 253
145 146
145 207
145 225
145 256
145 281
146 158
146 175
146 183
146 195
146 200
146 254
146 272
146 275
147 160
147 163
147 194
147 204
147 226
147 237
147 240
147 241
147 266
147 298
148 176
148 180
148 201
148 253
149 165
149 166
149 167
149 231
149 285
150 151
150 161
150 195
150 197
150 215
150 254
150 275
150 285
150 288
151 153
151 173
151 175
151 176
151 181
151 196
151 198
151 230
152 159
152 160
152 164
152 182
152 187
152 240
152 252
152 265
153 160
153 173
153 175
153 198
153 230
153 277
154 221
154 260
154 294
155 160
155 240
155 263
156 218
156 233
156 269
157 217
158 219
158 226
158 246
159 182
159 234
159 267
159 277
160 170
160 223
160 227
160 238
160 240
160 286
161 175
161 204
161 241
161 245
161 249
161 258
162 178
162 278
163 169
163 204
163 237
163 246
163 258
163 259
164 238
164 245
164 249
164 251
164 261
164 268
164 294
165 248
165 263
166 189
166 190
166 194
166 195
166 236
166 251
166 282
166 294
167 231
167 248
167 284
167 300
168 172
168 184
168 206
168 208
168 217
168 229
170 188
170 204
170 223
170 228
170 244
170 269
170 276
171 179
171 189
171 194
171 196
171 212
171 219
171 244
171 251
171 276
172 174
172 208
172 231
172 276
172 284
172 285
173 200
173 219
173 230
173 275
174 177
174 284
174 285
174 291
174 299
175 176
175 195
175 196
175 198
175 219
175 231
175 240
175 296
175 298
176 219
176 296
177 179
177 184
177 206
177 285
177 291
178 215
178 224
178 242
178 245
178 254
178 266
178 278
178 288
179 184
179 206
179 219
179 224
179 242
179 244
179 251
179 256
179 271
179 297
180 188
180 189
180 193
180 212
180 235
180 253
180 268
180 294
181 198
181 205
181 206
181 247
181 281
183 201
183 235
183 245
183 246
183 254
183 293
184 206
184 208
185 202
185 264
185 272
185 284
185 285
185 291
186 196
187 252
187 265
188 204
188 268
188 276
188 286
189 190
189 211
189 218
189 236
189 253
189 294
190 194
190 289
190 294
191 212
191 215
191 242
191 300
192 248
192 288
192 296
193 228
193 268
193 293
194 237
194 251
194 286
194 293
194 294
195 215
195 237
195 257
195 258
195 270
195 274
196 197
196 241
197 273
197 275
197 293
198 262
198 289
199 220
199 247
199 289
200 229
200 259
200 275
201 215
201 247
202 264
202 285
204 235
204 246
204 259
205 215
205 247
205 282
206 211
206 225
206 244
206 256
206 271
206 291
206 297
207 214
207 261
208 250
209 219
209 251
209 280
210 227
210 242
210 245
210 246
211 218
211 262
212 215
212 219
212 240
212 253
213 244
213 291
213 299
214 228
214 244
214 261
215 238
215 267
215 274
215 280
215 288
216 227
217 224
217 229
217 242
217 272
217 275
218 222
218 262
218 269
218 280
219 226
219 233
219 240
219 253
219 287
219 298
220 255
220 271
221 247
221 255
221 273
221 294
222 231
222 268
223 232
223 269
224 227
224 229
224 242
224 246
224 274
224 275
225 260
225 274
226 287
227 241
227 242
227 246
228 231
228 244
228 276
229 241
229 275
230 265
230 270
231 254
231 276
231 285
232 257
232 269
233 240
233 278
234 267
235 245
235 263
235 268
235 296
236 252
236 289
237 251
237 258
237 272
237 286
238 273
238 275
238 288
238 294
238 298
240 263
240 282
241 242
241 245
241 246
241 266
242 245
242 246
242 266
242 274
242 275
244 256
244 297
246 277
246 296
247 289
248 284
248 296
248 299
249 258
249 270
249 272
249 279
249 285
249 294
251 286
252 265
252 269
252 270
252 283
253 294
254 264
254 285
254 293
255 288
256 281
256 297
257 265
257 278
257 292
257 295
261 291
261 298
262 289
263 268
266 278
267 275
267 288
267 296
268 289
269 270
270 285
273 293
273 298
275 288
276 293
279 287
279 288
280 300
283 295
283 296
284 285
284 297
285 291
285 297
291 299
293 297
*Classes
1
1
1
1
1
1
1
1
1
1
1
1
1
1
1
1
1
1
1
1
1
1
1
1
1
1
1
1
1
1
1
1
1
1
1
1
1
1
1
1
1
1
1
1
1
1
1
1
1
1
1
1
1
1
1
1
1
1
1
1
1
1
1
1
1
1
1
1
1
1
1
1
1
1
1
1
1
1
1
1
1
1
1
1
1
1
1
1
1
1
1
1
1
1
1
1
1
1
1
1
1
1
1
1
1
1
1
1
1
1
1
1
1
1
1
1
1
1
1
1
1
1
1
1
1
1
1
1
1
1
1
1
1
1
1
1
1
1
1
1
1
1
1
1
1
1
1
1
1
1
2
2
2
2
2
2
2
2
2
2
2
2
2
2
2
2
2
2
2
2
2
2
2
2
2
2
2
2
2
2
2
2
2
2
2
2
2
2
2
2
2
2
2
2
2
2
2
2
2
2
2
2
2
2
2
2
2
2
2
2
2
2
2
2
2
2
2
2
2
2
2
2
2
2
2
2
2
2
2
2
2
2
2
2
2
2
2
2
2
2
2
2
2
2
2
2
2
2
2
2
2
2
2
2
2
2
2
2
2
2
2
2
2
2
2
2
2
2
2
2
2
2
2
2
2
2
2
2
2
2
2
2
2
2
2
2
2
2
2
2
2
2
2
2
2
2
2
2
2
2
