*Vertices 300
*Edges
1 31
1 39
1 45
1 62
1 77
1 104
1 122
1 132
1 144
1 163
1 189
1 240
1 254
1 264
2 11
2 20
2 87
2 113
2 166
2 213
2 230
2 235
2 296
3 19
3 23
3 53
3 54
3 70
3 102
3 117
3 191
3 252
3 266
3 267
3 289
3 292
4 131
4 186
4 209
4 222
4 250
4 261
4 268
4 295
5 28
5 34
5 44
5 51
5 57
5 116
5 133
5 141
5 143
5 203
5 225
6 8
6 27
6 43
6 45
6 74
6 77
6 79
6 203
6 289
7 60
7 108
7 122
7 214
7 234
7 266
7 297
8 16
8 27
8 48
8 56
8 57
8 84
8 137
8 220
8 256
9 44
9 109
9 167
9 200
9 265
9 271
10 19
10 27
10 40
10 49
10 52
10 79
10 83
10 93
10 101
10 133
10 187
11 25
11 32
11 63
11 70
11 85
11 87
11 98
11 132
11 149
11 159
11 225
12 16
12 27
12 40
12 58
12 88
12 93
12 96
12 117
12 124
12 169
12 185
12 248
12 263
12 280
13 25
13 93
13 118
13 168
14 35
14 56
14 57
14 103
14 133
14 143
14 147
14 241
14 242
14 251
14 252
14 281
15 86
15 90
15 124
16 38
16 109
16 122
16 156
16 164
16 169
16 213
16 260
16 292
17 19
17 31
17 39
17 42
17 45
17 46
17 74
17 81
17 165
17 265
17 298
19 25
19 39
19 40
19 93
19 149
19 189
19 231
19 243
19 249
19 269
19 271
19 289
20 22
20 41
20 147
20 182
20 214
20 220
20 230
20 245
20 248
21 63
21 125
21 136
21 186
21 236
22 122
22 129
22 131
22 135
22 169
22 240
22 248
22 271
23 25
23 28
23 33
23 53
23 118
23 219
23 244
23 289
24 26
24 66
24 84
24 106
24 119
24 134
24 160
24 180
24 208
24 274
25 26
25 28
25 39
25 52
25 62
25 93
25 111
25 118
25 142
25 209
26 52
26 61
26 119
26 165
26 224
26 291
26 299
27 30
27 43
27 57
27 66
27 79
27 92
27 117
27 133
27 137
27 170
27 179
27 180
27 212
27 288
28 30
28 33
28 34
28 51
28 53
28 92
28 103
28 117
28 118
28 146
28 151
28 159
28 243
28 250
28 268
28 273
28 294
29 64
29 74
29 114
29 224
30 38
30 48
30 56
30 57
30 61
30 92
30 113
30 144
30 146
30 177
30 188
30 203
30 259
30 288
31 39
31 48
31 80
31 144
31 232
32 52
32 74
32 79
32 85
32 101
32 242
32 284
33 36
33 37
33 44
33 48
33 91
33 116
33 117
33 130
33 146
33 167
33 205
33 225
33 231
33 242
33 257
33 267
33 270
33 286
34 49
34 100
34 131
34 159
34 192
34 197
34 215
34 265
35 133
36 48
36 52
36 53
36 59
36 100
36 115
36 130
36 134
37 80
37 100
37 205
37 238
37 276
38 94
38 156
38 163
38 188
38 215
38 229
38 274
38 282
39 80
39 81
39 82
39 142
39 144
39 173
39 215
39 224
39 260
40 49
40 68
40 87
40 93
40 154
40 181
40 271
41 57
41 59
41 61
41 65
41 71
41 81
41 105
41 128
41 137
41 147
41 183
41 212
41 250
41 283
41 290
42 45
42 70
42 74
42 125
42 186
42 199
42 224
42 255
42 300
43 45
43 71
43 89
43 94
43 106
43 110
43 113
43 120
43 126
43 130
43 150
43 157
43 206
43 230
43 243
43 248
43 267
43 291
44 63
44 109
44 111
44 116
44 133
44 141
44 151
44 167
44 201
44 225
44 249
44 251
44 257
45 74
45 77
45 79
45 85
45 88
45 93
45 116
45 118
45 220
45 233
45 242
45 252
45 270
46 67
46 90
46 97
46 110
46 193
46 298
47 56
47 65
47 101
47 106
47 128
47 147
47 167
47 171
47 173
47 184
47 194
47 207
47 209
47 210
47 250
48 56
48 64
48 67
48 100
48 130
48 131
48 174
48 204
48 232
48 285
49 100
49 161
49 295
50 66
50 95
50 99
50 106
50 123
50 182
50 193
51 62
51 109
51 121
51 132
51 147
51 151
51 223
51 260
51 261
52 53
52 61
52 65
52 67
52 101
52 111
52 126
52 134
52 161
52 299
53 94
53 102
53 124
53 134
53 142
53 143
53 208
53 219
53 252
54 97
54 105
54 124
54 148
54 149
54 180
54 293
54 300
55 75
55 84
55 195
55 217
55 256
55 257
56 59
56 61
56 65
56 133
56 171
56 172
56 203
56 228
56 232
57 59
57 68
57 70
57 72
57 73
57 85
57 117
57 147
57 149
57 166
57 203
57 213
58 62
58 64
58 75
58 99
58 104
58 128
58 133
58 144
58 157
58 191
58 195
58 196
58 221
58 248
58 267
59 77
59 97
59 110
59 121
59 130
59 141
59 147
59 171
59 183
59 196
59 207
59 253
59 268
60 65
60 198
60 209
60 232
60 234
60 297
61 65
61 81
61 82
61 121
61 133
61 142
61 246
61 253
61 293
62 111
62 132
62 216
62 221
62 253
62 262
62 278
62 300
63 87
63 105
63 136
63 151
63 159
63 300
64 67
64 154
64 157
64 199
64 276
65 128
65 148
65 156
65 157
65 253
65 297
66 81
66 99
66 154
66 180
66 207
66 233
66 256
66 268
66 281
66 295
67 90
67 110
67 134
67 140
67 143
67 235
67 261
67 266
67 285
68 72
68 93
68 107
68 127
68 137
68 257
68 300
69 84
69 95
69 124
69 129
69 150
69 162
69 166
69 185
69 247
69 267
69 277
70 79
70 80
70 83
70 85
70 101
70 106
70 119
70 123
70 149
70 178
70 186
70 188
70 196
70 238
70 241
70 248
70 252
70 291
70 298
71 110
71 111
71 128
71 130
71 137
71 150
71 172
71 212
71 215
71 226
71 246
71 279
72 73
72 93
72 166
72 201
72 208
72 245
72 257
72 299
73 217
73 249
74 101
74 127
74 129
74 144
74 177
74 192
74 224
74 231
74 240
74 300
75 76
75 90
75 128
75 138
75 172
75 196
75 202
75 228
75 257
76 82
76 96
76 97
76 142
76 228
76 264
76 276
77 93
77 138
77 204
77 268
78 95
78 121
78 128
78 219
79 85
79 97
79 114
79 115
79 149
79 215
79 230
80 100
80 106
80 119
80 207
80 231
80 238
80 269
80 289
80 292
81 99
81 105
81 128
81 142
81 215
81 223
81 231
82 135
82 142
82 163
82 180
82 185
82 225
82 253
82 272
83 119
83 128
83 133
83 169
83 213
84 95
84 155
84 224
84 248
84 256
85 97
85 114
85 125
85 147
85 149
85 153
85 186
85 221
85 293
85 299
86 90
86 104
86 128
86 177
86 211
87 98
87 111
87 166
87 181
87 219
87 240
87 272
87 291
88 93
88 139
88 181
88 204
88 246
89 126
89 144
89 148
89 177
89 192
89 248
89 291
90 97
90 118
90 193
90 198
90 270
91 100
91 115
91 138
91 140
91 168
91 208
91 267
91 297
92 113
92 144
92 170
92 224
92 232
92 258
92 278
93 118
93 127
93 137
93 153
93 167
93 181
93 192
93 252
94 124
94 157
94 174
94 188
94 274
94 289
95 103
95 106
95 121
95 124
95 169
95 182
95 251
96 142
96 280
97 115
97 171
97 173
97 202
97 216
97 222
97 228
97 233
97 246
98 244
99 106
99 187
99 246
99 248
99 258
99 262
99 295
100 131
100 174
100 192
100 207
100 285
100 297
101 121
101 126
101 133
101 183
101 196
101 206
101 250
101 260
102 116
102 126
102 164
102 232
102 242
102 268
102 290
103 178
103 211
103 243
103 251
104 126
104 128
104 177
104 198
104 221
104 240
105 122
105 147
105 228
105 300
106 123
106 144
106 165
106 173
106 174
106 176
106 186
106 226
106 248
106 274
107 109
107 127
107 136
107 195
107 234
107 279
107 284
108 122
108 182
108 214
108 228
108 250
108 298
109 167
109 239
109 260
109 273
109 299
110 120
110 126
110 130
110 134
110 151
110 161
110 166
110 232
110 259
110 273
111 141
111 181
111 226
111 253
111 268
113 170
113 191
113 229
113 248
113 265
114 140
114 261
115 178
115 216
115 222
115 267
115 277
115 285
115 287
116 141
116 176
116 239
116 240
116 242
117 124
117 146
117 250
117 253
117 289
118 153
118 159
118 235
118 263
119 133
120 166
120 222
121 126
121 154
121 169
121 179
121 198
121 207
121 238
121 253
121 260
121 293
122 169
122 189
122 236
122 300
123 147
123 199
123 200
123 226
123 228
123 234
123 284
124 134
124 142
124 149
124 150
124 164
124 179
124 206
124 273
124 300
125 136
125 169
125 186
125 229
125 247
125 255
125 277
126 150
126 152
126 198
126 205
126 206
126 239
126 242
126 293
127 136
127 149
127 158
127 240
127 300
128 133
128 137
128 147
128 152
128 155
128 167
128 177
128 191
128 281
129 131
129 240
129 264
130 134
130 268
130 272
130 286
131 180
132 244
132 293
133 143
133 172
134 142
134 143
134 180
134 255
135 163
135 215
135 221
135 229
135 286
135 287
136 145
136 156
136 158
136 183
136 193
136 225
136 285
136 300
137 147
137 175
137 239
137 250
137 277
137 283
138 195
138 226
139 246
140 152
140 181
140 182
140 206
140 261
140 288
141 243
141 249
141 268
141 282
142 158
142 195
142 209
142 214
142 224
142 246
142 260
142 289
143 188
143 203
143 214
143 241
144 157
144 173
144 177
144 269
144 288
145 285
146 160
147 223
147 281
148 156
148 212
148 214
148 255
148 279
148 294
149 189
149 300
150 197
150 230
150 250
151 180
151 197
151 216
151 259
151 273
151 275
151 278
151 294
151 300
152 163
152 167
152 183
152 246
152 253
152 284
153 179
153 208
153 227
153 235
153 249
153 252
153 271
154 180
154 188
154 192
154 199
154 201
154 207
154 210
154 238
154 272
155 167
155 175
155 181
155 248
155 260
155 292
156 164
156 188
156 215
156 225
156 227
156 245
156 271
156 274
157 180
157 242
157 243
157 248
157 255
157 270
157 289
158 164
158 170
158 171
158 186
158 209
158 220
158 289
158 297
159 235
159 300
160 248
161 198
161 203
161 205
161 221
161 225
161 238
161 240
161 252
161 255
161 259
161 295
162 235
162 247
162 262
163 179
163 184
163 194
163 198
163 215
163 221
163 246
163 253
163 297
164 170
164 179
164 206
164 271
164 273
165 182
165 206
165 291
166 219
166 257
166 291
167 200
167 228
167 257
167 287
168 202
168 267
169 191
169 213
169 225
169 241
169 252
169 263
169 266
169 277
170 172
170 180
170 191
171 207
171 254
171 262
171 289
172 198
172 212
172 244
172 270
173 183
173 202
173 207
173 209
173 224
173 290
174 226
174 243
174 268
174 278
175 238
175 247
175 249
175 260
175 277
176 226
177 195
177 231
177 240
178 196
178 211
178 287
179 187
179 198
179 206
179 208
179 209
179 227
179 243
179 246
179 249
179 252
179 257
179 260
179 268
179 271
179 290
179 293
179 297
180 186
180 190
180 201
180 212
180 253
180 255
180 268
180 272
180 275
180 293
181 189
181 192
181 260
182 193
182 206
182 214
182 220
182 248
182 291
183 224
183 225
183 245
183 268
183 271
183 284
183 290
184 194
184 203
184 210
184 215
184 230
184 254
184 294
185 211
185 238
185 253
186 220
186 293
186 295
186 298
186 299
187 200
187 244
187 246
188 201
188 215
188 257
188 260
188 291
189 236
189 269
190 208
190 219
190 263
190 275
190 278
190 285
191 229
191 266
191 289
191 292
191 294
192 207
192 274
193 261
193 285
194 221
194 246
194 253
195 209
195 248
195 256
195 283
196 241
196 250
196 253
197 216
197 278
197 285
198 205
198 209
198 221
198 225
198 238
198 255
198 270
198 293
199 201
200 228
200 244
200 246
200 251
200 289
201 250
201 257
203 228
203 238
204 268
205 217
205 221
205 255
205 265
205 272
205 283
206 239
206 241
206 249
206 252
206 285
207 211
207 238
208 219
208 227
208 235
208 286
208 299
209 283
210 254
210 262
211 238
211 282
212 279
213 252
213 259
213 263
213 296
214 217
214 250
214 272
214 292
215 229
216 222
216 246
216 262
216 278
216 280
216 300
217 256
217 257
217 272
217 292
217 299
218 240
218 264
220 233
220 257
220 281
220 297
220 299
221 246
221 270
221 300
222 231
222 233
222 243
222 273
222 289
223 232
224 276
224 278
225 238
225 240
225 241
225 251
225 252
225 269
225 276
226 228
227 245
227 254
227 271
228 246
228 264
228 269
228 277
229 287
230 248
230 254
230 294
231 233
231 237
231 256
231 259
231 288
231 289
232 234
232 278
232 290
233 243
233 247
233 281
234 242
234 266
234 284
235 252
237 247
237 250
237 256
238 260
239 242
240 250
240 251
240 264
240 300
241 252
242 251
242 270
242 284
243 247
243 249
243 255
243 268
243 271
244 289
245 265
245 271
246 249
246 297
247 250
247 262
247 269
247 277
248 258
248 267
248 271
248 291
249 267
249 277
250 257
250 264
251 269
251 281
252 267
252 269
252 298
253 272
253 293
254 262
254 294
255 272
255 283
256 257
256 268
257 290
259 288
259 296
260 273
260 291
260 292
260 299
261 266
261 278
261 285
261 288
262 300
263 275
265 270
265 271
265 298
266 292
266 294
267 292
268 271
269 276
269 277
269 292
271 289
273 297
274 289
275 293
276 278
278 280
278 285
278 294
286 287
289 297
292 299
293 295
293 299
299 300
*Classes
1
1
1
1
1
1
1
1
1
1
1
1
1
1
1
1
1
1
1
1
1
1
1
1
1
1
1
1
1
1
1
1
1
1
1
1
1
1
1
1
1
1
1
1
1
1
1
1
1
1
1
1
1
1
1
1
1
1
1
1
1
1
1
1
1
1
1
1
1
1
1
1
1
1
1
1
1
1
1
1
1
1
1
1
1
1
1
1
1
1
1
1
1
1
1
1
1
1
1
1
1
1
1
1
1
1
1
1
1
1
1
1
1
1
1
1
1
1
1
1
1
1
1
1
1
1
1
1
1
1
1
1
1
1
1
1
1
1
1
1
1
1
1
1
1
1
1
1
1
1
2
2
2
2
2
2
2
2
2
2
2
2
2
2
2
2
2
2
2
2
2
2
2
2
2
2
2
2
2
2
2
2
2
2
2
2
2
2
2
2
2
2
2
2
2
2
2
2
2
2
2
2
2
2
2
2
2
2
2
2
2
2
2
2
2
2
2
2
2
2
2
2
2
2
2
2
2
2
2
2
2
2
2
2
2
2
2
2
2
2
2
2
2
2
2
2
2
2
2
2
2
2
2
2
2
2
2
2
2
2
2
2
2
2
2
2
2
2
2
2
2
2
2
2
2
2
2
2
2
2
2
2
2
2
2
2
2
2
2
2
2
2
2
2
2
2
2
2
2
2
