*Vertices 300
*Edges
1 60
1 110
1 113
1 134
1 149
1 172
1 260
1 293
2 13
2 79
2 185
2 211
2 277
3 8
3 46
3 56
3 126
3 147
3 191
3 200
4 34
4 37
4 53
4 62
4 69
4 74
4 99
4 115
4 123
4 124
5 11
5 14
5 20
5 60
5 62
5 63
5 99
5 127
5 128
5 136
5 173
5 186
5 281
6 12
6 30
6 36
6 53
6 54
6 62
6 116
6 128
6 135
6 150
6 227
7 20
7 113
7 172
7 236
8 9
8 33
8 46
8 53
8 62
8 92
8 105
8 106
8 112
8 126
8 131
8 209
8 232
8 235
8 259
8 275
9 46
9 68
9 70
9 96
9 281
9 288
10 33
11 14
11 30
11 39
11 60
11 92
11 111
11 114
11 184
11 192
11 239
11 244
11 275
12 15
12 30
12 45
12 54
12 57
12 150
12 293
13 17
13 58
13 63
13 95
13 102
13 281
14 25
14 53
14 62
14 63
14 85
14 99
14 111
14 127
14 138
14 277
15 17
15 24
15 36
15 49
15 54
15 100
15 104
15 105
15 122
15 140
15 141
15 145
15 163
15 243
15 295
16 22
16 30
16 35
16 55
16 114
16 122
16 147
16 183
17 84
17 106
17 148
17 156
17 164
17 279
18 276
19 27
19 64
19 113
19 140
19 224
19 251
19 257
19 269
19 284
19 289
19 290
20 42
20 101
20 113
20 119
20 132
20 150
20 173
20 184
20 206
21 34
21 72
21 99
21 287
22 29
22 35
22 45
22 47
22 67
22 68
22 70
22 72
22 106
22 214
22 287
23 121
23 136
23 190
23 223
23 230
23 234
23 245
24 100
24 142
24 145
24 220
24 225
24 287
25 63
25 132
25 204
25 238
25 276
26 78
26 82
26 213
26 218
26 273
26 289
27 33
27 37
27 51
27 121
27 139
27 203
27 228
27 268
27 294
27 295
28 29
28 49
28 77
28 89
28 93
28 134
28 149
28 205
28 255
28 295
29 37
29 47
29 49
29 50
29 62
29 73
29 106
29 156
29 172
29 204
29 225
29 231
29 238
29 256
30 36
30 39
30 101
30 122
31 37
31 44
31 69
31 81
31 97
31 107
31 108
31 114
31 134
31 149
31 170
31 197
31 204
31 256
31 276
31 296
32 92
32 105
32 130
32 138
32 205
32 256
32 271
33 46
33 131
33 155
33 156
33 160
33 190
33 207
33 238
33 268
33 282
34 36
34 58
34 74
34 99
34 114
34 120
34 123
34 159
34 249
35 55
35 292
36 54
36 119
36 122
36 156
37 64
37 69
37 71
37 81
37 82
37 86
37 90
37 100
37 114
37 121
37 135
37 150
37 175
37 182
37 225
37 226
37 255
37 257
38 45
38 65
38 82
38 100
38 108
38 126
38 148
38 161
38 181
38 191
38 270
39 51
39 60
39 129
39 134
39 139
39 149
39 267
39 286
40 80
40 116
40 177
40 199
40 242
40 300
41 84
41 218
41 265
42 48
42 58
42 77
42 82
42 90
42 150
43 48
43 124
43 174
43 214
44 86
44 97
44 108
44 126
44 171
44 185
44 266
45 49
45 100
45 141
45 245
45 251
46 65
46 68
46 83
46 259
47 62
47 67
47 70
47 73
47 92
47 101
47 106
47 148
47 169
47 239
47 283
48 58
48 69
48 90
48 95
48 123
48 124
48 148
48 150
48 203
48 256
48 285
49 89
49 141
49 206
49 289
50 72
50 84
50 204
50 237
50 249
50 293
51 75
51 88
51 121
51 139
51 158
51 171
51 175
51 246
52 53
52 178
52 209
52 227
53 62
53 64
53 112
53 128
53 129
53 135
53 136
53 190
53 227
53 253
54 135
54 141
54 205
54 269
55 122
55 230
55 297
56 102
56 147
56 189
56 298
57 79
57 82
57 146
57 150
57 201
58 94
58 95
58 99
58 146
58 204
58 243
58 256
58 261
59 84
59 195
59 199
59 286
60 61
60 113
60 122
60 125
60 147
60 168
61 82
61 101
61 112
61 122
61 135
61 147
61 185
61 207
61 216
61 249
62 64
62 69
62 123
62 129
62 142
62 224
62 225
62 236
62 255
62 262
63 95
63 102
63 184
63 206
63 224
63 258
64 69
64 86
64 129
64 265
65 82
65 83
65 100
65 126
65 148
65 280
66 165
66 194
66 230
67 73
67 159
67 177
68 70
68 76
68 96
68 138
68 143
68 182
68 247
68 272
69 124
69 186
69 190
69 193
69 256
69 260
69 268
69 271
70 76
70 181
71 78
71 94
71 155
71 175
71 189
71 248
71 250
71 258
72 104
72 105
72 157
72 214
73 181
73 235
74 114
74 120
74 164
74 210
74 217
74 264
75 88
75 100
76 116
76 145
76 154
76 239
76 297
77 89
77 90
77 150
77 158
78 94
78 215
78 256
78 258
79 82
79 101
79 150
79 209
79 266
79 276
79 277
79 296
80 103
80 182
80 207
80 256
81 90
81 100
81 107
81 114
81 124
82 95
82 116
82 150
82 185
82 213
82 287
83 220
83 237
84 199
84 204
84 234
84 273
84 289
85 111
85 127
85 148
85 178
85 252
86 161
86 171
87 166
88 133
89 93
89 141
89 149
89 248
90 118
90 119
90 124
90 136
90 173
92 105
92 106
92 112
92 138
92 148
92 155
92 168
92 183
92 184
93 118
93 238
93 247
93 256
94 131
94 146
94 175
94 272
94 293
95 99
95 154
95 182
95 279
96 201
96 279
98 285
99 249
100 104
100 131
100 142
100 159
100 188
100 229
101 122
101 135
101 162
101 184
101 189
101 193
101 283
101 286
102 127
102 138
102 169
102 292
103 122
103 147
103 156
103 228
103 249
103 258
103 277
104 105
104 153
105 141
105 145
106 148
106 181
106 207
107 124
107 250
108 126
108 237
109 133
109 243
110 113
110 247
111 114
111 127
111 152
111 257
111 267
111 296
112 159
112 298
113 159
113 244
113 260
113 269
114 122
115 231
116 120
116 146
116 150
116 280
116 297
117 123
117 148
118 130
118 136
118 140
118 214
118 242
118 298
119 132
119 156
119 186
120 189
121 130
121 168
121 211
121 223
121 265
122 147
122 163
122 284
123 129
123 133
123 145
123 148
123 232
123 249
123 260
124 282
125 274
126 167
126 196
127 138
127 148
127 153
127 161
127 218
127 253
127 260
127 281
128 132
128 136
128 137
128 157
128 164
129 134
129 142
129 183
129 268
130 131
130 136
130 175
130 189
130 191
130 198
130 241
130 275
131 245
131 293
132 157
132 281
133 145
133 188
134 142
134 149
134 157
134 196
134 225
135 192
135 225
136 140
136 162
136 192
136 293
137 206
137 229
137 242
137 266
138 148
138 149
138 175
138 247
138 256
139 219
139 265
140 141
140 145
140 208
140 251
140 283
141 151
141 229
141 297
142 233
142 234
143 225
144 158
144 192
145 154
145 183
146 150
147 212
147 229
148 176
149 249
149 268
150 187
151 161
151 179
151 210
151 215
151 216
151 224
151 276
152 165
152 187
152 226
152 230
152 234
152 240
152 249
152 261
152 270
152 297
153 166
154 279
155 168
155 177
155 183
155 270
156 178
156 207
156 209
156 214
156 246
156 291
157 183
157 184
157 203
157 209
157 210
157 212
157 244
157 261
157 272
158 187
158 196
158 267
158 292
159 207
159 255
159 260
159 269
160 187
161 179
161 214
161 227
161 298
162 178
162 192
162 204
162 209
162 211
162 236
162 245
162 246
162 250
162 268
162 270
162 282
163 207
163 229
163 256
163 264
164 169
164 201
164 217
164 228
164 243
164 260
164 261
164 263
164 285
165 183
165 184
165 220
165 253
165 294
165 297
166 232
166 267
166 287
168 298
169 216
169 218
169 220
169 228
169 261
169 263
169 279
169 283
170 237
170 261
171 183
171 239
171 288
172 211
173 245
173 268
173 290
174 177
174 183
174 217
175 178
175 191
175 222
175 225
175 240
175 243
175 245
175 282
175 285
176 195
176 220
176 232
176 253
176 297
177 270
178 200
178 204
178 211
178 285
178 291
179 202
179 206
179 210
179 214
179 247
179 269
179 270
179 275
179 298
180 213
180 265
180 289
180 298
181 191
181 209
181 226
181 270
182 187
182 191
182 227
182 256
182 259
182 272
182 282
182 300
183 184
183 203
183 217
183 239
183 268
184 202
184 206
184 216
184 221
184 233
185 267
185 294
186 189
186 248
186 256
186 260
186 275
187 259
188 198
188 215
189 204
189 211
189 258
189 267
189 276
190 217
190 253
191 241
192 211
192 239
192 275
193 219
193 283
193 286
194 295
195 199
195 286
196 229
196 241
196 242
196 257
196 274
196 292
196 293
197 276
198 283
198 291
200 201
200 211
200 240
200 243
200 248
200 259
200 271
200 291
201 208
201 243
201 248
201 255
201 283
201 285
202 206
202 214
202 221
202 236
202 247
202 263
202 294
203 231
203 268
203 278
203 294
203 295
204 207
204 211
204 217
204 237
204 300
206 210
206 222
206 242
206 244
206 270
207 238
207 255
207 287
208 271
208 283
209 210
209 226
209 245
209 246
209 265
209 270
210 246
210 270
211 239
211 245
211 267
211 268
211 282
212 217
212 234
212 279
213 265
213 287
213 289
213 291
214 219
214 246
214 247
214 265
214 275
215 224
215 271
215 284
216 221
216 283
217 279
217 300
220 236
220 256
220 261
220 263
220 283
220 294
220 296
220 297
222 244
222 245
222 286
222 299
223 233
223 237
223 238
223 252
223 289
224 225
224 230
224 254
224 270
224 276
225 259
227 259
227 286
228 249
228 260
228 273
228 285
229 242
229 257
229 264
230 240
230 249
230 270
231 239
231 256
231 266
231 282
232 275
232 297
233 260
233 273
233 294
234 240
234 243
235 236
236 250
236 263
236 294
236 296
237 239
237 252
237 261
237 282
238 241
238 289
238 298
239 252
239 266
239 282
240 243
240 248
241 289
241 292
241 293
242 269
242 274
243 255
244 261
244 272
244 274
245 268
245 270
245 286
246 265
246 273
247 275
248 271
248 284
251 284
252 256
252 257
253 260
253 297
256 257
256 296
256 297
257 296
258 300
260 273
261 279
261 297
263 283
263 294
265 289
265 291
267 287
267 292
267 294
268 282
268 295
269 274
269 298
270 276
271 284
272 274
277 293
278 292
278 295
279 290
280 289
280 296
280 298
282 300
283 284
288 299
289 293
289 298
296 298
*Classes
1
1
1
1
1
1
1
1
1
1
1
1
1
1
1
1
1
1
1
1
1
1
1
1
1
1
1
1
1
1
1
1
1
1
1
1
1
1
1
1
1
1
1
1
1
1
1
1
1
1
1
1
1
1
1
1
1
1
1
1
1
1
1
1
1
1
1
1
1
1
1
1
1
1
1
1
1
1
1
1
1
1
1
1
1
1
1
1
1
1
1
1
1
1
1
1
1
1
1
1
1
1
1
1
1
1
1
1
1
1
1
1
1
1
1
1
1
1
1
1
1
1
1
1
1
1
1
1
1
1
1
1
1
1
1
1
1
1
1
1
1
1
1
1
1
1
1
1
1
1
2
2
2
2
2
2
2
2
2
2
2
2
2
2
2
2
2
2
2
2
2
2
2
2
2
2
2
2
2
2
2
2
2
2
2
2
2
2
2
2
2
2
2
2
2
2
2
2
2
2
2
2
2
2
2
2
2
2
2
2
2
2
2
2
2
2
2
2
2
2
2
2
2
2
2
2
2
2
2
2
2
2
2
2
2
2
2
2
2
2
2
2
2
2
2
2
2
2
2
2
2
2
2
2
2
2
2
2
2
2
2
2
2
2
2
2
2
2
2
2
2
2
2
2
2
2
2
2
2
2
2
2
2
2
2
2
2
2
2
2
2
2
2
2
2
2
2
2
2
2
