*Vertices 300
*Edges
1 47
1 67
1 72
1 96
1 100
1 126
1 127
1 154
1 188
1 221
1 240
1 260
2 16
2 62
2 68
2 70
2 71
2 96
2 99
2 106
2 134
2 193
2 285
3 6
3 21
3 69
3 70
3 92
3 93
3 106
3 108
3 119
3 125
3 139
3 187
3 228
3 237
3 263
3 267
3 285
3 292
4 7
4 103
4 157
4 172
4 196
4 226
5 13
5 185
5 208
5 218
5 223
5 224
5 231
5 245
5 246
5 296
6 44
6 110
6 139
6 151
6 266
6 274
7 11
7 17
7 32
7 41
7 65
7 72
7 82
7 96
7 118
7 148
7 177
7 196
7 229
7 241
7 248
8 15
8 41
8 62
8 67
8 82
8 101
8 103
8 113
8 181
8 200
8 291
9 15
9 19
9 32
9 47
9 98
9 121
9 167
9 177
9 211
9 214
9 219
9 226
9 265
10 16
10 45
10 62
10 75
10 110
10 121
10 124
10 229
10 271
10 275
10 289
10 297
11 15
11 23
11 65
11 72
11 280
12 39
12 64
12 74
12 93
12 94
12 95
12 102
12 129
12 131
12 133
12 156
12 157
12 162
12 254
12 261
12 283
13 37
13 45
13 87
13 93
13 95
13 108
13 134
13 149
13 185
13 203
14 48
14 70
14 78
14 108
14 116
14 138
14 280
14 284
15 47
15 67
15 98
15 199
15 280
16 44
16 61
16 62
16 70
16 91
16 105
16 110
16 122
16 130
16 145
16 229
16 271
16 291
16 297
17 72
17 82
17 103
17 109
17 116
17 132
17 148
17 168
17 175
17 215
17 225
17 248
17 260
18 54
18 79
18 82
18 155
18 222
18 257
18 263
19 47
19 98
19 106
19 124
19 131
19 199
19 211
19 220
19 225
19 226
19 246
19 275
19 276
19 277
20 35
20 52
20 81
20 83
20 106
20 242
20 249
20 268
20 275
21 83
21 93
21 178
21 215
21 228
21 233
21 258
21 259
22 77
23 105
23 140
23 144
24 26
24 61
24 75
24 135
24 172
24 176
24 225
24 237
24 267
25 37
25 98
25 108
25 109
25 113
25 173
25 196
25 225
25 226
25 247
25 261
26 100
26 104
26 214
26 262
26 277
26 285
27 68
27 71
27 171
27 204
27 232
28 104
28 140
28 191
28 262
29 36
29 37
29 57
29 66
29 72
29 74
29 96
29 115
29 147
29 148
29 276
29 278
30 47
30 57
30 66
30 126
30 131
30 150
30 151
30 183
30 208
30 223
30 269
30 297
31 43
31 84
31 283
32 34
32 130
32 134
32 177
32 192
32 238
32 253
32 265
32 277
32 286
32 298
33 41
33 81
33 104
33 164
33 288
34 53
34 213
34 248
34 255
34 262
35 45
35 83
35 88
35 89
35 129
35 139
35 237
35 242
35 257
35 292
36 46
36 62
36 66
36 86
36 89
36 96
36 102
36 115
36 167
36 169
36 222
36 244
36 273
37 57
37 76
37 82
37 103
37 108
37 113
37 115
37 145
37 235
37 261
37 264
38 54
38 66
38 67
38 68
38 80
38 85
38 135
38 167
38 187
38 209
38 239
38 241
38 276
38 286
38 296
39 74
39 116
39 117
39 123
39 143
39 144
39 148
39 160
39 177
39 230
39 232
39 250
39 274
39 280
39 296
40 59
40 215
40 268
40 290
41 58
41 62
41 64
41 82
41 104
41 110
41 145
41 155
41 169
41 180
41 212
41 222
41 229
41 266
41 272
42 61
42 100
42 176
42 192
42 212
42 239
43 51
43 69
43 84
43 85
43 114
43 116
43 131
43 132
43 175
43 196
43 206
43 210
43 212
43 230
43 247
43 262
43 287
43 289
44 76
44 139
44 145
45 72
45 74
45 80
45 84
45 85
45 98
45 110
45 122
45 182
45 185
45 193
45 197
45 220
45 263
45 267
45 292
46 62
46 92
46 177
46 206
46 246
46 272
47 59
47 98
47 131
47 140
47 150
47 151
47 166
47 192
47 211
47 216
48 116
48 156
48 161
48 164
48 170
48 231
48 240
49 81
49 95
49 97
49 117
50 60
50 70
50 107
50 202
50 210
50 218
50 245
50 281
50 296
51 84
51 125
51 230
52 65
52 83
52 182
52 229
53 255
54 69
54 79
54 84
54 85
54 143
54 146
54 187
54 222
54 237
54 252
55 67
55 82
55 101
55 103
55 136
55 161
56 117
56 284
57 66
57 73
57 78
57 105
57 106
57 108
57 113
57 171
57 177
57 210
57 225
57 239
57 296
58 109
58 135
58 176
58 220
58 272
59 75
59 86
59 116
59 154
59 191
59 199
59 200
59 223
59 225
59 246
59 279
59 285
59 290
59 298
60 108
60 132
60 134
60 154
60 179
60 281
60 298
61 91
61 135
61 151
61 176
61 181
61 217
61 249
61 291
62 106
62 113
62 212
62 222
62 273
64 82
64 101
64 116
64 123
64 132
64 133
64 149
64 152
64 202
64 205
64 214
64 224
64 266
64 282
65 118
65 156
65 196
65 229
65 241
66 72
66 73
66 107
66 121
66 124
66 187
66 223
66 239
66 296
66 297
67 96
67 98
67 100
67 121
67 127
67 143
67 161
67 183
67 198
67 199
67 201
67 219
67 221
67 232
67 261
67 289
68 71
68 72
68 83
68 96
68 172
68 209
68 232
68 252
69 76
69 86
69 132
69 175
69 198
69 213
69 250
69 258
69 259
69 262
69 267
69 268
69 275
69 286
70 99
70 106
70 107
70 112
70 119
70 156
70 171
70 218
70 285
70 294
71 83
71 124
71 151
71 165
71 172
71 209
71 211
71 215
71 232
71 252
71 258
71 276
72 83
72 96
72 110
72 115
72 132
72 147
72 148
72 167
72 196
72 200
72 223
72 241
72 250
72 263
72 267
73 105
73 116
73 123
73 132
73 157
73 172
73 187
73 249
74 84
74 85
74 96
74 123
74 283
75 86
75 107
75 121
75 199
75 216
75 267
76 105
76 145
76 160
76 175
76 227
76 233
76 235
76 241
76 256
78 201
78 215
79 222
79 259
79 284
80 122
80 203
80 209
80 223
81 110
81 114
81 117
81 249
82 101
82 103
82 155
82 226
82 257
83 182
83 215
83 229
83 230
83 233
83 239
83 300
84 85
84 138
84 143
84 161
84 169
84 197
84 200
84 283
84 293
84 299
85 98
85 116
85 138
85 143
85 160
85 172
85 197
85 209
85 237
85 276
85 293
86 98
86 175
86 245
86 252
86 268
87 176
87 241
87 254
87 260
87 299
88 140
88 202
88 262
88 292
88 300
89 94
89 101
89 120
89 135
89 139
89 164
89 169
89 257
90 147
90 153
90 159
90 234
90 243
90 274
90 279
91 122
91 136
91 147
91 151
91 162
91 296
92 125
92 167
92 168
92 208
92 243
92 249
92 258
92 292
93 119
93 124
93 129
93 291
94 101
94 133
94 139
94 153
94 155
94 171
94 219
94 240
94 257
95 100
95 131
95 149
95 168
95 176
95 184
95 212
95 286
96 99
96 115
96 267
96 299
97 117
97 270
97 273
98 151
98 166
98 197
98 248
98 265
98 271
99 165
99 277
100 104
100 107
100 176
100 201
100 212
100 218
100 242
100 244
101 133
101 135
101 136
102 119
102 131
102 184
102 203
103 108
103 172
103 230
103 257
103 269
103 272
103 298
104 146
104 199
104 201
104 215
105 113
105 132
105 153
105 175
105 289
106 239
106 267
106 273
106 275
106 277
106 284
107 124
107 152
107 164
107 176
107 193
107 218
107 223
107 246
107 254
107 268
107 297
108 125
108 134
108 147
108 155
108 162
108 183
108 190
108 200
108 278
108 284
108 296
109 116
109 147
109 225
109 261
109 272
110 122
110 140
110 201
110 251
110 263
110 272
110 274
111 181
111 236
111 249
111 253
112 137
112 144
112 161
112 194
112 269
113 289
114 116
114 125
114 127
114 132
114 168
114 186
114 236
114 275
114 286
115 276
115 278
116 121
116 123
116 132
116 138
116 148
116 164
116 198
116 213
116 217
116 218
116 225
116 231
116 285
116 300
117 130
117 131
117 168
117 176
117 177
117 184
117 284
118 135
118 150
118 166
118 172
118 288
118 291
119 131
119 139
119 146
119 193
119 251
119 255
119 263
120 125
120 156
120 180
120 196
120 206
120 218
120 264
121 124
121 216
121 217
121 246
121 267
121 275
121 277
121 289
122 130
123 132
123 133
123 144
123 164
123 205
123 224
123 269
123 276
124 157
124 171
124 172
124 199
124 211
124 239
124 246
125 139
125 251
125 283
126 127
126 151
126 213
126 253
126 262
126 268
126 269
126 272
126 293
127 136
127 143
127 160
127 188
127 204
127 230
127 245
127 260
127 281
127 293
128 143
128 183
129 156
129 211
129 276
129 292
130 177
130 190
130 259
130 276
130 288
130 296
131 184
131 191
131 196
131 199
131 203
131 283
131 298
132 133
132 134
132 165
132 175
132 186
132 202
132 212
132 225
132 230
132 263
132 266
132 280
132 286
132 300
133 136
133 139
133 175
133 282
134 165
134 190
134 238
134 260
134 280
134 298
135 194
135 204
135 209
135 228
135 255
135 272
135 284
135 288
136 230
136 240
136 296
138 162
138 217
138 287
139 158
139 163
139 180
139 213
139 228
139 262
139 284
140 151
140 199
140 219
140 253
140 274
140 277
141 300
142 160
142 271
143 147
143 160
143 177
143 182
143 183
143 232
143 259
143 261
143 284
144 203
144 224
144 269
144 282
144 292
146 198
146 255
147 148
147 159
147 160
147 161
147 162
147 223
147 267
148 253
148 277
149 163
149 182
151 162
151 172
151 180
151 181
151 204
151 226
151 253
151 261
151 266
151 269
152 156
152 158
152 282
152 297
153 155
153 171
153 180
153 192
153 216
153 246
153 279
154 194
154 260
154 281
154 294
155 158
155 166
155 171
155 180
155 226
155 284
156 199
156 208
156 218
156 240
156 287
156 300
157 172
157 255
157 283
158 171
158 176
158 190
158 210
158 221
158 225
158 228
158 268
158 294
159 243
160 182
160 188
160 227
161 162
161 170
161 174
161 198
161 223
161 232
161 269
161 271
161 293
162 200
162 201
162 223
162 234
162 239
162 261
162 299
163 175
163 180
163 198
163 206
163 222
163 233
163 237
164 191
164 198
164 218
164 231
164 288
164 295
164 299
165 175
165 232
165 259
165 263
165 273
166 168
166 196
166 217
166 248
166 284
166 291
167 194
167 219
167 241
167 243
167 244
167 249
167 266
167 275
168 176
168 208
168 218
168 243
168 248
168 267
168 286
168 297
169 213
169 266
169 270
169 295
169 299
170 174
170 197
170 271
171 180
171 216
171 225
171 246
171 294
172 204
172 257
173 176
173 193
173 195
173 207
173 212
173 247
175 189
175 206
175 227
175 260
176 193
176 237
176 254
176 267
176 295
177 192
177 194
177 214
177 216
177 225
177 227
177 228
177 233
177 259
177 272
177 284
177 296
178 258
178 290
179 181
179 277
180 196
180 200
180 201
180 206
180 215
180 222
180 226
180 232
180 237
180 246
180 264
180 266
180 294
181 205
181 249
181 253
181 276
181 291
182 227
182 233
182 237
182 280
183 223
183 246
184 232
185 220
185 222
185 231
185 245
185 300
186 196
186 202
186 216
186 241
186 252
187 238
187 239
187 267
187 293
187 300
188 202
189 198
189 206
189 223
189 243
190 194
190 211
190 225
190 230
190 254
190 259
190 268
190 276
190 278
190 294
191 199
191 219
191 223
191 246
191 295
191 298
192 201
192 215
192 216
192 225
192 272
192 296
193 195
193 197
193 265
193 295
194 220
194 227
194 254
194 266
195 222
195 229
195 239
195 244
195 251
195 273
195 274
196 197
196 200
196 210
196 215
196 216
196 220
196 226
196 229
196 241
196 269
196 287
197 220
197 226
197 267
198 206
198 223
198 231
199 200
199 215
199 219
199 230
199 237
199 238
199 240
199 246
199 257
199 260
199 277
199 279
199 295
199 298
199 299
200 219
200 295
200 299
201 205
201 215
201 218
201 219
201 232
201 242
201 260
201 300
202 262
202 280
203 292
204 209
204 224
204 228
204 266
205 214
205 242
205 276
206 223
206 243
206 262
206 266
207 212
207 247
208 218
208 243
208 249
208 250
208 286
209 288
210 241
210 268
210 269
210 272
210 286
210 296
211 276
212 247
212 287
212 289
213 217
213 262
213 278
213 300
214 219
214 244
214 266
214 275
214 276
214 285
215 232
215 240
215 258
215 260
215 262
215 273
215 287
215 300
216 256
216 274
216 279
216 296
217 219
217 222
217 225
217 231
217 243
217 275
217 291
218 240
218 243
218 288
219 222
219 242
219 275
219 276
219 285
220 222
220 226
220 231
220 254
220 272
221 237
221 240
221 260
222 229
222 237
222 242
223 234
223 246
223 260
223 262
225 226
225 233
225 237
225 269
225 276
226 269
226 277
226 284
227 254
228 258
228 259
228 272
228 284
229 235
229 241
229 251
229 271
229 297
230 238
230 248
230 250
230 257
230 259
230 262
230 281
230 287
231 300
232 252
232 260
232 273
233 237
234 239
235 240
235 241
235 256
235 257
235 264
235 275
237 240
237 250
237 252
237 267
237 280
237 292
238 258
238 293
239 273
240 244
240 256
240 279
241 263
241 264
242 253
242 257
243 258
244 249
244 276
245 252
246 250
246 269
246 279
246 295
247 261
247 262
247 287
247 298
248 250
248 262
250 259
250 267
250 280
251 255
251 274
251 279
253 268
253 277
254 283
257 275
257 277
258 259
258 276
259 263
259 278
259 284
260 299
261 289
262 273
263 274
263 280
263 295
265 269
265 272
265 275
265 280
266 282
266 286
266 298
266 299
268 297
269 272
269 296
270 273
270 299
271 288
272 298
273 279
273 292
274 279
275 277
275 285
275 286
275 296
276 294
285 294
286 294
286 296
286 297
286 298
287 300
292 293
293 300
294 296
295 299
296 298
*Classes
1
1
1
1
1
1
1
1
1
1
1
1
1
1
1
1
1
1
1
1
1
1
1
1
1
1
1
1
1
1
1
1
1
1
1
1
1
1
1
1
1
1
1
1
1
1
1
1
1
1
1
1
1
1
1
1
1
1
1
1
1
1
1
1
1
1
1
1
1
1
1
1
1
1
1
1
1
1
1
1
1
1
1
1
1
1
1
1
1
1
1
1
1
1
1
1
1
1
1
1
1
1
1
1
1
1
1
1
1
1
1
1
1
1
1
1
1
1
1
1
1
1
1
1
1
1
1
1
1
1
1
1
1
1
1
1
1
1
1
1
1
1
1
1
1
1
1
1
1
1
2
2
2
2
2
2
2
2
2
2
2
2
2
2
2
2
2
2
2
2
2
2
2
2
2
2
2
2
2
2
2
2
2
2
2
2
2
2
2
2
2
2
2
2
2
2
2
2
2
2
2
2
2
2
2
2
2
2
2
2
2
2
2
2
2
2
2
2
2
2
2
2
2
2
2
2
2
2
2
2
2
2
2
2
2
2
2
2
2
2
2
2
2
2
2
2
2
2
2
2
2
2
2
2
2
2
2
2
2
2
2
2
2
2
2
2
2
2
2
2
2
2
2
2
2
2
2
2
2
2
2
2
2
2
2
2
2
2
2
2
2
2
2
2
2
2
2
2
2
2
