*Vertices 300
*Edges
1 14
1 36
1 38
1 44
1 55
1 95
1 135
1 154
1 213
1 220
1 254
1 270
2 74
2 151
2 157
2 217
2 267
2 288
3 7
3 128
3 169
3 201
3 221
3 257
4 21
4 54
4 69
4 75
4 110
4 120
4 170
4 198
4 206
4 227
4 243
4 269
5 58
5 88
5 186
5 191
5 265
6 90
6 117
6 141
6 162
6 237
7 12
7 38
7 81
7 88
7 133
7 235
7 258
8 19
8 26
8 31
8 34
8 95
8 96
8 97
8 100
8 109
8 115
8 119
8 203
8 220
8 240
8 273
9 33
9 46
9 132
9 165
9 169
9 184
9 199
9 214
9 232
9 268
9 296
10 13
10 52
10 79
10 108
10 148
10 180
10 197
10 212
10 214
10 220
11 82
11 89
11 115
11 117
11 138
11 168
11 196
11 262
11 271
12 38
12 45
12 52
12 87
12 133
12 137
12 155
12 200
12 229
12 238
12 263
13 65
13 94
13 103
13 108
13 112
13 122
13 194
13 196
13 271
13 287
13 292
14 25
14 152
14 213
14 243
15 35
15 71
15 168
15 179
15 208
15 209
15 219
15 263
16 22
16 28
16 49
16 54
16 90
16 97
16 98
16 100
16 119
16 123
16 133
16 144
16 175
16 190
16 199
16 204
16 239
16 279
16 281
16 295
17 46
17 165
17 199
17 200
17 221
18 57
18 73
18 81
18 95
18 130
18 133
18 164
18 184
18 236
18 279
18 291
18 300
19 29
19 67
19 77
19 86
19 109
19 228
19 245
20 29
20 61
20 65
20 73
20 126
20 130
20 180
20 214
20 222
20 261
21 28
21 120
21 151
21 198
22 31
22 45
22 60
22 76
22 80
22 90
22 127
22 138
22 140
22 150
22 156
22 159
22 183
22 196
22 211
22 234
22 241
22 254
22 300
23 24
23 64
23 151
23 279
24 64
24 110
24 120
25 47
25 124
25 165
25 243
26 42
26 48
26 49
26 80
26 84
26 88
26 103
26 104
26 109
26 119
26 127
26 132
26 133
26 134
26 140
26 203
26 240
26 282
27 117
27 148
27 163
27 215
27 231
27 237
27 278
27 281
28 49
28 86
28 90
28 98
28 123
28 126
28 141
28 143
28 228
28 243
28 281
29 67
29 77
29 86
29 109
29 177
29 222
29 295
30 39
30 53
30 110
30 141
30 145
30 174
30 180
30 236
30 244
30 282
30 289
31 32
31 60
31 109
31 167
31 251
32 60
32 143
32 167
32 278
33 46
33 62
33 82
33 108
33 128
33 129
33 181
33 273
33 284
34 50
34 54
34 68
34 97
34 104
34 184
34 274
35 43
35 53
35 186
35 192
35 208
35 214
35 229
35 255
35 289
35 292
36 135
36 217
36 220
36 227
36 253
36 255
36 262
37 96
37 225
38 87
38 95
38 113
38 133
38 148
38 156
38 161
38 188
38 193
38 213
38 228
38 229
38 252
38 274
39 69
39 75
39 110
39 120
39 153
39 162
39 172
39 226
39 277
40 93
40 110
40 119
40 173
40 248
41 79
41 156
41 178
41 189
41 218
41 223
41 224
41 226
41 240
42 89
42 115
42 129
42 133
42 221
42 232
43 186
43 192
43 193
43 264
43 297
44 49
44 55
44 56
44 70
44 85
44 95
44 114
44 122
44 190
45 46
45 62
45 67
45 85
45 128
45 142
45 155
45 174
45 263
46 129
46 142
46 199
46 200
46 221
46 238
46 296
47 102
47 107
47 124
47 213
47 249
48 109
48 110
48 113
48 133
48 158
48 208
48 227
48 263
48 275
49 54
49 81
49 84
49 85
49 90
49 95
49 104
49 133
49 175
50 54
50 56
50 65
50 68
50 73
50 97
50 104
50 174
50 184
50 211
50 217
50 253
51 78
51 126
51 144
51 154
51 166
51 185
51 190
51 231
51 249
51 293
51 296
52 54
52 148
52 235
52 284
53 124
53 141
53 175
53 180
53 207
53 239
53 242
53 283
54 64
54 104
54 120
54 133
54 156
54 184
54 211
54 217
54 270
54 271
54 284
55 84
55 95
55 104
55 170
55 220
55 254
55 273
55 278
56 122
56 211
56 249
56 282
57 73
57 111
57 130
57 241
58 96
58 97
58 160
58 261
58 276
59 62
59 160
59 193
59 222
59 254
59 274
59 277
60 76
60 80
60 84
60 109
60 113
60 150
60 194
60 230
60 234
60 269
60 296
61 80
61 130
61 241
61 251
61 255
61 261
61 282
61 293
62 82
62 96
62 128
63 74
63 106
63 150
63 154
63 254
63 259
63 265
64 88
64 120
64 217
64 279
64 282
65 66
65 73
65 94
65 152
65 180
65 253
66 87
66 94
66 103
66 161
66 184
66 216
66 262
66 298
67 142
67 192
67 220
67 274
68 94
68 99
68 100
68 103
68 136
68 191
68 221
68 229
68 275
68 285
69 107
69 110
69 139
69 185
69 233
69 243
69 251
70 85
70 122
70 146
70 185
70 190
70 229
70 249
70 296
71 119
71 248
72 89
72 116
72 165
72 199
72 207
72 230
72 260
72 266
72 291
72 297
73 130
73 151
73 214
73 282
74 100
74 119
74 131
74 150
74 207
74 260
74 287
74 292
75 192
75 206
75 228
75 277
76 90
76 100
76 106
76 119
76 125
76 127
76 150
76 168
76 239
76 272
76 290
77 83
77 136
77 139
77 146
77 285
78 174
78 186
78 229
78 257
78 296
78 300
79 108
79 156
79 194
79 212
79 243
79 284
79 287
79 296
80 109
80 162
80 229
80 255
80 282
80 298
81 89
81 116
81 123
81 133
81 263
81 291
81 300
82 96
82 117
82 161
82 184
82 194
82 207
82 226
83 103
83 134
83 136
83 243
83 268
84 104
84 133
84 140
84 172
84 220
84 222
84 230
84 257
85 95
85 98
85 115
85 175
85 177
85 204
85 207
85 248
85 282
86 126
86 143
86 146
86 149
86 165
86 171
86 228
86 230
86 285
86 289
87 94
87 103
87 124
87 130
87 137
87 230
87 273
87 285
88 133
88 183
88 241
88 295
89 94
89 103
89 115
89 116
89 122
89 123
89 166
89 233
89 234
90 98
90 100
90 141
90 168
90 190
90 195
90 223
90 254
91 97
91 125
91 164
91 180
91 189
91 190
91 207
91 231
92 125
92 146
92 185
92 228
93 110
93 119
93 123
93 125
93 138
93 144
93 166
93 199
93 224
93 272
93 291
94 103
94 115
94 122
94 130
94 134
94 152
94 166
94 180
94 205
94 234
94 259
94 262
94 298
95 97
95 135
95 195
95 213
95 216
95 239
95 240
95 262
95 270
95 278
96 97
96 110
96 139
96 145
96 179
97 100
97 110
97 119
97 139
97 189
97 262
97 275
98 144
98 212
99 111
99 169
99 184
99 191
100 119
100 123
100 161
100 173
100 258
100 259
100 276
100 286
100 291
101 112
101 221
102 124
102 126
102 127
102 141
102 182
102 296
103 134
103 139
103 153
103 202
103 223
103 227
103 259
103 263
104 121
104 140
104 211
106 294
107 156
108 112
108 196
108 212
108 214
108 284
109 115
109 133
109 203
109 210
109 251
109 265
109 283
110 113
110 119
110 120
110 218
110 226
110 235
110 289
111 170
111 282
112 125
112 148
112 177
112 217
112 247
112 257
113 156
113 199
113 269
114 118
114 122
114 130
114 145
114 258
115 153
115 220
115 288
116 154
116 161
116 190
116 194
116 223
116 237
117 146
117 149
117 162
117 237
117 238
117 240
117 252
117 255
117 257
117 258
117 262
118 160
118 165
118 253
119 125
119 132
119 248
119 272
120 163
120 195
120 262
120 270
120 284
121 137
121 143
121 267
121 284
122 136
122 154
122 190
122 219
122 274
122 277
123 125
123 156
123 233
123 234
123 284
124 126
124 127
124 175
124 257
124 285
125 146
125 148
125 276
125 290
126 130
126 163
126 243
126 257
126 270
126 273
126 287
126 294
127 147
127 182
128 137
128 157
128 181
128 230
128 249
128 251
128 282
128 283
129 133
129 199
129 207
129 240
129 260
129 297
130 137
130 145
130 163
130 205
130 258
132 138
132 140
132 144
132 169
132 176
132 229
132 244
132 282
132 298
133 140
133 218
133 235
133 258
133 260
133 277
134 136
134 208
134 249
135 217
136 208
136 258
136 268
136 275
136 285
136 287
137 180
137 190
137 213
137 215
137 229
137 230
137 235
137 251
137 282
137 284
137 286
138 140
138 151
138 224
139 154
139 179
139 185
139 251
139 272
139 285
140 189
140 196
140 241
140 282
140 300
141 242
143 175
143 179
143 232
143 285
144 185
144 220
145 150
145 174
145 243
145 282
146 149
146 179
146 185
146 199
146 249
146 260
147 199
147 245
148 153
148 175
148 217
148 220
148 229
148 244
148 247
148 249
148 258
148 262
148 267
148 285
148 296
149 191
149 215
149 220
149 258
149 260
150 287
151 158
151 181
151 227
151 257
152 156
152 163
152 169
152 204
152 206
152 211
152 217
152 263
153 175
153 198
153 218
153 220
153 226
153 227
153 235
153 242
154 184
154 190
154 199
154 223
154 229
154 259
154 272
154 275
154 292
154 300
155 174
155 217
155 258
156 161
156 199
156 208
156 257
156 263
156 272
156 284
156 299
157 178
157 181
157 249
157 290
158 227
159 193
159 196
159 252
159 253
159 293
160 165
160 228
160 260
160 268
160 279
160 295
161 171
161 184
161 194
161 221
161 223
161 226
161 227
161 248
161 253
161 259
161 264
161 290
162 189
162 226
162 278
163 169
163 243
163 252
163 262
163 273
164 200
164 207
164 287
164 288
165 176
165 187
165 207
165 228
165 254
165 260
165 268
165 277
166 244
166 256
166 272
166 299
167 251
168 208
168 256
168 272
169 176
169 268
170 179
170 199
170 213
170 254
170 271
171 228
171 290
172 254
172 274
172 277
173 194
173 248
174 184
174 217
174 258
175 198
175 226
175 227
175 232
175 251
175 267
176 187
176 245
177 282
177 289
178 180
178 204
178 214
178 217
178 281
179 183
179 199
179 241
180 186
180 213
180 214
180 255
180 271
180 285
180 290
180 292
180 300
181 208
181 249
181 257
182 192
182 274
182 276
183 221
183 241
183 276
183 286
184 232
184 266
184 271
184 272
184 281
184 292
184 298
184 300
186 193
186 198
186 222
186 255
186 267
186 283
186 297
187 278
188 193
188 253
188 254
188 293
188 297
189 218
189 226
189 235
189 254
189 261
189 293
190 199
190 229
190 231
190 239
190 272
190 286
190 291
191 195
191 270
192 198
192 206
192 274
192 277
193 198
193 224
193 254
193 293
193 297
194 219
194 221
194 229
194 230
194 248
194 259
194 270
194 271
194 287
194 296
195 248
195 270
197 247
197 283
198 232
198 267
199 229
199 239
199 291
200 238
200 287
201 221
202 264
204 207
204 217
204 261
205 226
205 256
205 272
206 217
206 250
206 291
207 248
207 254
207 260
207 261
208 257
208 275
208 282
208 289
210 220
210 273
210 283
211 217
211 233
211 266
211 271
211 282
212 236
212 243
212 300
213 271
213 300
215 258
216 228
216 239
216 283
217 233
217 263
218 220
218 226
218 227
218 235
219 296
220 226
220 262
220 265
220 273
221 253
221 290
222 255
223 224
223 259
224 288
224 293
225 240
225 267
226 278
226 293
227 242
227 253
228 252
228 266
228 271
229 231
229 285
229 289
229 296
229 298
230 236
230 255
230 279
230 291
231 239
231 252
231 294
232 243
232 251
233 282
233 289
235 277
235 284
235 290
236 291
237 252
240 267
240 274
241 273
241 282
241 286
245 278
247 267
248 270
248 271
248 277
249 258
249 290
249 300
252 294
253 259
253 290
254 256
254 261
254 274
254 277
255 279
255 285
255 292
256 261
256 272
257 262
257 287
257 289
257 296
258 290
258 300
259 298
260 277
260 292
260 297
262 265
264 290
266 271
266 291
269 270
269 277
270 274
270 277
272 299
273 283
273 289
274 277
276 286
279 295
281 292
281 298
282 289
284 290
284 299
290 300
292 297
292 298
*Classes
1
1
1
1
1
1
1
1
1
1
1
1
1
1
1
1
1
1
1
1
1
1
1
1
1
1
1
1
1
1
1
1
1
1
1
1
1
1
1
1
1
1
1
1
1
1
1
1
1
1
1
1
1
1
1
1
1
1
1
1
1
1
1
1
1
1
1
1
1
1
1
1
1
1
1
1
1
1
1
1
1
1
1
1
1
1
1
1
1
1
1
1
1
1
1
1
1
1
1
1
1
1
1
1
1
1
1
1
1
1
1
1
1
1
1
1
1
1
1
1
1
1
1
1
1
1
1
1
1
1
1
1
1
1
1
1
1
1
1
1
1
1
1
1
1
1
1
1
1
1
2
2
2
2
2
2
2
2
2
2
2
2
2
2
2
2
2
2
2
2
2
2
2
2
2
2
2
2
2
2
2
2
2
2
2
2
2
2
2
2
2
2
2
2
2
2
2
2
2
2
2
2
2
2
2
2
2
2
2
2
2
2
2
2
2
2
2
2
2
2
2
2
2
2
2
2
2
2
2
2
2
2
2
2
2
2
2
2
2
2
2
2
2
2
2
2
2
2
2
2
2
2
2
2
2
2
2
2
2
2
2
2
2
2
2
2
2
2
2
2
2
2
2
2
2
2
2
2
2
2
2
2
2
2
2
2
2
2
2
2
2
2
2
2
2
2
2
2
2
2
