*Vertices 300
*Edges
1 8
1 75
1 82
1 91
1 101
1 117
1 131
1 163
1 226
1 232
1 246
1 284
2 4
2 31
2 38
2 42
2 46
2 91
2 98
2 114
3 66
3 114
3 162
3 293
4 32
4 45
4 64
4 67
4 73
4 74
4 75
4 89
4 112
4 126
4 163
4 169
4 265
4 300
5 28
5 103
5 118
5 192
5 233
6 42
6 85
6 107
6 278
7 54
7 85
7 96
7 103
7 202
7 212
8 13
8 14
8 22
8 41
8 66
8 67
8 91
8 265
9 66
9 182
10 49
10 77
10 99
10 146
10 221
11 31
11 47
11 51
11 52
11 72
11 89
11 92
11 122
11 150
11 160
11 168
11 262
11 274
11 300
12 14
12 33
12 67
12 86
12 88
12 96
12 124
12 231
12 265
13 67
13 97
13 99
13 147
13 178
13 203
13 263
14 67
14 96
14 99
14 110
14 127
14 149
14 194
14 198
14 206
15 43
15 45
15 65
15 118
15 149
15 167
15 180
15 237
16 40
16 75
16 92
16 93
16 124
17 41
17 64
17 105
17 127
17 173
17 180
17 186
17 202
17 225
17 227
17 237
17 271
17 286
18 30
18 45
18 54
18 74
18 88
18 114
18 184
18 192
18 247
18 272
19 30
19 45
19 150
19 210
19 222
19 224
19 242
19 299
20 68
20 150
20 255
21 40
21 75
21 115
21 117
21 124
21 130
21 195
21 209
21 280
22 49
22 162
22 198
22 207
22 249
23 38
23 141
23 234
24 28
24 57
24 144
24 215
24 247
24 269
24 277
25 43
25 64
25 87
25 101
25 224
25 226
25 253
25 273
26 97
26 146
26 147
26 169
26 179
26 206
26 221
26 229
26 292
27 129
27 290
28 51
28 81
28 103
28 145
28 203
28 215
29 67
29 81
29 93
29 143
29 208
29 293
30 45
30 60
30 70
30 109
30 149
30 221
30 247
30 285
31 35
31 61
31 83
31 84
31 92
31 106
31 114
31 123
31 130
31 148
31 164
31 170
31 183
31 280
31 281
32 85
32 169
32 178
32 194
32 197
33 36
33 43
33 45
33 70
33 90
33 124
33 132
33 211
33 215
34 44
34 120
34 263
34 283
35 45
35 57
35 88
35 89
35 94
35 120
35 148
35 152
35 153
35 177
35 179
35 181
35 186
36 96
36 102
36 132
36 197
37 42
37 49
37 64
37 76
37 88
37 92
37 135
37 215
37 230
37 232
37 294
38 53
38 61
38 121
38 126
38 234
38 254
38 288
39 79
39 130
39 157
39 186
39 213
39 226
39 257
39 286
40 52
40 103
40 130
40 261
41 49
41 114
41 135
41 237
41 291
42 76
42 85
42 91
42 92
42 95
42 166
42 190
42 222
42 298
43 52
43 65
43 192
43 212
43 237
44 68
44 89
44 99
44 105
44 120
44 146
44 197
45 60
45 70
45 87
45 106
45 148
45 149
45 155
45 181
45 260
45 265
45 283
46 55
46 98
46 140
46 172
46 276
47 81
47 136
47 150
47 176
48 50
48 93
48 97
48 111
48 139
48 141
48 165
48 283
48 285
48 287
49 77
49 81
49 107
49 120
49 135
49 141
49 234
49 238
50 123
50 285
51 61
51 137
51 172
51 179
51 183
51 206
51 213
51 300
52 138
52 147
52 150
52 246
53 98
53 104
53 191
53 200
53 254
54 63
54 88
54 96
55 106
55 107
55 113
55 129
55 130
55 138
55 146
55 276
55 278
55 293
56 64
56 78
56 159
56 160
56 199
56 219
56 245
57 101
57 120
57 122
57 142
57 153
57 172
57 205
57 269
57 290
58 74
58 93
58 142
58 212
59 69
59 145
59 158
59 187
59 259
59 260
59 279
59 289
60 62
60 68
60 112
60 124
60 133
60 141
60 153
60 181
60 195
61 83
61 150
61 158
61 172
61 206
61 243
61 263
62 68
62 103
62 108
62 135
62 141
64 80
64 105
64 110
64 112
64 127
64 135
64 159
64 219
64 224
64 237
64 279
64 280
64 284
65 99
65 110
65 123
65 145
65 212
65 241
66 71
66 112
66 218
66 272
66 293
67 86
67 88
67 89
67 91
67 147
67 149
67 166
67 208
67 209
67 231
68 99
68 110
68 112
68 197
69 73
69 164
69 204
70 87
70 90
70 106
70 132
70 148
70 181
70 186
70 208
70 269
71 256
72 122
72 194
72 235
73 77
73 119
73 155
73 169
73 242
73 278
74 82
74 86
74 122
74 147
74 149
74 163
74 236
74 248
75 87
75 101
75 117
75 124
75 130
75 132
75 163
75 164
75 192
75 209
75 237
75 257
75 277
75 298
76 78
76 100
76 105
76 175
76 241
76 245
76 297
77 82
77 168
77 277
77 284
77 300
78 80
78 100
78 160
78 175
79 134
79 172
79 195
79 241
79 255
79 257
79 259
80 110
80 112
80 129
80 235
80 274
81 141
81 145
81 176
82 119
82 134
82 174
82 188
82 236
82 256
82 284
83 124
83 140
83 300
84 93
84 99
84 105
84 120
84 153
84 207
84 240
84 281
84 295
84 297
85 222
85 242
86 100
86 122
86 145
86 147
86 152
86 162
86 185
86 198
86 253
87 92
87 132
87 186
88 94
88 114
88 162
88 179
88 185
88 209
88 211
89 105
89 120
89 186
89 216
89 252
89 274
89 277
90 104
90 129
90 178
90 195
90 252
91 92
91 95
91 144
91 223
91 245
91 249
91 250
92 93
92 128
92 143
92 161
92 186
92 230
93 97
93 99
93 103
93 165
93 240
93 294
94 133
94 238
95 211
95 272
96 115
96 132
96 198
96 222
96 278
96 280
96 296
97 103
97 131
97 135
97 147
97 203
98 104
98 107
98 110
98 171
98 223
99 110
99 194
99 203
99 240
99 263
100 120
100 162
100 198
100 232
100 256
101 108
101 145
101 172
101 253
101 257
101 264
101 279
101 281
101 290
102 166
102 197
103 131
103 135
104 129
104 153
104 200
105 127
105 137
105 242
105 294
105 297
106 111
106 130
106 148
106 152
106 188
106 215
107 167
107 230
107 267
107 278
108 116
108 135
108 169
108 274
109 123
109 163
109 205
109 225
109 246
110 112
110 182
110 212
111 189
111 219
111 223
111 237
111 287
112 173
112 182
112 200
112 258
113 129
113 180
113 259
114 121
114 198
114 251
114 268
114 292
115 124
115 149
115 156
115 189
115 280
116 150
116 241
116 281
116 282
116 283
117 172
117 188
118 167
119 155
119 174
120 132
120 232
120 281
120 288
120 290
121 126
121 139
121 245
121 247
122 127
122 153
122 159
122 191
122 200
122 201
122 237
122 284
122 286
123 183
123 190
123 260
123 273
124 150
124 261
125 156
125 238
125 276
125 278
125 280
126 139
126 159
126 168
126 179
126 202
126 208
126 218
126 245
126 300
127 129
127 149
127 151
127 191
127 204
127 285
127 293
128 160
128 256
128 259
128 285
129 138
129 157
129 255
129 257
129 266
129 290
130 138
130 139
130 232
130 286
132 176
132 225
132 260
132 278
132 280
132 281
132 282
133 292
134 143
134 163
134 225
134 293
135 175
135 266
135 269
136 150
136 218
136 262
136 275
137 206
137 207
137 229
137 249
138 147
138 246
139 140
139 141
139 173
139 175
139 232
139 244
139 281
140 175
140 266
141 208
143 154
143 239
143 295
144 209
144 211
144 280
145 161
145 208
145 245
145 253
145 259
146 204
146 221
146 230
147 184
148 151
148 177
148 186
149 151
149 163
149 206
149 237
149 270
150 158
150 160
150 222
150 229
150 242
150 282
151 177
152 180
152 233
152 280
152 291
153 158
153 185
153 191
153 195
153 200
153 208
153 216
153 227
153 228
153 244
153 286
153 294
154 222
155 156
155 169
155 175
155 194
155 230
155 270
155 273
155 277
155 278
156 167
156 171
156 211
156 226
156 230
156 238
156 284
157 255
157 267
158 187
158 190
158 212
158 278
159 163
159 167
159 191
159 263
159 284
160 172
160 199
160 240
160 245
160 268
160 285
161 172
161 236
161 249
161 282
162 179
162 185
162 293
163 165
163 205
163 220
163 279
163 294
163 300
164 175
164 204
164 216
164 250
164 257
164 293
165 183
165 195
165 220
165 228
165 237
165 240
165 253
165 270
167 171
167 230
167 255
167 256
167 257
167 284
168 174
168 241
168 246
168 277
168 300
169 202
169 221
169 289
169 292
170 184
170 196
170 227
170 249
170 282
170 283
171 199
171 211
171 254
171 273
171 284
172 240
172 241
172 249
172 264
172 299
173 210
173 271
173 282
173 299
174 231
174 241
174 246
174 300
175 266
175 298
176 179
176 193
176 214
176 229
176 272
176 276
177 211
177 238
177 239
177 247
177 257
177 268
178 189
178 197
178 242
179 192
179 193
179 200
179 206
179 214
179 241
179 260
179 276
179 278
180 227
180 233
181 283
182 187
182 241
182 278
182 282
183 195
183 249
184 210
184 282
185 286
186 189
186 219
186 230
186 257
186 284
187 214
187 217
188 208
188 225
188 233
188 256
188 258
189 219
189 233
189 234
189 243
189 251
189 252
189 279
190 250
190 253
191 289
192 237
192 241
192 270
194 240
194 270
194 277
195 208
195 257
195 259
196 282
197 205
197 228
197 270
198 268
199 245
199 273
200 216
200 225
200 227
200 241
200 278
200 288
200 290
201 220
201 227
201 237
201 253
201 266
201 276
202 204
202 212
203 239
203 245
204 212
204 216
204 276
204 293
205 225
205 269
206 227
206 229
206 234
207 244
207 251
207 254
207 281
207 299
208 245
208 256
208 293
208 300
209 251
209 277
209 290
210 282
210 299
211 215
211 239
211 272
212 278
213 270
214 217
215 250
215 294
216 227
216 300
217 226
217 234
217 281
218 300
219 233
219 273
220 246
220 253
220 273
221 296
224 226
224 234
224 276
225 227
225 229
225 230
225 273
226 248
226 250
226 281
226 284
226 286
227 234
227 265
227 266
227 282
227 290
228 244
228 267
228 270
228 287
228 296
229 230
229 293
230 253
230 273
232 246
232 255
232 287
233 237
233 258
234 276
235 274
236 275
236 286
237 241
237 270
237 286
239 245
239 257
239 295
240 268
241 249
241 260
241 299
242 250
242 255
242 270
243 279
244 281
244 287
245 259
245 297
246 296
246 299
247 268
249 281
249 282
250 270
251 252
251 262
251 268
251 290
252 282
252 291
253 273
254 292
254 294
255 257
255 265
255 267
255 273
255 286
256 257
256 258
257 266
259 282
259 293
262 300
265 286
266 271
266 282
267 296
269 277
270 296
271 282
272 288
274 289
275 286
276 292
277 283
277 298
278 280
279 280
279 294
281 282
282 283
282 293
282 294
283 294
295 300
*Classes
1
1
1
1
1
1
1
1
1
1
1
1
1
1
1
1
1
1
1
1
1
1
1
1
1
1
1
1
1
1
1
1
1
1
1
1
1
1
1
1
1
1
1
1
1
1
1
1
1
1
1
1
1
1
1
1
1
1
1
1
1
1
1
1
1
1
1
1
1
1
1
1
1
1
1
1
1
1
1
1
1
1
1
1
1
1
1
1
1
1
1
1
1
1
1
1
1
1
1
1
1
1
1
1
1
1
1
1
1
1
1
1
1
1
1
1
1
1
1
1
1
1
1
1
1
1
1
1
1
1
1
1
1
1
1
1
1
1
1
1
1
1
1
1
1
1
1
1
1
1
2
2
2
2
2
2
2
2
2
2
2
2
2
2
2
2
2
2
2
2
2
2
2
2
2
2
2
2
2
2
2
2
2
2
2
2
2
2
2
2
2
2
2
2
2
2
2
2
2
2
2
2
2
2
2
2
2
2
2
2
2
2
2
2
2
2
2
2
2
2
2
2
2
2
2
2
2
2
2
2
2
2
2
2
2
2
2
2
2
2
2
2
2
2
2
2
2
2
2
2
2
2
2
2
2
2
2
2
2
2
2
2
2
2
2
2
2
2
2
2
2
2
2
2
2
2
2
2
2
2
2
2
2
2
2
2
2
2
2
2
2
2
2
2
2
2
2
2
2
2
