*Vertices 300
*Edges
1 12
1 71
1 89
1 178
1 259
2 13
2 24
2 27
2 50
2 77
2 142
2 201
2 247
2 293
3 19
3 32
3 118
3 124
3 126
3 137
3 198
3 291
4 26
4 58
4 98
4 125
4 174
4 199
4 214
5 30
6 48
6 83
6 91
6 121
6 199
6 278
6 288
7 33
7 52
7 88
7 106
7 109
7 159
7 172
7 188
7 228
8 16
8 41
8 78
8 80
8 102
8 106
8 136
8 181
8 280
8 291
9 14
9 257
9 300
10 49
10 55
10 159
10 206
10 299
11 17
11 32
11 38
11 48
11 72
11 78
11 79
11 80
11 126
11 161
11 232
12 44
12 52
12 87
12 92
12 101
12 129
12 152
12 175
12 178
12 252
13 27
13 77
13 94
13 97
13 163
13 188
13 225
14 37
14 76
14 79
14 88
14 150
14 201
14 256
14 275
15 48
15 68
15 80
15 93
15 111
15 113
15 148
15 220
15 227
16 41
16 103
16 110
16 125
16 136
16 156
16 175
16 180
16 231
16 281
16 284
17 72
17 79
17 104
17 126
17 150
17 232
18 42
18 90
18 128
18 140
18 174
18 184
18 213
18 271
18 272
19 34
19 43
19 53
19 122
19 126
19 137
19 149
19 183
19 191
19 206
20 26
20 113
20 133
20 164
20 171
20 209
20 233
20 276
20 282
20 287
20 290
20 293
21 144
21 297
22 47
22 88
22 119
22 127
22 225
22 266
23 50
23 73
23 124
23 150
23 258
24 53
24 71
24 76
24 177
24 190
24 196
24 201
24 219
24 247
24 248
25 148
25 158
25 267
26 113
26 132
26 133
26 139
26 152
26 174
26 202
26 219
26 224
26 276
27 94
27 97
27 175
27 178
27 181
27 201
27 292
28 61
28 94
28 120
28 141
28 268
29 71
29 74
29 149
29 164
29 280
30 71
30 108
30 127
30 152
30 168
30 188
30 194
30 298
31 85
31 98
31 114
31 116
31 135
31 145
32 126
32 127
32 147
32 191
32 193
32 237
33 38
33 68
33 78
33 159
33 191
33 243
33 252
33 260
33 268
34 90
34 108
34 126
34 137
34 138
34 167
34 169
34 185
34 209
34 226
35 78
35 95
35 134
35 248
35 262
35 282
35 293
36 62
36 99
36 218
36 289
37 61
37 76
37 115
37 129
37 268
38 50
38 61
38 68
38 88
38 143
38 161
38 182
38 183
38 186
38 268
38 272
38 292
39 59
39 161
39 206
39 247
40 59
40 78
40 80
40 84
40 136
40 142
40 192
40 198
40 221
40 273
40 288
41 48
41 101
41 103
41 121
41 125
41 126
41 186
41 229
41 278
41 285
41 287
42 140
42 205
42 247
43 132
43 137
43 207
43 236
44 50
44 60
44 92
44 154
44 240
44 260
45 48
45 59
45 62
45 77
45 80
45 121
45 134
45 153
45 155
45 161
45 195
46 205
46 266
47 75
47 175
47 225
47 268
48 68
48 78
48 103
48 113
48 121
48 148
48 264
48 289
48 290
49 55
49 60
49 170
49 203
49 277
50 60
50 142
50 154
50 227
50 247
50 258
50 272
50 284
50 291
51 59
51 87
51 92
51 119
51 161
51 214
51 230
51 274
52 82
52 101
52 103
52 106
52 109
52 141
52 186
52 194
52 227
53 71
53 116
53 149
53 208
53 219
53 239
53 253
53 285
54 67
54 219
54 293
55 72
55 254
56 84
56 156
56 240
56 285
56 295
57 65
57 148
57 168
57 255
57 284
58 77
58 98
58 114
58 121
58 123
58 149
58 182
58 234
58 265
58 274
58 280
58 287
59 63
59 76
59 80
59 83
59 89
59 96
59 98
59 101
59 108
59 111
59 129
59 136
59 156
59 161
59 193
59 205
60 80
60 116
60 134
60 136
60 154
60 180
60 188
60 203
60 253
60 295
61 95
61 120
61 124
61 141
61 217
61 237
61 267
61 268
62 66
62 87
62 95
62 195
62 262
62 266
62 293
63 96
63 126
63 129
63 146
63 157
63 181
63 193
63 194
63 212
63 263
63 285
64 77
64 102
64 127
64 165
64 198
64 247
64 258
64 260
64 279
64 291
65 100
65 183
65 194
65 248
65 300
66 87
66 183
66 207
66 222
66 241
67 91
67 110
67 164
67 176
67 182
67 193
67 267
67 268
67 269
67 293
68 78
68 80
68 88
68 93
68 111
68 125
68 220
68 263
68 287
68 292
69 249
70 138
70 139
70 158
70 172
70 185
70 232
70 241
70 270
71 127
71 164
71 219
71 255
71 257
72 91
72 114
72 128
72 160
72 232
72 298
73 84
73 150
73 242
73 244
73 283
73 286
74 96
74 112
74 177
74 190
74 226
74 278
74 280
74 296
75 92
75 157
75 187
75 223
75 279
76 88
76 115
76 129
76 134
76 159
76 164
76 212
76 241
76 255
76 263
77 105
77 121
78 80
78 134
78 243
79 107
79 118
79 140
79 141
79 147
79 150
79 181
79 192
79 259
79 276
79 300
80 83
80 136
80 280
81 106
81 144
81 160
81 263
82 109
82 194
82 238
83 102
83 133
83 158
83 222
83 298
84 94
84 97
84 116
84 134
84 136
84 145
84 150
84 198
84 244
84 293
85 188
86 97
86 99
86 112
86 145
86 150
86 194
87 92
87 95
87 130
87 221
88 99
88 119
88 127
88 129
88 145
88 188
88 247
88 256
88 258
88 278
88 292
88 293
89 116
89 129
89 145
89 153
89 222
89 240
89 253
89 259
89 276
90 91
90 97
90 112
90 128
91 97
91 112
91 114
91 128
91 162
91 173
91 176
91 186
91 199
91 206
91 232
91 288
92 107
92 141
92 152
92 215
92 226
92 230
92 279
93 205
93 213
93 219
93 233
93 281
93 295
94 97
94 120
94 127
94 147
94 160
94 172
94 191
95 179
95 182
95 237
95 270
95 282
95 288
96 108
96 118
96 146
96 162
96 212
96 229
96 268
96 298
97 108
97 175
97 197
97 292
98 102
98 109
98 110
98 114
98 123
98 134
98 136
98 141
98 145
98 193
98 274
98 286
99 112
99 133
99 145
99 246
99 255
100 109
100 111
100 114
100 124
100 125
100 140
100 151
100 203
100 215
100 248
100 258
100 278
100 299
101 103
101 107
101 116
101 127
101 129
101 147
101 203
102 111
102 136
102 165
102 289
103 107
103 109
103 129
103 186
103 225
103 227
103 238
103 287
104 126
104 227
104 232
104 250
105 124
105 198
105 258
105 271
106 109
106 144
106 280
107 116
107 129
107 132
107 140
107 141
107 253
107 273
107 300
108 129
108 132
108 153
108 226
108 237
108 254
108 256
108 289
108 298
109 114
109 141
109 185
109 221
109 232
109 233
109 234
109 246
109 292
110 113
110 193
111 129
111 165
111 203
111 220
112 150
112 199
112 252
113 116
113 131
113 139
113 193
113 265
114 151
114 273
116 132
116 134
116 136
116 138
116 139
116 145
116 187
116 241
116 253
116 290
117 230
118 124
118 135
118 147
118 149
118 173
118 209
118 233
118 249
118 271
119 145
119 161
119 175
119 211
120 127
120 188
120 189
120 195
120 232
121 148
121 251
121 295
121 299
122 146
122 160
122 227
122 296
123 149
123 276
123 283
124 126
124 135
124 197
124 249
124 258
124 267
125 220
126 127
126 146
126 193
126 210
126 227
126 250
126 287
127 143
127 145
127 147
127 152
127 188
127 247
127 258
128 143
128 160
128 165
128 171
128 268
128 279
128 287
129 156
129 159
129 164
129 175
129 197
129 257
129 258
129 264
130 198
130 221
130 228
130 240
130 262
131 152
132 137
132 153
132 207
132 273
132 290
133 143
133 170
133 228
133 255
133 299
134 136
134 204
134 228
134 235
134 255
135 145
135 239
135 273
135 290
136 145
136 205
136 235
137 185
138 167
138 228
138 241
139 180
139 189
139 229
139 253
139 265
139 270
139 284
140 147
140 150
140 203
140 236
141 268
141 274
141 293
142 158
142 221
142 293
143 151
143 171
143 182
143 218
143 268
144 168
145 241
145 290
145 291
145 293
146 196
146 296
147 150
147 188
147 256
148 158
148 174
148 176
148 255
148 284
148 290
149 238
149 271
149 285
149 291
150 200
150 275
150 297
150 300
151 175
151 214
151 235
151 237
151 251
151 258
151 278
152 166
152 168
152 194
152 224
152 280
153 181
153 266
153 276
154 180
154 186
154 189
154 203
154 208
154 235
154 296
155 216
156 171
156 175
156 199
156 228
156 240
157 172
157 174
157 189
157 194
157 208
157 234
157 264
157 284
158 165
158 177
158 209
158 223
158 229
158 241
158 249
158 270
158 276
158 281
158 282
158 295
159 206
159 215
159 232
159 293
160 162
160 172
160 174
160 181
160 183
160 208
160 247
160 259
160 270
160 276
161 178
161 214
161 251
162 164
162 173
162 176
162 206
162 229
162 247
162 268
162 287
163 188
163 190
163 217
163 221
163 239
163 245
163 258
163 266
163 269
163 290
163 299
164 193
164 200
164 212
164 257
164 276
164 282
164 285
164 291
165 198
165 255
165 279
165 281
165 288
165 291
166 192
166 265
166 280
167 175
167 228
167 252
167 292
168 181
168 212
168 259
168 293
169 183
169 185
170 228
170 231
170 270
170 275
170 277
171 182
171 218
171 226
171 240
171 287
172 212
172 228
172 264
173 190
173 203
173 229
173 234
173 249
173 270
173 284
173 287
173 290
174 180
174 187
174 189
174 192
174 208
174 214
174 238
174 239
174 244
174 261
174 284
174 286
175 197
175 214
175 225
175 228
175 240
175 252
176 248
176 278
176 288
176 296
177 188
177 191
177 224
177 249
177 281
177 282
177 295
177 296
178 186
178 195
178 219
178 251
178 268
178 282
179 200
179 225
179 252
179 258
179 266
179 298
180 199
180 200
180 223
180 266
180 272
180 274
180 281
180 284
180 289
181 194
181 211
181 246
181 248
181 270
181 271
181 276
181 293
182 199
182 220
182 237
182 294
183 208
183 237
183 241
183 259
183 272
183 291
184 267
185 226
186 193
186 235
186 268
187 225
187 253
188 217
188 250
188 295
188 299
189 208
189 229
189 235
189 254
189 260
189 284
190 221
190 246
190 267
190 278
190 288
190 290
190 296
191 194
191 224
191 235
191 252
191 256
191 257
191 271
191 292
192 250
192 261
192 288
193 200
193 204
193 228
193 241
193 268
193 279
193 291
194 218
194 225
194 229
194 230
194 234
194 246
194 256
194 261
194 289
194 291
194 292
194 298
195 233
196 199
196 219
196 296
196 300
198 228
199 205
199 211
199 219
199 220
199 247
199 284
200 226
200 258
200 266
200 285
201 207
201 257
202 205
202 248
202 283
202 293
203 204
203 228
203 234
203 266
203 270
203 299
204 205
204 217
204 228
204 258
204 262
204 266
205 247
205 266
205 298
206 252
207 243
207 254
208 234
208 263
208 276
208 285
209 249
209 282
209 293
209 298
210 249
211 212
211 242
211 247
211 248
211 270
211 298
212 228
212 242
212 259
212 264
213 267
214 215
215 226
215 248
215 270
215 299
216 220
217 239
217 245
217 262
217 266
218 287
218 289
219 247
219 248
219 295
220 292
220 294
221 233
221 288
222 231
222 274
222 277
222 286
223 249
223 274
224 256
224 271
225 226
225 256
225 298
226 240
226 256
226 261
226 265
226 266
226 274
226 280
226 298
227 272
227 292
228 242
228 258
229 250
229 270
229 271
229 281
229 284
229 289
230 238
230 268
230 281
230 289
230 299
231 277
231 281
232 292
233 271
233 282
233 290
234 245
234 270
234 271
234 275
234 285
234 292
234 294
235 252
235 268
237 251
237 272
237 282
237 289
237 297
238 239
238 268
238 274
238 284
238 286
238 292
238 299
239 244
239 258
239 268
239 273
239 286
239 292
239 295
240 256
240 262
240 280
240 287
241 259
241 263
241 281
241 287
241 291
242 248
242 261
242 264
242 293
242 298
243 247
243 254
243 263
243 281
243 298
244 286
245 294
247 271
247 291
247 298
248 261
248 278
248 293
248 299
249 276
249 281
250 299
251 278
252 292
253 276
254 284
254 296
255 262
255 288
256 257
256 261
256 291
258 281
258 286
258 295
259 300
261 286
262 266
262 289
263 281
263 285
263 287
265 270
265 280
266 272
266 274
266 285
266 289
267 290
268 279
268 282
268 283
268 284
268 291
270 271
270 275
270 282
270 289
270 297
272 292
274 286
275 279
275 297
276 283
279 297
281 299
282 283
284 290
284 292
286 299
288 291
289 298
295 299
*Classes
1
1
1
1
1
1
1
1
1
1
1
1
1
1
1
1
1
1
1
1
1
1
1
1
1
1
1
1
1
1
1
1
1
1
1
1
1
1
1
1
1
1
1
1
1
1
1
1
1
1
1
1
1
1
1
1
1
1
1
1
1
1
1
1
1
1
1
1
1
1
1
1
1
1
1
1
1
1
1
1
1
1
1
1
1
1
1
1
1
1
1
1
1
1
1
1
1
1
1
1
1
1
1
1
1
1
1
1
1
1
1
1
1
1
1
1
1
1
1
1
1
1
1
1
1
1
1
1
1
1
1
1
1
1
1
1
1
1
1
1
1
1
1
1
1
1
1
1
1
1
2
2
2
2
2
2
2
2
2
2
2
2
2
2
2
2
2
2
2
2
2
2
2
2
2
2
2
2
2
2
2
2
2
2
2
2
2
2
2
2
2
2
2
2
2
2
2
2
2
2
2
2
2
2
2
2
2
2
2
2
2
2
2
2
2
2
2
2
2
2
2
2
2
2
2
2
2
2
2
2
2
2
2
2
2
2
2
2
2
2
2
2
2
2
2
2
2
2
2
2
2
2
2
2
2
2
2
2
2
2
2
2
2
2
2
2
2
2
2
2
2
2
2
2
2
2
2
2
2
2
2
2
2
2
2
2
2
2
2
2
2
2
2
2
2
2
2
2
2
2
