*Vertices 300
*Edges
1 10
1 37
1 57
1 69
1 95
1 113
1 114
1 134
1 135
1 198
1 232
1 252
1 264
1 295
2 4
2 52
2 106
2 109
2 119
2 128
2 131
2 150
2 222
2 231
2 245
2 287
2 289
2 298
3 15
3 22
3 26
3 113
3 114
3 127
3 128
3 145
3 146
3 148
3 210
3 265
3 292
4 21
4 52
4 59
4 84
4 88
4 92
4 107
4 119
4 123
4 127
4 128
4 140
4 166
4 204
4 208
4 209
4 219
4 285
4 298
5 15
5 32
5 34
5 48
5 53
5 88
5 110
5 138
5 190
6 71
6 120
6 121
6 129
6 130
6 148
6 226
6 251
6 275
6 284
7 14
7 17
7 40
7 44
7 47
7 51
7 54
7 56
7 83
7 86
7 89
7 113
7 142
7 163
7 169
7 173
7 174
7 229
7 256
7 260
7 284
8 40
8 45
8 72
8 102
8 112
8 115
8 120
8 121
8 136
8 167
8 185
8 188
8 189
8 196
8 288
8 292
8 296
9 26
9 34
9 36
9 85
9 88
9 109
9 117
9 122
9 162
9 166
9 208
9 219
9 253
10 18
10 25
10 59
10 88
10 106
10 115
10 161
10 227
10 252
11 40
11 51
11 76
11 101
11 122
11 142
11 158
11 175
11 232
11 240
12 21
12 26
12 36
12 48
12 57
12 80
12 103
12 110
12 120
12 123
12 128
12 170
12 182
12 193
12 208
12 232
12 236
12 251
12 255
12 275
12 299
13 29
13 42
13 51
13 66
13 88
13 182
13 235
13 253
13 260
13 268
13 275
13 300
14 21
14 44
14 46
14 56
14 71
14 92
14 94
14 123
14 136
14 142
14 284
14 286
14 287
14 294
15 32
15 48
15 124
15 128
15 131
15 138
15 140
15 148
15 156
15 175
15 195
15 278
16 31
16 42
16 101
16 116
16 155
16 160
16 186
16 221
16 260
16 269
16 290
17 54
17 89
17 127
17 129
17 155
17 160
17 221
17 264
17 276
18 25
18 74
18 82
18 143
18 150
18 191
18 209
18 226
18 276
19 90
19 114
19 134
20 188
20 212
20 282
20 288
21 34
21 44
21 58
21 71
21 72
21 123
21 187
21 284
22 30
22 31
22 41
22 60
22 111
22 116
22 125
22 148
22 158
22 170
22 216
22 259
22 292
23 28
23 43
23 71
23 72
23 95
23 112
23 198
23 253
24 60
24 75
24 86
24 167
24 174
24 200
24 208
24 231
24 289
25 46
25 52
25 59
25 88
25 106
25 115
25 131
25 198
25 220
25 264
26 57
26 81
26 104
26 115
26 120
26 123
26 127
26 192
26 193
26 206
26 244
26 267
26 269
26 284
27 28
27 31
27 40
27 86
27 129
27 138
28 56
28 71
28 109
28 129
28 130
28 141
28 182
28 228
28 235
28 275
29 66
29 218
29 221
29 237
30 53
30 63
30 87
30 104
30 111
30 125
30 203
30 213
30 220
30 225
30 234
30 240
30 282
30 288
31 49
31 63
31 82
31 106
31 107
31 111
31 138
31 146
31 207
31 221
31 238
32 34
32 137
32 253
32 256
32 260
32 291
33 65
33 75
33 78
33 135
33 229
33 240
33 241
33 245
34 58
34 61
34 88
34 275
35 65
35 143
35 209
35 233
35 248
35 279
36 66
36 72
36 85
36 86
36 93
36 122
36 123
36 129
36 192
36 204
36 220
37 64
37 69
37 104
37 113
37 114
37 135
37 177
37 214
37 252
37 274
37 276
38 91
38 205
38 255
39 55
39 68
39 78
39 102
39 115
39 124
39 225
39 251
40 45
40 101
40 115
40 121
40 129
40 142
40 167
40 187
40 207
40 229
40 295
41 60
41 96
41 116
41 151
41 207
41 222
41 252
41 274
42 66
42 116
42 186
43 45
43 76
43 93
43 125
43 273
43 289
43 290
44 46
44 55
44 92
44 216
44 230
44 235
44 284
45 76
45 81
45 142
45 162
45 229
45 253
45 273
46 49
46 59
46 92
46 104
46 125
46 131
46 138
46 151
46 216
46 295
47 83
47 142
47 171
47 198
47 211
47 231
47 244
47 246
47 252
47 272
47 286
47 295
48 57
48 62
48 92
48 110
48 118
48 163
48 167
48 181
48 182
48 190
48 217
48 218
48 294
49 60
49 72
49 96
49 137
49 138
49 279
50 286
50 291
51 88
51 101
51 142
51 173
51 183
51 186
51 224
51 235
51 246
51 275
51 277
51 286
52 88
52 117
52 128
52 168
52 203
52 204
53 121
53 136
53 138
53 171
53 196
53 220
53 222
53 231
53 297
54 67
54 89
54 142
54 155
54 158
54 164
54 169
54 175
54 180
54 249
54 252
54 275
55 83
55 92
55 108
55 140
55 154
55 219
55 235
56 71
56 163
56 173
56 177
56 201
56 225
56 241
56 245
56 282
56 288
57 103
57 104
57 168
57 179
57 187
57 193
57 212
57 223
57 224
57 230
57 232
57 233
57 251
58 71
58 74
58 113
58 123
58 124
58 145
58 213
59 68
59 88
59 113
59 115
59 118
59 122
59 128
59 145
59 168
59 209
59 227
59 280
60 67
60 96
60 172
60 217
60 221
60 225
60 226
60 234
60 245
61 238
62 74
62 84
62 107
62 145
62 156
62 160
62 162
62 163
62 217
62 236
62 238
62 244
62 264
62 277
62 294
62 295
62 296
63 81
63 104
63 106
63 123
63 128
63 148
63 205
63 289
64 67
64 76
64 89
64 93
64 94
64 118
64 135
64 162
64 184
64 189
64 190
64 198
64 228
64 249
64 263
65 78
65 114
65 257
66 103
66 123
66 147
66 167
66 194
66 200
66 253
66 261
67 76
67 83
67 89
67 92
67 109
67 122
67 172
67 217
67 230
67 285
68 75
68 102
68 105
68 113
68 124
68 145
68 180
69 104
69 228
69 235
69 296
70 95
70 106
70 115
70 149
70 152
70 159
70 198
70 206
70 245
70 290
71 130
71 141
71 187
71 191
71 245
71 253
71 258
72 77
72 112
72 123
72 180
72 189
72 191
72 225
72 226
72 258
72 294
73 75
73 79
73 103
73 150
73 199
73 214
73 229
74 84
74 85
74 145
74 150
74 156
74 187
74 211
74 233
74 264
75 78
75 79
75 105
75 199
75 203
75 208
75 216
76 93
76 94
76 122
76 123
76 125
76 128
76 135
76 189
76 190
76 192
76 257
76 260
76 264
76 269
76 290
77 86
77 131
77 264
77 294
78 102
78 108
78 152
78 207
78 219
78 241
78 254
79 103
79 111
79 120
79 150
79 172
79 213
79 226
79 283
80 152
80 207
80 246
81 93
81 104
81 123
81 125
81 133
81 206
81 217
81 240
81 256
81 273
81 284
82 97
82 98
82 120
82 146
82 161
82 249
82 291
83 122
83 142
83 174
83 285
84 85
84 111
84 122
84 128
84 138
84 150
84 177
84 205
84 211
84 226
84 227
84 239
84 252
84 263
84 271
85 211
85 263
86 129
86 154
86 160
86 173
86 258
86 264
86 295
87 104
87 203
87 214
88 117
88 141
88 198
88 219
88 281
89 168
89 217
89 240
89 249
89 250
89 261
90 116
90 216
90 240
90 241
90 269
91 96
91 121
91 126
91 136
91 205
91 215
91 219
91 232
91 238
91 254
91 259
92 128
92 140
92 235
92 236
92 242
92 253
92 285
93 122
93 123
93 128
93 167
93 171
93 183
93 198
93 217
93 257
93 260
93 264
93 297
94 122
94 125
94 146
94 148
94 260
95 101
95 156
95 198
95 237
95 293
96 126
96 252
97 139
97 146
97 158
97 166
97 173
97 179
97 209
97 262
97 282
98 141
98 146
98 189
99 140
99 152
99 195
99 199
99 256
99 260
99 263
100 138
100 143
100 153
100 169
100 186
101 107
101 160
101 173
101 183
101 185
101 186
101 202
101 221
101 237
101 263
102 115
102 165
102 171
102 183
102 246
102 272
102 280
103 120
103 123
103 128
103 146
103 228
103 263
103 266
103 296
104 106
104 125
104 177
104 180
104 236
104 240
104 258
104 289
105 177
105 188
105 258
106 125
106 146
106 150
106 159
106 234
106 290
107 111
107 138
107 200
107 219
107 221
107 237
107 238
107 295
108 154
108 178
108 219
108 246
108 282
109 118
109 122
109 128
109 129
109 138
109 145
109 167
109 169
109 174
109 178
109 198
109 251
109 265
109 287
109 294
110 140
110 181
110 261
110 280
110 293
111 123
111 125
111 128
111 150
111 170
111 205
111 274
111 283
112 123
112 185
112 237
112 284
113 115
113 145
113 151
113 160
113 210
113 214
113 265
114 127
114 134
114 164
114 228
114 233
114 235
114 252
114 257
114 265
114 285
115 118
115 120
115 133
115 149
115 178
115 188
115 255
116 144
116 170
116 216
116 240
116 269
117 199
117 294
118 122
118 128
118 149
118 153
118 178
118 190
118 213
118 246
118 285
119 185
119 207
119 243
119 245
119 299
120 173
120 182
120 207
120 246
120 249
121 130
121 136
121 172
121 196
121 222
121 240
121 290
121 294
121 296
121 297
122 125
122 128
122 171
122 178
122 192
122 265
122 272
122 293
123 128
123 129
123 170
123 180
123 187
123 192
123 205
123 220
123 251
123 263
124 145
124 165
124 180
124 213
124 275
125 138
125 150
125 180
125 216
126 215
126 238
126 240
126 293
127 128
127 192
127 221
127 244
127 251
127 289
128 148
128 171
128 205
128 206
128 209
128 238
128 252
128 273
128 277
129 138
129 258
129 266
129 272
129 275
129 277
129 300
130 146
130 148
130 182
130 240
130 299
131 148
131 192
131 253
131 267
131 280
131 298
132 162
132 206
132 241
132 273
133 149
133 162
133 179
133 247
133 259
133 298
134 238
134 298
135 154
135 194
135 229
135 252
136 151
136 173
136 207
136 215
136 222
136 225
136 240
136 294
137 138
137 187
137 253
137 273
137 291
138 146
138 151
138 221
138 263
138 271
139 146
139 166
139 263
140 179
140 195
140 213
140 235
140 253
141 189
141 264
142 167
142 199
142 207
142 229
142 273
143 186
143 190
143 276
143 279
144 253
145 181
145 202
145 215
145 221
145 251
145 262
146 148
146 163
146 170
146 185
146 207
146 270
146 282
146 296
147 157
147 167
147 273
148 182
148 270
149 158
149 244
149 269
149 270
149 278
150 187
150 219
150 234
150 283
150 298
151 160
151 207
151 216
151 219
151 275
152 186
152 227
152 245
152 290
153 190
153 292
154 178
155 260
155 263
155 265
155 269
155 300
156 175
156 180
156 190
156 224
156 260
156 261
156 292
156 295
156 300
158 159
158 166
158 170
158 175
158 278
159 198
159 227
159 249
159 259
159 278
160 179
160 186
160 207
160 220
160 255
160 264
160 290
160 298
161 171
161 227
161 251
161 288
161 290
162 183
162 225
162 238
162 244
162 257
162 273
163 170
163 173
163 176
163 197
163 207
163 283
163 295
164 186
164 236
164 261
165 225
165 229
165 242
165 243
166 219
166 278
166 285
166 297
167 289
167 294
168 172
168 183
168 193
168 203
168 210
168 222
168 280
168 296
169 174
169 196
169 222
169 252
170 173
170 175
170 259
170 278
170 283
170 292
171 179
171 180
171 182
171 203
171 220
171 223
171 242
171 246
171 251
172 250
172 296
173 207
173 231
173 275
173 286
174 198
174 246
174 289
176 185
176 263
177 213
177 240
177 245
177 298
178 201
178 207
178 213
178 215
178 246
178 251
178 282
179 212
179 220
179 232
179 262
179 276
179 298
180 236
180 258
180 261
180 275
180 277
180 300
181 261
181 262
181 280
182 203
182 228
182 240
182 242
182 249
182 268
182 275
182 296
182 299
183 246
183 257
183 280
183 284
184 228
184 237
185 199
185 207
185 230
185 237
185 246
185 255
185 286
186 200
186 202
186 212
186 232
186 240
186 242
186 243
186 260
186 263
186 264
186 290
187 215
187 233
187 262
189 196
189 215
189 246
189 274
190 265
190 280
190 285
190 292
191 213
191 221
191 226
191 253
191 258
192 254
192 267
192 290
193 222
193 233
193 280
194 241
196 220
196 248
196 274
196 295
198 227
198 244
198 252
198 264
198 293
199 225
199 238
200 231
200 242
200 261
200 279
201 207
201 208
201 251
201 275
201 286
202 215
202 228
202 235
202 262
202 296
203 223
203 230
203 240
203 242
203 248
203 251
203 295
204 209
204 220
205 238
205 255
205 261
206 253
206 264
206 273
206 277
206 284
207 208
207 219
207 246
207 275
207 281
207 286
208 219
208 251
208 275
209 211
209 292
210 222
211 220
211 272
211 289
211 292
212 232
212 288
212 290
213 226
213 251
213 258
213 275
215 224
215 240
215 245
215 246
215 260
215 262
215 269
215 272
215 293
216 293
217 218
217 232
217 273
218 221
218 222
218 232
218 237
218 240
219 246
219 253
219 254
219 280
219 281
219 283
220 248
220 251
220 272
220 295
221 222
221 226
221 232
221 237
221 260
221 274
222 237
222 245
222 274
223 230
223 242
223 268
224 242
224 246
224 247
224 300
225 234
225 238
225 245
225 294
226 253
226 258
226 294
228 235
228 262
228 296
228 299
229 242
229 243
230 237
230 268
231 245
232 240
232 243
234 235
234 256
234 260
235 242
235 286
235 296
236 253
236 261
236 273
236 277
236 293
238 259
238 294
239 252
239 267
239 282
240 245
240 268
242 248
242 279
244 264
244 277
245 255
245 274
245 290
245 294
245 298
246 289
246 293
247 259
247 269
247 270
247 289
247 300
248 295
251 270
251 272
251 275
251 289
251 299
252 293
253 273
253 280
255 261
255 298
256 260
257 280
258 261
258 274
259 278
260 263
260 269
260 298
260 300
261 262
261 293
262 280
263 290
264 284
264 290
265 269
265 285
266 298
266 300
267 282
267 291
268 275
269 270
269 300
270 271
270 272
270 289
272 289
272 293
274 276
276 298
280 284
280 285
282 291
285 297
286 295
287 289
288 290
288 298
290 298
298 300
*Classes
1
1
1
1
1
1
1
1
1
1
1
1
1
1
1
1
1
1
1
1
1
1
1
1
1
1
1
1
1
1
1
1
1
1
1
1
1
1
1
1
1
1
1
1
1
1
1
1
1
1
1
1
1
1
1
1
1
1
1
1
1
1
1
1
1
1
1
1
1
1
1
1
1
1
1
1
1
1
1
1
1
1
1
1
1
1
1
1
1
1
1
1
1
1
1
1
1
1
1
1
1
1
1
1
1
1
1
1
1
1
1
1
1
1
1
1
1
1
1
1
1
1
1
1
1
1
1
1
1
1
1
1
1
1
1
1
1
1
1
1
1
1
1
1
1
1
1
1
1
1
2
2
2
2
2
2
2
2
2
2
2
2
2
2
2
2
2
2
2
2
2
2
2
2
2
2
2
2
2
2
2
2
2
2
2
2
2
2
2
2
2
2
2
2
2
2
2
2
2
2
2
2
2
2
2
2
2
2
2
2
2
2
2
2
2
2
2
2
2
2
2
2
2
2
2
2
2
2
2
2
2
2
2
2
2
2
2
2
2
2
2
2
2
2
2
2
2
2
2
2
2
2
2
2
2
2
2
2
2
2
2
2
2
2
2
2
2
2
2
2
2
2
2
2
2
2
2
2
2
2
2
2
2
2
2
2
2
2
2
2
2
2
2
2
2
2
2
2
2
2
