*Vertices 300
*Edges
1 5
1 10
1 32
1 33
1 75
1 201
1 251
2 3
2 18
2 60
2 62
2 63
2 79
2 80
2 97
2 146
2 200
2 260
3 18
3 21
3 37
3 62
3 63
3 70
3 79
3 109
3 119
3 150
3 207
4 184
4 215
4 293
5 17
5 22
5 32
5 75
5 81
5 211
5 221
5 264
5 292
6 51
6 114
6 118
6 130
6 133
6 183
6 219
6 284
7 74
7 80
7 93
7 133
7 146
7 167
7 271
8 35
8 81
8 85
8 144
8 154
8 166
9 40
9 51
9 59
9 64
9 76
9 104
9 123
9 145
9 149
9 190
9 193
9 246
10 33
10 47
10 75
10 147
10 175
10 275
11 23
11 29
11 41
11 88
11 128
11 196
11 233
11 250
11 258
12 30
12 35
12 42
12 94
12 137
12 151
12 213
12 220
12 236
12 257
12 280
12 300
13 76
13 87
13 123
13 139
13 159
13 176
14 28
14 144
15 21
15 174
15 199
15 244
16 155
17 81
17 102
17 139
17 177
17 263
18 87
19 37
19 70
19 118
19 148
19 228
19 248
20 23
20 38
20 51
20 62
20 83
20 106
20 133
20 185
20 206
20 254
21 112
21 144
21 269
21 273
22 36
22 67
22 81
22 83
22 118
22 153
22 277
22 286
22 290
22 297
23 26
23 88
23 101
23 141
23 158
23 189
24 60
24 124
24 174
24 229
24 300
25 57
25 66
25 104
25 180
26 97
26 121
26 134
26 138
26 189
26 197
26 239
26 277
26 296
27 46
27 48
27 93
27 117
27 127
27 144
27 202
27 208
27 240
27 258
27 296
28 132
28 144
28 296
29 52
29 55
29 120
29 128
29 272
30 57
30 94
30 114
30 134
30 159
30 225
30 265
30 292
31 41
31 88
31 121
31 139
31 225
31 239
32 42
32 64
32 121
32 135
32 148
32 160
32 206
32 254
33 36
33 54
33 56
33 75
33 102
33 152
33 165
33 232
33 291
33 298
34 157
34 170
35 55
35 68
35 80
35 81
35 85
35 93
35 117
35 120
35 192
35 261
35 270
36 59
36 73
36 146
36 286
37 67
37 70
37 81
37 91
37 118
38 61
38 68
38 78
38 106
38 114
38 122
38 123
38 127
38 146
38 149
38 210
39 60
39 77
39 106
39 142
39 164
39 239
40 57
40 64
40 85
40 104
40 123
40 131
40 137
40 157
40 170
40 277
41 86
41 88
41 159
41 217
41 226
42 56
42 64
42 73
42 96
42 110
42 135
42 137
42 215
43 63
43 83
43 90
43 202
43 236
43 279
44 54
44 84
44 99
44 117
44 136
44 182
44 259
44 292
46 48
46 51
46 74
46 93
46 149
47 107
47 123
47 124
47 180
47 226
48 53
48 87
48 93
48 100
48 126
49 51
49 73
49 85
49 184
49 289
50 186
50 221
51 73
51 82
51 93
51 133
51 145
51 204
51 240
52 115
52 118
52 195
52 202
52 259
53 100
53 269
53 280
53 282
54 77
54 89
54 102
54 128
54 137
54 235
54 268
55 78
55 98
55 102
55 115
55 133
55 146
55 149
55 157
55 192
55 272
56 73
56 99
56 109
56 133
56 169
56 260
57 104
57 158
57 250
58 64
58 78
58 114
58 192
59 75
59 131
59 143
59 146
59 149
59 157
59 218
59 254
59 255
59 265
60 66
60 77
60 124
60 137
60 200
61 80
61 122
61 128
61 289
62 63
62 65
62 80
62 110
62 262
62 266
62 295
64 76
64 99
64 110
64 123
64 135
64 244
64 293
64 299
65 233
65 266
66 77
66 92
66 102
66 120
66 138
66 162
66 180
66 181
66 212
66 278
67 69
67 140
67 148
67 277
68 80
68 116
68 178
68 210
68 224
68 275
68 298
69 263
69 289
70 145
70 207
70 249
70 250
71 84
71 107
71 158
71 217
71 293
72 115
72 123
72 125
72 198
72 214
72 227
72 238
74 93
74 146
74 164
75 77
75 113
75 123
75 220
75 234
76 166
76 242
76 276
76 288
76 292
77 86
77 89
77 96
77 128
77 137
77 220
77 231
78 114
78 146
78 157
78 204
78 273
79 92
79 150
79 248
79 263
80 146
80 229
80 286
81 292
82 119
82 147
82 203
82 278
82 285
83 185
83 213
83 290
84 146
84 149
84 201
84 243
84 248
85 97
85 120
85 123
85 150
85 167
86 89
86 141
86 252
86 254
87 126
87 294
88 141
88 197
88 252
89 92
89 109
89 128
89 147
89 149
89 222
89 231
89 266
89 275
90 151
90 221
91 118
91 126
91 191
92 128
92 155
92 181
92 191
92 263
93 243
93 261
93 263
94 211
94 243
94 253
96 97
96 137
96 154
96 156
96 260
97 108
97 121
97 123
97 130
97 233
97 246
97 260
97 278
98 102
98 115
98 122
98 129
98 223
99 109
99 110
99 136
99 170
99 179
99 285
100 110
100 134
100 149
100 182
100 223
101 254
102 118
102 138
102 159
104 129
104 172
104 199
104 211
104 222
104 292
105 147
105 151
105 271
106 142
106 194
107 196
108 123
108 138
108 208
108 299
109 145
109 150
109 197
109 261
110 132
110 134
110 158
110 258
110 295
111 114
111 294
112 134
112 159
112 175
112 194
112 244
112 248
112 285
113 123
113 127
113 298
114 122
114 156
114 174
114 219
115 195
115 238
115 267
116 117
116 123
116 179
116 226
116 240
116 271
117 151
117 193
117 198
118 126
118 130
118 133
118 138
118 148
118 156
118 194
118 209
118 266
118 277
118 282
119 155
119 215
119 243
119 297
120 128
120 212
120 215
120 300
121 191
121 202
121 254
122 129
123 125
123 127
123 145
123 219
123 226
123 229
124 138
124 166
124 180
124 218
124 257
124 291
125 128
125 172
125 239
126 143
126 247
126 287
127 156
127 185
127 221
127 246
127 256
127 271
128 131
128 137
128 174
128 194
128 200
128 202
128 239
128 251
128 289
129 178
129 199
130 133
130 177
130 246
130 284
131 202
131 259
131 292
133 149
133 156
133 169
133 210
133 217
134 221
134 225
134 285
135 172
135 201
135 268
135 275
135 283
136 185
136 201
136 208
136 218
137 156
137 164
137 169
137 170
137 203
137 256
137 276
138 169
138 218
138 222
138 261
139 185
139 205
139 217
141 182
141 290
142 166
142 206
143 149
143 191
144 187
144 208
145 188
145 275
145 290
146 149
146 191
146 210
146 284
147 151
147 176
147 244
147 275
148 215
148 297
149 157
149 179
149 234
149 241
149 275
150 167
150 171
150 172
150 261
151 157
151 161
151 180
151 191
151 207
151 220
151 222
151 239
151 260
151 269
151 279
152 173
152 202
152 218
152 227
152 234
152 271
152 279
154 208
154 270
154 296
154 298
155 177
155 230
155 237
155 242
155 286
156 168
156 181
156 199
156 210
156 229
156 241
156 298
157 158
157 173
157 188
157 199
157 216
157 228
157 239
157 267
157 288
158 171
158 212
158 237
158 239
158 240
158 270
159 220
159 244
159 253
159 287
159 293
160 164
161 222
161 233
162 173
162 180
162 218
163 255
164 215
164 227
164 239
164 244
164 249
164 290
165 190
165 264
166 181
166 218
166 250
166 276
166 284
167 177
167 186
167 225
168 181
168 237
168 239
168 286
169 170
169 179
169 256
169 262
169 276
169 283
169 290
170 232
170 256
170 262
171 177
172 199
172 202
172 213
172 227
172 234
172 273
172 282
173 197
173 218
173 221
173 270
174 185
174 194
174 260
174 278
174 296
175 241
175 258
176 196
176 265
176 270
177 186
177 230
178 216
178 228
179 229
179 249
179 262
179 275
180 181
180 191
180 207
180 229
180 239
180 260
181 229
181 241
181 286
181 297
182 210
182 231
182 292
182 299
183 187
183 242
183 253
183 280
183 289
184 289
185 245
185 246
185 256
185 278
186 204
186 212
186 225
186 240
186 242
186 270
187 213
187 227
187 280
187 284
188 228
188 239
188 287
189 197
189 239
189 255
189 269
189 274
190 193
190 246
190 250
190 264
190 297
191 202
191 210
191 220
191 263
191 284
192 261
193 198
194 239
194 244
195 214
196 201
196 219
196 243
196 265
196 269
196 274
196 286
196 295
197 217
197 221
197 232
197 239
197 240
197 252
197 263
197 277
198 200
199 202
199 257
199 288
199 292
199 298
200 239
200 242
200 253
200 261
201 218
201 251
201 266
201 268
201 281
202 240
202 271
202 296
203 250
203 289
203 298
204 230
204 246
205 212
205 240
205 252
205 254
205 272
206 226
207 220
207 222
207 233
207 250
207 296
209 266
209 289
210 231
210 275
211 214
211 244
211 278
212 240
212 254
212 270
212 272
213 234
213 257
213 280
214 225
214 256
214 284
214 291
215 216
215 227
215 243
215 288
216 228
216 288
216 294
217 226
218 219
218 257
218 263
218 270
218 291
218 294
219 294
220 236
220 269
220 274
220 279
220 287
221 256
222 233
222 257
222 296
222 298
223 235
224 226
224 251
224 252
224 277
224 283
225 227
225 234
225 260
225 284
226 240
226 277
227 234
227 265
227 271
227 290
227 295
229 249
229 262
229 268
231 299
232 298
233 241
234 260
234 275
234 290
236 243
237 240
237 256
237 274
237 286
237 287
237 290
238 246
238 267
239 270
240 270
240 272
241 258
241 263
241 291
242 253
243 300
244 249
244 278
246 271
247 266
247 271
247 281
247 286
247 297
248 268
248 281
249 262
250 285
250 289
250 298
251 281
251 299
252 277
252 285
253 279
253 286
255 256
255 291
256 274
256 291
257 275
257 283
257 291
259 287
261 270
262 283
262 290
262 293
264 292
265 292
265 295
266 268
266 281
266 295
267 288
268 275
268 300
269 273
269 274
269 279
270 296
271 281
271 298
272 298
275 283
275 290
277 283
277 286
287 293
288 293
296 298
*Classes
1
1
1
1
1
1
1
1
1
1
1
1
1
1
1
1
1
1
1
1
1
1
1
1
1
1
1
1
1
1
1
1
1
1
1
1
1
1
1
1
1
1
1
1
1
1
1
1
1
1
1
1
1
1
1
1
1
1
1
1
1
1
1
1
1
1
1
1
1
1
1
1
1
1
1
1
1
1
1
1
1
1
1
1
1
1
1
1
1
1
1
1
1
1
1
1
1
1
1
1
1
1
1
1
1
1
1
1
1
1
1
1
1
1
1
1
1
1
1
1
1
1
1
1
1
1
1
1
1
1
1
1
1
1
1
1
1
1
1
1
1
1
1
1
1
1
1
1
1
1
2
2
2
2
2
2
2
2
2
2
2
2
2
2
2
2
2
2
2
2
2
2
2
2
2
2
2
2
2
2
2
2
2
2
2
2
2
2
2
2
2
2
2
2
2
2
2
2
2
2
2
2
2
2
2
2
2
2
2
2
2
2
2
2
2
2
2
2
2
2
2
2
2
2
2
2
2
2
2
2
2
2
2
2
2
2
2
2
2
2
2
2
2
2
2
2
2
2
2
2
2
2
2
2
2
2
2
2
2
2
2
2
2
2
2
2
2
2
2
2
2
2
2
2
2
2
2
2
2
2
2
2
2
2
2
2
2
2
2
2
2
2
2
2
2
2
2
2
2
2
