*Vertices 300
*Edges
1 47
1 76
1 86
1 93
1 101
1 109
1 120
1 196
1 225
1 247
2 15
2 21
2 129
2 150
2 212
2 267
3 138
3 154
3 160
4 12
4 30
4 51
4 97
4 113
4 132
4 200
4 211
4 274
5 8
5 15
5 41
5 55
5 72
5 75
5 92
5 138
5 170
5 207
6 13
6 23
6 75
6 178
6 222
6 233
6 277
6 286
6 291
7 40
7 77
7 128
7 196
7 250
8 13
8 29
8 46
8 75
8 133
8 137
8 149
8 157
8 174
8 187
8 208
8 228
8 233
8 284
9 13
9 20
9 100
9 177
9 299
10 26
10 27
10 44
10 55
10 64
10 79
10 108
10 159
10 169
11 24
11 54
11 58
11 61
11 69
11 91
11 92
11 140
11 141
11 148
11 194
11 225
11 244
11 279
12 189
12 211
13 23
13 57
13 58
13 75
13 91
13 100
13 101
13 291
14 16
14 32
14 33
14 47
14 56
14 63
14 94
14 98
14 99
14 143
14 152
14 190
14 206
14 214
14 269
14 296
15 35
15 41
15 55
15 72
15 100
15 107
15 108
15 129
15 135
15 137
15 204
15 252
16 32
16 53
16 68
16 160
16 188
16 266
17 44
17 50
17 73
17 74
17 90
17 95
17 104
17 117
17 131
17 135
17 168
17 211
17 234
17 248
17 258
17 288
18 54
18 96
18 207
18 270
19 36
19 73
19 79
19 107
19 109
19 111
19 130
19 244
20 124
20 178
20 210
20 256
20 264
20 287
21 47
21 66
21 73
21 74
21 88
21 99
21 100
21 111
21 129
21 262
21 292
22 201
23 58
23 68
23 69
23 101
23 136
23 157
23 203
23 217
23 228
23 239
23 294
24 69
24 91
24 118
24 123
24 140
24 235
25 32
25 87
25 126
25 163
25 215
25 273
26 27
26 28
26 61
26 66
26 80
26 90
26 95
26 102
26 139
26 145
26 187
26 224
26 266
27 39
27 80
27 88
27 96
27 136
27 139
27 169
27 174
27 182
27 216
27 236
27 250
28 61
28 96
28 167
28 228
29 46
29 57
29 122
29 133
29 157
29 198
29 224
29 229
29 269
29 272
30 49
30 51
30 103
30 128
30 165
30 290
31 62
31 64
31 66
31 72
31 95
31 115
31 124
31 134
31 135
31 142
31 157
31 261
31 265
32 54
32 68
32 76
32 87
32 94
32 103
32 115
32 142
32 163
32 206
32 239
32 257
33 36
33 296
34 44
34 185
34 254
34 288
35 156
35 191
35 257
35 264
36 48
36 73
36 79
36 95
36 99
36 111
36 126
36 163
36 213
36 230
37 45
37 69
37 92
37 101
37 122
37 143
37 149
37 181
37 201
37 294
37 299
38 47
38 53
38 61
38 99
38 151
38 161
38 163
38 187
38 200
38 214
38 227
38 229
38 263
38 267
38 273
38 274
39 101
39 182
39 269
39 279
39 288
39 300
40 143
40 291
41 85
41 129
41 135
41 137
41 138
41 275
42 53
42 56
42 63
42 103
42 127
42 134
42 202
42 205
43 45
43 87
43 112
43 136
43 159
43 173
43 175
43 192
43 230
43 231
43 269
44 74
44 117
44 152
44 162
44 227
44 239
44 254
44 255
44 275
45 105
45 112
45 149
45 152
45 206
45 255
45 283
45 297
45 298
46 47
46 72
46 75
46 111
46 126
46 144
46 149
46 169
46 174
46 180
46 219
46 226
46 228
46 252
47 61
47 86
47 99
47 111
47 256
47 273
47 285
47 287
47 300
48 68
48 79
48 251
48 277
48 293
49 58
49 109
49 124
49 125
49 128
49 165
49 211
49 215
49 246
49 259
49 290
50 85
50 138
50 153
50 185
50 239
50 248
50 257
51 98
51 155
51 163
51 183
51 200
51 224
51 227
51 235
51 293
52 60
52 90
52 117
52 155
52 182
52 269
52 295
53 93
53 109
53 112
53 130
53 134
53 164
53 173
54 69
54 96
54 151
54 244
55 64
55 69
55 79
55 87
55 101
55 124
55 172
55 194
55 207
55 299
56 63
56 221
56 285
57 93
57 100
57 109
57 158
57 165
57 178
57 292
58 91
58 98
58 128
59 104
60 232
61 66
61 103
61 135
61 181
61 187
61 222
61 225
61 287
61 296
62 95
62 100
62 112
62 134
62 173
62 178
62 179
62 252
63 171
63 183
63 202
64 66
64 78
64 124
64 139
64 145
64 214
64 250
65 173
65 207
65 237
65 270
66 74
66 88
66 89
66 102
66 129
66 150
66 162
66 243
66 244
66 257
66 264
66 279
67 115
67 119
67 120
67 150
67 223
67 243
67 283
68 69
68 79
68 93
68 101
68 181
68 228
68 277
69 91
69 96
69 100
69 109
69 122
69 140
69 172
69 173
69 244
69 268
69 282
71 82
71 91
71 148
72 80
72 83
72 92
72 111
72 135
72 140
72 143
72 207
72 228
73 90
73 241
73 254
73 289
74 129
74 159
74 171
74 203
74 217
75 129
75 173
75 215
75 294
76 86
76 141
76 142
76 215
77 128
77 191
77 289
78 124
78 236
78 244
79 111
79 251
79 254
80 88
80 96
80 136
80 140
80 264
80 298
81 141
81 156
81 219
81 229
82 155
82 177
82 179
82 183
82 195
82 235
83 92
84 165
84 282
85 128
85 138
85 216
85 217
85 263
85 266
85 289
86 130
86 181
86 209
86 212
86 255
86 268
86 297
87 99
87 101
87 112
87 113
87 126
87 142
87 164
88 141
88 244
89 171
89 184
89 185
89 196
89 244
90 95
90 102
90 117
90 120
90 131
90 196
90 226
90 243
90 299
91 93
91 116
91 147
91 148
91 173
91 194
91 214
91 296
92 115
92 120
92 140
92 143
92 181
92 293
93 109
93 122
93 136
93 148
93 182
93 197
93 228
93 273
94 111
94 126
94 143
94 170
94 177
94 189
94 203
94 235
94 237
94 244
94 266
95 142
95 154
95 157
95 161
95 164
95 216
96 140
96 298
97 111
97 113
97 160
97 189
97 287
98 253
98 281
99 100
99 111
99 113
99 154
99 159
99 164
99 188
100 129
100 164
100 167
100 173
100 230
101 196
101 284
101 300
102 174
102 219
102 276
102 289
103 127
103 130
103 135
103 142
103 170
103 276
103 286
104 117
104 144
104 209
104 224
104 241
104 286
105 241
105 255
105 261
106 126
106 193
106 200
106 258
107 126
107 137
107 229
108 252
108 273
109 122
109 130
109 134
109 158
109 165
109 176
109 202
109 274
109 282
110 291
110 295
111 126
111 177
111 182
111 183
111 189
111 203
111 207
112 134
112 149
112 228
113 171
113 275
113 278
114 174
114 175
114 185
114 200
114 257
114 272
115 120
115 122
115 142
115 150
115 298
116 145
116 189
116 194
116 220
117 131
117 135
117 139
117 240
117 265
118 123
118 214
119 121
119 198
119 236
119 243
120 122
120 169
120 248
121 197
121 262
121 288
122 136
122 169
122 194
122 224
122 250
123 197
123 207
123 265
123 295
123 296
124 125
124 194
124 207
124 214
125 130
125 199
125 260
126 137
126 141
126 207
126 244
126 246
126 283
128 134
128 146
128 173
128 221
128 246
128 289
128 290
129 275
129 292
130 176
130 258
130 268
131 231
131 265
132 218
132 236
132 250
132 282
132 285
133 137
133 290
134 173
135 142
135 166
135 207
135 223
135 254
136 151
136 161
136 204
136 230
136 268
137 183
137 196
137 253
138 247
139 145
139 230
139 240
139 274
139 290
140 237
141 194
141 207
141 219
141 236
143 204
144 149
144 241
144 259
144 286
145 197
145 258
146 227
147 260
148 223
148 230
148 239
148 242
149 157
149 188
149 223
150 162
150 212
150 213
150 257
151 193
151 210
151 260
151 268
151 273
152 159
152 183
152 194
152 197
152 213
152 226
152 228
152 239
152 242
152 286
152 288
152 298
153 169
153 181
153 194
153 204
153 221
153 225
153 235
153 267
153 297
154 160
154 164
154 186
154 188
154 193
154 206
154 213
154 259
154 283
155 167
155 173
155 199
155 209
155 281
155 295
156 173
156 202
156 218
157 164
157 169
157 181
157 187
157 199
157 214
157 216
157 217
157 223
157 230
157 238
157 239
157 250
157 255
157 258
157 261
157 264
157 271
157 283
157 295
158 162
158 163
158 178
158 205
159 186
159 188
159 203
159 206
159 213
159 219
159 247
159 258
160 167
160 281
160 287
161 162
161 211
161 243
161 254
161 263
161 279
161 289
161 300
162 178
162 180
162 200
162 205
162 243
162 283
163 178
163 190
163 213
163 277
163 297
164 172
164 253
164 283
165 231
165 239
165 258
165 288
166 183
166 186
166 199
166 210
166 213
166 218
166 219
166 227
166 231
166 282
166 294
167 208
167 229
167 230
167 233
167 251
167 266
167 281
167 282
167 287
168 272
169 181
169 185
169 235
170 198
170 213
170 229
170 230
170 236
170 249
170 258
170 276
170 288
171 211
171 253
171 263
172 178
172 199
172 217
172 248
172 253
172 268
172 273
172 275
172 277
172 282
172 283
172 291
173 202
173 207
173 212
173 227
173 231
173 232
173 278
173 290
173 294
173 298
174 247
174 272
174 276
174 285
175 193
175 205
175 221
175 272
176 191
176 199
176 243
176 264
176 282
177 183
177 185
177 203
177 210
177 233
177 266
178 194
178 214
178 217
178 248
178 256
178 297
179 203
179 217
179 234
179 297
179 298
180 191
180 199
180 205
180 215
180 228
180 242
180 252
181 204
181 221
181 225
181 230
181 238
181 258
181 271
181 278
181 285
181 297
182 187
182 192
182 223
182 269
183 210
183 219
183 220
183 224
183 226
183 228
183 237
183 242
183 246
183 273
184 271
184 278
184 285
185 239
185 257
186 213
186 258
187 223
187 239
187 261
187 273
188 242
189 240
190 246
190 271
191 199
191 242
192 269
193 195
193 200
193 205
193 207
193 211
193 219
193 260
193 268
193 269
193 286
193 288
194 214
194 225
194 226
194 250
194 267
194 284
194 296
194 300
195 198
195 201
195 214
195 269
195 279
196 203
196 214
196 217
196 247
196 250
196 275
196 295
197 228
197 238
197 288
198 236
198 262
198 269
198 272
198 292
199 219
199 229
199 233
199 237
199 242
199 247
199 268
199 295
200 205
200 227
200 243
200 254
200 274
200 283
201 269
201 278
201 279
203 213
203 214
203 217
203 230
203 273
203 282
203 291
204 235
204 253
204 281
205 207
205 212
205 219
205 243
205 265
205 295
206 213
207 212
207 295
207 298
208 211
208 229
208 233
209 212
210 218
210 220
210 237
210 253
210 254
210 266
210 273
211 218
211 233
211 234
211 253
211 258
211 263
211 266
211 288
211 289
213 258
214 217
214 256
214 269
214 284
214 298
215 252
215 254
216 217
216 221
216 273
217 221
217 228
217 250
217 273
217 277
217 283
217 291
217 295
217 298
218 219
218 233
218 236
218 288
218 294
219 227
219 228
219 237
219 247
219 275
219 294
220 240
220 242
220 267
221 223
221 232
221 243
221 244
221 291
222 296
223 269
223 291
224 235
224 248
224 272
224 293
225 229
225 230
225 233
225 278
225 292
225 297
226 267
226 298
227 228
227 229
227 231
227 239
227 262
227 278
228 239
228 286
229 233
229 239
229 276
230 236
230 238
230 258
230 268
230 282
230 287
230 291
230 297
231 232
231 258
231 266
231 282
232 243
232 256
232 262
232 282
232 288
233 251
233 266
233 276
234 254
234 300
235 253
235 280
235 283
236 249
236 269
237 247
238 239
238 246
238 255
238 262
238 264
238 279
239 261
239 293
239 295
240 242
240 255
241 255
241 262
241 294
242 267
243 282
244 248
246 253
246 271
246 283
247 262
247 271
247 275
247 278
247 285
247 289
249 258
250 275
250 295
253 254
253 274
253 280
253 283
254 274
254 300
255 262
255 275
255 279
255 294
258 276
258 282
258 288
261 265
261 284
262 292
263 289
263 290
263 299
264 271
264 282
264 285
264 297
265 284
265 286
267 284
268 293
269 279
269 292
270 294
270 299
271 279
271 285
271 297
272 284
272 293
272 299
278 285
279 294
279 300
280 283
282 287
284 300
289 290
289 299
289 300
295 298
*Classes
1
1
1
1
1
1
1
1
1
1
1
1
1
1
1
1
1
1
1
1
1
1
1
1
1
1
1
1
1
1
1
1
1
1
1
1
1
1
1
1
1
1
1
1
1
1
1
1
1
1
1
1
1
1
1
1
1
1
1
1
1
1
1
1
1
1
1
1
1
1
1
1
1
1
1
1
1
1
1
1
1
1
1
1
1
1
1
1
1
1
1
1
1
1
1
1
1
1
1
1
1
1
1
1
1
1
1
1
1
1
1
1
1
1
1
1
1
1
1
1
1
1
1
1
1
1
1
1
1
1
1
1
1
1
1
1
1
1
1
1
1
1
1
1
1
1
1
1
1
1
2
2
2
2
2
2
2
2
2
2
2
2
2
2
2
2
2
2
2
2
2
2
2
2
2
2
2
2
2
2
2
2
2
2
2
2
2
2
2
2
2
2
2
2
2
2
2
2
2
2
2
2
2
2
2
2
2
2
2
2
2
2
2
2
2
2
2
2
2
2
2
2
2
2
2
2
2
2
2
2
2
2
2
2
2
2
2
2
2
2
2
2
2
2
2
2
2
2
2
2
2
2
2
2
2
2
2
2
2
2
2
2
2
2
2
2
2
2
2
2
2
2
2
2
2
2
2
2
2
2
2
2
2
2
2
2
2
2
2
2
2
2
2
2
2
2
2
2
2
2
