*Vertices 300
*Edges
1 81
1 83
1 88
1 118
1 245
2 4
2 9
2 15
2 114
2 121
2 284
3 62
3 73
3 76
3 86
3 99
3 125
3 148
3 187
3 235
3 244
3 246
3 256
3 268
3 297
4 17
4 114
4 138
4 156
4 197
4 203
4 206
4 223
4 232
4 244
4 249
4 273
5 15
5 33
5 38
5 74
5 109
5 133
5 140
5 148
5 206
5 234
5 258
5 259
5 263
5 280
6 71
6 189
6 293
7 183
7 258
8 19
8 30
8 34
8 41
8 51
8 63
8 90
8 99
8 128
8 175
8 244
8 279
8 292
9 13
9 60
9 78
9 121
9 135
9 181
9 195
9 233
9 268
9 284
10 186
10 267
11 67
11 91
11 97
11 140
11 160
11 168
11 184
11 191
11 234
11 242
11 268
11 290
12 66
12 82
12 84
12 153
12 252
12 260
13 29
13 39
13 44
13 60
13 71
13 102
13 151
13 203
13 267
13 289
13 293
14 20
14 37
14 62
14 76
14 106
14 122
14 125
14 138
14 167
14 181
14 211
14 228
14 257
15 66
15 114
15 117
15 128
15 133
15 274
16 51
16 79
16 92
16 100
16 249
17 56
17 59
17 131
17 144
17 177
17 230
17 241
18 44
18 73
18 105
18 110
18 145
18 171
18 184
18 188
18 195
18 211
18 214
18 245
18 255
18 275
18 278
19 30
19 60
19 78
19 80
19 127
19 207
19 225
19 267
20 34
20 115
20 216
21 36
21 37
21 46
21 68
21 69
21 106
21 107
21 108
21 118
21 121
21 129
21 158
21 200
21 217
21 231
21 275
22 36
22 75
22 82
22 107
22 172
22 199
22 204
22 233
22 271
22 287
23 42
23 87
23 125
23 255
24 76
24 132
24 140
24 155
24 158
24 161
24 258
24 275
25 69
25 282
26 91
26 126
26 141
26 142
26 169
26 195
26 229
26 296
27 34
27 48
27 52
27 58
27 76
27 172
27 203
27 207
27 225
27 235
27 261
27 300
28 35
28 53
28 94
28 121
28 158
28 205
28 227
29 36
29 42
29 68
29 102
29 104
29 117
29 137
29 177
29 202
29 215
29 252
29 277
29 300
30 34
30 41
30 63
30 78
30 80
30 128
30 162
30 181
30 238
30 270
30 297
31 98
31 136
31 139
31 144
32 108
32 115
32 118
32 141
32 151
32 170
32 213
32 295
33 149
33 169
33 173
33 177
33 219
33 229
33 245
34 44
34 76
34 99
34 115
34 122
34 145
34 173
34 178
34 233
34 244
34 245
35 53
35 54
35 78
35 94
35 127
35 215
35 225
35 227
36 38
36 46
36 69
36 85
36 91
36 93
36 108
36 137
36 219
36 259
36 287
37 42
37 69
37 92
37 106
37 125
37 129
37 174
37 216
37 217
38 85
38 91
38 184
38 209
38 259
38 274
38 289
39 44
39 80
39 136
39 137
39 151
39 209
39 264
40 43
40 90
40 127
40 131
40 133
40 194
40 282
40 298
40 299
41 51
41 90
41 147
41 150
41 171
41 175
41 267
41 285
41 295
41 300
42 68
42 79
42 106
42 125
42 147
42 164
42 174
42 216
42 217
42 237
43 75
43 111
43 113
43 127
43 169
43 182
43 234
43 247
43 298
44 104
44 106
44 143
44 145
44 209
44 231
44 281
45 86
45 99
45 171
45 263
46 52
46 91
46 173
46 195
47 55
47 65
47 111
47 155
47 220
47 243
47 274
47 275
47 291
48 64
48 154
48 157
48 183
48 205
48 207
48 216
49 67
49 126
49 193
49 216
49 232
49 252
49 266
49 272
50 68
50 137
50 151
50 235
50 248
50 265
50 275
50 283
51 52
51 59
51 60
51 90
51 92
51 101
51 130
51 144
51 150
51 158
51 161
51 175
51 194
51 235
51 251
52 76
52 92
52 164
52 176
52 241
52 260
53 73
53 82
53 95
53 110
53 121
53 136
53 147
53 156
53 187
53 206
53 233
54 81
54 94
54 95
54 114
54 135
54 160
54 205
54 207
54 225
55 118
55 141
55 196
55 208
55 246
56 59
56 73
56 94
56 110
56 204
57 79
57 95
57 141
57 145
57 255
57 267
58 198
58 213
58 222
58 230
58 269
59 68
59 144
59 164
59 177
59 184
59 210
59 230
60 71
60 78
60 96
60 99
60 138
60 165
60 207
60 251
60 267
61 91
61 142
61 158
61 169
62 71
62 76
62 78
62 81
62 84
62 86
62 122
62 125
62 132
62 135
62 153
62 185
63 86
63 135
63 166
63 239
63 262
63 272
64 86
64 125
64 154
64 171
64 228
64 239
64 273
65 82
65 109
65 111
65 131
65 192
65 219
65 235
65 245
65 246
65 259
66 82
66 117
66 123
66 124
66 189
66 242
66 294
67 103
67 126
67 140
67 193
67 198
67 234
67 296
68 117
68 156
68 163
68 170
68 200
68 223
68 231
68 268
68 291
68 299
69 118
69 158
69 190
69 193
70 90
70 124
70 162
70 252
70 273
71 138
71 165
71 267
72 238
72 251
73 82
73 86
73 94
73 110
73 120
73 148
73 180
73 187
73 192
73 206
73 233
73 293
74 153
74 195
75 82
75 113
75 165
75 177
75 190
75 195
75 208
75 298
75 300
76 78
76 122
76 132
76 176
76 212
76 221
76 235
76 256
76 292
76 300
77 122
77 135
77 162
77 189
77 222
77 226
77 288
78 94
78 99
78 176
78 222
79 100
79 119
79 126
79 131
79 133
79 145
79 169
79 186
79 201
79 203
79 208
79 237
79 267
79 268
79 288
79 290
79 300
80 95
80 97
80 127
80 136
80 247
80 271
80 287
81 86
81 88
81 93
81 95
81 115
81 135
81 152
81 225
81 238
81 292
82 107
82 110
82 111
82 127
82 129
82 134
82 151
82 164
82 172
82 175
82 178
82 189
82 212
82 215
82 237
82 247
83 186
83 218
83 228
83 281
84 153
84 162
84 166
84 167
84 179
84 270
85 120
85 180
85 188
85 191
85 218
85 274
85 285
85 292
86 99
86 125
86 135
86 263
86 297
86 299
87 194
87 201
87 210
88 115
88 152
88 156
88 257
88 265
88 286
88 288
88 292
89 179
89 207
89 240
90 98
90 133
90 149
90 219
90 226
90 243
90 273
90 297
90 298
91 108
91 140
91 142
91 162
91 178
91 266
91 271
91 295
91 297
92 106
92 125
92 130
92 144
92 176
93 108
93 142
93 162
93 167
93 219
93 220
94 110
94 114
94 138
94 178
94 221
95 118
95 127
95 136
95 141
95 205
96 99
96 109
96 148
96 153
96 275
97 136
97 147
97 168
97 182
97 190
97 244
97 276
98 144
98 149
98 158
98 163
98 191
98 217
98 221
98 226
98 227
98 268
99 138
99 173
99 229
99 233
99 273
100 192
100 225
100 259
100 273
100 291
101 148
101 198
101 203
101 246
101 247
101 256
101 277
101 282
101 284
102 103
102 104
102 117
102 129
102 130
102 170
102 191
102 202
102 206
102 277
102 284
102 289
102 295
103 115
103 259
103 294
103 295
104 130
104 196
104 214
104 235
104 253
104 266
105 106
105 129
105 147
105 167
105 184
105 188
106 147
106 159
106 211
106 212
106 278
107 111
107 129
107 130
107 146
107 272
108 192
108 275
109 111
109 124
109 140
109 146
109 148
109 187
109 215
109 242
109 265
110 120
110 138
110 148
110 180
110 187
110 196
110 216
110 294
111 112
111 119
111 177
111 215
111 235
111 237
111 242
111 274
111 285
112 119
112 232
112 251
113 116
113 130
113 145
113 199
113 276
114 167
114 171
114 178
114 181
114 207
114 271
114 273
115 118
115 128
115 163
115 178
115 183
115 207
115 238
115 292
116 119
116 130
116 145
116 293
117 123
117 124
117 142
117 146
117 177
117 257
117 280
118 141
118 170
118 248
119 208
119 215
119 265
120 147
120 182
120 192
120 198
120 200
120 211
120 218
120 233
120 271
120 285
121 129
121 136
121 168
121 171
121 178
121 189
121 194
121 284
122 125
122 132
122 159
122 165
122 170
122 208
122 214
122 221
122 275
122 279
122 287
122 288
123 124
123 140
123 155
123 167
123 228
123 257
123 280
124 146
124 222
124 265
124 297
125 138
125 147
125 164
125 205
125 211
125 257
125 260
126 142
126 191
126 193
126 208
126 218
126 237
126 296
127 166
127 179
127 215
127 267
128 218
129 130
129 147
129 154
129 167
129 180
129 192
129 194
129 229
129 244
129 254
130 145
130 165
130 300
131 133
131 203
131 219
131 285
132 139
132 220
132 238
132 289
133 167
133 176
133 194
133 239
133 253
133 258
133 287
133 298
134 163
134 187
134 196
134 247
135 175
135 198
135 211
135 239
136 139
136 156
137 169
137 176
137 192
137 236
137 265
137 276
137 279
138 173
138 201
138 206
138 240
138 274
138 287
138 296
139 164
139 223
139 232
139 296
140 155
140 165
140 212
140 220
141 197
141 246
141 248
142 160
142 169
142 175
142 176
142 177
142 180
142 209
142 219
142 251
142 254
143 172
143 202
143 216
143 225
143 230
145 190
145 191
145 198
145 214
146 184
146 265
146 272
147 167
147 205
147 226
147 267
148 184
148 187
148 201
148 207
148 213
148 233
149 163
149 219
149 226
149 231
149 287
150 194
150 214
150 230
150 240
151 163
151 209
152 156
152 160
152 174
152 258
153 173
153 195
154 192
154 194
154 246
154 273
154 296
155 220
155 244
155 254
155 289
156 160
156 174
156 223
156 266
156 296
157 163
157 199
157 223
157 225
157 273
157 300
158 161
158 163
158 199
158 205
158 258
158 280
159 175
159 206
159 209
159 212
159 244
159 260
160 254
160 258
161 163
161 170
161 171
161 205
161 206
161 211
161 252
161 258
161 273
162 181
162 192
162 212
162 224
162 252
163 173
163 175
163 192
163 196
163 199
163 207
163 212
163 263
164 175
164 260
164 276
165 176
165 191
165 208
165 218
165 261
165 264
165 287
166 177
166 260
166 274
167 175
167 184
167 220
167 228
167 279
167 287
167 289
168 242
169 176
169 180
169 193
169 212
169 235
169 274
169 276
169 279
169 290
169 295
170 171
170 206
170 235
170 243
170 244
170 275
171 178
171 183
171 209
171 211
171 213
171 295
172 278
172 282
172 289
173 195
173 199
173 223
173 224
173 225
173 230
173 240
173 255
173 263
173 268
173 273
173 278
173 281
173 287
173 300
174 258
175 192
175 211
175 212
175 226
175 279
175 281
176 193
176 208
176 235
176 242
176 279
176 287
177 286
178 183
178 186
178 189
178 200
178 209
178 210
178 211
178 216
178 223
178 295
179 191
179 207
179 208
179 239
179 263
179 269
180 250
180 259
180 290
180 291
180 295
180 296
181 224
181 233
181 235
181 271
181 274
182 186
183 216
184 189
184 209
184 210
184 218
184 220
184 290
185 222
185 242
186 223
186 246
186 264
186 283
186 295
187 196
187 209
187 212
187 238
188 206
189 210
190 193
190 198
190 260
190 265
190 276
191 208
191 226
191 262
192 194
192 212
192 248
193 198
193 242
193 260
193 265
193 288
194 230
194 282
195 230
195 261
195 273
196 199
196 212
196 238
197 219
197 226
197 228
198 218
198 221
199 204
199 205
199 210
199 223
199 224
199 261
199 263
199 300
200 220
200 271
201 208
201 213
201 240
201 269
202 235
202 237
202 241
202 294
203 247
203 249
203 300
204 205
204 223
204 253
204 263
205 253
205 258
205 263
205 266
206 228
206 244
206 260
207 225
207 239
207 267
208 214
208 223
208 261
208 269
208 280
209 210
209 220
209 246
209 260
209 296
210 223
211 212
211 226
211 246
211 289
211 296
212 235
212 248
212 276
212 281
213 276
213 294
213 295
214 243
215 254
215 277
215 298
218 244
218 254
218 290
219 236
219 279
219 285
220 271
220 289
220 290
221 227
221 241
221 246
221 256
221 295
222 242
222 269
223 224
223 232
223 246
223 261
223 283
223 295
223 296
224 233
224 263
224 300
225 248
225 273
225 280
226 262
227 256
228 234
228 239
228 244
228 255
228 293
229 237
229 245
229 255
229 263
230 237
230 268
230 282
231 257
231 299
233 274
234 292
235 237
235 243
235 274
235 275
235 276
236 279
236 290
237 245
239 253
239 266
239 282
239 292
240 248
240 287
240 294
241 294
242 269
242 279
242 287
243 272
243 275
243 286
244 254
244 293
245 246
245 255
245 278
246 256
246 264
246 293
246 296
247 249
247 267
247 270
247 279
247 285
247 300
248 280
249 300
250 296
253 263
253 266
254 277
255 278
256 296
257 292
259 284
259 291
260 274
261 280
262 277
262 300
263 266
264 266
264 278
264 283
264 287
265 286
265 288
266 278
267 281
267 285
268 281
268 290
268 300
270 283
271 288
272 275
275 278
275 286
276 295
277 300
281 290
282 292
284 289
284 293
286 288
290 295
294 295
*Classes
1
1
1
1
1
1
1
1
1
1
1
1
1
1
1
1
1
1
1
1
1
1
1
1
1
1
1
1
1
1
1
1
1
1
1
1
1
1
1
1
1
1
1
1
1
1
1
1
1
1
1
1
1
1
1
1
1
1
1
1
1
1
1
1
1
1
1
1
1
1
1
1
1
1
1
1
1
1
1
1
1
1
1
1
1
1
1
1
1
1
1
1
1
1
1
1
1
1
1
1
1
1
1
1
1
1
1
1
1
1
1
1
1
1
1
1
1
1
1
1
1
1
1
1
1
1
1
1
1
1
1
1
1
1
1
1
1
1
1
1
1
1
1
1
1
1
1
1
1
1
2
2
2
2
2
2
2
2
2
2
2
2
2
2
2
2
2
2
2
2
2
2
2
2
2
2
2
2
2
2
2
2
2
2
2
2
2
2
2
2
2
2
2
2
2
2
2
2
2
2
2
2
2
2
2
2
2
2
2
2
2
2
2
2
2
2
2
2
2
2
2
2
2
2
2
2
2
2
2
2
2
2
2
2
2
2
2
2
2
2
2
2
2
2
2
2
2
2
2
2
2
2
2
2
2
2
2
2
2
2
2
2
2
2
2
2
2
2
2
2
2
2
2
2
2
2
2
2
2
2
2
2
2
2
2
2
2
2
2
2
2
2
2
2
2
2
2
2
2
2
