*Vertices 300
*Edges
1 86
1 113
1 117
2 90
2 152
2 225
2 240
2 250
2 298
3 5
3 6
3 23
3 38
3 48
3 66
3 68
3 128
3 170
4 5
4 9
4 15
4 21
4 29
4 42
4 47
4 48
4 50
4 58
4 106
4 162
4 164
4 181
4 197
4 212
4 234
4 238
5 26
5 42
5 48
5 58
5 128
5 145
5 205
5 244
5 274
6 23
6 105
6 108
6 121
6 122
6 127
6 176
6 185
6 269
6 297
7 36
7 46
7 153
8 86
8 100
8 142
8 244
8 249
9 34
9 47
9 48
9 85
9 97
9 102
9 121
9 137
9 139
9 143
9 158
9 162
9 169
9 185
9 230
10 57
10 62
10 83
10 101
10 108
10 122
10 146
10 176
10 181
10 212
10 213
10 222
10 225
10 227
10 248
10 260
10 286
11 161
11 202
11 210
12 86
12 100
12 124
12 126
13 21
13 74
13 118
13 129
13 160
13 219
13 229
13 272
13 300
14 30
14 85
14 93
14 125
14 138
14 179
14 180
14 252
15 50
15 190
16 32
16 92
16 108
16 161
16 170
16 190
16 196
16 208
16 282
17 18
17 80
17 128
17 135
17 156
18 50
18 65
18 80
18 89
18 190
18 223
19 29
19 38
19 40
19 60
19 63
19 76
19 107
19 137
19 153
19 171
19 219
19 232
19 268
19 285
19 288
20 59
20 79
20 104
20 162
20 164
20 169
20 177
20 196
20 219
20 266
20 286
20 296
21 108
21 272
21 276
21 280
21 298
22 69
22 71
22 104
22 167
22 187
23 35
23 68
23 71
23 74
23 78
23 81
23 102
23 194
23 201
23 218
23 299
24 25
24 36
24 69
24 89
24 116
24 126
24 130
24 235
24 246
24 285
25 47
25 60
25 62
25 116
25 118
25 126
25 148
25 205
25 223
25 249
25 293
26 48
26 108
26 109
26 133
26 145
26 146
26 157
26 173
26 176
26 190
26 244
26 245
26 253
27 55
27 120
27 273
27 280
28 29
28 107
28 258
29 47
29 76
29 77
29 80
29 98
29 107
29 137
29 190
29 232
30 36
30 66
30 85
30 96
30 116
30 121
30 138
30 244
31 100
31 109
31 111
31 122
31 144
31 149
31 170
31 176
31 287
31 294
32 48
32 102
32 121
32 159
32 228
32 237
32 274
32 281
33 49
33 63
33 68
33 104
33 136
33 216
33 298
34 48
34 49
34 75
34 130
34 131
34 136
34 137
34 143
34 148
34 149
34 158
34 175
34 176
34 185
34 208
34 230
34 292
35 49
35 70
35 71
35 81
35 95
35 107
35 121
35 133
35 136
35 143
35 202
35 264
35 281
35 289
35 299
36 44
36 66
36 96
36 116
36 126
36 153
37 136
37 144
37 210
37 279
38 66
38 68
38 70
38 109
38 169
38 204
38 214
38 238
38 268
38 297
39 125
39 169
39 170
39 188
39 213
39 285
40 60
40 67
40 107
40 123
40 129
40 132
40 136
40 155
40 206
40 216
40 265
40 272
41 75
41 146
41 239
42 52
42 132
42 145
42 150
42 161
42 165
42 181
42 195
42 214
42 232
42 238
42 247
42 274
42 281
43 62
43 106
43 108
43 189
43 201
43 282
44 48
44 128
44 171
44 194
44 199
44 268
44 270
45 83
45 84
45 101
45 105
45 127
45 132
45 133
45 143
45 148
45 185
45 254
45 257
45 269
46 89
46 110
46 128
46 228
46 261
46 262
46 293
47 62
47 83
48 78
48 94
48 128
48 145
48 181
48 233
48 274
49 52
49 57
49 95
49 101
49 136
49 144
49 272
49 281
50 58
50 89
50 300
51 81
51 150
51 157
51 162
51 223
51 251
51 261
51 262
51 292
52 65
52 83
52 125
52 127
52 136
52 150
52 182
52 228
52 272
52 281
53 94
53 119
53 162
53 247
53 283
54 160
54 213
54 282
55 65
55 84
55 88
55 105
55 150
55 160
55 202
55 256
56 83
56 144
56 246
56 253
56 292
57 103
57 136
57 260
57 284
58 63
58 97
58 155
58 203
58 234
59 98
59 111
59 123
59 127
59 129
59 187
59 237
59 296
60 62
60 73
60 85
60 129
60 136
60 155
60 199
60 219
60 223
61 67
61 82
61 134
61 137
61 159
61 182
61 197
61 257
61 288
61 289
61 297
62 64
62 77
62 83
62 106
62 118
62 125
62 143
62 169
62 186
62 235
62 236
62 239
62 276
62 290
63 68
63 76
63 164
63 234
63 276
63 300
64 77
64 83
64 106
64 143
64 157
64 195
64 224
64 252
65 80
65 89
65 126
65 150
65 188
65 204
65 233
65 258
65 286
66 70
66 95
66 96
66 104
66 109
66 121
66 169
66 174
66 196
66 227
66 231
66 264
66 298
67 82
67 137
67 185
67 206
67 261
67 268
68 74
68 81
68 104
68 106
68 151
68 211
68 238
69 101
69 104
69 106
69 147
69 210
69 245
69 252
69 260
69 277
69 284
69 285
69 296
70 95
70 152
70 180
71 74
71 78
71 93
71 94
71 98
71 100
71 138
71 147
71 187
71 221
71 257
72 121
72 224
73 81
73 85
73 88
73 89
73 98
73 113
73 115
73 119
73 178
74 75
74 81
74 105
74 118
74 163
74 169
74 205
74 258
74 266
74 300
75 146
75 148
75 166
75 180
75 183
75 192
76 111
76 139
76 153
76 276
77 79
77 107
77 143
77 152
77 190
77 236
77 292
78 84
78 94
78 100
78 115
78 138
79 107
79 123
79 129
79 148
79 152
79 164
79 167
79 218
79 223
79 226
79 253
79 263
79 300
80 89
80 98
81 88
81 102
81 201
81 218
82 91
82 124
82 154
82 172
82 176
82 182
82 226
82 282
83 101
83 127
83 136
83 144
83 278
83 279
83 289
83 292
83 293
84 94
84 105
85 89
85 102
85 121
85 176
85 208
85 242
85 252
86 100
86 113
86 126
86 269
87 93
87 147
87 172
87 228
87 233
87 235
87 291
87 298
88 136
88 188
88 262
88 267
89 98
89 110
89 115
89 155
89 229
90 164
90 250
91 240
91 290
91 292
92 108
92 249
92 253
92 270
92 271
92 274
93 96
93 118
93 125
93 147
93 174
93 240
93 290
94 162
94 259
94 283
95 130
95 221
95 283
96 147
96 204
96 223
96 276
97 208
97 226
97 293
98 113
98 132
98 147
98 187
98 221
98 243
99 157
99 225
99 231
99 237
99 252
99 300
100 115
100 144
100 167
100 203
100 221
100 228
100 260
101 104
101 108
101 122
101 136
101 143
101 197
101 213
101 217
101 227
101 240
101 245
101 262
101 292
102 105
102 121
102 148
102 161
102 171
102 174
102 176
102 182
102 208
103 176
103 284
104 115
104 186
104 196
104 229
104 245
104 269
105 121
105 122
105 139
105 193
106 164
106 197
106 208
106 210
106 246
107 123
107 133
107 190
107 205
107 237
107 272
108 122
108 143
108 146
108 276
108 280
108 282
109 114
109 141
109 149
109 151
109 173
109 200
109 224
109 234
109 238
109 255
111 129
111 139
111 149
111 170
111 224
111 250
111 295
112 181
113 167
113 238
114 178
114 234
114 260
115 119
115 196
115 203
115 239
115 245
116 126
116 130
116 238
116 249
116 260
117 131
117 220
117 233
117 269
117 279
118 148
118 240
118 258
118 287
119 162
119 170
119 181
120 191
120 211
121 178
121 193
121 208
121 264
122 127
122 148
122 155
122 272
122 294
123 129
123 163
123 187
123 211
123 216
123 226
123 285
124 126
124 154
124 155
124 280
125 146
125 169
125 200
125 253
125 274
126 233
126 249
126 271
127 133
127 143
127 144
127 148
127 155
127 200
127 220
127 257
127 272
127 293
127 296
128 135
128 219
128 225
128 231
128 262
129 147
129 160
129 182
129 193
129 246
129 272
129 282
130 136
130 137
130 149
130 208
130 235
130 243
130 289
131 136
131 158
131 207
131 217
131 222
131 287
132 133
132 150
132 197
132 206
132 208
132 216
132 247
132 265
133 156
133 173
133 190
133 197
133 221
133 273
133 283
134 197
134 268
134 294
135 207
135 208
135 219
135 237
136 144
136 149
136 177
136 216
136 293
137 159
137 182
137 197
137 217
137 297
138 147
138 212
138 253
138 270
138 290
139 169
139 193
139 195
140 190
140 282
143 149
143 175
143 185
143 230
143 289
144 149
144 156
144 293
145 151
145 175
145 180
145 187
146 184
146 189
146 190
146 207
146 212
146 231
146 244
146 253
146 259
147 160
147 174
147 276
147 277
147 298
148 176
148 293
148 300
149 162
149 170
149 185
149 210
149 283
150 157
150 188
150 200
150 204
150 292
151 155
151 180
151 202
151 232
151 234
151 275
152 166
152 226
153 155
153 161
153 171
153 179
153 185
153 200
153 209
153 255
153 298
154 155
154 239
155 191
155 198
155 234
155 255
155 300
156 159
156 178
156 196
156 274
156 283
157 219
157 230
157 244
157 245
157 252
157 273
158 217
158 264
158 265
159 190
159 196
159 274
159 283
160 193
160 202
161 171
161 185
161 210
161 214
161 230
161 235
162 164
162 170
162 172
162 181
162 214
162 244
163 211
163 258
164 182
164 208
165 186
165 232
165 268
165 269
165 281
167 183
167 218
167 253
168 250
169 193
169 235
169 266
170 185
171 191
171 257
171 279
171 281
171 298
172 296
173 254
174 176
174 190
174 213
174 234
175 182
175 183
175 194
175 220
175 240
175 283
176 182
176 190
176 205
176 213
176 217
176 237
176 244
176 274
176 297
177 286
178 196
178 202
178 229
178 234
178 237
178 244
178 262
178 273
178 283
178 290
179 201
179 252
179 255
179 279
180 183
180 218
180 282
181 200
181 214
181 230
181 239
181 244
181 245
181 247
181 260
181 269
181 274
181 276
182 183
182 208
182 213
182 218
182 220
182 248
183 218
183 292
184 185
184 206
184 228
184 296
185 188
185 206
185 207
185 209
185 210
185 216
185 232
185 242
185 254
185 269
185 285
185 292
185 293
185 296
185 297
185 298
186 216
186 263
186 269
186 290
186 297
187 257
187 285
187 296
188 254
188 265
188 267
189 194
189 201
189 210
189 223
189 235
189 255
189 259
189 268
190 196
191 201
191 204
191 255
191 279
191 288
192 238
192 247
192 299
193 195
193 221
193 266
193 274
193 294
194 201
194 225
194 231
194 240
194 248
194 278
194 281
194 283
194 292
195 266
195 274
195 289
195 294
196 215
196 264
196 273
196 274
197 212
197 231
197 292
198 216
198 226
198 297
199 232
199 270
199 295
200 217
200 224
200 254
200 255
200 262
200 265
200 268
200 270
201 210
201 216
201 231
201 240
201 255
201 262
201 268
201 270
201 272
201 276
201 278
201 299
202 212
202 231
202 232
202 251
202 256
202 259
202 262
202 268
202 285
202 286
203 229
203 234
203 268
203 290
204 279
205 216
205 218
205 237
205 290
206 207
206 208
206 210
206 242
206 259
206 278
206 296
207 208
207 222
207 227
207 259
207 265
208 220
208 248
210 216
210 237
210 254
210 292
210 297
211 232
211 258
212 231
212 234
212 242
212 253
212 256
212 275
212 281
212 285
212 286
212 292
213 237
213 297
214 219
214 244
214 245
214 247
214 269
216 217
216 220
216 226
216 237
216 251
216 297
217 227
217 262
217 265
217 297
217 298
218 240
218 263
218 287
218 290
218 292
218 293
219 230
219 244
220 297
221 283
222 265
223 235
223 244
223 248
223 260
223 263
223 284
223 289
224 268
224 285
225 231
225 271
225 281
225 298
226 288
226 293
227 259
227 292
227 298
228 231
228 233
228 254
228 277
228 281
229 237
229 262
229 263
229 278
229 290
229 292
230 235
230 244
230 245
230 267
230 284
230 289
231 278
231 281
231 283
232 247
232 259
232 269
232 285
232 299
233 243
233 271
233 273
234 253
234 255
234 275
234 286
234 300
235 245
235 267
235 275
235 284
236 247
236 276
237 274
237 300
239 247
239 269
240 283
240 290
240 292
240 294
242 286
244 248
244 252
244 260
244 273
245 269
247 269
247 272
247 276
247 299
248 260
248 283
249 260
251 262
253 270
253 285
254 265
254 277
255 270
255 279
257 281
259 265
259 278
260 283
260 286
261 293
262 268
262 297
263 265
263 271
263 278
263 289
263 290
263 292
265 268
265 271
265 290
266 300
268 276
268 297
269 274
269 299
271 288
271 290
271 298
272 276
272 280
274 289
275 284
278 279
278 283
278 288
278 290
279 288
281 286
285 286
287 299
288 289
290 292
292 293
*Classes
1
1
1
1
1
1
1
1
1
1
1
1
1
1
1
1
1
1
1
1
1
1
1
1
1
1
1
1
1
1
1
1
1
1
1
1
1
1
1
1
1
1
1
1
1
1
1
1
1
1
1
1
1
1
1
1
1
1
1
1
1
1
1
1
1
1
1
1
1
1
1
1
1
1
1
1
1
1
1
1
1
1
1
1
1
1
1
1
1
1
1
1
1
1
1
1
1
1
1
1
1
1
1
1
1
1
1
1
1
1
1
1
1
1
1
1
1
1
1
1
1
1
1
1
1
1
1
1
1
1
1
1
1
1
1
1
1
1
1
1
1
1
1
1
1
1
1
1
1
1
2
2
2
2
2
2
2
2
2
2
2
2
2
2
2
2
2
2
2
2
2
2
2
2
2
2
2
2
2
2
2
2
2
2
2
2
2
2
2
2
2
2
2
2
2
2
2
2
2
2
2
2
2
2
2
2
2
2
2
2
2
2
2
2
2
2
2
2
2
2
2
2
2
2
2
2
2
2
2
2
2
2
2
2
2
2
2
2
2
2
2
2
2
2
2
2
2
2
2
2
2
2
2
2
2
2
2
2
2
2
2
2
2
2
2
2
2
2
2
2
2
2
2
2
2
2
2
2
2
2
2
2
2
2
2
2
2
2
2
2
2
2
2
2
2
2
2
2
2
2
