*Vertices 300
*Edges
1 154
1 181
1 207
1 252
1 257
2 66
2 76
2 88
2 117
2 134
3 12
3 102
3 113
3 128
3 196
3 204
3 207
3 219
3 228
3 256
3 259
3 280
3 281
4 43
4 151
4 243
4 261
4 274
4 285
5 54
5 64
5 90
5 122
5 147
6 18
6 36
6 54
6 59
6 68
6 75
6 88
6 111
6 120
6 145
6 159
6 243
7 55
7 91
7 127
7 154
7 172
7 185
7 196
7 240
7 261
8 27
8 30
8 99
8 151
8 173
8 175
8 181
8 200
9 18
9 112
9 121
9 133
9 230
9 259
10 12
10 29
10 39
10 73
10 93
10 120
10 124
10 146
10 198
10 254
10 262
10 268
10 291
11 32
11 33
11 65
11 70
11 143
11 146
11 149
11 161
11 164
11 231
12 25
12 60
12 73
12 113
12 126
12 249
12 293
13 32
13 78
13 80
13 126
13 128
13 129
13 134
13 144
13 288
13 297
14 16
14 25
14 31
14 32
14 80
14 84
14 85
14 103
14 115
14 145
14 152
14 182
14 184
14 232
14 253
14 254
14 257
14 285
14 290
15 21
15 38
15 39
15 111
15 129
15 144
15 177
15 278
15 294
16 23
16 32
16 42
16 69
16 83
16 84
16 85
16 103
16 104
16 146
16 211
16 220
16 237
16 272
17 58
17 129
17 154
17 173
17 233
17 241
18 22
18 49
18 58
18 59
18 74
18 107
18 108
18 114
18 115
18 120
18 121
18 133
18 150
18 160
18 180
18 213
18 221
18 249
18 286
18 292
18 295
18 298
19 21
19 172
20 24
20 43
20 146
20 260
20 275
20 284
20 298
21 36
21 38
21 48
21 62
21 114
21 118
21 144
21 163
21 242
22 33
22 37
22 58
22 78
22 117
22 153
22 154
22 167
22 278
23 48
23 61
23 62
23 63
23 69
23 80
23 115
23 128
23 161
23 168
23 173
23 186
23 198
23 204
23 220
23 234
23 260
23 265
23 270
23 273
23 287
24 43
24 95
24 96
24 135
24 136
24 160
24 213
24 254
24 289
25 39
25 44
25 62
25 103
25 156
25 218
26 40
26 92
26 146
26 184
26 196
26 230
26 232
26 262
27 47
27 63
27 86
27 99
27 125
27 158
27 181
27 203
27 204
27 231
27 270
27 273
28 105
28 227
28 280
29 45
29 95
29 96
29 120
29 180
29 237
29 258
29 299
30 92
30 140
30 260
30 264
31 36
31 60
31 62
31 71
31 112
31 138
31 152
31 178
31 221
31 240
31 278
32 65
32 85
32 93
32 103
32 113
32 115
32 120
32 187
32 286
32 297
33 86
33 133
33 143
33 161
33 167
33 172
33 288
34 44
34 80
34 211
34 227
34 239
34 246
34 288
34 300
35 115
36 54
36 68
36 70
36 115
36 152
36 165
36 242
36 287
37 43
37 87
37 101
37 154
37 155
37 164
37 168
37 177
37 278
37 287
37 288
38 39
38 57
38 132
38 136
38 296
39 41
39 57
39 62
39 72
39 73
39 79
39 115
39 117
39 141
39 168
39 194
39 252
39 283
39 291
40 47
40 70
40 71
40 76
40 92
40 96
40 118
40 180
40 182
40 192
40 206
40 217
40 222
40 235
40 252
40 255
40 259
41 88
41 106
41 168
41 271
42 100
42 110
42 117
42 148
42 168
42 194
42 221
42 274
42 296
43 95
43 101
43 191
43 289
44 62
44 67
44 80
44 93
44 121
44 133
44 283
45 72
45 73
45 83
45 96
45 103
45 180
45 209
45 217
45 237
45 258
45 284
46 92
46 102
46 109
46 138
47 70
47 125
47 161
47 176
47 222
47 247
47 254
47 275
48 62
49 80
49 100
49 120
49 124
49 236
49 251
49 268
49 288
50 160
50 221
50 265
50 279
51 58
51 76
51 117
51 166
51 219
51 239
51 276
52 79
52 86
52 87
52 133
52 191
52 195
52 200
52 204
52 205
52 282
52 287
53 92
53 97
53 251
54 75
54 88
54 90
54 168
54 199
55 115
55 247
55 261
56 61
56 198
56 221
56 275
57 70
57 136
57 185
57 284
58 74
58 78
58 83
58 117
58 125
58 129
58 144
58 148
58 230
58 232
58 237
58 246
58 277
59 76
59 77
59 99
59 108
59 114
59 117
59 284
59 299
60 71
60 138
60 183
60 210
60 228
61 115
61 128
61 152
61 161
61 181
61 192
61 257
61 273
61 285
62 73
62 114
62 118
62 221
62 258
62 265
62 278
63 103
63 110
63 117
63 129
63 181
63 207
63 257
63 273
63 275
64 131
65 160
65 164
65 213
65 247
66 76
66 77
66 103
66 111
66 112
66 117
66 134
66 230
66 240
66 277
67 106
67 209
67 252
67 267
68 82
68 111
68 115
68 201
68 230
69 104
69 108
69 146
69 174
69 181
69 195
69 225
69 232
69 240
69 284
70 115
70 121
70 132
70 133
70 136
70 190
70 192
70 223
70 231
70 239
71 132
71 155
71 204
71 288
72 73
72 79
72 101
72 115
72 283
72 291
72 296
73 96
73 113
73 120
73 144
73 146
73 158
73 198
73 209
73 228
73 235
73 237
73 249
73 251
73 252
73 283
74 117
74 123
74 166
74 189
74 226
74 247
75 126
75 165
75 293
76 77
76 88
76 117
76 170
76 201
76 226
76 299
77 107
77 120
77 134
77 170
77 172
77 177
77 180
77 201
77 235
77 262
77 278
78 101
78 106
78 108
78 131
78 134
78 139
78 148
78 152
78 169
78 194
78 253
78 271
79 87
79 91
79 95
79 205
80 196
80 222
80 227
80 273
80 283
80 284
80 288
80 299
80 300
81 124
81 125
81 176
81 209
81 242
81 284
81 295
81 298
82 92
82 111
82 166
82 237
82 250
82 278
82 300
83 166
83 177
83 202
83 237
83 278
84 103
84 134
84 143
84 152
84 155
84 166
84 182
84 204
84 239
84 254
84 263
85 103
85 151
85 232
86 108
86 133
86 135
86 148
86 172
86 229
86 284
86 287
87 95
87 96
87 101
87 122
87 123
87 205
87 219
87 225
87 228
87 279
87 294
87 295
88 106
88 110
88 117
88 160
88 178
88 199
88 259
89 92
89 132
89 217
89 279
89 281
89 300
90 147
90 168
90 174
90 199
90 240
91 172
92 109
92 161
92 251
92 260
92 278
92 279
93 95
93 113
93 120
93 121
93 133
93 151
93 163
93 187
93 190
93 293
94 95
94 170
94 180
94 213
94 222
94 232
94 238
94 285
94 290
95 96
95 101
95 114
95 132
95 136
95 146
95 151
95 205
95 213
95 231
95 238
95 254
95 258
95 272
95 290
96 113
96 123
96 133
96 180
96 205
96 284
97 110
97 126
97 142
97 176
97 198
97 215
97 262
97 284
98 212
98 290
99 151
99 200
99 284
100 162
100 199
100 224
100 268
100 284
100 291
101 106
101 110
101 139
101 164
101 215
101 217
102 109
102 113
102 133
102 202
102 234
102 255
102 270
102 280
103 112
103 145
103 182
103 217
103 230
103 232
103 249
104 233
104 275
105 189
105 191
105 207
105 227
105 275
105 279
106 135
106 139
106 298
107 108
107 161
107 193
107 223
107 242
107 292
108 148
108 150
108 174
108 181
108 191
108 192
108 266
109 241
109 270
109 295
110 117
110 129
110 215
110 273
111 202
111 230
112 121
112 134
112 161
112 192
112 241
112 278
113 133
113 223
113 269
113 297
114 136
114 163
114 187
114 221
114 231
114 233
114 250
114 254
114 297
115 117
115 141
115 180
115 185
115 198
115 257
116 129
116 276
117 194
117 259
117 276
118 129
118 173
118 192
118 287
119 219
119 262
120 124
120 182
120 221
120 262
120 268
120 289
120 291
120 298
121 133
121 161
121 187
121 207
121 224
121 237
121 257
121 277
121 293
122 160
122 162
122 178
122 207
122 219
122 238
122 265
123 180
123 190
123 204
123 228
123 232
123 247
123 259
123 285
124 150
124 161
124 182
124 196
124 198
124 221
124 242
124 295
125 129
125 158
125 164
125 176
125 195
125 203
125 207
125 223
125 262
125 281
125 292
126 142
126 293
127 151
127 207
128 175
128 178
128 184
128 220
128 262
128 281
129 144
129 154
129 202
129 237
129 260
129 276
129 287
130 157
130 158
130 179
130 185
130 206
130 229
131 150
131 268
131 276
132 136
132 161
132 168
132 191
132 192
132 214
132 239
132 241
132 259
132 268
132 271
132 279
132 286
132 288
132 297
133 163
133 207
133 237
133 252
133 280
134 143
134 230
134 232
134 263
134 298
135 268
135 284
136 146
136 165
136 211
136 231
136 272
136 290
137 176
137 198
137 231
137 233
137 262
138 176
138 179
138 209
138 238
138 253
139 147
139 151
139 194
140 166
140 167
140 195
140 219
141 185
141 252
142 161
142 165
142 185
142 215
142 227
142 293
143 149
143 159
144 202
144 210
144 252
144 273
145 153
145 159
145 163
145 186
145 204
145 215
145 232
145 270
146 180
146 232
146 259
146 284
147 232
147 241
147 270
147 292
148 152
148 168
148 174
148 225
148 230
148 272
149 159
149 188
150 193
150 196
150 198
150 244
150 266
150 268
151 207
151 241
151 243
151 290
152 186
152 194
152 220
152 253
152 285
153 154
153 155
153 166
153 190
153 204
153 216
153 219
153 263
153 290
153 296
154 173
154 235
154 252
155 182
155 198
155 204
155 240
155 262
155 270
156 183
156 188
156 201
156 270
156 294
157 169
157 185
158 179
158 191
158 278
159 164
159 166
159 219
159 266
160 164
160 175
160 181
160 200
160 213
160 219
160 257
161 192
161 199
161 224
161 232
161 291
161 295
162 175
162 192
162 250
162 259
163 190
163 289
164 175
164 195
164 200
164 250
164 260
164 278
165 193
165 211
165 215
165 293
166 187
166 219
166 227
166 242
166 247
166 264
167 225
168 204
168 223
168 235
168 246
168 269
168 287
168 297
169 176
169 185
169 199
169 253
169 271
169 285
170 222
170 265
171 277
172 180
172 203
172 269
172 284
172 299
173 200
173 273
173 294
174 189
174 199
174 224
174 285
174 291
175 200
175 231
175 235
175 237
175 249
175 250
175 265
175 281
176 185
176 204
176 206
176 207
176 213
176 223
176 233
176 246
176 250
176 268
176 284
176 291
177 245
177 272
177 278
178 221
179 183
179 207
179 212
179 275
180 182
180 196
180 230
180 232
180 275
180 285
180 295
180 299
181 225
181 240
181 257
182 212
182 232
182 275
183 201
183 270
184 186
184 198
184 262
185 262
185 271
185 278
185 279
185 281
186 204
186 216
186 219
186 220
186 224
186 262
186 282
187 233
187 250
187 268
187 291
188 201
188 243
190 219
191 204
191 225
191 228
191 230
191 271
191 278
192 222
192 231
192 241
192 259
192 263
193 195
193 208
193 217
193 260
193 265
194 224
194 286
194 296
195 201
195 203
195 216
195 219
195 226
195 238
195 241
195 260
195 270
195 282
195 292
196 198
196 204
196 216
196 232
196 262
196 271
198 262
198 266
198 281
199 220
199 224
199 234
199 251
199 285
199 291
199 296
200 257
200 265
200 282
201 270
202 256
203 219
203 238
204 240
204 241
204 270
204 284
204 296
205 225
205 241
205 243
205 263
205 276
206 213
206 217
206 237
206 246
206 250
206 265
206 278
206 279
206 291
207 257
207 275
208 217
208 251
208 267
209 217
209 221
209 238
209 245
209 267
209 274
209 275
209 283
209 292
211 272
212 229
212 295
212 298
212 299
213 223
213 257
213 291
213 292
214 296
216 219
216 229
216 232
216 299
217 241
217 267
217 291
217 293
218 259
218 265
218 269
219 229
219 256
219 264
219 290
220 234
220 285
221 274
221 295
223 246
223 292
223 297
224 296
225 240
225 245
225 257
225 272
227 299
229 257
229 295
230 259
231 249
231 265
231 286
231 297
232 237
232 240
232 246
232 271
232 291
233 275
233 294
233 300
234 251
234 285
235 249
235 252
235 269
236 289
237 240
237 250
238 267
238 270
238 292
239 246
239 248
240 272
241 263
241 270
241 293
245 267
245 272
245 274
245 278
246 284
247 254
247 271
247 280
249 255
249 265
249 269
250 265
251 283
252 267
254 263
254 275
257 282
260 265
260 298
261 266
261 274
261 275
261 288
262 281
263 270
263 276
263 287
263 290
263 293
265 269
265 278
265 279
265 284
266 288
267 274
267 275
268 284
268 286
268 291
268 297
269 279
269 284
271 280
273 294
275 288
278 279
278 287
284 288
285 296
286 296
286 297
287 290
290 296
294 300
295 299
*Classes
1
1
1
1
1
1
1
1
1
1
1
1
1
1
1
1
1
1
1
1
1
1
1
1
1
1
1
1
1
1
1
1
1
1
1
1
1
1
1
1
1
1
1
1
1
1
1
1
1
1
1
1
1
1
1
1
1
1
1
1
1
1
1
1
1
1
1
1
1
1
1
1
1
1
1
1
1
1
1
1
1
1
1
1
1
1
1
1
1
1
1
1
1
1
1
1
1
1
1
1
1
1
1
1
1
1
1
1
1
1
1
1
1
1
1
1
1
1
1
1
1
1
1
1
1
1
1
1
1
1
1
1
1
1
1
1
1
1
1
1
1
1
1
1
1
1
1
1
1
1
2
2
2
2
2
2
2
2
2
2
2
2
2
2
2
2
2
2
2
2
2
2
2
2
2
2
2
2
2
2
2
2
2
2
2
2
2
2
2
2
2
2
2
2
2
2
2
2
2
2
2
2
2
2
2
2
2
2
2
2
2
2
2
2
2
2
2
2
2
2
2
2
2
2
2
2
2
2
2
2
2
2
2
2
2
2
2
2
2
2
2
2
2
2
2
2
2
2
2
2
2
2
2
2
2
2
2
2
2
2
2
2
2
2
2
2
2
2
2
2
2
2
2
2
2
2
2
2
2
2
2
2
2
2
2
2
2
2
2
2
2
2
2
2
2
2
2
2
2
2
