*Vertices 300
*Edges
1 169
1 243
2 12
2 19
2 35
2 82
2 87
2 145
2 232
2 245
4 11
4 14
4 60
4 74
4 108
4 114
4 133
4 139
4 142
4 150
4 172
4 190
4 205
4 217
4 231
4 246
4 259
4 284
5 9
5 43
5 86
5 89
5 151
5 160
5 165
5 254
6 21
6 54
6 57
6 70
6 93
6 99
6 100
6 111
6 132
6 134
6 186
6 211
6 226
6 283
7 9
7 11
7 50
7 71
7 92
7 96
7 114
7 136
7 147
7 243
7 251
8 26
8 30
8 51
8 91
8 95
8 119
8 138
8 186
8 191
8 197
8 229
8 285
8 287
8 288
8 296
9 11
9 29
9 43
9 50
9 56
9 71
9 84
9 89
9 92
9 96
9 104
9 124
9 147
9 176
9 202
9 224
9 264
9 273
10 25
10 66
10 93
10 117
10 143
10 172
11 26
11 27
11 64
11 65
11 84
11 92
11 101
11 126
11 130
11 231
11 244
11 258
11 268
11 269
11 273
12 19
12 21
12 35
12 74
12 155
12 171
12 172
12 177
12 209
12 232
12 235
12 278
13 46
13 49
13 85
13 104
13 140
13 230
13 285
14 89
14 163
14 191
14 198
14 203
14 222
14 246
14 275
15 162
15 235
16 55
16 114
16 144
16 178
16 222
17 48
17 83
17 110
17 136
17 157
18 23
18 65
18 106
18 187
18 257
18 270
19 87
19 110
19 232
20 25
20 31
20 51
20 76
20 190
20 248
20 261
21 35
21 38
21 54
21 68
21 69
21 70
21 92
21 112
21 116
21 264
22 56
22 71
22 88
22 128
23 54
23 59
23 70
23 106
23 141
23 152
23 200
23 218
23 262
23 278
24 98
24 141
24 144
24 167
24 262
24 293
25 115
25 143
25 190
25 191
25 210
25 222
25 243
25 275
25 282
26 31
26 51
26 52
26 68
26 92
26 96
26 112
26 130
26 189
26 194
26 269
26 271
26 287
27 75
27 208
27 268
27 290
28 34
28 65
28 118
28 149
28 197
28 245
28 298
29 58
29 75
29 92
29 102
29 147
29 167
29 210
29 216
29 264
29 295
30 49
30 81
30 100
30 119
30 259
30 285
31 51
31 67
31 84
31 125
31 181
31 214
31 224
31 248
31 261
31 272
31 289
32 56
32 62
32 71
34 36
34 63
34 118
34 133
34 153
34 174
34 272
35 42
35 71
35 73
35 85
35 90
35 116
35 126
35 155
35 204
35 219
35 239
35 289
36 48
36 53
36 63
36 70
36 90
36 118
36 129
36 253
37 44
37 45
37 57
37 65
37 124
37 134
37 137
37 141
37 146
37 188
37 226
37 231
37 291
37 296
38 42
38 45
38 51
38 92
38 100
38 121
38 123
38 148
38 157
38 230
38 263
38 265
39 47
39 101
40 154
40 208
41 137
41 152
41 178
41 187
41 193
41 204
41 219
41 289
42 46
42 47
42 66
42 80
42 85
42 90
42 92
42 102
42 121
42 218
42 249
42 265
42 289
43 53
43 91
43 102
43 104
43 109
43 151
43 159
43 176
43 254
43 255
44 45
44 57
44 65
44 85
44 104
44 140
44 149
44 192
44 199
44 211
44 229
44 258
44 283
45 90
45 98
45 102
45 129
45 202
45 219
45 227
45 248
45 260
45 265
45 271
45 279
46 211
46 212
46 218
46 230
46 246
46 264
47 55
47 64
47 101
47 120
47 144
47 151
47 273
47 277
48 79
48 108
48 129
48 136
48 161
48 251
48 274
48 287
49 81
49 106
49 111
49 113
49 132
49 202
49 230
50 66
50 107
50 119
50 124
50 202
50 214
50 273
51 89
51 92
51 135
51 163
51 174
51 219
51 220
51 244
51 272
51 274
52 54
52 96
52 128
52 130
52 187
52 243
53 60
53 88
53 104
53 114
53 129
53 156
53 182
53 284
53 298
54 63
54 70
54 73
54 102
54 104
54 106
54 141
54 152
54 159
54 184
54 187
54 203
54 221
54 263
54 267
54 286
54 295
55 58
55 70
55 101
55 108
55 111
55 134
55 137
55 144
55 151
55 161
55 204
55 238
55 247
55 257
55 277
56 71
56 83
56 88
56 100
56 130
56 157
56 269
57 58
57 65
57 102
57 129
57 134
57 150
57 181
57 196
57 226
57 279
58 65
58 69
58 90
58 96
58 102
58 113
58 115
58 129
58 134
58 183
58 279
58 289
58 297
59 75
59 82
59 99
59 106
59 113
59 134
59 162
59 174
59 187
59 231
59 245
59 261
60 100
60 108
60 114
60 132
60 153
60 161
60 190
60 194
60 197
60 216
60 269
61 135
61 143
61 144
61 161
61 194
61 196
61 204
61 205
61 210
61 248
61 288
62 165
62 256
62 276
62 296
63 118
63 179
63 202
63 216
63 295
63 298
64 87
64 120
64 138
64 231
64 233
64 294
65 92
65 129
65 130
65 134
65 149
65 164
65 196
65 262
66 90
66 119
66 145
66 153
66 173
66 233
66 244
67 82
67 125
67 203
67 214
67 232
68 81
68 97
68 110
68 111
68 112
68 117
68 138
68 142
68 169
68 170
68 226
68 282
68 287
69 95
69 112
69 142
69 202
69 246
69 261
69 297
70 137
70 146
70 192
70 200
70 204
70 228
70 229
70 253
71 100
71 147
71 168
71 224
71 236
71 239
71 269
71 279
71 289
72 196
72 199
72 235
73 113
73 116
73 163
73 167
73 203
73 222
73 238
73 256
73 295
73 296
74 79
74 150
74 172
74 203
74 237
74 248
74 295
74 297
75 106
75 162
75 176
75 192
75 216
75 228
75 287
76 78
76 103
76 118
76 186
76 190
76 217
76 226
76 289
77 78
77 122
77 133
77 205
77 247
77 284
77 290
77 293
77 297
78 217
78 224
78 281
78 285
79 83
79 127
79 136
79 174
79 238
79 248
79 271
79 272
79 285
79 295
80 90
80 191
81 95
81 100
81 111
81 124
81 154
81 202
81 218
82 93
82 111
82 113
82 133
82 145
82 176
82 186
82 187
82 195
82 198
82 226
82 261
83 136
83 157
83 266
83 269
83 295
84 176
84 186
84 194
84 224
84 225
84 226
84 263
84 289
85 106
85 125
85 126
85 140
85 181
85 205
85 279
85 298
86 89
87 102
87 153
87 233
87 250
87 276
87 294
88 95
88 98
88 102
88 114
88 171
88 186
88 187
88 193
88 213
88 224
88 267
88 269
88 279
88 287
89 92
89 99
89 136
89 158
89 170
89 222
89 266
89 299
90 102
90 135
90 244
90 253
90 263
90 284
91 100
91 121
91 288
91 296
92 143
92 149
92 213
92 265
92 272
92 300
93 95
93 111
93 117
93 151
94 96
94 133
94 143
94 162
94 175
94 193
94 202
94 223
94 277
94 280
94 292
95 105
95 111
95 114
95 135
95 142
95 153
95 163
95 173
95 185
95 213
95 241
95 249
95 287
96 202
96 211
96 243
96 264
96 274
96 279
97 112
97 117
97 186
97 194
97 205
98 104
98 140
98 141
98 148
98 163
98 234
98 279
98 290
98 298
99 134
99 299
100 105
100 121
100 132
100 216
101 120
101 126
101 231
101 241
101 273
102 104
102 233
102 260
102 263
102 279
102 297
103 118
103 139
103 156
103 189
103 240
103 272
103 275
104 114
104 140
104 181
104 202
104 208
104 209
104 220
104 226
104 239
104 249
104 260
104 263
104 289
104 298
105 120
105 132
105 227
105 255
105 278
106 125
106 174
106 187
106 196
106 200
106 218
106 256
106 264
106 278
107 119
107 124
107 273
108 120
108 151
108 161
108 197
108 255
108 277
109 207
110 111
110 117
110 169
110 200
110 282
111 132
111 154
111 161
111 163
111 187
111 198
111 202
111 222
111 246
111 250
111 261
112 129
112 176
112 210
112 233
112 241
112 246
112 261
112 264
112 287
113 115
113 132
113 134
113 162
113 176
113 227
113 238
114 190
114 208
114 217
114 220
114 221
114 224
114 274
115 183
115 208
116 167
116 169
116 195
116 214
116 230
116 245
116 261
116 273
117 118
117 138
117 146
117 151
117 170
117 197
117 251
117 278
118 123
118 133
118 275
119 124
119 147
119 168
119 229
119 259
119 275
119 296
119 300
120 124
120 175
120 178
120 255
121 123
121 148
121 230
121 263
122 165
122 284
122 290
122 296
123 237
124 128
124 146
124 172
124 180
124 255
124 273
125 140
125 196
125 240
125 277
125 292
126 273
127 129
127 139
127 150
127 238
128 146
128 187
128 193
128 291
128 293
129 150
129 156
129 237
129 260
129 274
129 287
130 194
130 231
130 258
131 238
131 247
131 269
131 276
132 146
132 151
132 176
132 188
132 227
132 240
132 241
132 283
133 153
133 178
133 187
133 222
133 233
133 241
133 277
133 284
133 292
133 293
134 137
134 176
134 215
134 261
134 283
134 299
135 161
135 169
135 173
135 186
135 244
135 245
135 249
135 272
135 274
136 146
136 231
136 243
136 251
136 266
137 141
137 146
137 204
137 215
137 260
138 175
138 231
138 288
139 148
139 162
139 176
139 240
139 271
139 284
139 294
139 296
140 149
141 144
141 146
141 152
141 239
141 262
141 266
142 157
142 168
142 173
142 202
142 226
142 259
142 275
142 286
142 296
143 149
143 161
143 183
143 201
143 202
143 238
143 248
143 249
143 252
143 272
144 146
144 147
144 151
144 171
144 204
144 257
144 283
145 153
145 194
145 205
145 225
145 233
145 279
145 281
145 284
146 172
146 208
146 223
146 251
146 260
146 291
147 192
147 288
147 300
148 244
149 164
149 241
150 163
150 274
151 161
151 192
151 196
151 238
151 281
151 283
152 162
152 187
152 195
152 204
152 221
152 231
152 267
153 195
153 205
153 233
153 241
153 279
153 281
153 284
153 295
154 177
154 208
154 246
154 250
154 260
154 262
154 264
155 262
155 278
156 240
157 249
157 265
158 212
158 266
159 180
159 184
159 202
159 255
159 293
160 191
160 205
160 225
160 254
161 162
161 176
161 183
161 199
161 201
161 202
161 231
161 238
161 248
161 271
161 286
162 171
162 176
162 179
162 199
162 202
162 217
162 231
162 235
162 238
162 284
163 222
163 234
163 251
163 272
163 290
164 188
164 241
164 298
165 168
165 256
165 259
165 286
165 296
166 292
167 211
167 243
167 283
168 171
168 259
168 275
168 288
168 296
169 221
169 245
169 258
169 286
169 293
169 296
170 178
170 191
170 222
170 256
170 278
171 201
171 208
171 209
171 220
171 221
171 235
171 240
171 259
172 196
172 197
172 200
172 223
173 185
173 213
173 219
173 283
173 287
173 289
174 175
174 179
174 272
175 179
175 193
175 227
175 272
175 280
175 292
176 178
176 192
176 219
176 222
176 228
176 231
176 261
176 287
177 186
177 197
177 229
177 262
178 190
178 191
178 204
178 222
179 202
179 208
179 240
179 298
180 293
181 202
181 214
181 261
181 297
181 298
182 187
182 212
182 249
182 272
183 248
183 250
183 265
184 210
184 211
184 243
185 198
185 201
185 234
185 268
186 194
186 196
186 197
186 205
186 224
186 226
186 289
187 193
187 212
187 242
187 297
187 298
188 200
188 241
188 243
188 253
188 260
188 291
188 293
189 208
189 271
190 217
190 284
190 292
191 197
191 205
191 222
191 279
192 196
192 199
192 200
192 229
192 288
192 300
193 198
193 242
193 267
193 268
194 205
194 210
194 215
194 219
194 243
194 264
194 269
194 279
194 287
195 261
195 263
195 267
196 197
196 199
196 234
196 244
196 278
196 288
196 300
197 229
197 244
197 245
198 226
198 267
198 268
198 275
199 201
199 233
199 235
199 258
199 271
199 288
200 260
200 275
201 211
201 221
201 233
201 234
201 235
201 238
201 286
202 237
202 255
202 260
202 298
203 295
203 297
204 237
204 267
204 288
205 210
205 219
205 243
205 248
205 279
205 284
207 232
207 253
207 276
208 211
208 221
208 240
208 243
208 260
208 271
208 283
208 290
209 220
209 248
209 284
210 243
210 256
210 264
211 212
211 243
211 258
211 264
211 271
211 283
211 286
213 270
213 272
213 285
213 300
214 224
214 273
215 252
215 269
216 233
216 264
216 294
216 295
218 229
219 239
219 260
219 269
219 287
219 289
219 297
219 298
220 249
220 260
220 274
221 259
221 286
222 251
222 256
222 264
222 266
222 277
223 230
223 231
223 251
225 233
227 240
227 280
228 242
229 288
229 291
230 251
230 270
230 285
231 251
232 253
232 276
233 241
233 271
233 295
234 278
234 286
234 288
234 290
235 240
235 258
235 259
236 239
237 274
237 287
238 247
239 279
239 289
241 298
243 251
243 264
243 284
243 291
243 293
244 269
244 288
246 264
247 254
247 284
247 297
248 250
248 265
248 271
248 279
248 284
248 294
249 253
249 265
249 272
250 284
251 260
252 268
252 269
253 291
254 297
254 299
256 264
256 277
258 281
258 283
258 286
259 296
260 262
260 275
260 293
261 263
261 267
261 289
262 278
263 267
263 291
264 276
266 295
267 274
267 299
270 272
270 285
271 285
274 279
274 287
276 294
277 292
279 289
280 292
281 283
286 296
287 288
289 297
297 298
*Classes
1
1
1
1
1
1
1
1
1
1
1
1
1
1
1
1
1
1
1
1
1
1
1
1
1
1
1
1
1
1
1
1
1
1
1
1
1
1
1
1
1
1
1
1
1
1
1
1
1
1
1
1
1
1
1
1
1
1
1
1
1
1
1
1
1
1
1
1
1
1
1
1
1
1
1
1
1
1
1
1
1
1
1
1
1
1
1
1
1
1
1
1
1
1
1
1
1
1
1
1
1
1
1
1
1
1
1
1
1
1
1
1
1
1
1
1
1
1
1
1
1
1
1
1
1
1
1
1
1
1
1
1
1
1
1
1
1
1
1
1
1
1
1
1
1
1
1
1
1
1
2
2
2
2
2
2
2
2
2
2
2
2
2
2
2
2
2
2
2
2
2
2
2
2
2
2
2
2
2
2
2
2
2
2
2
2
2
2
2
2
2
2
2
2
2
2
2
2
2
2
2
2
2
2
2
2
2
2
2
2
2
2
2
2
2
2
2
2
2
2
2
2
2
2
2
2
2
2
2
2
2
2
2
2
2
2
2
2
2
2
2
2
2
2
2
2
2
2
2
2
2
2
2
2
2
2
2
2
2
2
2
2
2
2
2
2
2
2
2
2
2
2
2
2
2
2
2
2
2
2
2
2
2
2
2
2
2
2
2
2
2
2
2
2
2
2
2
2
2
2
