*Vertices 300
*Edges
1 28
1 30
1 39
1 101
1 126
1 198
1 245
1 266
2 5
2 16
2 36
2 70
2 71
2 150
2 180
2 185
3 4
3 41
3 48
3 74
3 101
3 210
3 226
3 241
3 272
3 294
4 31
4 56
4 68
4 74
4 108
4 110
4 150
4 225
4 238
4 284
4 287
5 16
5 56
5 66
5 74
5 75
5 82
5 92
5 121
5 134
5 150
5 165
5 212
5 294
6 8
6 14
6 35
6 37
6 48
6 53
6 67
6 97
6 105
6 112
6 145
6 149
6 187
6 202
6 204
6 245
6 263
7 19
7 65
7 125
7 172
7 188
7 215
7 229
7 285
8 39
8 48
8 53
8 80
8 91
8 128
8 155
8 204
8 263
8 290
8 293
9 32
9 44
9 68
9 122
9 136
9 168
9 188
9 269
10 28
10 98
10 218
11 41
11 65
11 69
11 85
11 86
11 112
11 148
11 150
11 222
11 230
11 240
11 254
11 272
11 287
12 46
12 59
12 66
12 208
12 257
13 114
13 241
14 27
14 40
14 51
14 61
14 63
14 77
14 89
14 105
14 109
14 179
14 262
14 274
15 53
15 97
15 126
15 128
15 136
15 244
15 263
15 298
16 75
16 82
16 83
16 150
16 165
16 251
16 265
16 267
16 281
16 295
17 18
17 37
17 69
17 75
17 169
17 263
17 269
18 60
18 88
18 93
18 103
18 187
18 192
18 272
19 41
19 60
19 65
19 84
19 88
19 93
19 102
19 123
19 124
19 125
19 127
19 130
19 131
19 149
19 161
19 167
19 172
19 232
19 238
19 249
19 251
20 138
20 158
20 164
20 236
21 25
21 29
21 34
21 39
21 49
21 66
21 110
21 126
21 128
21 140
21 164
21 191
21 204
21 206
21 226
21 229
21 234
21 241
21 266
21 281
22 67
22 81
22 87
22 92
22 137
22 179
22 204
22 215
22 230
22 231
24 71
24 87
24 100
24 177
24 195
25 37
25 61
25 76
25 106
25 110
25 112
25 119
25 140
25 146
25 153
25 156
25 163
25 190
25 293
26 136
26 221
26 228
26 246
27 51
27 105
27 116
27 142
27 158
27 162
27 173
27 186
27 196
27 223
27 233
27 242
27 244
27 277
28 37
28 39
28 47
28 92
28 98
28 99
28 142
28 154
28 204
28 205
28 213
28 220
28 226
28 232
28 299
29 204
29 207
29 266
29 276
30 46
30 82
30 119
30 123
30 176
31 46
31 74
31 113
31 147
31 201
31 232
31 266
32 48
32 66
32 157
32 161
32 165
32 197
32 254
32 259
32 283
33 73
33 79
33 134
33 167
33 183
33 201
33 207
33 257
34 43
34 104
34 291
35 47
35 58
35 67
35 73
35 95
35 182
35 204
35 231
35 266
35 287
36 70
36 76
36 82
36 89
36 123
36 131
36 239
36 290
37 51
37 53
37 61
37 67
37 69
37 90
37 112
37 133
37 146
37 187
37 194
37 217
37 223
37 242
37 255
37 270
37 288
38 58
38 80
38 84
38 134
38 248
38 260
38 290
39 92
39 99
39 101
39 128
39 178
39 191
40 77
40 250
40 273
41 64
41 65
41 83
41 95
41 109
41 121
41 150
41 158
41 166
41 204
41 206
41 213
41 217
41 218
41 231
41 274
42 105
42 124
42 149
42 193
43 56
43 123
43 132
43 166
43 177
43 201
43 211
43 222
43 231
43 241
44 68
44 91
44 122
44 126
44 127
44 131
44 135
44 154
44 157
44 186
44 196
45 52
45 60
45 76
45 123
45 183
45 237
45 279
45 293
46 72
46 82
46 123
46 125
46 135
46 147
46 167
46 176
46 208
46 251
47 204
47 223
47 231
48 79
48 89
48 186
48 232
48 274
48 295
49 60
49 119
49 122
49 127
49 129
49 148
49 186
49 229
49 241
49 255
49 272
49 287
50 56
50 74
50 87
50 139
50 147
50 151
50 180
50 186
50 193
50 214
50 241
50 249
50 255
51 125
51 142
51 194
51 203
51 272
52 115
52 141
52 157
52 195
52 252
52 279
52 299
53 109
53 127
53 140
53 144
53 187
53 250
53 256
53 260
53 298
54 103
54 107
54 111
54 207
54 234
54 266
55 130
56 62
56 74
56 83
56 93
56 105
56 119
56 139
56 150
56 172
56 174
56 179
56 201
56 226
56 264
56 297
57 278
58 84
58 113
58 142
58 147
58 162
58 177
58 238
58 260
58 266
59 66
59 138
59 191
60 88
60 122
60 123
60 129
60 192
60 243
60 294
61 73
61 109
61 140
61 187
61 197
61 202
61 244
61 249
61 250
61 280
61 288
62 93
62 130
62 193
62 226
62 235
62 236
62 252
63 192
63 212
63 232
63 244
64 71
64 80
64 83
64 150
64 169
64 249
64 279
65 109
65 162
65 211
65 218
65 225
65 231
65 232
65 249
65 257
65 260
65 299
66 74
66 94
66 142
66 191
66 272
66 288
66 289
67 204
67 222
68 74
68 91
68 122
68 126
68 128
68 273
69 86
69 133
69 160
69 212
70 82
70 116
71 83
71 129
71 165
71 193
71 251
72 125
72 136
72 148
72 167
72 248
72 257
73 94
73 102
73 109
73 127
73 167
73 173
73 182
73 184
73 252
73 255
73 264
74 101
74 134
74 160
74 184
74 284
75 90
75 154
75 182
75 209
75 234
75 256
76 116
76 154
76 207
76 237
76 272
76 291
77 108
77 139
77 143
77 179
77 205
77 233
77 258
77 270
78 86
78 101
78 118
78 121
78 195
78 282
79 81
79 178
80 83
80 112
80 145
80 212
80 284
80 290
80 299
81 87
81 95
81 137
82 89
82 131
82 178
82 203
82 212
82 239
83 105
83 121
83 150
83 153
83 169
84 92
84 125
84 127
84 136
84 234
84 244
84 271
84 292
84 293
84 296
85 86
85 119
85 121
85 275
86 112
86 119
86 121
86 170
86 181
86 185
86 276
86 279
86 281
87 100
87 129
87 137
87 139
87 165
87 171
87 196
87 248
87 266
88 103
88 111
88 161
88 176
88 198
88 221
88 267
88 286
89 232
89 295
90 194
90 201
90 209
90 221
90 293
91 150
91 187
91 218
91 240
91 276
92 99
92 156
92 208
92 212
92 230
93 105
93 110
93 121
93 146
93 187
93 236
93 238
94 169
94 174
94 175
94 220
94 225
94 232
94 252
94 288
95 298
96 136
96 215
97 144
97 169
97 172
97 212
97 213
97 241
97 255
98 240
98 271
100 129
100 165
100 199
101 108
101 162
101 183
101 201
101 261
102 124
102 154
102 182
102 189
102 280
102 292
103 111
103 143
103 160
103 165
103 176
103 191
103 193
103 284
103 287
104 164
104 233
104 277
105 110
105 112
105 149
105 174
105 179
105 248
105 271
105 284
106 174
106 217
106 234
106 246
107 137
107 205
107 248
108 122
108 179
109 116
109 121
109 172
109 202
109 250
109 260
109 298
110 112
110 121
110 221
110 236
110 249
110 291
111 161
111 172
111 188
111 193
111 235
112 141
112 145
112 148
112 213
113 117
113 147
113 275
113 285
114 132
114 157
114 177
114 230
114 247
114 268
114 291
115 131
115 134
115 145
115 197
115 199
115 249
116 135
116 211
117 142
117 145
117 191
117 242
117 275
118 157
118 209
118 231
118 259
118 276
118 282
119 142
119 162
119 166
119 175
119 191
119 201
119 272
121 166
121 170
121 204
121 294
122 171
122 200
122 241
123 125
123 131
123 145
123 149
123 166
123 184
123 201
123 244
123 252
124 153
124 159
124 193
124 227
124 231
124 278
124 282
125 127
125 154
126 128
127 129
127 130
127 131
127 138
127 140
127 165
127 169
127 177
127 201
127 205
127 222
127 251
127 290
128 156
128 165
128 200
128 222
128 250
128 265
128 286
128 288
128 293
129 130
129 138
129 185
129 251
130 185
130 276
131 138
131 145
131 171
132 142
132 177
133 146
133 194
133 212
133 219
134 137
134 156
134 160
134 167
134 260
135 167
135 169
135 191
135 196
135 211
135 234
135 254
135 293
136 140
136 146
136 228
136 244
136 250
136 254
136 279
138 142
138 158
138 197
138 220
138 233
138 295
139 225
139 233
139 297
139 300
140 200
140 239
141 153
141 213
141 279
142 145
142 177
142 189
142 194
142 220
142 250
142 256
142 265
142 293
143 169
143 173
143 227
143 267
143 282
144 250
145 196
145 236
146 156
146 157
146 168
146 173
146 249
146 279
147 162
147 214
147 248
147 269
148 168
149 216
149 252
149 284
150 191
150 240
151 186
151 194
151 234
151 249
151 293
151 294
152 155
152 220
152 232
152 265
152 278
152 288
152 293
153 170
153 203
153 205
153 231
153 250
153 256
153 293
154 164
154 196
154 254
155 206
155 232
155 281
155 288
155 293
156 200
156 212
156 214
156 251
156 279
156 294
157 165
157 209
157 249
157 259
157 263
157 270
157 299
158 167
158 196
158 209
158 228
158 255
158 274
159 170
159 186
159 231
160 161
160 184
160 188
160 228
160 230
160 269
161 183
161 188
161 197
161 230
161 237
161 286
162 187
162 191
162 194
162 205
162 215
162 223
162 257
162 261
162 266
162 281
163 190
163 249
164 219
164 290
165 186
165 200
165 201
165 206
165 217
165 232
165 260
165 281
165 288
166 175
166 201
166 213
166 214
166 247
167 172
167 196
167 240
167 251
168 187
168 194
168 195
169 255
169 280
169 295
169 300
170 186
170 203
170 248
170 300
171 196
171 248
172 211
172 226
172 239
172 249
172 280
172 297
173 217
173 223
173 235
173 298
174 215
174 246
174 264
174 268
174 282
174 289
174 296
175 214
175 237
175 247
175 277
176 272
177 198
177 204
177 268
177 292
178 290
179 204
179 245
179 263
179 271
179 272
179 299
180 214
180 236
180 268
181 281
182 204
182 216
182 252
183 188
183 201
183 205
183 207
183 218
183 224
183 237
183 257
183 279
183 289
183 292
184 255
184 264
185 224
185 268
185 290
185 296
186 200
186 255
186 268
186 274
186 281
187 194
187 202
187 215
187 265
188 218
188 257
189 235
189 243
189 265
189 280
189 292
189 294
191 214
191 234
191 236
191 240
192 206
192 227
192 244
192 249
192 272
192 287
193 195
193 219
193 229
193 252
193 276
193 282
193 287
194 201
194 202
194 223
194 265
194 267
194 294
195 222
195 267
196 200
196 211
196 216
196 242
196 266
196 288
198 221
199 240
199 285
200 216
200 217
200 260
200 288
200 295
201 212
201 224
201 232
201 257
201 274
201 292
202 243
203 204
203 289
203 293
204 215
204 238
204 272
204 280
205 215
205 222
205 231
205 270
205 272
205 292
206 227
206 275
206 281
206 284
206 290
207 266
207 286
207 291
208 209
209 221
209 246
209 274
209 289
210 226
210 268
210 272
211 231
211 238
211 239
211 286
211 287
212 255
212 274
212 290
213 259
214 216
214 230
214 236
214 249
214 251
214 266
215 229
215 246
215 289
216 228
216 266
217 242
217 247
219 278
219 290
220 228
220 232
221 274
222 238
222 243
222 272
223 261
223 281
223 294
224 241
224 290
225 252
225 273
225 287
226 274
226 280
226 297
226 299
227 249
228 266
228 269
228 297
229 252
229 261
229 278
230 236
230 237
230 251
230 254
231 238
231 246
231 260
231 267
231 278
231 282
231 288
231 298
232 251
232 278
232 281
232 299
233 255
233 277
234 240
234 293
235 243
235 264
235 295
235 298
237 252
238 266
238 280
238 298
239 280
240 271
240 285
242 261
243 272
246 282
246 289
246 296
248 260
249 287
250 256
250 271
250 292
250 298
252 287
254 259
254 283
255 264
255 273
255 287
255 290
256 270
257 281
257 292
258 270
260 284
262 273
262 296
263 299
264 273
264 296
265 293
265 295
266 275
267 282
267 288
267 294
268 274
270 299
271 292
273 287
273 296
276 277
276 282
277 288
279 297
281 284
281 288
281 295
284 290
284 298
286 287
289 292
*Classes
1
1
1
1
1
1
1
1
1
1
1
1
1
1
1
1
1
1
1
1
1
1
1
1
1
1
1
1
1
1
1
1
1
1
1
1
1
1
1
1
1
1
1
1
1
1
1
1
1
1
1
1
1
1
1
1
1
1
1
1
1
1
1
1
1
1
1
1
1
1
1
1
1
1
1
1
1
1
1
1
1
1
1
1
1
1
1
1
1
1
1
1
1
1
1
1
1
1
1
1
1
1
1
1
1
1
1
1
1
1
1
1
1
1
1
1
1
1
1
1
1
1
1
1
1
1
1
1
1
1
1
1
1
1
1
1
1
1
1
1
1
1
1
1
1
1
1
1
1
1
2
2
2
2
2
2
2
2
2
2
2
2
2
2
2
2
2
2
2
2
2
2
2
2
2
2
2
2
2
2
2
2
2
2
2
2
2
2
2
2
2
2
2
2
2
2
2
2
2
2
2
2
2
2
2
2
2
2
2
2
2
2
2
2
2
2
2
2
2
2
2
2
2
2
2
2
2
2
2
2
2
2
2
2
2
2
2
2
2
2
2
2
2
2
2
2
2
2
2
2
2
2
2
2
2
2
2
2
2
2
2
2
2
2
2
2
2
2
2
2
2
2
2
2
2
2
2
2
2
2
2
2
2
2
2
2
2
2
2
2
2
2
2
2
2
2
2
2
2
2
