*Vertices 300
*Edges
1 35
1 108
1 139
1 188
1 239
1 255
1 297
2 104
2 151
2 219
2 258
3 19
3 102
3 126
3 154
3 157
3 158
3 261
4 36
4 39
4 95
4 102
4 123
4 125
4 172
4 260
4 299
5 35
5 44
5 59
5 124
5 183
5 207
5 264
6 44
6 51
6 62
6 83
6 97
6 101
6 181
6 211
6 226
7 105
7 112
7 144
7 145
7 167
7 193
7 239
8 27
8 98
8 159
8 185
8 198
8 241
8 243
8 266
8 297
9 37
9 67
9 84
9 136
9 148
9 218
9 276
9 288
10 28
10 31
10 51
10 76
10 113
10 120
10 127
10 134
10 140
10 272
10 298
11 13
11 26
11 52
11 65
11 71
11 102
11 119
11 288
11 293
12 33
12 49
12 50
12 60
12 77
12 141
12 173
12 221
13 25
13 97
13 102
13 119
13 142
13 147
13 165
13 267
13 293
14 15
14 18
14 32
14 35
14 49
14 50
14 179
14 191
14 251
14 266
15 32
15 33
15 58
15 70
15 94
15 109
15 151
15 200
15 262
15 277
16 27
16 82
16 93
16 96
16 106
16 265
17 19
17 47
17 58
17 94
17 129
17 181
17 220
17 271
17 286
18 67
18 70
18 76
18 98
18 130
18 145
18 158
18 184
18 185
18 191
18 231
18 256
18 267
18 280
18 288
19 20
19 102
19 111
19 114
19 126
19 129
19 208
19 210
19 281
20 90
20 102
20 129
20 157
20 169
20 203
20 216
20 235
21 28
21 73
21 93
21 106
21 119
21 122
22 42
22 197
22 259
23 30
23 206
23 227
23 250
23 298
24 157
24 191
24 197
24 296
25 49
25 55
25 93
25 147
25 175
25 219
25 231
25 257
26 44
26 52
26 94
26 130
26 255
26 279
26 298
27 31
27 51
27 98
27 106
27 123
27 128
27 158
27 181
27 227
28 33
28 134
28 151
28 258
28 262
28 286
28 293
29 58
29 63
29 77
29 89
29 90
29 96
29 141
29 145
29 282
30 50
30 63
30 111
30 122
30 136
30 141
30 167
30 197
30 215
30 284
31 46
31 50
31 51
31 69
31 123
31 142
31 224
32 70
32 121
32 140
32 182
32 202
32 234
32 260
33 98
33 149
33 200
33 209
33 221
33 258
34 117
34 248
34 289
35 48
35 88
35 124
35 135
35 142
35 144
35 183
35 188
35 266
35 274
35 281
36 39
36 42
36 61
36 102
36 111
36 138
36 283
37 62
37 101
37 114
37 117
37 157
37 210
37 256
37 267
37 275
37 280
38 75
38 88
38 91
38 144
38 177
39 109
39 131
39 138
39 140
39 173
39 208
39 216
39 248
39 252
39 272
39 287
39 290
40 135
40 165
40 250
41 53
41 87
41 100
41 105
41 108
41 139
41 196
41 197
41 212
41 292
42 138
42 227
42 234
43 152
43 203
43 241
44 51
44 59
44 97
44 140
44 147
44 207
44 257
45 80
45 133
45 199
46 69
46 73
46 75
46 90
46 93
46 107
46 122
46 159
46 223
46 233
46 265
46 284
46 293
46 294
47 64
47 110
47 157
47 239
47 249
47 287
48 110
48 130
48 144
48 178
48 233
48 282
49 69
49 78
49 127
49 140
49 147
49 158
49 172
49 188
50 63
50 69
50 77
50 81
50 96
50 124
50 128
50 141
50 167
50 191
50 195
50 274
51 77
51 97
51 102
51 104
51 113
51 128
51 134
51 143
51 145
52 102
52 119
52 169
53 105
53 179
53 288
54 68
54 135
54 166
54 230
55 72
55 74
55 93
55 96
55 101
55 103
55 142
55 178
55 180
55 215
55 218
55 228
55 236
56 151
56 225
56 233
56 261
57 139
57 199
57 205
58 90
58 94
58 95
58 109
58 122
58 131
58 141
58 277
58 297
59 100
59 150
60 74
60 149
60 187
60 300
61 102
61 111
61 139
61 145
61 146
62 78
62 83
62 101
62 255
62 291
63 113
63 208
63 236
64 106
64 110
64 112
64 194
65 72
65 94
65 115
65 148
65 206
65 294
66 98
66 161
66 217
66 283
67 110
67 114
67 120
67 129
67 134
67 140
67 148
67 175
67 184
67 185
67 196
67 243
67 250
67 296
69 84
69 114
69 124
69 127
69 156
69 160
69 208
69 229
69 259
70 72
70 166
70 183
70 288
71 105
71 145
71 250
72 96
72 101
72 111
72 115
72 136
72 204
72 208
72 248
72 289
73 93
73 233
73 248
73 264
73 299
74 101
74 135
74 149
74 221
74 282
75 88
75 93
75 135
75 169
75 235
76 98
76 156
76 170
76 272
77 96
77 124
77 240
78 101
78 172
78 220
78 297
79 89
79 162
79 280
80 134
80 143
80 151
80 231
80 293
81 88
81 124
81 166
81 177
81 187
81 243
82 96
82 206
82 207
82 219
82 244
82 295
82 296
83 188
83 249
83 270
83 297
84 168
84 183
84 251
84 275
85 210
85 248
85 271
85 281
85 287
86 191
86 212
86 214
87 104
87 128
87 139
87 182
87 185
88 100
88 124
88 135
88 149
88 152
88 154
88 155
89 118
89 123
89 169
89 282
89 299
90 94
90 172
90 233
90 255
91 93
91 106
91 121
91 127
91 177
91 230
91 239
91 276
92 167
92 169
92 230
92 241
92 282
92 294
92 299
93 106
93 163
93 170
93 195
93 218
93 282
94 115
94 130
94 203
94 271
95 131
95 151
95 210
95 266
95 281
95 284
96 216
96 236
96 243
96 245
96 274
97 111
97 136
97 255
98 123
98 189
98 254
98 272
98 294
99 143
99 160
99 176
99 266
100 200
100 261
100 299
101 134
101 142
101 163
101 190
102 107
102 111
102 128
102 129
102 138
102 193
102 198
102 199
102 215
102 231
102 258
102 292
103 154
103 190
104 128
104 150
104 191
104 205
104 261
105 112
105 143
105 145
105 187
105 194
105 245
106 125
106 166
106 194
106 265
107 111
107 146
107 149
107 175
107 182
107 203
107 250
107 262
107 284
108 133
108 139
108 146
108 149
108 214
108 233
108 276
109 112
109 167
109 178
109 199
109 207
109 273
110 130
110 140
110 182
110 204
110 213
110 250
110 252
110 289
111 113
111 136
111 152
111 180
111 220
111 263
111 292
112 175
112 193
112 205
113 138
113 216
114 117
114 122
114 123
114 129
114 133
114 138
114 141
114 142
114 229
114 235
114 242
114 269
114 285
115 146
115 149
115 183
115 197
115 248
116 125
116 178
117 138
117 157
117 188
117 242
117 267
119 236
119 243
119 255
119 265
119 272
120 129
120 141
120 145
120 213
120 214
120 219
121 127
121 229
121 233
121 256
122 141
122 176
123 138
123 142
123 160
123 166
123 198
123 203
123 219
123 229
124 227
124 262
125 269
125 274
125 288
126 135
126 149
126 154
126 200
126 254
126 262
127 147
127 219
127 233
128 143
128 150
128 231
128 294
129 145
130 145
130 199
130 211
130 233
130 256
131 177
131 182
131 208
131 252
131 266
131 283
132 218
132 257
133 199
133 286
134 140
134 147
134 158
134 171
134 188
134 245
135 149
136 236
136 238
136 241
136 252
136 267
137 222
138 221
138 269
139 187
139 200
139 225
139 244
140 147
140 204
141 145
141 195
141 214
141 241
142 147
142 160
142 193
142 204
142 217
142 274
142 299
143 145
143 171
144 283
144 295
145 169
145 205
145 222
146 149
146 158
146 176
146 182
146 236
146 259
146 260
146 299
147 206
147 260
148 246
149 199
149 206
149 209
149 217
149 252
150 235
151 187
151 197
151 257
151 286
152 172
152 220
152 246
152 252
152 267
153 175
153 184
153 224
153 238
154 162
154 166
154 176
154 240
154 252
154 279
155 190
155 289
156 189
156 259
156 285
156 291
157 173
157 210
157 296
157 299
158 245
159 215
159 294
159 297
160 195
160 219
160 230
161 170
161 186
161 192
161 211
161 221
161 223
161 235
161 264
161 295
162 170
162 175
163 166
163 213
163 254
163 279
164 177
164 189
164 277
164 298
165 212
165 250
165 284
166 279
167 178
167 197
167 207
167 215
167 217
167 219
167 233
167 287
168 172
168 173
169 186
169 192
170 202
170 229
170 230
170 235
170 275
171 231
171 262
171 287
172 192
172 202
172 214
172 260
172 267
173 200
173 210
173 212
174 198
174 218
174 237
174 268
174 271
175 184
175 200
175 201
177 189
177 218
177 277
177 298
178 180
178 186
178 202
178 243
178 246
179 184
179 200
179 212
180 186
180 202
180 292
181 226
183 218
184 195
184 200
184 207
184 239
184 262
184 266
184 273
184 278
184 281
184 286
184 296
185 193
185 198
185 224
185 247
185 263
186 192
186 198
187 201
187 244
187 272
187 286
187 293
188 196
188 197
188 198
188 210
188 253
188 264
189 269
189 277
189 290
190 284
190 289
191 201
191 282
191 293
192 202
192 217
192 225
192 260
192 274
193 208
193 224
193 263
194 242
194 247
194 267
194 286
194 296
196 198
196 205
196 207
197 221
197 253
197 255
197 264
197 283
197 286
198 205
198 236
198 237
198 246
198 258
198 263
198 273
199 249
200 204
200 207
200 212
200 251
200 278
200 286
201 261
201 282
201 293
202 235
202 241
202 259
202 272
202 292
203 227
203 240
203 249
203 276
205 207
205 271
206 224
206 260
206 296
207 243
207 278
207 294
208 210
208 271
208 279
209 283
210 222
210 253
211 221
211 223
211 248
211 253
211 266
212 251
212 284
212 286
213 254
216 288
217 219
217 227
217 293
217 300
218 268
218 271
219 257
219 293
219 294
220 259
221 238
221 244
221 264
221 268
222 249
222 257
223 248
223 266
223 272
225 233
227 240
228 235
228 286
229 230
229 249
229 257
229 275
230 235
230 249
230 272
231 255
233 293
234 260
235 241
235 259
235 275
236 241
236 258
236 267
236 286
238 244
239 273
239 296
240 264
242 246
242 247
242 251
242 256
242 267
242 299
243 246
244 249
244 272
245 293
246 267
246 273
246 286
246 294
247 280
248 260
248 299
249 257
249 272
249 287
250 296
251 299
253 266
253 283
255 279
255 286
257 272
257 286
258 292
259 279
259 291
260 299
261 268
261 282
262 273
262 287
264 268
265 281
266 281
267 286
267 294
268 287
269 277
269 279
271 289
272 284
272 288
274 299
276 283
277 290
281 297
284 288
284 289
285 291
293 300
296 300
*Classes
1
1
1
1
1
1
1
1
1
1
1
1
1
1
1
1
1
1
1
1
1
1
1
1
1
1
1
1
1
1
1
1
1
1
1
1
1
1
1
1
1
1
1
1
1
1
1
1
1
1
1
1
1
1
1
1
1
1
1
1
1
1
1
1
1
1
1
1
1
1
1
1
1
1
1
1
1
1
1
1
1
1
1
1
1
1
1
1
1
1
1
1
1
1
1
1
1
1
1
1
1
1
1
1
1
1
1
1
1
1
1
1
1
1
1
1
1
1
1
1
1
1
1
1
1
1
1
1
1
1
1
1
1
1
1
1
1
1
1
1
1
1
1
1
1
1
1
1
1
1
2
2
2
2
2
2
2
2
2
2
2
2
2
2
2
2
2
2
2
2
2
2
2
2
2
2
2
2
2
2
2
2
2
2
2
2
2
2
2
2
2
2
2
2
2
2
2
2
2
2
2
2
2
2
2
2
2
2
2
2
2
2
2
2
2
2
2
2
2
2
2
2
2
2
2
2
2
2
2
2
2
2
2
2
2
2
2
2
2
2
2
2
2
2
2
2
2
2
2
2
2
2
2
2
2
2
2
2
2
2
2
2
2
2
2
2
2
2
2
2
2
2
2
2
2
2
2
2
2
2
2
2
2
2
2
2
2
2
2
2
2
2
2
2
2
2
2
2
2
2
