*Vertices 300
*Edges
1 51
1 185
2 3
2 30
2 64
2 75
2 148
2 247
3 9
3 12
3 25
3 75
3 119
3 121
3 123
3 172
3 211
3 218
3 224
4 6
4 23
4 94
4 141
4 237
4 259
5 43
5 75
5 111
5 156
5 221
5 273
6 94
6 134
6 156
6 158
6 159
6 167
6 174
6 184
6 211
6 241
7 41
7 44
7 106
7 120
7 292
8 22
8 30
8 32
8 62
8 68
8 69
8 235
9 54
9 74
9 84
9 119
9 155
9 176
9 246
9 270
9 281
10 227
11 23
11 82
11 103
11 205
11 239
12 13
12 25
12 33
12 205
12 248
13 33
13 57
13 112
13 124
13 134
13 233
13 280
14 54
14 74
14 79
15 57
15 152
15 237
15 244
15 293
16 29
16 56
16 117
16 123
16 183
16 190
16 209
16 261
17 163
17 189
17 222
18 96
18 114
18 128
18 141
18 277
18 286
19 31
19 42
19 62
20 102
20 158
20 173
20 270
21 45
21 102
21 137
21 264
22 62
22 99
22 193
22 237
22 266
22 300
23 52
23 58
23 74
23 82
23 85
23 98
23 125
23 137
23 141
23 245
23 294
24 42
24 46
24 50
24 84
24 99
24 111
24 135
24 175
24 232
25 28
25 127
25 227
25 258
25 279
26 252
27 33
27 37
27 67
27 72
27 111
27 128
27 129
27 145
27 170
27 207
27 285
28 41
28 44
28 75
28 78
28 120
28 127
28 176
28 202
28 209
28 265
28 273
29 56
29 234
29 299
30 32
30 36
30 64
30 118
30 251
30 256
30 277
30 294
30 297
31 91
31 100
31 171
31 202
31 249
31 280
32 36
32 79
32 85
32 182
32 226
33 37
33 94
33 109
33 140
33 144
33 172
33 199
33 221
34 97
34 123
34 203
34 237
34 293
35 110
35 176
35 182
35 299
36 61
36 76
36 118
36 210
36 250
36 300
37 72
37 111
37 128
37 145
37 193
38 46
38 68
38 105
38 127
38 179
38 293
39 47
39 65
39 69
39 148
39 149
39 288
40 90
40 92
40 104
40 136
40 151
40 158
40 282
41 46
41 120
41 175
41 177
41 220
41 291
42 115
42 135
42 143
42 268
42 296
43 52
43 60
43 75
43 141
43 142
43 189
43 190
43 212
43 217
43 250
43 280
44 50
44 99
44 106
44 171
44 281
45 62
45 88
45 102
45 232
45 233
45 251
45 259
46 50
46 84
46 120
47 129
47 146
47 149
47 161
47 220
47 270
49 101
49 105
49 140
49 157
49 168
49 213
50 61
50 64
50 84
50 99
50 222
50 274
51 116
51 204
51 243
51 283
52 53
52 87
52 115
52 139
52 141
52 142
52 247
52 258
52 266
52 283
52 297
53 57
53 77
53 120
53 141
53 187
53 195
53 274
54 74
54 83
54 141
54 170
54 215
54 250
55 161
55 202
55 220
56 63
56 67
56 98
56 128
57 87
57 141
57 156
57 181
57 268
57 291
58 90
58 99
58 116
58 137
58 145
58 172
58 242
58 269
58 279
58 284
58 299
59 78
59 226
60 174
60 189
60 225
60 233
60 268
61 64
61 76
61 83
61 132
61 184
61 186
61 210
61 219
61 221
61 273
62 99
62 117
62 162
62 214
63 98
63 113
63 128
64 135
65 68
65 80
65 87
65 92
65 113
65 144
65 148
65 194
66 243
66 256
67 90
67 156
67 214
67 217
67 292
68 69
68 80
68 92
68 127
68 148
68 177
68 190
68 265
69 80
69 149
69 279
70 93
70 121
70 218
70 255
71 96
71 121
71 129
71 132
71 220
71 246
72 82
72 103
73 248
73 299
74 78
74 79
74 89
74 103
74 138
74 141
74 207
74 262
74 286
74 291
75 89
75 101
75 113
75 120
75 123
75 148
75 207
75 259
76 86
76 131
76 132
76 231
76 253
77 141
77 160
78 104
78 136
78 215
78 222
78 297
79 150
79 153
79 263
80 103
80 113
80 177
80 206
80 217
80 298
81 111
81 244
81 246
81 259
81 274
82 99
82 103
82 109
82 113
82 117
82 129
82 169
82 235
82 278
82 293
82 295
83 86
83 150
83 236
83 299
84 119
84 142
84 228
84 278
85 105
85 140
85 153
85 194
85 229
86 88
86 95
86 150
86 182
86 194
86 273
87 108
87 113
87 141
87 198
87 220
87 230
88 95
88 168
88 240
88 286
89 113
89 186
89 206
89 233
89 256
90 99
90 157
90 229
91 111
91 160
91 240
91 290
92 114
92 169
92 201
92 223
92 275
93 188
93 199
93 237
94 108
94 144
94 293
95 154
95 207
95 265
95 282
96 159
96 171
96 263
96 269
97 133
97 270
97 280
98 103
98 109
98 113
98 137
98 159
98 202
98 252
99 117
99 157
100 153
100 165
100 214
100 257
101 153
101 206
101 284
101 290
102 130
102 137
102 245
102 300
103 109
103 113
103 135
103 138
103 259
103 271
104 136
104 181
104 231
104 276
105 124
105 140
105 160
105 213
105 214
105 251
106 189
106 202
106 243
107 148
107 193
107 196
107 258
107 295
108 115
108 141
108 144
108 150
108 181
108 216
108 221
108 228
108 245
108 252
109 113
109 140
109 180
109 208
109 244
109 278
109 285
110 127
110 145
110 245
111 202
111 235
111 286
111 297
112 124
112 208
112 277
113 144
113 157
114 141
114 166
114 276
115 142
115 210
116 197
117 129
117 137
117 199
117 212
117 229
117 236
117 282
118 163
118 196
118 204
119 240
119 295
120 141
121 123
122 188
122 291
123 158
123 181
123 199
123 207
123 222
123 237
123 241
124 191
124 247
124 254
125 131
125 137
125 141
125 192
125 259
125 265
126 136
126 179
126 201
126 228
126 267
126 287
127 173
128 151
128 152
128 186
128 195
128 226
128 255
129 132
129 200
129 258
129 300
130 267
130 274
131 177
131 183
131 233
132 147
132 169
132 239
132 267
133 177
133 202
133 270
133 288
135 138
135 167
135 174
135 223
135 230
136 186
136 229
137 167
138 212
138 227
138 243
138 268
139 144
139 145
139 205
139 232
140 156
140 187
140 188
140 209
140 232
140 285
141 150
141 295
142 201
142 229
142 239
143 224
143 246
144 145
144 233
144 244
144 261
145 206
145 225
145 226
145 245
146 177
146 209
146 251
147 212
147 231
147 289
147 300
148 162
148 196
148 248
148 296
149 242
149 248
149 300
150 215
150 258
151 209
152 192
152 226
152 237
152 242
152 286
153 182
153 197
153 225
153 227
153 290
153 294
154 168
154 178
154 192
154 203
154 208
154 220
154 229
154 248
154 289
155 165
155 218
155 225
155 233
155 235
155 244
155 248
155 269
155 275
156 157
156 159
156 184
156 197
156 205
156 215
156 219
157 174
157 207
158 173
158 199
159 191
159 215
159 219
159 251
160 234
161 177
161 243
161 244
162 241
162 271
162 278
163 165
163 228
163 238
164 220
164 252
164 260
164 280
164 282
165 218
165 238
165 248
166 260
166 288
166 299
167 192
167 201
167 298
168 200
168 220
168 232
168 291
169 201
169 202
169 213
169 214
169 218
169 256
169 267
170 249
170 281
170 283
171 203
171 208
172 273
172 296
173 192
173 216
173 276
173 277
173 287
173 289
174 192
174 212
174 223
174 229
174 233
174 242
175 188
175 203
175 231
175 247
175 250
175 300
176 273
176 292
178 224
179 298
180 215
180 292
181 221
181 237
182 214
182 225
182 256
182 264
183 234
183 276
184 187
184 197
184 205
184 219
184 276
184 279
185 188
185 195
185 196
185 228
185 238
185 254
185 269
186 266
186 272
186 287
187 199
187 219
188 221
188 228
188 234
188 277
188 280
189 204
189 221
189 228
191 215
192 212
192 223
192 234
192 242
192 248
192 289
192 291
192 293
193 264
195 210
196 242
196 269
197 206
198 218
198 251
198 280
199 237
199 266
199 298
200 220
200 225
200 240
200 291
200 294
201 214
201 277
202 214
202 241
202 256
202 259
202 292
203 208
203 247
205 219
205 222
206 244
206 256
206 295
207 224
207 259
208 230
208 247
209 225
209 237
209 239
209 249
209 293
209 294
210 240
210 293
211 286
212 232
212 278
213 214
213 222
213 223
213 246
213 248
213 280
214 256
214 300
215 217
215 240
215 269
216 287
217 240
217 250
218 269
219 236
219 241
219 255
219 271
220 232
220 280
221 234
222 246
223 229
223 234
223 276
223 280
223 291
223 293
224 239
224 259
225 233
225 237
225 247
225 294
226 250
226 274
227 284
227 290
228 238
228 260
228 277
228 299
229 266
229 269
229 293
229 294
230 235
230 285
230 290
232 271
232 278
234 276
234 291
235 248
235 285
237 298
238 281
239 249
239 259
240 279
241 259
241 271
241 299
242 258
243 273
244 269
245 300
247 297
249 283
249 288
249 293
249 295
250 293
250 300
251 280
254 297
256 264
256 266
256 276
256 283
256 286
256 297
257 261
258 290
260 274
260 286
260 299
261 285
262 272
264 297
264 299
266 287
268 270
268 284
269 294
270 284
271 278
271 289
273 278
273 292
273 296
274 286
276 277
276 287
283 293
288 295
291 293
*Classes
1
1
1
1
1
1
1
1
1
1
1
1
1
1
1
1
1
1
1
1
1
1
1
1
1
1
1
1
1
1
1
1
1
1
1
1
1
1
1
1
1
1
1
1
1
1
1
1
1
1
1
1
1
1
1
1
1
1
1
1
1
1
1
1
1
1
1
1
1
1
1
1
1
1
1
1
1
1
1
1
1
1
1
1
1
1
1
1
1
1
1
1
1
1
1
1
1
1
1
1
1
1
1
1
1
1
1
1
1
1
1
1
1
1
1
1
1
1
1
1
1
1
1
1
1
1
1
1
1
1
1
1
1
1
1
1
1
1
1
1
1
1
1
1
1
1
1
1
1
1
2
2
2
2
2
2
2
2
2
2
2
2
2
2
2
2
2
2
2
2
2
2
2
2
2
2
2
2
2
2
2
2
2
2
2
2
2
2
2
2
2
2
2
2
2
2
2
2
2
2
2
2
2
2
2
2
2
2
2
2
2
2
2
2
2
2
2
2
2
2
2
2
2
2
2
2
2
2
2
2
2
2
2
2
2
2
2
2
2
2
2
2
2
2
2
2
2
2
2
2
2
2
2
2
2
2
2
2
2
2
2
2
2
2
2
2
2
2
2
2
2
2
2
2
2
2
2
2
2
2
2
2
2
2
2
2
2
2
2
2
2
2
2
2
2
2
2
2
2
2
