*Vertices 300
*Edges
1 85
1 115
1 123
1 148
1 198
1 240
1 247
1 275
1 289
2 12
2 17
2 43
2 53
2 54
2 56
2 66
2 94
2 109
2 172
2 217
2 290
3 20
3 26
3 29
3 58
3 111
3 117
3 135
4 12
4 23
4 55
4 62
4 120
4 186
4 193
4 199
4 238
4 269
4 297
5 65
5 82
5 96
5 99
5 117
5 127
5 176
5 185
5 199
5 225
5 248
5 265
5 269
5 274
5 282
5 291
6 19
6 27
6 55
6 129
6 131
6 217
6 218
6 249
6 254
6 257
7 54
7 90
7 119
7 138
7 211
7 212
7 262
7 286
8 33
8 39
8 45
8 69
8 81
8 169
8 208
8 209
8 223
8 265
9 41
9 64
9 75
9 98
9 104
9 109
9 142
9 165
9 189
9 192
9 220
9 221
9 238
9 253
9 282
9 298
10 70
10 125
10 179
10 184
10 215
10 277
11 26
11 62
11 75
11 103
11 106
11 110
11 124
11 128
11 135
11 147
11 170
11 171
11 233
11 284
12 22
12 43
12 50
12 90
12 91
12 95
12 109
12 118
12 133
12 143
12 175
12 183
12 199
12 269
12 272
13 27
13 46
13 71
13 81
13 84
13 88
13 97
13 105
13 113
13 116
13 130
13 152
13 168
13 193
13 198
13 200
13 246
13 289
14 21
14 102
14 156
14 185
14 201
15 40
15 82
15 86
15 98
15 105
15 107
15 130
15 163
15 237
15 243
16 27
16 51
16 97
16 100
16 105
16 132
16 135
16 154
16 206
16 212
17 18
17 79
17 80
17 100
17 154
17 169
17 178
17 210
17 225
17 240
17 244
18 89
18 113
18 157
18 160
18 239
18 244
18 250
18 256
18 293
19 27
19 35
19 70
19 123
19 135
19 257
19 266
20 117
20 126
20 164
20 184
20 194
20 196
20 223
20 240
20 267
20 275
21 37
21 102
21 148
21 153
21 156
21 225
21 285
22 61
22 111
22 146
22 188
22 222
22 240
23 56
23 112
23 120
23 168
23 197
24 163
25 31
25 33
25 47
25 49
25 61
25 124
25 212
25 215
25 231
25 245
25 249
25 253
25 273
26 35
26 41
26 47
26 71
26 99
26 101
26 174
26 181
26 184
26 212
26 233
26 244
26 263
26 267
27 62
27 70
27 71
27 100
27 103
27 115
27 132
27 148
27 260
27 300
28 39
28 42
28 53
28 58
28 61
28 71
28 75
28 106
28 187
28 281
28 296
29 73
29 135
29 172
29 179
29 204
29 234
29 265
29 295
29 300
30 112
30 150
30 180
30 217
30 288
31 43
31 57
31 64
31 73
31 75
31 94
31 109
31 141
31 152
31 180
31 195
31 235
31 259
31 275
32 43
32 50
32 55
32 63
32 97
32 102
32 133
32 199
32 221
32 259
32 284
33 160
33 169
33 193
33 195
33 197
33 208
33 249
34 48
34 91
34 100
34 108
34 140
34 154
34 185
34 209
34 283
35 51
35 81
35 86
35 118
35 135
35 146
35 151
35 211
35 243
35 258
35 263
36 40
36 62
36 71
36 78
36 100
37 104
37 115
37 139
37 145
37 148
37 228
37 235
37 250
38 106
38 185
38 202
38 232
38 251
39 58
39 64
39 246
39 264
40 163
40 165
40 170
40 225
40 228
40 233
40 235
40 240
40 254
40 280
41 58
41 71
41 78
41 81
41 85
41 104
41 115
41 263
42 73
42 130
42 141
42 270
42 281
43 54
43 63
43 64
43 95
43 109
43 118
43 124
43 251
43 269
43 290
44 67
44 76
44 229
44 264
44 296
45 74
45 218
45 223
46 57
46 78
46 79
46 88
46 110
46 147
46 154
46 166
46 186
46 188
46 193
46 244
46 264
47 49
47 63
47 99
47 124
47 134
47 150
47 160
47 184
47 191
48 72
48 90
48 122
48 143
48 178
48 185
48 286
49 63
49 82
49 110
49 128
49 142
49 144
49 183
49 287
50 63
50 73
50 81
50 156
50 159
50 217
50 224
50 247
50 259
50 284
50 298
51 53
51 60
51 68
51 69
51 92
51 97
51 105
51 130
51 132
51 135
51 146
51 165
51 254
51 261
51 287
51 298
52 125
52 127
52 159
52 162
52 185
52 213
52 224
52 232
53 66
53 102
53 104
53 106
53 131
53 150
54 90
54 109
54 136
54 269
55 63
55 97
55 102
55 128
55 133
55 175
55 184
55 193
55 219
55 234
55 238
55 254
56 93
56 172
56 212
56 253
56 278
56 298
57 88
57 92
57 107
57 124
57 148
57 152
57 175
57 198
57 216
57 227
58 65
58 71
58 106
58 108
58 135
58 140
58 167
58 177
58 229
58 278
58 296
59 91
59 123
59 182
59 185
59 243
60 66
60 91
60 277
61 71
61 78
61 86
61 209
61 222
61 224
61 225
61 240
61 243
61 253
61 256
61 258
62 124
62 208
62 238
62 289
62 297
63 91
63 124
63 150
63 156
63 217
63 247
63 259
63 277
64 69
64 83
64 109
64 148
64 162
64 186
64 206
65 73
65 113
65 137
65 248
65 299
66 71
66 99
66 119
66 150
66 211
66 221
66 277
67 76
67 83
67 92
67 117
67 148
67 170
67 179
67 268
67 281
68 69
68 111
68 116
68 138
68 139
68 140
68 195
68 238
68 274
68 287
68 289
69 139
69 162
69 207
69 238
69 265
69 287
70 105
70 125
71 78
71 80
71 99
71 104
71 116
71 130
71 145
71 236
71 237
71 249
72 93
72 97
72 115
72 133
72 154
72 178
72 181
72 186
72 190
72 249
72 250
73 83
73 140
73 141
73 155
73 242
73 267
73 284
73 287
73 299
74 89
74 226
75 103
75 109
75 132
75 133
75 135
75 251
75 281
75 286
75 295
75 300
76 217
76 219
76 258
76 292
76 296
77 172
77 182
77 278
77 300
78 79
78 127
78 188
78 193
78 225
78 233
78 238
79 113
79 137
79 159
79 193
79 194
80 86
80 100
80 113
80 126
80 134
80 168
80 201
80 228
80 236
80 262
80 281
81 100
81 101
81 114
81 155
81 159
81 167
81 198
81 209
81 246
81 263
82 89
82 95
82 98
82 110
82 124
82 130
82 137
82 199
82 226
82 245
82 265
83 141
83 148
83 273
83 284
83 286
84 113
84 138
84 143
84 163
84 170
84 214
84 247
84 286
85 113
85 115
85 167
85 203
85 257
85 262
85 283
86 107
86 134
86 151
86 163
86 210
86 225
86 243
86 289
87 98
87 114
87 134
87 160
87 229
87 247
87 253
87 278
87 281
87 289
87 300
88 92
88 168
88 198
89 95
89 113
89 147
89 173
89 209
89 256
90 143
90 242
90 255
90 269
91 96
91 131
91 133
91 183
91 186
91 234
91 243
91 248
91 259
91 277
92 117
92 179
92 212
92 231
92 238
92 253
92 280
92 298
93 167
93 172
93 265
94 111
94 116
94 119
94 132
94 135
94 142
94 211
94 213
95 110
95 119
95 128
95 147
95 168
95 173
95 220
95 222
95 234
95 243
95 256
95 261
96 108
96 155
96 169
96 245
96 248
96 285
96 290
96 299
97 116
97 128
97 130
97 146
97 190
97 204
97 238
97 246
97 250
98 212
98 253
99 100
99 117
99 145
99 181
99 249
99 254
99 276
100 134
100 135
100 137
100 145
100 154
100 159
100 201
100 240
100 262
101 144
101 167
101 188
101 192
101 212
101 233
101 259
101 265
101 297
102 104
102 129
102 185
102 205
103 106
103 124
103 135
103 139
103 140
103 166
103 175
103 177
103 211
103 260
103 275
103 300
104 131
104 150
104 174
104 208
104 250
104 258
105 130
105 134
105 176
105 210
105 234
105 289
106 109
106 124
106 187
106 251
107 124
107 148
107 152
107 237
107 265
107 279
108 140
108 143
108 147
108 299
109 118
109 159
109 235
109 251
109 253
109 259
109 277
109 286
110 128
110 147
110 184
110 198
110 259
110 273
110 277
110 280
111 116
111 130
111 135
111 138
111 146
111 161
111 181
111 241
111 264
112 172
112 226
113 137
113 161
113 168
113 170
113 175
113 190
113 209
113 211
113 214
113 226
113 256
113 283
114 151
114 155
114 169
114 257
114 272
114 285
115 123
115 148
115 154
115 167
116 132
116 146
116 250
116 289
116 297
117 170
117 172
117 182
117 191
117 200
117 269
118 151
118 155
119 138
119 143
119 147
119 161
119 211
119 221
119 248
119 253
119 256
119 262
119 286
119 293
120 139
120 145
120 225
120 245
121 129
121 199
121 202
121 241
121 258
121 271
122 127
122 154
122 158
122 174
122 185
122 216
122 265
122 282
123 149
123 154
123 187
123 188
123 274
124 148
124 193
124 196
124 212
124 247
124 265
125 207
125 232
125 294
126 184
127 158
127 159
127 225
127 269
128 147
128 157
128 162
128 186
128 238
129 131
129 205
130 193
130 270
130 289
131 137
131 155
131 162
131 166
131 219
131 233
131 234
131 243
131 251
131 258
132 177
132 230
132 260
133 137
133 175
133 198
133 220
133 228
133 242
133 268
133 295
134 160
134 212
134 247
134 289
135 137
135 142
135 154
135 166
135 211
135 241
135 253
135 258
135 300
136 194
136 256
137 162
137 175
137 211
137 226
137 230
137 232
137 284
137 297
138 152
138 163
138 204
138 227
138 243
138 261
138 262
138 271
138 289
139 140
139 145
139 148
139 182
139 198
139 287
140 145
140 158
140 167
140 176
140 198
140 236
141 152
141 164
141 174
141 183
141 236
142 183
142 202
142 204
142 207
142 211
142 221
143 147
143 226
143 262
143 284
143 286
144 227
144 230
145 156
145 182
145 268
146 210
146 250
147 226
147 233
147 242
147 261
147 280
148 268
148 290
149 203
150 172
150 243
150 260
150 288
151 239
151 253
151 258
151 263
151 265
152 175
152 205
152 227
152 247
152 279
152 285
152 290
153 185
153 189
153 197
153 199
153 232
153 275
154 174
154 181
154 185
154 188
154 199
154 206
154 207
154 218
154 249
154 263
154 271
154 274
155 160
155 161
155 167
155 169
155 179
155 234
155 250
155 251
155 266
155 280
155 291
156 160
156 268
156 276
157 201
157 208
157 274
157 280
157 282
157 283
157 293
157 297
157 299
158 182
158 191
158 198
158 236
159 194
159 201
159 262
160 177
160 196
160 208
160 224
160 228
160 234
160 247
160 249
160 250
160 254
160 260
160 266
160 276
160 287
160 290
160 298
161 198
161 214
161 215
161 241
161 242
161 250
161 265
161 280
161 291
161 295
162 183
162 185
162 186
162 228
162 230
162 232
162 243
162 251
162 256
162 259
163 211
164 196
164 223
164 253
165 198
165 298
166 188
166 199
166 202
166 215
166 222
166 270
166 275
167 198
167 203
167 246
167 263
168 177
168 185
168 193
168 243
168 245
168 260
168 296
169 220
169 234
169 240
169 241
169 250
169 251
169 285
169 291
170 225
170 251
171 208
171 233
171 260
171 296
171 300
172 193
172 200
172 226
172 298
172 300
173 215
173 253
174 182
174 270
175 198
176 185
176 187
176 234
176 248
177 195
177 208
177 213
177 224
177 229
177 240
177 260
177 278
178 185
178 242
179 215
179 231
179 234
179 238
179 297
180 195
180 285
181 239
181 249
181 264
181 271
182 191
182 210
183 186
183 208
183 219
183 228
183 243
183 274
183 275
184 194
184 210
184 234
184 251
184 277
184 297
185 192
185 216
185 228
185 232
185 243
185 296
186 188
186 219
186 232
186 244
186 250
186 264
186 275
187 300
188 192
188 222
188 275
189 220
189 224
189 241
189 250
189 253
189 298
190 204
191 198
191 223
191 264
191 270
191 284
191 297
192 216
192 254
192 261
192 265
192 298
193 200
193 202
193 207
193 208
193 212
193 220
193 245
193 246
193 252
193 274
193 300
194 200
194 203
194 220
194 226
194 228
194 230
194 234
194 236
194 252
194 256
194 257
194 267
195 197
195 213
195 269
195 278
195 300
196 254
196 276
197 199
197 275
197 289
197 292
198 210
198 240
198 257
198 268
198 273
198 280
199 222
199 232
199 261
199 271
199 292
201 212
201 233
201 246
201 282
201 283
201 299
202 207
202 209
202 241
202 250
202 256
202 275
203 236
203 237
203 240
203 252
203 257
204 227
204 243
205 259
205 279
205 285
205 290
205 297
206 207
206 263
206 267
206 271
207 211
208 228
208 233
208 252
208 254
208 274
208 280
208 299
208 300
209 256
209 283
210 234
210 240
210 247
210 250
210 297
211 213
212 226
212 246
212 253
212 262
212 263
212 273
212 289
212 298
213 224
213 232
213 236
213 237
213 278
214 242
214 256
215 242
215 250
215 253
216 223
216 284
217 218
217 224
217 288
218 249
219 238
219 251
219 258
220 234
220 235
220 245
221 238
221 253
221 281
221 284
221 293
222 234
222 262
222 270
223 284
224 229
224 236
224 253
225 247
225 285
226 228
226 252
226 284
226 297
227 268
228 232
228 235
228 281
229 257
231 233
231 253
232 292
233 256
233 283
234 235
234 257
234 266
234 274
234 297
235 272
235 286
235 290
236 237
238 240
238 251
238 277
238 282
238 289
238 291
239 256
239 258
240 241
240 257
240 275
240 289
241 250
241 285
242 250
242 253
242 255
242 273
243 288
244 264
244 279
244 290
245 273
245 279
245 290
246 262
246 283
246 286
247 262
247 285
248 293
249 254
249 276
249 280
250 276
251 259
251 277
251 291
253 258
253 300
254 280
254 287
254 290
254 298
255 284
256 293
257 274
259 297
260 294
260 300
261 271
261 285
262 264
262 270
262 283
262 286
262 293
263 267
264 270
265 282
265 298
267 287
269 274
269 300
270 284
271 285
273 280
274 289
275 292
279 285
279 290
282 283
282 291
290 298
293 297
294 300
296 300
*Classes
1
1
1
1
1
1
1
1
1
1
1
1
1
1
1
1
1
1
1
1
1
1
1
1
1
1
1
1
1
1
1
1
1
1
1
1
1
1
1
1
1
1
1
1
1
1
1
1
1
1
1
1
1
1
1
1
1
1
1
1
1
1
1
1
1
1
1
1
1
1
1
1
1
1
1
1
1
1
1
1
1
1
1
1
1
1
1
1
1
1
1
1
1
1
1
1
1
1
1
1
1
1
1
1
1
1
1
1
1
1
1
1
1
1
1
1
1
1
1
1
1
1
1
1
1
1
1
1
1
1
1
1
1
1
1
1
1
1
1
1
1
1
1
1
1
1
1
1
1
1
2
2
2
2
2
2
2
2
2
2
2
2
2
2
2
2
2
2
2
2
2
2
2
2
2
2
2
2
2
2
2
2
2
2
2
2
2
2
2
2
2
2
2
2
2
2
2
2
2
2
2
2
2
2
2
2
2
2
2
2
2
2
2
2
2
2
2
2
2
2
2
2
2
2
2
2
2
2
2
2
2
2
2
2
2
2
2
2
2
2
2
2
2
2
2
2
2
2
2
2
2
2
2
2
2
2
2
2
2
2
2
2
2
2
2
2
2
2
2
2
2
2
2
2
2
2
2
2
2
2
2
2
2
2
2
2
2
2
2
2
2
2
2
2
2
2
2
2
2
2
