*Vertices 300
*Edges
1 30
1 40
1 63
1 67
1 69
1 78
1 83
1 101
1 125
1 132
1 170
1 172
1 214
1 246
1 253
1 255
1 256
1 279
1 292
2 4
2 94
2 122
2 189
2 235
3 104
3 215
3 256
3 257
3 285
3 293
3 297
4 17
4 35
4 57
4 95
4 184
4 191
4 202
4 203
4 213
4 226
4 230
4 235
4 247
4 255
4 261
4 268
4 274
5 8
5 50
5 62
5 93
5 107
5 129
5 214
5 220
5 223
5 275
6 73
6 98
6 110
6 125
6 216
6 236
6 278
7 101
7 141
7 206
8 26
8 62
8 82
8 92
8 93
8 169
8 204
8 220
8 226
8 229
8 236
8 239
8 259
9 44
9 163
9 177
9 225
10 44
10 95
10 102
10 108
10 125
10 128
10 131
10 160
10 166
10 177
10 224
10 234
10 243
10 245
10 283
11 21
11 51
11 72
11 85
11 106
11 109
11 235
11 247
11 248
12 20
12 26
12 30
12 68
12 116
12 130
12 158
12 181
12 232
12 258
13 39
13 99
13 266
13 270
14 48
14 82
14 86
14 167
14 180
14 187
14 220
14 233
14 249
14 288
14 293
15 117
15 118
15 125
15 143
15 190
15 196
15 205
15 206
15 214
15 240
16 21
16 42
16 44
16 52
16 63
16 84
16 139
16 140
16 147
16 190
16 232
16 266
16 285
17 18
17 46
17 57
17 157
18 43
18 123
19 45
19 59
19 61
19 63
19 72
19 130
19 164
19 174
19 190
19 217
19 264
19 291
20 26
20 46
20 52
20 54
20 60
20 68
20 158
20 168
20 206
20 250
20 258
21 39
21 42
21 44
21 58
21 82
21 92
21 95
21 139
21 140
21 167
21 174
21 185
21 235
21 239
21 246
21 266
22 51
22 56
22 126
22 196
22 212
22 234
22 241
22 242
22 255
23 39
23 63
23 84
23 102
23 103
23 187
23 255
23 288
24 63
24 67
24 70
24 128
24 182
24 276
24 283
24 296
25 27
25 36
25 64
25 68
25 88
25 95
25 124
25 130
25 144
25 155
25 177
25 209
25 212
25 227
25 259
25 271
25 289
25 299
26 116
26 140
26 160
26 189
26 226
26 228
26 268
26 275
26 281
26 283
27 39
27 40
27 62
27 64
27 88
27 188
27 270
28 33
28 41
28 49
28 63
28 66
28 79
28 85
28 97
28 109
28 152
28 167
28 186
28 257
29 31
29 55
29 66
29 69
29 91
29 94
29 105
29 123
29 146
29 155
29 173
29 176
29 197
29 273
29 280
30 68
30 166
30 215
30 245
30 256
31 41
31 67
31 69
31 117
31 123
31 169
31 172
31 200
31 233
31 272
32 63
32 67
32 77
32 93
32 145
32 157
32 202
33 41
33 79
33 121
33 127
33 138
33 155
33 156
33 209
33 225
33 242
33 248
33 259
33 285
33 288
33 293
34 35
34 71
34 76
34 115
34 128
34 170
34 216
34 254
35 76
35 88
35 89
35 95
35 157
35 162
35 203
35 261
35 282
36 43
36 80
36 102
36 104
36 118
36 119
36 129
36 148
36 155
36 180
36 246
36 255
36 299
37 73
37 105
37 111
37 116
37 118
37 258
37 268
37 286
38 235
39 58
39 59
39 84
39 88
39 99
39 108
39 148
39 158
39 159
39 187
39 197
39 208
39 226
39 239
39 246
40 75
40 98
40 110
40 132
40 183
40 218
40 236
40 242
40 248
40 254
40 293
41 49
41 53
41 61
41 67
41 68
41 78
41 79
41 122
41 123
41 142
41 194
41 240
41 245
41 268
41 290
41 294
41 299
42 63
42 77
42 107
42 112
42 126
42 133
42 140
42 223
42 231
43 123
43 180
43 288
44 58
44 95
44 102
44 108
44 139
44 163
44 176
44 177
44 199
44 209
44 249
44 255
44 283
44 298
45 121
45 165
45 211
45 219
45 282
46 52
46 99
47 192
47 250
48 82
48 249
49 53
49 68
49 98
49 109
49 123
49 130
49 194
49 199
49 203
49 224
49 236
49 240
50 58
50 68
50 91
50 107
50 115
50 129
50 163
50 166
50 227
50 275
50 277
50 298
51 66
51 97
51 109
51 153
51 193
51 234
51 238
51 239
51 249
51 265
51 273
52 60
52 68
52 69
52 99
52 103
52 109
52 147
52 162
52 169
52 197
52 214
52 216
52 221
52 232
52 241
52 248
53 65
53 78
53 91
53 134
53 140
53 208
53 227
53 267
54 60
54 70
54 73
54 74
54 195
54 203
54 299
55 69
55 130
55 143
55 146
55 155
55 163
55 197
55 266
55 290
56 126
56 165
56 194
56 242
57 101
57 157
57 165
57 169
57 191
57 202
57 209
57 237
57 270
57 277
57 300
58 85
58 92
58 119
58 139
58 197
58 239
59 78
59 94
59 226
59 242
59 246
59 267
59 291
60 61
60 74
60 130
60 158
60 258
61 67
61 72
61 87
61 95
61 130
61 163
61 190
61 232
61 240
62 85
62 92
62 139
62 169
62 172
62 220
62 223
63 67
63 68
63 103
63 125
63 128
63 137
63 152
63 190
63 266
63 285
64 79
64 87
64 88
64 103
64 120
64 130
64 169
64 221
64 256
64 283
64 289
65 140
65 160
65 213
65 227
66 83
66 105
66 106
66 107
66 109
66 172
66 247
66 248
66 273
66 280
66 290
66 296
67 103
67 128
67 130
67 172
67 253
67 260
68 128
68 130
68 226
68 232
68 275
69 83
69 117
69 123
69 127
69 169
69 174
69 179
69 188
69 221
70 89
70 93
70 97
70 133
70 149
70 153
70 168
70 171
70 203
70 206
70 235
70 236
70 266
70 283
71 115
71 145
71 207
71 213
71 215
71 254
71 256
71 257
72 193
72 235
73 75
73 98
73 144
73 146
73 258
73 278
73 286
74 77
74 99
74 126
74 130
74 203
74 291
75 87
75 98
75 120
76 115
76 281
77 124
77 126
77 162
77 203
78 79
78 83
78 97
78 104
78 114
78 120
78 121
78 144
78 181
78 232
78 248
78 256
78 267
79 87
79 88
79 97
79 121
79 169
79 181
79 223
79 236
79 256
79 270
79 277
80 171
80 180
81 88
81 188
81 198
82 92
82 167
82 203
82 222
82 230
82 257
82 268
82 271
83 96
83 123
83 218
83 221
83 231
83 255
83 256
83 280
83 281
83 283
84 159
84 223
84 255
84 257
85 92
85 93
85 106
85 152
85 161
85 292
86 112
86 187
86 288
87 120
87 214
87 230
87 232
87 260
87 268
87 292
88 89
88 95
88 162
88 188
88 212
88 256
88 270
89 149
89 203
89 207
89 283
90 132
90 151
90 157
90 158
90 171
90 179
90 282
91 94
91 117
91 118
91 171
91 175
91 176
91 218
91 220
91 221
91 248
91 275
91 286
92 139
92 161
92 174
92 203
92 204
92 219
92 228
92 255
93 153
93 157
93 180
93 214
93 223
94 176
94 220
94 221
94 230
94 268
94 275
95 184
95 232
95 255
95 293
96 114
96 145
96 192
97 133
97 142
97 154
97 168
97 191
97 217
97 218
97 249
97 252
97 270
98 110
98 129
98 132
98 144
98 175
98 220
98 236
98 244
98 248
98 258
98 293
99 108
99 109
99 114
99 126
99 145
99 159
99 197
99 208
99 212
99 248
99 258
99 272
100 171
100 283
101 125
101 132
101 188
101 300
102 129
102 169
102 210
102 212
102 255
102 262
103 118
103 121
103 152
103 179
103 221
103 256
104 118
104 144
104 179
104 222
104 229
104 285
105 107
105 111
105 129
105 136
105 172
105 191
105 196
105 223
105 239
105 267
105 277
105 280
106 164
106 173
106 175
106 213
106 247
106 260
106 263
106 271
107 163
107 172
107 191
107 223
108 114
108 178
108 198
108 299
109 156
109 159
109 204
109 232
109 236
109 248
109 257
110 160
110 165
110 182
110 186
110 204
110 228
110 251
110 293
111 184
111 231
112 121
112 133
112 146
112 169
112 183
112 202
112 233
112 263
112 270
112 271
112 284
112 297
114 144
114 145
114 192
114 272
115 128
115 163
115 181
115 184
115 207
115 225
115 249
115 254
116 118
116 150
116 181
116 196
116 288
117 123
117 125
117 127
117 143
117 166
117 173
117 174
117 175
117 196
117 214
117 262
118 146
118 196
118 205
118 221
118 297
119 155
119 165
119 172
119 197
119 233
119 268
120 127
120 192
120 197
120 214
120 226
120 232
120 250
120 268
120 270
121 133
121 211
121 248
122 160
122 182
122 191
122 228
122 262
122 286
122 294
122 299
123 208
123 232
123 260
123 299
124 126
124 174
124 177
124 212
124 227
125 128
125 132
125 214
125 216
125 251
125 278
126 130
126 133
126 159
126 162
126 212
127 138
127 151
127 158
127 162
127 187
127 197
127 259
127 288
128 131
128 137
128 147
128 246
128 283
129 169
129 177
129 183
129 196
129 209
129 212
129 244
129 258
129 262
129 277
129 290
129 300
130 163
130 190
131 138
131 147
131 186
131 200
131 212
131 271
131 279
132 157
132 171
132 209
132 218
132 227
132 251
132 276
133 202
133 240
133 248
134 144
135 246
135 274
136 164
136 172
136 254
137 209
137 276
138 155
138 225
138 253
138 271
138 285
139 234
140 147
140 160
141 206
141 251
142 191
143 150
143 171
143 201
143 294
144 166
144 167
144 175
144 181
144 220
144 229
144 253
144 269
144 272
145 173
145 205
145 214
145 215
146 173
146 193
146 197
146 201
146 241
146 278
146 297
147 162
147 200
147 212
147 219
148 178
148 208
148 294
148 299
149 153
149 156
149 170
149 236
149 250
149 294
150 165
150 181
150 232
150 258
150 282
151 197
151 216
151 268
152 161
152 167
153 180
153 202
153 203
153 273
154 173
154 175
154 176
154 218
155 209
155 248
155 276
155 290
156 236
156 242
156 294
157 179
157 222
157 260
157 261
157 272
158 197
158 214
158 250
159 257
159 258
160 212
160 213
160 228
160 234
160 247
160 274
160 289
161 165
161 167
161 196
161 237
161 255
161 282
162 174
162 203
162 252
163 231
163 249
164 172
164 183
164 264
164 271
164 292
165 167
165 231
165 233
165 237
165 255
165 282
166 175
166 196
166 226
166 233
166 245
166 256
166 275
167 220
167 239
168 198
168 273
169 172
169 210
169 223
169 270
169 277
170 216
170 253
170 279
170 292
171 283
172 233
172 249
172 260
172 284
173 175
173 196
173 206
173 255
174 185
174 197
174 203
174 235
174 264
174 268
174 285
176 181
176 201
176 218
176 220
176 221
176 288
176 294
177 277
178 198
178 235
178 247
178 294
178 299
179 193
179 207
179 221
179 222
180 200
180 272
180 288
181 184
181 233
181 248
181 284
181 288
181 289
181 296
182 197
182 204
182 221
182 224
182 228
182 235
182 274
182 285
182 288
182 293
182 296
183 194
183 202
183 209
183 271
183 284
184 191
184 213
184 247
184 248
184 261
185 187
185 235
187 277
187 288
188 198
188 235
188 238
188 300
189 281
190 232
190 240
191 196
191 202
191 217
191 228
191 245
191 300
192 204
192 228
192 240
192 250
192 280
193 198
193 202
193 209
193 238
193 241
193 244
193 249
193 271
193 276
193 298
194 262
194 284
194 286
195 198
195 210
195 219
195 227
195 260
195 266
195 270
195 286
195 294
195 298
195 299
196 245
196 255
196 267
196 296
197 214
197 216
197 259
197 268
197 285
197 288
197 296
198 202
198 273
198 298
199 203
199 215
199 240
199 257
199 279
199 280
200 224
200 261
200 272
201 278
201 294
201 299
202 233
202 249
202 268
203 235
203 240
203 285
204 219
204 228
204 250
204 259
204 280
204 292
205 209
205 214
205 240
205 271
207 221
208 227
208 244
208 246
209 241
209 254
209 265
209 271
209 276
209 277
209 298
210 227
210 230
210 233
210 239
210 298
211 248
211 249
211 252
211 286
212 255
212 259
212 274
212 289
213 247
213 274
214 256
214 283
215 256
215 257
215 283
216 251
217 300
218 239
218 242
218 283
218 291
218 297
219 234
219 246
219 260
219 288
219 289
220 236
220 239
220 248
220 249
220 253
220 283
220 300
221 222
221 224
221 241
221 286
222 248
222 271
222 272
222 281
223 231
223 265
224 240
224 243
226 229
226 246
226 268
226 269
226 275
227 230
227 244
227 275
227 276
227 298
229 269
229 275
230 237
230 238
230 257
230 262
230 268
230 283
230 298
231 233
231 253
232 241
232 258
232 260
232 270
233 249
233 252
233 282
233 284
233 298
234 246
235 247
235 274
236 239
236 294
237 239
237 283
238 244
238 268
239 265
239 267
239 283
240 280
240 295
241 265
241 271
242 251
242 291
244 258
244 287
245 255
245 296
245 299
246 283
247 263
247 280
248 300
249 252
249 265
249 270
250 294
251 295
253 256
254 291
254 298
255 296
256 283
256 289
257 258
257 280
258 260
258 287
258 300
259 288
259 292
260 261
260 292
261 272
262 286
262 298
262 300
266 270
268 286
268 299
269 275
270 277
271 281
271 292
272 281
275 298
276 288
276 296
280 295
281 283
283 297
285 293
286 298
288 289
288 296
290 296
290 299
294 299
*Classes
1
1
1
1
1
1
1
1
1
1
1
1
1
1
1
1
1
1
1
1
1
1
1
1
1
1
1
1
1
1
1
1
1
1
1
1
1
1
1
1
1
1
1
1
1
1
1
1
1
1
1
1
1
1
1
1
1
1
1
1
1
1
1
1
1
1
1
1
1
1
1
1
1
1
1
1
1
1
1
1
1
1
1
1
1
1
1
1
1
1
1
1
1
1
1
1
1
1
1
1
1
1
1
1
1
1
1
1
1
1
1
1
1
1
1
1
1
1
1
1
1
1
1
1
1
1
1
1
1
1
1
1
1
1
1
1
1
1
1
1
1
1
1
1
1
1
1
1
1
1
2
2
2
2
2
2
2
2
2
2
2
2
2
2
2
2
2
2
2
2
2
2
2
2
2
2
2
2
2
2
2
2
2
2
2
2
2
2
2
2
2
2
2
2
2
2
2
2
2
2
2
2
2
2
2
2
2
2
2
2
2
2
2
2
2
2
2
2
2
2
2
2
2
2
2
2
2
2
2
2
2
2
2
2
2
2
2
2
2
2
2
2
2
2
2
2
2
2
2
2
2
2
2
2
2
2
2
2
2
2
2
2
2
2
2
2
2
2
2
2
2
2
2
2
2
2
2
2
2
2
2
2
2
2
2
2
2
2
2
2
2
2
2
2
2
2
2
2
2
2
