*Vertices 300
*Edges
1 4
1 79
1 82
1 84
1 89
1 96
1 126
1 142
1 174
1 192
1 227
1 296
2 3
2 82
2 160
2 175
2 178
2 261
3 5
3 15
3 24
3 54
3 95
3 113
3 149
3 156
3 168
3 178
3 180
3 275
4 6
4 15
4 21
4 27
4 32
4 40
4 55
4 56
4 72
4 84
4 227
4 242
4 292
5 24
5 39
5 59
5 113
5 154
5 161
5 183
5 205
5 230
5 279
5 284
6 44
6 98
6 143
6 161
6 196
6 204
6 271
6 276
7 124
7 143
7 198
7 225
7 239
7 248
8 17
8 25
8 56
8 59
8 107
8 151
8 160
8 213
9 29
9 86
9 111
9 145
10 25
10 66
10 77
10 96
10 137
10 215
10 257
10 297
11 23
11 116
11 167
11 189
11 274
11 291
12 49
12 125
12 127
12 151
12 161
12 163
12 199
12 260
12 261
12 271
13 33
13 41
13 45
13 50
13 81
13 94
13 97
13 126
13 131
13 236
13 293
14 41
14 43
14 57
14 99
14 111
14 122
14 125
14 284
15 27
15 54
15 63
15 80
15 111
15 114
15 146
15 162
15 188
16 21
16 29
16 42
16 60
16 120
16 121
16 145
16 202
16 217
16 219
16 243
16 249
16 257
16 289
16 290
17 20
17 25
17 59
17 63
17 106
17 109
17 114
17 281
18 63
18 75
18 89
18 101
18 102
18 238
18 286
18 296
19 24
19 78
19 220
19 221
19 224
19 225
19 254
19 296
20 56
20 59
20 201
20 261
21 27
21 196
21 202
21 267
21 274
21 277
21 284
21 287
21 288
22 49
22 70
22 73
22 80
22 116
22 182
22 188
22 217
22 239
22 298
23 58
23 68
23 116
23 124
23 247
23 251
23 252
24 53
24 78
24 90
24 140
24 149
24 159
24 231
24 263
24 268
24 272
24 285
25 39
25 56
25 67
25 101
25 110
25 150
25 151
25 154
25 155
25 191
25 208
25 238
25 245
25 258
25 271
25 286
25 295
25 297
26 38
26 53
26 73
26 104
26 137
26 147
26 187
26 236
26 253
27 63
27 67
27 138
27 157
27 199
27 205
27 276
28 104
28 281
28 296
29 167
29 243
29 260
29 290
30 94
31 61
31 98
32 40
32 94
32 117
32 216
32 256
33 41
33 50
33 56
33 84
33 114
33 117
33 125
33 149
33 219
33 256
33 271
34 36
34 208
35 49
35 51
35 62
35 91
35 93
35 109
35 200
35 283
35 292
36 82
36 97
36 142
36 165
36 176
36 226
36 234
36 278
36 298
37 46
37 58
37 61
37 87
37 250
37 259
37 278
38 73
38 81
38 89
38 94
38 103
38 191
38 207
38 215
38 224
38 231
38 236
38 247
38 252
38 264
38 270
39 86
39 99
39 161
39 186
39 212
39 228
39 248
39 253
39 278
40 85
40 88
40 94
40 106
40 116
40 161
40 173
40 254
40 260
40 280
41 76
41 89
41 271
41 281
42 45
42 50
42 60
42 78
42 92
42 107
42 109
42 121
42 190
42 197
42 241
42 248
42 282
43 80
43 126
43 242
44 149
44 237
45 52
45 60
45 67
45 100
45 121
45 177
45 185
45 240
45 264
45 266
46 78
46 103
46 204
46 238
46 278
46 282
47 99
47 105
47 124
47 268
47 273
48 101
48 265
49 128
49 140
49 160
49 203
49 206
50 60
50 61
50 63
50 66
50 81
50 94
50 97
50 180
50 200
51 125
51 151
51 173
52 100
52 101
52 131
52 251
52 259
52 276
53 78
53 189
53 253
54 63
54 163
54 237
54 276
55 72
55 82
55 189
55 221
55 276
55 287
55 294
55 296
56 84
56 117
56 120
56 128
56 134
56 136
56 163
56 178
56 236
56 285
57 122
57 277
58 106
58 164
58 171
58 183
58 241
58 259
58 261
58 262
59 68
59 76
59 109
59 145
59 153
59 253
59 254
59 271
59 279
59 286
60 113
60 120
60 121
60 125
60 135
60 180
60 181
60 191
60 201
60 213
60 291
61 87
61 98
61 148
61 158
61 188
61 205
61 265
61 266
61 274
62 65
62 80
62 105
62 111
62 141
62 146
62 200
62 234
63 80
63 102
63 114
64 88
64 121
64 129
64 287
65 80
65 117
65 132
65 138
65 148
65 185
65 229
66 73
66 96
66 115
66 200
67 101
67 114
67 136
67 138
67 140
67 149
67 177
67 245
67 250
68 109
68 146
68 247
68 251
69 95
69 110
69 122
69 133
69 136
69 155
69 201
69 232
69 256
70 128
70 182
70 213
70 217
70 256
70 263
70 277
70 279
71 72
71 162
71 201
71 256
72 82
72 112
72 139
72 166
72 293
73 80
73 121
73 129
73 141
73 199
73 200
73 232
74 246
75 157
75 248
75 264
75 296
76 154
76 166
76 255
76 271
76 284
76 289
77 137
77 190
77 224
77 231
77 238
77 257
77 282
78 107
78 189
78 296
79 107
79 118
79 119
79 126
79 270
79 287
80 117
80 118
80 141
80 205
80 221
81 89
82 88
82 90
82 158
82 165
82 178
82 221
82 222
82 257
83 102
83 176
84 89
84 143
84 153
84 205
84 235
84 255
84 257
84 262
84 294
85 161
85 176
85 238
85 288
85 293
86 149
86 213
86 228
86 235
87 93
87 175
87 186
88 183
88 217
88 222
88 228
88 241
88 258
88 284
89 212
89 281
90 149
90 184
90 257
91 119
91 262
92 109
92 147
92 244
92 285
93 175
93 188
94 134
94 232
94 253
94 269
94 272
94 275
94 292
95 136
95 263
96 125
96 126
96 131
96 172
96 295
97 122
97 137
97 151
97 217
97 296
98 142
98 161
98 214
99 164
99 200
99 241
100 101
101 110
101 151
101 154
101 162
101 206
101 265
101 286
102 165
102 198
102 201
102 203
102 254
102 262
102 274
102 282
103 115
103 153
103 247
104 227
105 180
105 194
105 249
106 114
106 116
106 180
106 209
106 247
106 259
107 225
107 287
107 289
108 280
108 294
109 121
109 127
109 131
109 145
109 181
109 216
109 224
109 230
109 253
109 296
110 150
110 155
110 201
110 202
110 208
110 220
110 258
110 264
110 279
111 146
111 156
111 172
111 200
111 203
111 234
111 262
111 297
112 144
112 151
112 205
112 222
112 293
112 297
113 154
113 181
113 226
113 270
114 131
114 142
114 149
114 155
114 167
114 178
114 209
114 247
114 272
114 281
114 284
115 171
115 200
115 225
115 238
115 248
115 263
115 278
115 299
117 132
117 205
118 123
118 170
118 232
118 283
118 298
119 126
119 225
119 262
119 292
120 125
120 145
120 149
120 165
120 202
120 217
120 219
120 233
120 237
120 261
121 129
121 202
121 215
121 248
121 253
121 263
121 285
121 289
121 294
122 133
122 137
123 141
123 186
123 211
123 228
123 293
124 198
124 298
124 300
125 151
125 155
125 156
125 172
125 224
125 243
125 268
126 131
126 137
126 174
126 218
126 233
126 270
127 128
127 131
127 145
127 270
127 300
128 144
128 148
128 201
128 248
128 256
128 277
129 203
129 235
129 253
130 184
130 223
131 173
131 226
131 229
131 244
131 283
132 134
132 148
132 202
132 221
134 220
134 254
134 260
135 199
135 230
135 243
135 244
135 269
136 149
136 168
136 236
136 252
137 281
138 185
138 208
138 225
139 195
139 222
139 237
139 268
140 157
140 164
140 231
140 244
140 250
140 263
140 266
140 283
141 157
141 165
141 244
141 254
142 171
143 248
143 262
144 282
145 165
145 167
145 284
145 296
146 223
147 187
147 223
147 236
147 260
147 285
147 288
148 158
148 177
148 200
148 248
149 219
149 228
149 256
149 261
149 268
149 272
149 285
150 155
150 179
150 182
151 161
151 296
152 159
152 181
152 272
153 175
153 209
153 241
153 242
153 250
153 254
153 259
154 161
154 243
154 263
154 274
154 284
154 300
155 165
155 179
155 260
155 278
156 180
156 200
156 204
156 234
156 278
156 298
157 228
157 239
157 287
158 171
158 195
158 257
158 296
159 160
159 166
159 181
159 189
160 166
161 163
161 171
161 205
161 206
161 209
161 216
161 236
161 271
161 293
162 208
162 252
162 286
164 172
164 204
164 238
164 245
165 254
165 260
167 189
167 201
167 241
167 260
167 262
167 263
167 272
167 284
167 298
168 180
168 250
168 256
168 265
168 275
169 228
169 243
170 188
170 195
170 218
170 233
170 254
171 195
171 205
171 206
171 217
171 278
171 289
172 268
172 275
172 293
173 245
173 280
174 189
174 192
174 261
174 262
174 274
175 178
175 212
175 248
175 257
175 278
175 290
175 293
176 221
176 224
176 281
177 204
177 238
177 246
177 267
177 288
178 257
178 283
178 290
179 207
179 213
180 196
180 207
180 224
181 185
181 230
181 241
181 272
182 196
182 207
182 282
183 188
183 214
183 241
183 258
183 259
184 231
184 234
184 236
184 244
184 273
185 193
185 218
185 224
185 264
185 281
185 285
186 242
187 224
187 259
187 273
187 297
188 214
188 218
188 233
188 239
188 242
189 243
189 262
189 274
190 193
190 197
190 231
190 261
190 273
193 210
193 217
193 224
193 231
193 234
193 293
194 230
194 269
194 275
195 205
195 237
195 295
196 204
196 217
196 225
196 226
196 267
196 286
196 298
198 239
198 259
199 205
199 206
200 209
200 298
201 203
201 217
201 224
201 256
201 269
201 272
202 222
202 267
202 279
203 206
203 235
203 256
203 262
203 269
204 238
204 245
204 298
205 206
205 257
205 282
206 215
209 240
209 242
209 251
209 260
209 271
209 278
209 289
210 231
210 283
210 296
211 228
211 265
211 266
212 213
212 217
212 239
212 253
212 279
212 281
212 293
213 279
213 291
214 251
214 259
214 297
215 264
215 267
216 236
216 249
217 279
217 284
217 298
218 233
218 246
218 285
219 229
219 256
220 221
220 259
220 271
221 235
221 259
222 279
224 272
224 281
224 298
225 267
225 289
226 227
226 274
226 298
227 268
227 298
228 239
228 243
228 268
228 282
228 291
228 293
230 269
230 275
230 279
230 291
231 234
231 236
231 267
232 253
233 244
233 246
234 298
234 299
235 239
235 253
235 259
236 247
236 252
237 261
237 264
238 270
238 275
239 242
239 253
239 287
240 271
241 242
241 250
241 254
241 284
241 296
242 260
242 271
242 292
243 263
243 267
243 274
244 266
244 273
244 296
245 297
246 247
246 287
247 287
248 274
248 278
248 290
248 299
250 265
250 271
250 275
251 271
251 276
251 278
251 297
254 259
254 284
255 289
255 294
257 283
258 279
259 297
260 283
261 262
261 273
261 293
261 296
262 263
263 277
263 289
264 296
265 271
269 275
269 286
272 298
273 293
273 296
274 276
275 283
278 289
278 298
279 285
282 289
286 291
289 298
291 292
*Classes
1
1
1
1
1
1
1
1
1
1
1
1
1
1
1
1
1
1
1
1
1
1
1
1
1
1
1
1
1
1
1
1
1
1
1
1
1
1
1
1
1
1
1
1
1
1
1
1
1
1
1
1
1
1
1
1
1
1
1
1
1
1
1
1
1
1
1
1
1
1
1
1
1
1
1
1
1
1
1
1
1
1
1
1
1
1
1
1
1
1
1
1
1
1
1
1
1
1
1
1
1
1
1
1
1
1
1
1
1
1
1
1
1
1
1
1
1
1
1
1
1
1
1
1
1
1
1
1
1
1
1
1
1
1
1
1
1
1
1
1
1
1
1
1
1
1
1
1
1
1
2
2
2
2
2
2
2
2
2
2
2
2
2
2
2
2
2
2
2
2
2
2
2
2
2
2
2
2
2
2
2
2
2
2
2
2
2
2
2
2
2
2
2
2
2
2
2
2
2
2
2
2
2
2
2
2
2
2
2
2
2
2
2
2
2
2
2
2
2
2
2
2
2
2
2
2
2
2
2
2
2
2
2
2
2
2
2
2
2
2
2
2
2
2
2
2
2
2
2
2
2
2
2
2
2
2
2
2
2
2
2
2
2
2
2
2
2
2
2
2
2
2
2
2
2
2
2
2
2
2
2
2
2
2
2
2
2
2
2
2
2
2
2
2
2
2
2
2
2
2
