*Vertices 300
*Edges
1 14
1 40
1 110
1 116
1 140
1 141
1 242
1 264
2 3
2 21
2 25
2 44
2 64
2 91
2 118
2 120
2 144
2 150
2 203
2 274
2 290
3 13
3 37
3 43
3 64
3 106
3 150
3 245
3 262
3 271
4 34
4 65
4 91
4 92
4 107
4 136
4 152
4 240
5 16
5 20
5 53
5 59
5 90
5 132
5 137
5 139
5 156
5 168
5 188
5 194
5 210
5 223
5 231
5 241
5 257
5 287
5 296
6 33
6 52
6 79
6 86
6 103
6 108
6 169
7 8
7 24
7 33
7 36
7 51
7 54
7 59
7 102
7 107
7 110
7 125
7 137
7 140
7 147
7 164
7 268
8 13
8 45
8 46
8 53
8 59
8 125
8 137
8 185
8 226
8 228
9 58
9 94
9 121
9 133
9 142
9 143
9 250
10 35
10 66
10 81
10 112
11 37
11 69
11 71
11 98
11 117
11 141
11 248
11 254
12 32
12 46
12 71
12 82
12 94
12 98
12 103
12 155
12 228
12 255
12 292
13 20
13 32
13 42
13 46
13 48
13 75
13 119
13 137
13 182
13 217
13 220
13 225
13 271
14 40
14 110
14 116
14 263
15 48
15 104
15 206
15 212
15 249
16 28
16 59
16 71
16 113
16 117
16 137
16 143
16 185
16 252
16 265
17 22
17 35
17 54
17 66
17 100
17 148
17 260
18 34
18 45
18 73
18 81
18 139
18 190
18 192
18 272
19 53
19 54
19 86
19 103
19 226
19 228
19 251
19 281
20 84
20 90
20 146
20 153
20 177
20 221
21 28
21 43
21 44
21 48
21 81
21 84
21 89
21 171
21 182
21 246
22 154
22 198
22 237
22 241
22 260
22 272
22 279
23 49
23 150
23 248
23 271
23 293
24 26
24 54
24 86
24 107
24 111
24 136
24 137
24 155
24 191
24 198
24 261
24 290
25 30
25 31
25 45
25 49
25 91
25 119
25 166
25 173
25 206
25 239
26 54
26 246
26 260
26 268
26 285
26 297
27 37
27 130
27 132
27 225
27 247
28 59
28 72
28 84
28 131
28 132
28 137
28 293
29 33
29 57
29 62
29 73
29 130
29 152
29 192
29 193
29 227
30 34
30 66
30 114
30 119
30 121
30 157
30 232
31 91
31 103
31 104
31 127
31 131
31 244
31 282
32 46
32 48
32 71
32 74
32 82
32 94
32 103
32 112
32 138
32 173
32 182
32 183
32 228
33 36
33 88
33 93
33 122
33 152
33 270
34 52
34 59
34 65
34 70
34 91
34 97
34 139
34 154
34 157
34 172
34 190
35 66
35 85
35 88
35 93
35 101
35 144
36 64
36 67
36 68
36 88
36 102
36 103
36 110
36 140
36 143
36 208
37 41
37 106
37 140
37 142
37 143
37 254
38 40
38 97
39 58
39 70
39 126
39 153
39 167
39 186
39 195
39 273
39 283
39 291
40 97
40 106
40 116
40 173
40 188
40 193
40 259
40 289
40 297
41 52
41 92
41 99
41 136
41 254
42 48
42 75
42 78
42 101
42 123
42 124
42 128
42 147
42 171
42 172
42 196
42 205
42 243
42 279
43 60
43 84
43 90
43 101
43 118
43 124
43 128
43 133
43 144
43 163
43 167
43 202
43 217
43 259
43 286
44 84
44 110
44 147
44 151
44 228
44 268
44 275
45 49
45 58
45 104
45 137
45 166
45 200
45 226
45 246
45 291
46 59
46 82
46 94
46 144
46 148
46 183
46 185
47 48
47 63
47 100
47 102
47 115
47 127
47 140
47 145
47 215
47 238
47 266
48 62
48 75
48 76
48 94
48 104
48 112
48 118
48 119
48 120
48 124
48 133
48 144
48 150
48 173
48 195
48 200
48 238
48 268
48 297
49 58
49 248
50 98
50 102
50 109
50 199
50 288
51 62
51 125
51 256
51 265
52 86
52 91
52 92
52 97
52 116
52 120
52 130
52 151
52 165
52 193
52 202
52 249
53 62
53 86
53 87
53 106
53 108
53 115
53 125
53 192
53 204
53 223
53 225
53 240
54 86
54 100
54 134
54 183
54 197
54 235
54 279
54 290
55 109
55 154
55 191
55 231
56 121
56 131
56 207
56 218
57 62
57 125
57 127
57 194
57 246
57 262
57 270
58 236
58 250
58 291
59 72
59 97
59 113
59 130
59 131
59 132
59 137
59 144
59 188
59 206
59 249
59 286
60 104
60 117
60 128
60 135
60 193
60 202
60 230
61 131
61 215
61 269
61 280
61 295
62 74
62 125
62 142
62 187
62 215
62 222
62 229
62 235
62 249
62 257
62 279
63 76
63 92
63 102
63 127
63 145
63 149
63 238
64 91
64 137
64 148
64 150
64 185
64 216
65 91
65 136
65 161
65 168
65 177
65 192
66 85
66 111
66 243
66 288
67 142
67 174
67 182
67 266
68 70
68 71
68 140
68 181
68 211
68 273
69 71
69 98
69 118
69 120
69 277
69 291
70 71
70 117
70 166
70 220
70 235
70 255
70 273
70 293
71 74
71 82
71 108
71 117
71 149
71 220
72 78
72 97
72 137
72 152
72 198
73 87
73 89
73 103
73 109
73 124
73 130
73 134
73 140
73 141
73 229
73 257
73 266
73 272
74 76
74 84
74 107
74 112
74 136
74 213
74 216
74 239
75 102
75 118
75 153
75 199
75 243
76 80
76 95
76 103
76 112
76 127
76 145
76 195
76 201
76 247
76 296
77 78
77 138
77 166
77 263
77 282
78 138
78 214
78 243
79 95
79 159
79 169
79 183
79 205
80 87
80 112
80 126
80 173
80 212
81 89
81 105
81 112
81 115
81 130
81 212
81 263
81 270
81 271
81 300
83 177
83 178
83 192
83 238
83 249
84 90
84 106
84 190
84 213
84 239
85 144
85 177
85 189
85 276
86 103
86 108
86 116
86 117
86 166
86 206
86 250
86 251
86 260
87 95
87 103
87 106
87 123
87 141
87 170
87 183
87 219
87 225
87 240
87 293
88 93
88 122
88 135
88 287
89 105
89 114
89 115
89 122
89 125
89 130
89 168
89 212
89 265
90 180
90 221
90 284
90 300
91 100
91 103
91 112
91 116
91 118
91 120
91 131
91 156
91 161
91 244
91 290
92 99
92 120
92 136
92 177
92 249
92 271
93 101
93 128
93 135
93 144
93 168
93 273
93 296
94 121
94 138
94 207
94 258
94 260
94 286
95 170
95 181
95 183
95 189
95 222
95 285
95 298
96 155
96 250
96 280
97 190
97 245
97 254
98 103
98 109
98 127
98 140
98 143
98 211
98 278
98 283
98 300
99 114
99 157
99 169
99 186
99 222
100 120
100 234
101 243
102 109
102 140
102 143
102 164
102 199
102 204
102 222
102 250
102 274
103 127
103 128
103 141
103 181
103 208
103 221
103 248
103 269
103 278
104 105
104 128
104 135
104 181
104 197
104 200
104 203
104 214
105 114
105 122
105 130
105 167
105 276
106 188
106 283
107 111
107 136
107 158
107 191
107 206
107 213
107 234
107 254
107 265
108 117
108 189
108 251
108 269
109 119
109 124
109 154
110 152
110 182
110 187
110 190
110 195
110 203
110 272
110 280
111 127
111 158
111 269
112 114
112 120
112 127
113 178
114 115
114 130
114 169
114 193
114 239
114 265
115 125
115 130
115 213
115 227
116 128
116 167
116 193
116 210
116 240
116 290
117 147
117 230
117 259
117 268
117 281
117 285
118 124
118 144
118 150
118 246
118 249
118 251
118 277
118 285
119 124
119 191
119 193
119 205
119 215
119 217
119 256
120 131
121 131
121 232
121 257
121 277
121 286
121 295
122 159
122 179
123 150
123 161
123 187
123 205
123 219
124 128
124 133
124 147
124 190
124 205
124 260
124 279
124 290
124 294
125 127
125 129
125 130
125 174
125 251
126 133
126 168
126 186
126 212
126 262
127 141
127 159
127 160
127 181
127 186
127 194
127 215
127 247
127 260
127 292
128 135
128 141
128 190
128 205
128 219
128 240
128 242
129 141
129 224
129 251
129 260
129 263
129 288
129 290
130 132
130 141
130 193
130 257
131 227
131 253
132 144
133 140
133 143
133 161
133 211
133 262
133 274
134 142
134 143
134 194
134 290
135 152
135 221
135 296
135 298
136 167
136 175
136 240
136 243
136 259
137 144
137 161
137 162
137 184
137 213
137 225
137 264
137 274
137 294
138 165
138 191
138 222
138 226
138 258
139 241
140 141
140 142
140 143
140 170
140 225
140 287
140 297
141 221
141 271
141 288
142 143
142 159
142 224
142 249
142 266
142 290
143 245
143 250
143 252
143 261
144 163
144 187
144 192
144 217
144 270
145 149
145 156
145 227
145 252
145 299
146 153
146 224
146 256
146 285
147 157
147 234
147 246
147 268
147 275
147 294
148 185
148 217
148 235
148 241
148 252
150 203
150 294
151 157
151 165
151 185
151 245
151 272
151 279
152 220
152 225
152 277
153 167
153 170
153 172
153 199
153 212
153 224
153 239
153 291
153 298
154 160
154 206
154 221
154 223
154 225
154 229
154 239
154 247
154 255
154 294
154 299
155 198
155 213
155 239
155 261
155 266
155 287
156 165
156 205
156 223
156 224
156 265
156 279
157 185
157 264
158 220
159 190
159 239
159 266
159 267
159 292
160 189
160 191
160 223
160 236
160 261
161 187
161 198
161 205
161 213
161 219
161 260
161 272
161 279
161 281
161 294
162 184
163 197
163 203
163 211
163 215
163 266
163 275
164 198
164 270
165 205
165 208
165 281
166 173
166 204
166 206
166 211
166 233
166 236
166 246
166 294
167 283
168 191
168 192
168 208
168 226
168 241
168 262
169 201
169 204
169 222
169 233
169 269
169 280
169 284
170 212
170 246
170 267
170 295
171 190
171 222
171 243
171 247
171 293
172 216
172 243
172 246
173 188
174 182
174 193
174 215
174 218
175 260
175 290
176 195
176 227
176 249
176 286
176 300
177 189
177 195
177 197
177 249
177 296
178 187
178 192
178 293
178 295
179 204
179 269
180 204
180 227
180 229
180 263
180 269
180 287
180 300
181 190
181 192
181 196
181 198
181 207
181 213
181 239
181 243
181 293
181 295
181 298
183 264
183 285
183 289
183 298
185 228
185 235
185 261
185 262
186 194
186 212
186 222
187 192
187 215
187 242
187 260
187 266
187 281
187 293
188 257
188 265
188 287
189 197
189 223
189 247
189 251
189 265
189 269
189 276
189 285
190 192
190 197
190 228
190 266
190 271
190 272
190 298
191 226
191 236
191 246
191 256
191 268
191 297
192 207
192 222
192 243
192 260
192 266
192 267
192 271
192 293
192 295
193 209
193 215
193 221
193 228
193 289
194 218
194 231
194 234
194 247
194 290
195 241
195 249
195 259
195 286
195 296
196 197
196 205
196 215
196 235
196 240
196 243
196 262
196 271
196 279
197 203
197 215
197 251
197 266
197 271
197 279
197 298
198 211
198 219
198 241
198 243
198 270
198 288
199 204
199 233
199 288
199 290
199 293
200 214
200 226
200 239
200 267
200 271
200 296
201 245
201 272
201 280
202 209
202 214
202 228
202 237
202 281
202 282
203 279
204 233
204 269
205 272
205 279
205 288
206 229
206 234
207 222
207 257
207 286
207 293
208 209
208 211
208 226
208 260
208 290
209 211
209 215
209 228
209 237
210 231
210 234
210 254
211 224
211 236
211 242
211 275
211 282
211 288
212 221
212 255
212 270
212 271
212 289
212 295
213 239
213 264
214 224
214 225
214 242
214 277
214 278
214 282
214 292
215 243
215 271
215 280
215 289
216 246
217 252
217 285
219 243
219 281
220 241
220 273
221 255
221 289
222 238
222 247
222 257
222 273
222 293
223 235
223 246
223 255
223 261
223 269
224 236
224 243
224 275
224 282
224 288
225 247
225 277
225 283
225 299
225 300
226 251
227 229
227 249
227 252
227 291
227 297
227 300
228 232
228 237
228 239
228 298
229 258
229 263
229 279
229 300
230 254
231 234
231 275
232 276
232 277
233 246
234 271
234 275
235 252
235 261
235 262
237 266
238 264
239 261
239 266
239 271
239 276
239 294
239 298
239 299
240 242
240 279
241 249
241 257
241 286
242 275
242 292
243 288
243 289
243 298
244 251
245 263
245 298
246 268
246 294
246 297
247 276
247 277
247 291
248 271
248 286
249 297
249 300
251 265
252 285
253 275
256 268
258 291
258 300
259 286
259 294
260 290
260 292
260 293
263 291
263 298
263 300
264 289
266 272
266 276
267 271
267 295
268 294
268 297
268 299
269 300
271 279
271 296
272 276
272 279
272 294
273 296
274 282
274 284
274 291
274 300
277 278
277 282
277 291
278 286
278 292
279 281
279 288
282 291
283 291
285 297
286 294
287 300
290 293
291 300
294 299
297 300
*Classes
1
1
1
1
1
1
1
1
1
1
1
1
1
1
1
1
1
1
1
1
1
1
1
1
1
1
1
1
1
1
1
1
1
1
1
1
1
1
1
1
1
1
1
1
1
1
1
1
1
1
1
1
1
1
1
1
1
1
1
1
1
1
1
1
1
1
1
1
1
1
1
1
1
1
1
1
1
1
1
1
1
1
1
1
1
1
1
1
1
1
1
1
1
1
1
1
1
1
1
1
1
1
1
1
1
1
1
1
1
1
1
1
1
1
1
1
1
1
1
1
1
1
1
1
1
1
1
1
1
1
1
1
1
1
1
1
1
1
1
1
1
1
1
1
1
1
1
1
1
1
2
2
2
2
2
2
2
2
2
2
2
2
2
2
2
2
2
2
2
2
2
2
2
2
2
2
2
2
2
2
2
2
2
2
2
2
2
2
2
2
2
2
2
2
2
2
2
2
2
2
2
2
2
2
2
2
2
2
2
2
2
2
2
2
2
2
2
2
2
2
2
2
2
2
2
2
2
2
2
2
2
2
2
2
2
2
2
2
2
2
2
2
2
2
2
2
2
2
2
2
2
2
2
2
2
2
2
2
2
2
2
2
2
2
2
2
2
2
2
2
2
2
2
2
2
2
2
2
2
2
2
2
2
2
2
2
2
2
2
2
2
2
2
2
2
2
2
2
2
2
