*Vertices 300
*Edges
1 70
1 116
1 186
1 229
1 233
2 37
2 50
2 76
2 79
2 200
2 223
2 263
3 83
3 84
3 100
3 108
3 133
3 139
3 147
3 179
3 252
3 277
4 46
4 69
4 72
4 74
4 93
4 98
4 99
4 107
4 108
4 115
4 122
4 285
4 290
5 17
5 22
5 40
5 57
5 83
5 102
5 106
5 124
5 137
5 143
5 213
5 220
6 27
6 37
6 63
6 95
6 116
6 159
7 36
7 40
7 58
7 62
7 70
7 139
7 144
7 183
7 206
7 222
7 262
8 34
8 49
8 90
8 111
8 148
8 191
8 266
9 24
9 39
9 73
9 107
9 108
9 134
9 192
9 195
9 219
9 300
10 78
10 121
10 144
10 203
10 245
10 268
10 284
10 286
11 19
11 25
11 29
11 114
11 128
11 255
11 295
12 63
12 83
12 85
12 98
12 103
12 107
12 139
12 260
13 78
13 117
13 147
13 182
13 203
13 230
14 22
14 45
14 86
14 118
14 174
14 268
14 271
14 288
15 22
15 33
15 38
15 43
15 111
15 148
15 175
15 254
15 255
15 265
16 64
16 102
16 174
16 178
17 66
17 69
17 116
17 124
17 137
17 145
17 187
17 287
18 86
18 106
18 125
18 155
18 240
18 294
19 162
19 209
19 260
19 295
20 24
20 71
20 105
20 253
20 265
20 270
21 39
21 47
21 57
21 116
21 161
21 169
21 194
21 224
21 246
21 267
22 29
22 45
22 114
22 124
22 268
22 271
23 120
23 134
23 238
24 39
24 68
24 71
24 133
24 225
24 280
25 42
25 70
25 80
25 128
25 183
25 236
25 244
25 265
26 168
26 250
27 30
27 34
27 82
27 95
27 104
27 149
27 240
27 243
28 44
28 65
28 82
28 87
28 99
28 133
28 151
28 155
29 36
29 92
29 114
29 172
29 176
29 182
29 255
30 31
30 32
30 48
30 52
30 60
30 72
30 104
30 110
30 121
30 122
30 125
30 159
30 240
31 57
31 64
31 70
31 110
31 121
31 136
31 166
31 298
31 300
32 105
32 125
32 143
32 262
33 35
33 91
33 135
33 155
33 266
33 293
34 56
34 72
34 90
34 124
34 184
35 38
35 60
35 67
35 72
35 103
35 117
35 135
35 138
35 140
35 216
35 269
35 286
36 54
36 216
37 116
37 161
38 45
38 189
38 191
38 198
38 215
38 224
38 259
38 265
39 91
39 191
39 197
39 263
39 298
40 52
40 58
40 61
40 77
40 80
40 99
40 103
40 143
40 157
40 166
40 182
41 82
41 85
41 89
41 257
42 49
42 78
42 79
42 136
42 160
42 244
42 265
43 47
43 48
43 115
43 127
43 135
43 164
43 231
43 272
43 288
44 46
44 56
44 64
44 68
44 99
44 133
44 151
44 228
44 275
44 293
45 52
45 66
45 178
45 249
45 261
46 51
46 69
46 95
46 115
46 122
46 151
46 155
46 193
46 197
47 260
48 50
48 101
48 104
48 129
48 252
48 262
48 272
49 99
49 102
49 104
49 129
49 185
49 203
49 209
49 216
49 236
49 237
50 86
50 108
50 134
50 159
50 269
51 92
51 95
51 107
51 248
51 264
52 54
52 61
52 66
52 71
52 74
52 77
52 87
52 137
52 143
52 157
52 182
52 186
52 249
52 286
52 299
53 88
53 100
53 148
53 201
53 258
53 275
53 295
54 94
54 216
54 233
54 299
55 59
55 112
56 64
56 99
56 176
56 184
56 194
56 235
56 266
57 73
57 80
57 116
57 135
57 143
57 144
58 62
58 106
58 120
58 135
58 164
58 186
58 228
58 265
58 267
58 285
59 146
59 264
59 296
59 300
60 97
60 104
60 122
60 148
61 120
61 134
61 158
61 166
61 204
61 232
61 263
62 120
62 129
62 155
62 172
62 205
62 218
62 242
63 73
63 83
63 85
63 89
63 144
63 159
63 226
63 238
63 248
63 299
64 94
64 98
64 119
64 132
64 135
64 138
64 176
64 216
64 298
65 151
65 153
65 163
65 178
65 209
65 210
65 237
65 261
66 87
66 117
66 173
66 255
67 94
67 106
67 120
67 157
67 269
67 292
68 111
68 129
68 133
68 176
68 192
68 210
68 216
68 237
68 269
69 103
69 114
69 160
69 204
69 276
70 80
70 116
70 136
70 156
70 161
70 212
70 222
71 76
71 81
71 100
71 145
71 232
71 270
71 271
71 277
71 296
72 74
72 117
72 125
72 144
73 219
74 81
74 108
74 187
75 113
75 137
75 140
75 171
75 192
75 285
76 80
76 121
76 148
76 200
76 215
77 201
78 90
78 91
78 144
78 160
78 165
79 93
79 120
79 134
79 244
79 245
80 99
80 127
80 139
80 144
80 211
80 278
81 83
81 100
81 108
81 118
81 139
81 174
81 277
81 284
82 87
82 91
82 197
82 235
82 257
83 108
83 139
83 144
83 154
83 213
83 279
84 108
84 162
84 169
85 89
85 207
85 240
86 108
86 217
87 112
87 200
88 126
88 148
88 295
89 102
89 123
89 160
89 165
89 174
89 234
89 238
89 282
89 297
90 124
90 144
90 201
90 258
91 155
91 200
91 216
92 117
92 255
92 287
92 296
93 98
93 141
93 162
93 244
93 254
93 263
93 282
94 97
94 137
94 171
94 216
94 219
95 142
95 203
96 115
97 146
97 204
97 220
97 255
97 285
98 134
98 220
98 241
98 284
98 285
99 127
99 143
99 185
99 194
99 288
100 201
100 281
101 120
101 140
101 150
101 181
101 186
101 188
101 223
101 229
101 246
102 148
102 150
102 160
102 178
102 202
102 211
102 213
103 204
103 255
103 276
103 280
104 185
104 224
104 232
104 250
105 124
105 132
105 137
105 143
106 115
106 143
106 146
106 164
106 186
106 248
106 269
106 273
107 108
107 138
107 188
107 248
107 260
107 281
108 134
108 219
108 235
108 240
109 174
109 205
109 207
110 121
110 139
111 148
111 174
111 190
111 237
112 208
112 234
113 119
113 158
113 164
114 195
114 223
114 250
114 275
114 276
115 128
115 143
115 208
116 194
116 240
116 299
117 154
117 196
117 204
117 214
117 296
118 159
118 165
118 197
119 170
119 227
120 134
120 246
121 243
121 270
121 277
121 290
122 270
123 148
123 160
123 195
123 237
123 275
123 292
124 137
125 155
125 244
125 290
126 149
126 201
126 226
126 254
127 135
128 157
128 182
128 190
128 191
128 211
128 236
128 249
129 232
129 237
129 243
130 182
130 217
130 223
130 267
130 270
130 273
130 283
131 133
131 180
132 143
132 155
132 298
133 142
133 153
133 212
133 287
134 220
134 272
135 160
135 203
135 279
136 168
136 189
136 212
136 232
136 244
136 258
136 285
136 298
137 171
137 176
137 182
137 192
138 150
138 165
138 204
138 216
138 253
139 144
139 149
139 201
140 170
140 171
140 192
140 281
141 142
141 184
141 189
141 244
142 153
142 162
142 207
143 276
144 160
144 165
144 189
144 266
145 181
145 194
145 240
146 181
146 204
146 229
147 185
147 231
147 287
147 289
148 213
150 204
150 224
150 229
150 257
150 261
150 295
151 155
151 164
151 166
151 174
151 177
151 193
151 197
151 250
151 271
151 285
152 155
153 163
154 190
154 204
154 220
154 221
154 229
154 265
154 269
154 296
155 266
155 283
155 293
156 159
157 247
158 252
158 270
159 167
159 227
160 238
160 239
161 194
161 207
161 287
162 177
162 192
162 199
162 200
162 216
162 226
162 254
162 260
162 278
162 279
162 283
162 285
163 176
163 187
163 281
163 293
164 177
164 187
164 198
164 201
164 206
164 262
164 267
164 287
165 190
165 197
165 238
166 174
166 250
166 271
166 300
167 198
167 260
167 279
167 286
168 199
168 233
168 235
168 254
169 194
169 221
170 171
170 231
170 291
171 203
171 223
171 231
172 203
172 271
172 288
173 219
173 255
174 213
174 288
174 291
175 262
176 187
176 242
176 247
176 269
176 295
177 283
177 285
177 291
178 182
179 217
180 290
181 189
181 202
181 246
181 251
182 200
182 236
182 258
182 264
182 269
185 231
185 236
185 267
185 282
186 223
186 226
186 246
186 258
186 273
186 277
187 247
187 287
188 214
188 232
188 277
189 224
189 244
189 251
189 259
189 298
190 220
190 221
190 273
191 197
191 215
191 234
191 236
191 265
191 272
191 298
192 210
192 278
194 255
194 276
194 288
195 212
195 275
195 280
196 271
196 277
196 296
197 271
198 209
198 261
198 286
199 203
199 250
199 254
199 274
200 217
200 226
200 258
200 279
201 281
202 246
202 292
203 219
203 223
204 229
204 253
204 295
206 223
206 225
206 226
206 283
207 294
208 234
209 228
209 244
209 284
209 285
209 286
209 297
210 216
210 217
210 235
210 242
210 251
210 260
210 265
210 266
210 280
212 260
212 266
212 270
212 285
213 220
213 288
214 215
214 219
214 237
214 275
214 296
215 234
215 236
215 249
215 259
216 237
216 262
216 283
217 226
218 248
218 284
219 225
219 237
219 297
220 285
221 294
222 245
222 287
223 226
223 240
223 275
224 232
224 241
224 261
224 298
225 262
225 283
226 299
227 291
228 236
228 267
229 251
229 267
231 236
231 272
231 289
231 291
232 276
233 271
233 288
234 281
234 282
234 285
234 297
235 274
236 262
236 267
236 282
236 284
236 286
237 290
238 245
238 257
238 259
240 255
240 280
240 299
241 259
241 284
241 285
242 280
242 294
242 295
244 286
246 267
246 268
247 251
247 295
250 254
251 260
252 253
252 270
253 265
253 270
254 255
254 278
254 283
255 276
255 280
255 299
258 265
258 275
258 277
260 279
263 267
263 282
264 296
264 299
267 268
267 281
267 282
268 273
268 281
268 286
269 281
271 288
272 289
274 299
280 299
283 291
283 295
284 286
285 291
285 297
292 298
*Classes
1
1
1
1
1
1
1
1
1
1
1
1
1
1
1
1
1
1
1
1
1
1
1
1
1
1
1
1
1
1
1
1
1
1
1
1
1
1
1
1
1
1
1
1
1
1
1
1
1
1
1
1
1
1
1
1
1
1
1
1
1
1
1
1
1
1
1
1
1
1
1
1
1
1
1
1
1
1
1
1
1
1
1
1
1
1
1
1
1
1
1
1
1
1
1
1
1
1
1
1
1
1
1
1
1
1
1
1
1
1
1
1
1
1
1
1
1
1
1
1
1
1
1
1
1
1
1
1
1
1
1
1
1
1
1
1
1
1
1
1
1
1
1
1
1
1
1
1
1
1
2
2
2
2
2
2
2
2
2
2
2
2
2
2
2
2
2
2
2
2
2
2
2
2
2
2
2
2
2
2
2
2
2
2
2
2
2
2
2
2
2
2
2
2
2
2
2
2
2
2
2
2
2
2
2
2
2
2
2
2
2
2
2
2
2
2
2
2
2
2
2
2
2
2
2
2
2
2
2
2
2
2
2
2
2
2
2
2
2
2
2
2
2
2
2
2
2
2
2
2
2
2
2
2
2
2
2
2
2
2
2
2
2
2
2
2
2
2
2
2
2
2
2
2
2
2
2
2
2
2
2
2
2
2
2
2
2
2
2
2
2
2
2
2
2
2
2
2
2
2
