*Vertices 300
*Edges
1 14
1 15
1 18
1 58
1 125
1 161
1 193
1 217
1 243
1 247
1 274
2 26
2 97
2 106
2 150
2 170
2 232
2 233
2 299
3 13
3 58
3 117
3 120
3 196
3 213
3 254
4 5
4 15
4 59
4 64
4 104
4 121
4 128
4 136
4 138
4 166
4 170
4 174
4 188
4 279
4 293
5 42
5 55
5 91
5 121
5 139
5 264
6 31
6 55
6 94
6 126
6 129
6 149
6 171
7 27
7 62
7 70
7 113
7 114
7 158
7 195
7 232
8 24
8 96
8 99
8 165
8 181
8 294
9 43
9 53
9 61
9 80
9 91
9 98
9 125
9 265
10 76
10 152
10 248
10 290
11 26
11 77
11 103
11 105
11 126
11 134
11 181
11 218
11 228
11 243
12 168
12 171
12 184
13 44
13 45
13 57
13 58
13 91
13 108
13 188
13 233
13 264
14 34
14 60
14 79
14 91
14 130
14 140
14 180
14 193
14 218
14 260
14 272
14 289
15 18
15 25
15 35
15 51
15 77
15 104
15 124
15 125
15 138
15 147
15 158
15 159
15 165
15 170
15 181
15 246
15 275
16 43
16 104
16 190
16 210
16 226
17 27
17 75
17 110
17 143
17 290
18 59
18 70
18 89
18 101
18 125
18 217
18 220
18 271
19 44
19 76
19 85
19 132
19 134
19 178
19 220
19 234
20 25
20 27
20 54
20 58
20 60
20 85
20 93
20 95
20 98
20 114
20 147
20 197
21 28
21 153
21 261
21 274
22 83
22 93
22 107
22 116
22 118
22 135
22 146
22 198
22 221
22 222
22 239
22 245
22 258
22 263
22 270
23 74
23 93
23 104
23 120
23 128
23 199
23 267
23 292
24 90
24 105
24 117
24 166
24 177
24 226
25 32
25 38
25 57
25 99
25 119
25 147
25 162
25 248
26 79
26 100
26 112
26 127
26 141
26 145
26 188
26 200
26 226
27 52
27 58
27 75
27 85
27 93
27 98
27 113
27 226
28 110
28 117
28 143
28 173
28 199
29 55
29 101
29 107
29 116
29 118
29 119
29 142
29 146
29 151
29 223
29 266
29 289
30 76
30 88
30 89
30 94
30 150
30 203
30 220
30 250
30 260
30 263
31 46
31 49
31 67
31 68
31 120
31 129
31 136
31 201
31 255
31 287
31 288
32 56
32 63
32 79
32 84
32 119
32 137
32 154
32 191
32 193
32 194
32 223
32 239
32 255
32 278
32 283
33 41
33 140
34 62
34 91
34 95
34 140
34 179
34 180
34 215
34 300
35 58
35 147
35 170
35 182
35 192
35 216
35 220
35 229
35 233
35 271
35 287
36 53
36 101
36 103
36 215
36 230
36 251
36 267
37 54
37 142
37 146
37 156
37 159
37 214
37 256
38 57
38 90
38 108
38 113
38 123
38 124
38 165
39 40
39 131
39 254
39 293
40 98
40 152
40 165
40 173
40 189
40 207
40 276
40 278
40 286
40 293
41 74
41 84
41 96
42 55
42 73
42 77
42 88
42 89
42 147
42 201
42 264
42 296
43 62
43 107
43 125
43 222
43 265
43 267
43 280
43 284
44 65
44 120
44 132
44 133
44 139
44 151
44 168
44 174
44 202
44 267
44 293
45 50
45 58
45 83
45 100
45 114
45 116
45 126
45 173
45 189
45 269
45 270
46 67
46 90
46 93
46 123
46 146
46 151
46 259
47 72
47 106
47 111
47 154
47 161
47 189
47 226
47 258
47 260
47 273
48 53
48 66
48 81
48 101
48 103
48 134
48 160
48 171
48 224
48 233
48 259
48 260
48 274
49 51
49 68
49 81
49 120
49 157
49 246
49 273
50 57
50 58
50 68
50 86
50 92
50 105
50 159
50 185
51 77
51 120
51 138
51 147
51 151
51 170
51 194
51 235
51 258
51 261
52 75
52 90
52 92
52 164
52 181
52 183
52 218
52 223
52 228
52 234
52 240
52 263
52 267
53 168
54 95
55 106
55 129
55 157
55 211
55 219
55 264
55 266
55 291
56 59
56 79
56 102
56 121
56 140
56 205
56 220
56 250
56 255
57 58
57 68
57 96
57 99
57 101
57 108
57 124
57 147
57 195
57 221
57 260
57 268
58 60
58 70
58 92
58 96
58 114
58 126
58 147
58 197
58 213
58 216
58 223
58 247
59 70
59 78
59 102
59 138
59 183
59 205
59 239
60 75
60 79
60 93
60 95
60 98
60 130
60 176
60 187
60 203
60 211
60 266
60 272
60 275
61 101
61 117
61 125
61 148
61 191
61 280
62 69
62 75
62 91
62 99
62 100
62 149
62 180
63 84
63 225
63 250
64 163
64 164
64 229
64 246
64 284
64 287
65 100
65 124
65 132
65 133
65 146
65 173
65 199
65 262
65 264
66 134
66 139
66 148
66 155
66 181
66 185
66 228
66 230
66 240
66 257
66 293
67 136
67 151
67 169
67 174
67 242
67 249
67 255
68 81
68 92
68 96
68 105
68 117
68 120
68 167
68 173
68 228
69 99
69 173
69 188
69 234
70 114
70 120
70 158
70 293
71 87
71 125
71 132
71 208
71 209
71 228
72 79
72 92
72 130
72 189
73 250
74 93
74 96
74 104
74 126
74 145
74 154
74 156
74 169
74 179
74 197
75 90
75 92
75 113
75 143
75 149
75 154
75 176
75 183
75 189
75 207
75 218
76 118
76 168
76 171
76 244
76 252
76 266
76 285
76 294
77 89
77 103
77 104
77 138
77 168
77 178
77 257
78 83
78 116
78 158
78 178
78 239
79 100
79 130
79 180
79 225
79 272
79 282
79 283
79 289
80 91
80 148
80 168
80 189
80 206
80 208
80 212
80 246
80 252
80 282
81 108
81 110
81 134
81 143
81 237
81 285
81 296
82 94
82 145
82 196
83 116
83 194
83 235
84 103
84 193
84 238
84 250
84 260
84 268
85 139
85 148
85 162
85 224
85 236
85 255
86 166
86 225
86 226
86 269
86 278
87 120
87 132
87 230
87 262
88 89
88 100
88 118
88 127
88 150
88 271
88 273
88 281
88 286
89 127
89 147
89 150
89 192
89 228
89 283
90 105
90 123
90 126
90 130
90 136
90 158
90 163
90 196
90 197
90 212
90 234
90 236
91 140
91 204
91 213
91 220
91 251
91 264
92 130
92 159
92 190
92 263
92 270
93 107
93 146
93 158
93 218
93 226
93 239
93 251
93 292
94 97
94 135
94 150
94 196
94 215
94 223
94 247
94 263
94 272
95 98
95 219
95 228
95 241
95 262
96 105
96 126
96 153
96 165
96 188
96 284
96 293
97 163
97 220
97 241
97 273
97 281
98 101
98 125
98 160
98 184
98 205
98 216
99 100
99 147
100 116
100 127
100 141
100 165
100 291
101 125
101 134
101 136
101 182
101 251
101 266
101 268
101 274
102 121
102 137
102 140
102 177
102 215
102 284
103 178
103 260
104 125
104 128
104 159
104 181
104 238
104 267
105 117
105 123
105 126
105 134
105 181
105 185
105 187
105 193
105 226
105 228
105 276
105 292
106 161
106 183
106 258
106 266
107 116
107 118
107 146
107 281
107 289
108 134
108 179
108 195
108 221
108 234
109 233
109 291
109 296
110 114
110 143
111 130
111 133
111 163
111 164
111 187
111 188
111 226
111 279
111 280
112 274
113 165
114 143
114 172
114 209
114 225
114 292
115 146
115 204
115 242
115 293
116 172
116 198
116 289
116 295
117 258
117 270
117 273
117 280
118 252
118 269
118 271
118 294
119 137
119 147
119 202
119 223
119 252
119 292
120 206
120 208
120 258
120 293
121 138
121 192
122 154
122 261
122 271
123 130
123 160
123 249
123 257
124 138
124 199
124 226
124 254
125 152
125 178
125 188
125 208
125 248
126 134
126 149
126 178
126 187
126 276
127 150
127 201
127 243
127 268
128 136
128 218
128 247
129 197
129 256
129 279
130 171
130 224
130 279
130 292
130 293
131 235
132 133
132 139
132 146
132 163
132 168
132 256
133 146
133 258
134 163
134 173
134 178
134 179
134 220
134 230
134 293
135 215
135 218
135 270
136 213
136 217
137 143
137 170
137 283
138 185
139 148
139 216
139 267
140 150
140 151
140 161
140 218
140 220
140 280
142 149
142 159
142 167
142 177
142 195
142 224
142 247
142 248
142 257
142 265
142 277
142 286
142 287
143 159
143 170
143 177
143 257
144 173
144 195
144 199
144 273
144 274
145 156
145 179
145 183
145 188
145 200
145 234
145 290
145 297
146 151
147 249
148 162
148 176
148 201
148 235
148 282
148 288
149 171
149 252
149 272
149 287
150 201
150 214
150 230
150 232
150 260
150 263
151 157
151 170
151 174
151 181
151 183
151 202
151 203
151 219
151 220
151 227
151 252
151 266
151 285
151 288
151 297
152 173
152 178
152 189
152 266
152 275
153 207
153 215
154 189
154 227
154 242
154 263
155 159
155 160
155 206
155 233
155 245
155 257
155 269
155 299
156 176
156 196
156 244
156 278
157 204
157 207
157 211
157 227
157 249
157 251
157 266
157 288
157 295
159 177
159 185
159 237
159 245
159 247
159 282
159 286
159 299
160 205
160 260
160 264
160 276
160 286
161 188
161 226
161 280
161 293
162 195
162 211
162 215
162 244
162 248
162 265
162 300
163 167
163 175
163 256
164 180
164 187
164 193
164 199
164 232
164 264
165 188
165 234
167 183
167 191
167 206
167 233
167 248
167 256
167 299
168 171
168 182
169 208
169 228
169 255
169 262
169 274
170 202
170 229
170 252
171 182
171 184
171 249
171 257
171 294
171 299
172 209
173 178
173 186
173 189
173 199
173 234
173 242
173 298
174 183
174 186
174 194
174 202
174 257
174 258
174 279
174 288
175 224
175 256
175 279
176 181
176 278
176 285
176 300
177 185
177 238
179 243
179 296
180 193
180 195
180 226
180 264
180 265
180 274
180 276
181 240
181 243
181 253
181 260
181 263
181 278
181 285
181 293
182 184
182 265
182 279
183 191
183 194
183 197
183 249
183 250
183 257
183 265
183 290
184 205
184 264
185 188
185 292
186 189
186 199
186 202
186 229
186 252
187 211
187 228
187 297
188 195
188 200
188 226
188 234
188 264
188 265
188 272
189 242
189 298
190 270
190 295
192 210
192 214
192 222
192 254
192 269
192 277
192 292
193 264
193 292
194 204
194 205
194 278
194 290
195 211
195 215
195 219
195 232
195 234
195 240
195 257
195 264
195 265
195 274
195 279
195 289
195 300
196 203
196 220
197 212
197 257
197 264
198 213
199 202
199 218
199 228
199 232
199 252
199 298
200 221
200 252
200 261
200 297
201 288
202 211
202 220
202 222
202 229
202 252
202 255
202 288
203 209
203 220
203 283
204 206
204 212
204 251
204 274
204 293
205 249
205 259
205 260
205 276
205 295
206 212
206 249
206 274
206 299
207 239
207 249
207 295
208 212
208 238
208 262
208 269
208 279
208 291
208 292
209 228
209 283
209 298
210 214
210 263
210 269
210 273
211 220
211 289
212 262
212 264
212 276
213 217
214 251
214 267
215 230
215 244
215 284
216 229
216 230
216 235
216 268
216 277
216 292
217 245
219 232
219 238
219 285
219 291
219 297
220 224
220 252
220 255
220 271
220 287
220 289
221 248
221 252
221 261
222 229
222 277
223 234
223 247
224 243
224 255
224 259
224 279
225 226
225 244
225 278
225 289
225 300
226 264
226 265
226 278
227 240
227 263
227 266
227 275
228 232
228 241
228 274
228 283
228 297
229 230
229 287
230 235
230 240
231 274
232 240
232 252
232 297
233 273
233 299
234 255
234 267
234 287
237 245
237 278
238 289
238 291
238 296
240 253
240 263
240 265
240 286
241 273
241 283
241 297
242 249
242 259
242 299
243 251
243 259
243 274
243 296
244 269
244 278
245 257
245 269
246 284
247 297
249 257
249 259
249 294
249 295
249 299
251 267
253 286
255 259
255 270
255 279
255 287
256 299
257 265
257 290
257 294
259 294
259 295
260 268
260 285
262 274
262 293
263 273
264 276
264 278
265 269
265 272
265 279
265 290
266 275
267 275
267 280
269 278
269 279
269 292
270 295
273 281
275 280
276 286
277 292
279 285
282 286
283 298
285 300
288 295
291 297
294 295
294 299
*Classes
1
1
1
1
1
1
1
1
1
1
1
1
1
1
1
1
1
1
1
1
1
1
1
1
1
1
1
1
1
1
1
1
1
1
1
1
1
1
1
1
1
1
1
1
1
1
1
1
1
1
1
1
1
1
1
1
1
1
1
1
1
1
1
1
1
1
1
1
1
1
1
1
1
1
1
1
1
1
1
1
1
1
1
1
1
1
1
1
1
1
1
1
1
1
1
1
1
1
1
1
1
1
1
1
1
1
1
1
1
1
1
1
1
1
1
1
1
1
1
1
1
1
1
1
1
1
1
1
1
1
1
1
1
1
1
1
1
1
1
1
1
1
1
1
1
1
1
1
1
1
2
2
2
2
2
2
2
2
2
2
2
2
2
2
2
2
2
2
2
2
2
2
2
2
2
2
2
2
2
2
2
2
2
2
2
2
2
2
2
2
2
2
2
2
2
2
2
2
2
2
2
2
2
2
2
2
2
2
2
2
2
2
2
2
2
2
2
2
2
2
2
2
2
2
2
2
2
2
2
2
2
2
2
2
2
2
2
2
2
2
2
2
2
2
2
2
2
2
2
2
2
2
2
2
2
2
2
2
2
2
2
2
2
2
2
2
2
2
2
2
2
2
2
2
2
2
2
2
2
2
2
2
2
2
2
2
2
2
2
2
2
2
2
2
2
2
2
2
2
2
