*Vertices 300
*Edges
1 2
1 27
1 29
1 60
1 74
1 79
1 89
1 122
1 143
1 155
1 160
1 165
1 168
1 204
1 242
1 252
1 254
2 13
2 29
2 39
2 58
2 102
2 130
2 140
2 155
2 183
2 230
2 259
2 292
3 118
3 152
4 24
4 30
4 35
4 42
4 78
4 88
4 121
4 123
4 142
4 157
4 178
4 194
4 217
4 221
4 249
4 252
4 274
4 293
5 32
5 66
5 75
5 100
5 149
5 171
5 228
5 247
5 265
5 270
5 286
6 24
6 82
6 97
6 167
6 173
6 219
6 231
6 257
6 264
6 297
7 26
7 43
7 78
7 100
7 205
7 235
7 266
8 106
8 133
8 173
9 11
9 16
9 38
9 62
9 87
9 142
9 146
9 180
9 201
9 243
9 264
9 269
9 273
10 68
10 94
10 127
10 148
10 197
10 204
10 211
10 238
10 246
10 247
10 252
11 48
11 211
11 264
12 40
12 86
12 104
12 143
12 144
12 193
12 203
12 227
12 259
12 282
13 36
13 84
13 93
13 113
13 130
13 268
14 81
14 123
14 126
14 177
14 268
15 28
15 55
15 57
15 73
15 84
15 94
15 110
15 137
15 150
15 160
15 217
15 236
15 262
15 266
16 38
16 43
16 44
16 57
16 97
16 98
16 115
16 148
16 161
16 167
16 176
16 186
16 231
16 260
16 274
16 284
16 298
17 37
17 41
17 46
17 50
17 55
17 69
17 73
17 127
17 156
17 165
17 176
17 179
17 231
17 265
17 269
17 297
18 210
19 105
19 122
19 131
19 143
19 228
20 23
20 27
20 57
20 116
20 133
20 154
20 236
20 264
20 267
21 77
21 87
21 176
21 186
21 238
21 257
21 298
22 25
22 51
22 85
22 91
22 160
22 179
22 236
22 269
22 282
23 32
23 39
23 169
23 170
23 171
23 172
23 182
23 195
23 264
24 42
24 54
24 90
24 104
24 122
24 128
24 131
24 154
24 178
24 201
24 205
24 252
24 264
24 281
24 293
25 48
25 60
25 158
25 166
25 282
25 285
26 43
26 46
26 62
26 72
26 78
26 79
26 153
26 198
26 205
26 244
26 267
27 57
27 90
27 112
27 143
27 166
27 200
27 202
27 236
27 254
27 267
27 287
28 59
28 99
28 155
28 196
28 216
28 248
29 40
29 48
29 57
29 94
29 103
29 122
29 178
29 181
29 225
29 227
29 234
29 271
30 58
30 67
30 82
30 141
30 145
30 157
30 178
30 183
30 188
30 220
30 224
30 249
30 279
31 138
31 150
31 161
31 172
31 235
31 245
31 258
31 274
31 291
32 48
32 92
32 149
32 172
32 182
32 200
32 243
32 251
33 45
33 54
33 70
33 80
33 104
33 121
33 122
33 139
33 172
33 216
33 240
33 245
34 72
34 90
34 92
34 103
34 203
34 286
35 42
35 57
35 60
35 77
35 78
35 83
35 88
35 99
35 186
36 42
36 56
36 65
36 93
36 100
36 113
36 253
36 259
36 292
37 52
37 71
37 112
37 123
37 161
37 175
37 176
37 223
37 262
37 295
38 42
38 43
38 51
38 65
38 88
38 94
38 98
38 109
38 137
38 165
38 167
38 172
38 174
38 186
38 191
38 203
38 218
38 222
38 229
38 242
39 60
39 102
39 141
39 161
39 165
39 172
39 183
39 207
39 211
39 227
39 285
39 297
40 63
40 86
40 120
40 130
40 151
40 202
40 203
40 234
40 246
40 284
41 47
41 76
41 130
41 150
41 165
42 65
42 78
42 127
42 130
42 136
42 233
42 242
42 291
43 68
43 79
43 94
43 98
43 116
43 133
43 154
43 229
44 57
44 94
44 142
44 208
44 245
44 248
45 65
45 76
45 117
45 124
45 206
45 216
45 257
45 276
45 280
46 147
46 176
46 297
47 109
47 113
47 165
47 215
47 246
47 264
47 271
47 297
48 57
48 60
48 103
48 166
48 184
48 200
48 203
48 206
48 217
48 227
48 233
48 254
48 282
48 290
48 296
49 51
49 62
49 91
49 104
49 215
49 229
49 235
49 258
49 280
50 76
50 94
50 97
50 209
50 221
50 233
50 265
50 284
51 55
51 58
51 98
51 135
51 215
51 231
51 269
51 280
51 282
51 297
52 147
52 153
52 169
52 176
52 262
52 273
52 275
52 297
53 73
53 137
54 92
54 104
54 110
54 133
54 186
54 215
54 236
54 250
54 288
55 135
55 140
55 150
55 178
55 269
56 100
56 151
56 170
56 223
56 232
56 253
56 277
57 94
57 99
57 110
57 157
57 174
57 194
57 225
57 228
57 248
57 254
57 262
57 278
57 290
58 82
58 98
58 130
58 155
58 181
58 245
58 285
58 292
59 74
59 99
59 104
59 122
59 138
59 143
59 159
59 162
59 212
59 225
59 233
59 239
59 243
59 262
59 263
59 274
59 282
59 291
59 300
60 74
60 83
60 89
60 90
60 117
60 147
60 158
60 161
60 174
60 202
60 204
60 252
60 293
60 297
60 299
61 153
61 205
61 208
61 243
61 266
62 79
62 100
62 104
62 122
62 132
62 133
62 146
62 205
62 219
62 281
63 69
63 118
63 190
63 208
63 264
63 283
63 288
64 66
64 67
64 72
64 106
64 114
64 149
64 171
65 73
65 130
65 276
66 97
66 123
66 157
66 169
66 171
66 201
66 241
66 247
66 257
66 265
67 85
67 106
67 109
67 117
67 222
67 232
67 279
67 296
68 77
68 111
68 159
68 184
68 204
68 213
68 295
69 77
69 83
69 84
69 111
69 112
69 113
69 162
69 178
69 206
69 212
69 215
69 283
69 288
69 297
70 74
70 87
70 104
70 105
70 110
70 122
70 234
70 296
71 80
71 112
71 123
71 195
71 252
72 85
72 116
72 155
72 194
72 210
72 222
72 273
73 80
73 104
73 111
73 113
73 137
73 190
73 222
73 289
73 292
74 117
74 211
74 246
74 291
75 159
75 299
76 124
76 130
76 138
76 157
76 185
76 277
76 280
76 293
77 111
77 115
77 186
77 216
77 260
77 288
77 295
78 117
78 127
78 188
78 235
78 251
78 284
79 133
79 154
79 242
79 265
80 146
80 177
80 222
80 240
80 257
80 267
80 287
81 126
81 164
81 171
81 185
81 204
81 214
81 215
81 225
81 264
82 93
82 105
82 142
82 161
82 173
82 200
83 97
83 151
83 162
83 174
83 219
83 223
83 231
83 284
83 293
84 92
84 94
84 112
84 138
84 150
84 201
84 206
84 293
85 106
85 109
85 118
85 135
85 162
85 224
85 232
85 262
85 271
85 273
85 296
86 90
86 130
86 151
86 162
86 163
86 199
86 204
86 239
86 284
86 297
87 198
87 202
87 225
87 243
87 248
87 257
87 269
87 282
87 286
87 287
87 296
88 121
88 123
88 153
88 183
88 259
88 271
89 132
89 185
89 204
89 205
89 241
89 251
89 276
90 103
90 163
90 177
90 200
90 204
90 209
90 211
90 215
90 217
90 228
90 266
90 270
90 293
91 116
91 121
91 229
91 280
91 287
92 104
92 127
92 200
92 220
92 233
92 250
92 288
93 124
93 138
93 142
93 168
93 221
94 109
94 110
94 149
94 155
94 156
94 194
94 214
94 229
94 246
94 267
94 292
95 123
95 276
95 277
96 131
96 191
96 233
96 291
97 161
97 201
97 214
97 219
97 254
97 284
98 165
98 181
98 219
99 155
99 173
99 174
99 194
99 239
100 111
100 133
100 141
100 161
100 216
100 266
100 286
101 187
101 259
101 298
102 111
102 160
102 243
102 257
102 286
102 288
103 115
103 124
103 138
103 142
103 159
103 180
103 181
103 197
103 203
103 204
103 213
103 219
103 271
103 295
104 122
104 143
104 193
104 200
104 214
104 215
104 220
104 252
104 281
105 110
105 146
105 161
105 193
105 219
105 268
105 271
106 114
106 187
106 241
106 277
106 279
107 159
107 178
107 285
108 163
108 192
108 250
108 290
109 133
109 136
109 171
109 218
109 247
109 264
109 271
109 275
110 186
110 236
110 246
111 113
111 115
111 148
111 160
111 180
111 186
112 192
112 211
112 241
113 160
113 169
113 176
113 230
113 239
113 261
113 297
114 171
114 172
114 182
114 187
114 227
115 148
115 231
116 222
116 236
117 188
117 251
117 279
118 277
118 296
119 243
119 252
119 271
119 294
120 232
121 128
121 139
121 141
121 154
121 159
121 161
121 198
121 257
121 280
122 124
122 138
122 189
122 214
122 228
122 231
123 221
123 233
123 245
123 277
124 138
124 161
124 181
124 188
125 160
125 250
125 252
125 263
125 290
126 136
126 139
126 143
126 144
126 153
126 164
126 296
126 299
127 144
127 148
127 194
127 233
127 240
127 242
127 251
127 253
127 277
127 284
128 135
128 153
128 205
128 212
128 251
128 252
128 256
130 199
130 268
131 143
131 169
131 172
131 240
131 246
131 253
132 251
132 265
132 281
133 264
133 271
133 281
134 214
134 231
134 278
134 289
135 156
135 184
135 242
135 263
136 139
136 275
136 291
136 296
137 174
137 231
137 266
137 297
138 150
138 178
138 181
138 194
138 197
138 206
138 262
138 274
139 157
139 171
139 177
139 182
139 186
139 194
139 196
139 197
139 267
139 280
140 150
140 172
140 241
141 145
141 156
141 161
141 188
141 224
141 233
141 263
142 157
142 173
142 180
142 201
142 231
142 264
142 273
142 274
142 291
142 295
143 146
143 164
143 275
144 153
144 194
144 209
144 282
145 162
145 263
146 163
146 190
146 191
146 248
146 252
146 275
146 281
146 296
147 174
147 255
147 289
147 297
148 157
148 176
148 231
148 253
148 290
149 174
149 288
150 197
150 217
150 222
150 266
150 270
151 181
151 196
151 223
152 166
152 236
152 267
153 158
153 169
153 183
153 205
153 224
153 253
154 236
154 242
155 156
155 167
155 188
155 230
156 188
157 177
157 178
157 194
157 205
157 231
157 289
158 169
158 228
159 184
159 228
159 244
159 300
160 165
160 180
160 196
160 204
160 286
160 288
160 297
161 165
161 211
161 228
161 235
161 274
161 276
161 291
162 177
162 178
162 180
162 209
162 212
162 216
162 224
162 239
163 190
163 283
163 285
163 290
163 296
163 298
165 180
165 218
166 182
166 195
166 202
166 285
166 294
167 170
167 186
167 191
167 198
167 223
167 233
168 249
169 172
169 226
169 228
169 240
169 243
169 247
169 253
169 254
169 271
169 277
170 172
170 217
170 218
170 223
170 245
170 260
171 189
171 264
171 267
172 203
172 218
172 227
172 245
173 187
173 283
173 298
174 202
174 228
174 246
174 299
175 290
176 285
176 290
176 296
176 297
176 298
177 206
177 224
177 236
177 277
177 280
177 293
178 274
178 285
178 290
179 201
179 221
179 233
179 238
179 240
179 291
180 185
180 200
180 217
180 220
180 291
180 295
180 297
181 203
181 212
181 223
181 259
181 292
182 195
182 216
182 224
182 286
183 224
184 221
184 226
184 228
184 244
184 270
184 290
185 241
185 276
185 287
185 295
186 196
186 221
186 254
186 260
186 265
186 286
187 298
188 198
188 215
188 257
189 195
189 231
189 248
189 276
190 207
191 203
191 233
191 244
191 248
191 291
192 201
192 220
192 281
194 203
194 205
194 262
194 267
194 287
195 216
195 231
196 217
196 223
196 243
196 254
196 271
197 267
197 279
197 292
198 246
198 248
198 257
198 282
198 284
198 296
200 220
200 243
201 240
201 281
202 215
202 296
203 227
203 246
203 288
204 209
204 213
204 215
204 252
204 265
204 279
204 282
204 294
205 212
205 219
205 251
205 256
205 271
205 291
206 217
206 219
206 293
207 219
207 248
207 272
207 294
208 245
208 283
209 213
209 233
209 254
209 265
209 277
209 282
209 294
210 256
211 228
211 262
212 239
212 262
212 275
213 224
213 232
213 252
213 295
214 235
214 264
214 271
214 292
214 299
215 257
215 280
215 283
215 294
216 224
217 236
217 260
217 266
217 282
217 293
218 257
218 263
219 271
220 279
220 291
221 233
221 245
221 290
222 232
223 232
223 256
223 259
223 284
223 295
225 243
225 278
226 228
226 237
226 270
226 274
227 282
228 242
228 253
228 254
228 270
228 280
229 257
229 261
229 280
230 239
230 255
230 268
230 278
231 289
231 297
232 251
232 284
233 239
233 248
233 291
234 235
234 237
235 249
235 258
235 293
236 280
236 287
237 274
238 247
238 249
238 298
240 253
241 257
241 277
241 287
241 293
242 280
243 271
245 285
246 248
246 253
246 263
247 265
248 252
248 263
248 284
249 258
250 256
250 291
251 284
252 263
253 277
254 265
255 262
256 291
256 295
257 263
257 270
257 280
257 286
257 287
257 294
259 292
260 286
261 280
261 283
262 275
265 294
267 272
267 287
268 278
269 282
270 294
272 294
274 295
275 299
277 287
277 293
280 286
282 300
285 290
287 292
289 292
290 296
290 297
296 298
*Classes
1
1
1
1
1
1
1
1
1
1
1
1
1
1
1
1
1
1
1
1
1
1
1
1
1
1
1
1
1
1
1
1
1
1
1
1
1
1
1
1
1
1
1
1
1
1
1
1
1
1
1
1
1
1
1
1
1
1
1
1
1
1
1
1
1
1
1
1
1
1
1
1
1
1
1
1
1
1
1
1
1
1
1
1
1
1
1
1
1
1
1
1
1
1
1
1
1
1
1
1
1
1
1
1
1
1
1
1
1
1
1
1
1
1
1
1
1
1
1
1
1
1
1
1
1
1
1
1
1
1
1
1
1
1
1
1
1
1
1
1
1
1
1
1
1
1
1
1
1
1
2
2
2
2
2
2
2
2
2
2
2
2
2
2
2
2
2
2
2
2
2
2
2
2
2
2
2
2
2
2
2
2
2
2
2
2
2
2
2
2
2
2
2
2
2
2
2
2
2
2
2
2
2
2
2
2
2
2
2
2
2
2
2
2
2
2
2
2
2
2
2
2
2
2
2
2
2
2
2
2
2
2
2
2
2
2
2
2
2
2
2
2
2
2
2
2
2
2
2
2
2
2
2
2
2
2
2
2
2
2
2
2
2
2
2
2
2
2
2
2
2
2
2
2
2
2
2
2
2
2
2
2
2
2
2
2
2
2
2
2
2
2
2
2
2
2
2
2
2
2
