*Vertices 300
*Edges
1 35
1 105
1 149
1 173
1 213
2 31
2 40
2 95
2 133
2 188
2 262
2 266
3 5
3 71
3 72
3 78
3 112
3 120
3 139
3 223
3 248
3 260
4 219
5 34
5 52
5 59
5 71
5 211
5 246
6 23
6 33
6 49
6 110
6 124
6 148
6 157
6 241
6 286
7 129
7 178
7 184
7 222
7 239
7 281
7 286
7 297
7 300
8 60
8 74
8 101
8 214
8 255
8 297
9 36
9 44
9 73
9 82
9 148
9 231
10 29
10 53
10 72
10 87
10 96
10 99
10 133
10 141
10 143
10 147
10 160
10 177
10 192
10 198
10 221
10 230
10 246
10 253
10 286
11 24
11 166
11 175
11 204
11 254
11 272
12 36
12 56
12 99
12 126
12 161
12 166
12 184
12 270
12 291
12 299
13 42
13 111
13 138
13 211
14 97
14 100
14 141
14 146
14 291
15 71
15 121
15 208
15 290
16 88
16 101
16 268
16 271
17 131
17 217
17 271
17 280
17 291
18 23
18 225
19 73
19 163
19 217
19 295
20 31
20 53
20 236
20 257
21 65
21 103
21 143
21 216
21 228
21 256
22 37
22 83
22 101
22 132
22 171
22 199
22 214
22 222
22 238
22 256
23 44
23 72
23 157
23 189
23 229
23 241
23 275
23 295
24 64
24 86
24 112
24 192
24 215
24 221
24 241
25 37
25 98
25 149
25 190
25 226
25 245
26 113
26 122
27 61
27 76
27 120
27 173
27 184
27 188
27 225
27 237
27 241
27 255
27 278
27 297
28 55
28 99
28 103
28 105
28 110
28 114
28 261
28 295
28 299
29 56
29 100
29 147
29 191
29 224
29 263
30 80
30 90
30 114
30 137
30 150
30 170
30 207
30 249
30 250
30 256
31 40
31 119
31 188
31 198
33 49
33 66
33 84
33 91
33 102
33 117
33 122
33 209
33 256
34 51
34 55
34 63
34 103
34 106
34 211
34 218
34 227
34 288
35 82
35 100
35 121
35 125
35 171
35 286
36 44
36 72
36 102
36 121
36 171
36 175
36 197
36 275
36 294
37 50
37 56
37 83
37 97
37 98
37 141
37 178
37 229
37 257
37 298
38 64
38 70
38 173
38 196
38 218
38 249
38 284
39 229
39 241
39 247
40 44
40 121
40 130
40 168
40 212
40 251
40 260
41 57
41 61
41 86
41 107
41 115
41 123
41 171
41 208
41 230
41 244
41 285
42 103
42 175
42 180
42 194
42 195
42 251
43 72
43 76
43 91
43 95
43 145
43 162
43 200
43 223
43 230
43 253
43 282
43 283
43 295
44 188
44 222
44 241
44 251
44 260
44 278
45 84
45 93
45 142
45 203
45 251
45 252
45 255
46 239
46 240
46 285
47 97
47 141
47 144
47 151
47 225
47 259
47 264
48 55
48 84
48 99
48 104
48 109
48 114
48 120
48 126
48 128
48 139
48 173
48 241
48 269
48 296
49 67
49 167
49 210
49 236
49 250
49 293
49 297
50 105
50 141
50 171
50 227
51 63
51 77
51 83
51 94
51 104
51 127
51 229
52 76
52 84
52 95
52 136
52 152
52 153
52 161
52 183
52 187
52 271
52 295
53 80
53 109
53 137
53 147
53 152
53 177
53 180
53 202
53 228
53 236
53 270
53 281
54 73
54 181
54 201
54 204
54 219
54 235
54 267
54 282
55 99
55 103
56 83
56 100
56 161
56 196
56 294
56 299
57 102
57 122
57 123
57 209
57 211
57 231
57 253
57 265
58 79
58 133
58 189
58 217
58 265
58 286
59 62
59 122
59 141
59 154
59 192
59 205
59 222
59 272
60 70
60 86
60 101
60 289
61 72
61 82
61 86
61 149
61 182
61 212
61 268
61 293
62 79
62 108
62 109
62 111
62 117
62 140
62 239
62 245
62 272
62 290
63 104
63 215
63 233
63 300
64 111
64 257
65 68
65 69
65 78
65 82
65 140
66 72
66 76
66 77
66 95
66 102
66 170
66 273
66 281
67 86
67 99
67 146
67 171
67 217
67 236
68 69
68 170
68 244
68 299
69 179
69 198
69 261
70 158
70 191
70 192
70 195
71 275
72 86
72 102
72 105
72 126
72 135
72 147
72 263
72 295
73 110
73 127
73 145
73 172
73 200
73 219
73 262
74 108
74 122
74 173
74 202
74 214
74 253
75 167
75 227
75 277
76 102
76 120
76 134
76 155
76 162
76 167
76 203
76 226
76 293
77 94
77 127
77 128
77 159
77 224
77 286
78 82
78 85
78 139
78 140
78 150
78 238
78 291
79 99
79 111
79 126
79 133
79 207
79 239
79 300
80 110
80 118
80 124
80 145
80 147
80 166
80 170
80 180
80 224
81 112
81 177
81 191
81 205
81 215
81 217
81 233
82 86
82 122
82 148
82 217
82 231
82 285
82 286
83 94
83 99
83 126
83 137
83 196
84 95
84 102
84 120
84 169
84 204
84 239
84 258
84 275
85 88
85 139
85 150
85 152
85 153
85 239
85 275
86 110
86 115
86 147
86 148
86 152
86 168
86 274
87 96
87 207
87 284
88 136
88 142
88 145
88 153
88 164
88 205
88 246
88 268
88 282
89 109
89 138
89 160
89 179
89 249
90 113
90 114
90 142
90 168
90 214
90 240
90 280
91 95
91 102
91 103
91 122
91 268
92 145
92 172
92 221
92 255
92 265
93 132
93 136
93 142
93 157
93 208
93 252
93 267
95 99
95 120
95 133
95 146
95 170
95 181
95 253
95 268
96 145
96 147
96 198
96 207
97 99
97 111
97 141
97 152
97 198
97 218
97 263
97 273
97 275
98 226
99 126
99 133
99 141
99 146
99 231
99 233
99 289
100 112
100 143
100 153
100 161
100 200
100 286
101 128
101 132
101 194
101 268
101 279
102 105
102 122
102 147
102 203
102 206
102 236
103 106
103 118
103 143
103 180
103 249
103 250
103 264
104 112
104 120
104 139
104 165
104 229
104 250
104 256
104 261
104 281
105 149
105 165
105 218
105 263
107 123
108 122
108 136
108 155
108 189
108 290
109 128
109 140
109 150
109 202
109 239
109 250
109 269
109 273
109 277
109 281
109 285
109 295
110 115
110 124
110 129
110 136
110 187
110 207
110 213
110 286
111 117
111 124
111 126
111 152
111 193
111 231
111 300
112 139
112 142
112 143
113 135
113 168
113 201
113 219
113 240
113 268
113 280
114 142
114 173
114 207
114 214
114 222
114 235
114 251
114 276
115 136
115 146
115 151
115 152
115 168
115 225
115 287
115 296
116 142
116 152
116 155
117 163
118 119
118 128
118 135
118 143
118 145
118 166
118 268
119 185
119 203
120 122
120 139
120 181
120 193
120 200
120 241
120 256
120 261
120 285
121 130
121 171
121 212
121 265
121 275
122 154
122 173
122 289
123 171
123 211
124 145
124 163
124 177
124 220
124 226
124 242
124 252
124 259
124 286
125 161
125 286
126 157
126 175
126 196
126 295
127 286
128 143
128 146
128 159
128 167
128 190
128 296
129 149
129 204
129 213
129 239
129 269
129 297
130 207
130 274
130 281
131 189
131 271
132 155
132 158
132 161
132 218
132 276
132 282
133 181
133 182
133 203
133 241
133 255
134 209
135 165
135 188
135 216
135 278
136 142
136 146
136 226
136 286
137 175
137 196
137 202
137 217
137 277
138 223
138 272
139 175
139 197
139 200
139 260
139 282
141 142
141 192
141 275
142 259
143 151
143 199
143 200
143 220
143 230
143 238
144 174
144 176
144 222
145 172
145 211
145 214
145 220
145 224
145 244
145 246
145 250
146 225
146 289
146 291
146 296
147 191
147 208
148 153
148 242
148 259
149 162
149 167
149 168
149 213
149 224
149 264
149 280
150 192
150 239
150 244
150 272
150 278
151 169
151 174
151 199
151 225
151 238
151 264
151 283
151 286
152 155
152 156
152 180
152 231
152 236
152 287
153 168
153 183
153 259
154 175
154 216
154 241
154 272
154 291
155 163
155 185
155 218
155 266
155 294
156 180
156 265
157 158
157 173
157 194
157 221
157 267
157 275
157 276
158 192
158 194
158 242
158 245
158 258
158 297
159 163
159 222
159 237
159 271
160 208
160 249
160 290
160 297
161 165
161 206
161 248
161 293
162 167
162 178
162 230
162 253
162 277
162 279
162 281
163 173
163 185
163 201
163 222
163 237
163 252
163 254
165 261
165 277
165 295
166 193
166 254
166 291
167 216
167 224
167 277
167 279
167 295
168 183
168 230
168 242
169 187
169 250
169 296
170 204
170 267
171 197
171 227
171 236
171 272
172 184
172 224
173 180
173 196
173 221
173 276
174 222
174 295
175 226
175 272
176 180
176 221
176 299
177 180
177 196
177 217
177 249
177 264
177 286
178 204
178 253
178 257
178 267
178 273
178 279
178 290
180 205
180 214
180 235
180 265
180 276
180 294
181 232
181 284
181 285
181 298
182 197
182 212
182 235
182 251
182 279
183 261
183 284
184 186
184 220
184 224
184 226
184 242
184 300
185 232
186 197
186 217
186 295
187 195
187 262
188 278
190 194
191 208
191 224
191 243
191 245
192 194
192 221
192 234
192 239
192 297
193 205
193 291
193 300
194 195
194 266
195 262
196 199
196 272
196 274
197 200
197 217
197 234
197 238
197 251
198 254
198 261
199 244
200 204
200 223
200 230
200 238
200 253
200 267
200 282
200 283
201 252
201 254
202 255
202 297
203 255
204 239
204 267
205 294
206 217
208 230
208 257
208 290
208 297
210 211
210 238
210 277
210 291
211 246
212 235
213 238
213 291
214 235
214 244
214 276
215 233
215 257
216 228
216 241
216 256
216 284
217 285
217 291
218 266
218 280
218 289
218 292
219 232
219 295
220 242
220 256
221 234
221 299
222 251
222 264
222 269
223 260
224 245
224 291
226 272
227 245
227 255
228 281
228 284
229 241
229 268
229 298
230 242
230 278
231 267
231 270
231 275
231 292
232 282
232 295
233 257
234 253
238 275
238 291
239 272
239 300
241 268
242 256
245 255
245 290
245 299
247 289
249 290
250 256
250 297
251 258
251 276
251 279
253 273
254 285
254 291
255 297
255 299
257 281
258 276
258 297
259 298
261 284
262 274
263 273
264 269
264 271
264 286
265 286
265 288
266 283
268 275
268 287
268 299
269 271
269 273
269 285
269 286
269 293
271 282
272 274
272 279
272 291
273 292
275 291
275 292
275 299
277 295
278 280
278 289
280 289
281 284
281 297
283 300
285 298
289 292
290 297
295 299
*Classes
1
1
1
1
1
1
1
1
1
1
1
1
1
1
1
1
1
1
1
1
1
1
1
1
1
1
1
1
1
1
1
1
1
1
1
1
1
1
1
1
1
1
1
1
1
1
1
1
1
1
1
1
1
1
1
1
1
1
1
1
1
1
1
1
1
1
1
1
1
1
1
1
1
1
1
1
1
1
1
1
1
1
1
1
1
1
1
1
1
1
1
1
1
1
1
1
1
1
1
1
1
1
1
1
1
1
1
1
1
1
1
1
1
1
1
1
1
1
1
1
1
1
1
1
1
1
1
1
1
1
1
1
1
1
1
1
1
1
1
1
1
1
1
1
1
1
1
1
1
1
2
2
2
2
2
2
2
2
2
2
2
2
2
2
2
2
2
2
2
2
2
2
2
2
2
2
2
2
2
2
2
2
2
2
2
2
2
2
2
2
2
2
2
2
2
2
2
2
2
2
2
2
2
2
2
2
2
2
2
2
2
2
2
2
2
2
2
2
2
2
2
2
2
2
2
2
2
2
2
2
2
2
2
2
2
2
2
2
2
2
2
2
2
2
2
2
2
2
2
2
2
2
2
2
2
2
2
2
2
2
2
2
2
2
2
2
2
2
2
2
2
2
2
2
2
2
2
2
2
2
2
2
2
2
2
2
2
2
2
2
2
2
2
2
2
2
2
2
2
2
