*Vertices 300
*Edges
1 14
1 32
1 114
1 119
1 158
1 211
1 218
1 268
1 284
2 106
2 113
2 209
2 241
3 46
3 141
3 213
3 217
3 277
4 10
4 14
4 26
4 31
4 51
4 75
4 83
4 91
4 104
4 105
4 142
4 179
4 232
4 233
5 87
5 91
5 100
5 261
6 26
6 28
6 78
6 85
6 101
6 108
6 127
6 296
7 37
7 43
7 67
7 70
7 82
7 83
7 90
7 103
7 109
7 110
7 114
7 118
7 128
7 130
7 138
7 169
7 170
7 195
7 220
7 223
7 232
8 10
8 34
8 79
8 82
8 108
8 115
8 142
8 221
8 294
9 29
9 40
9 47
9 87
9 119
9 154
9 174
9 257
9 281
9 283
10 79
10 91
10 94
10 102
10 103
10 130
10 253
10 263
11 20
11 88
11 113
11 131
11 212
11 274
11 287
12 15
12 22
12 27
12 67
12 90
12 92
12 95
12 111
12 158
12 172
12 267
13 20
13 23
13 235
13 277
14 32
14 33
14 51
14 57
14 61
14 75
14 111
14 115
14 122
14 140
14 142
14 145
14 155
14 183
14 188
14 203
14 288
14 300
15 53
15 107
15 127
15 151
15 158
15 291
16 30
16 56
16 67
16 86
16 87
16 98
16 124
16 127
16 151
16 185
16 204
17 25
17 40
17 69
17 71
17 73
17 137
17 139
17 207
17 215
18 95
18 97
18 113
18 131
18 168
18 204
18 230
19 36
19 37
19 68
19 90
19 142
19 161
19 177
19 199
19 260
19 274
20 36
20 38
20 68
20 69
20 77
20 134
20 142
20 146
20 157
20 166
20 199
20 209
20 216
20 220
20 287
21 39
21 42
21 93
21 96
21 163
21 176
21 290
22 31
22 32
22 35
22 44
22 51
22 111
22 116
22 118
22 177
22 223
22 263
22 267
23 32
23 43
23 56
23 77
23 85
23 91
23 108
23 112
23 177
23 205
23 273
24 40
24 49
24 59
24 103
24 110
24 146
24 195
24 244
25 27
25 38
25 52
25 92
25 107
25 139
25 170
25 177
25 181
25 265
26 28
26 37
26 72
26 75
26 101
26 120
26 196
26 225
27 38
27 64
27 78
27 92
27 111
27 170
27 178
27 205
27 207
27 238
27 243
27 275
27 281
28 36
28 96
28 253
29 74
29 125
29 129
29 148
29 161
29 226
30 69
30 82
30 108
30 124
30 143
30 168
30 240
30 251
30 258
30 290
31 177
31 262
31 282
32 51
32 55
32 69
32 74
32 111
32 140
32 145
32 205
32 211
32 298
33 51
33 54
33 66
33 142
33 145
33 232
33 292
34 115
34 118
34 192
34 248
35 81
35 205
35 263
35 273
36 46
36 89
36 96
36 176
36 199
36 268
36 277
37 43
37 71
37 80
37 82
37 90
37 120
37 128
37 142
37 147
37 156
37 173
37 220
37 243
37 257
38 77
38 109
38 157
38 167
38 170
38 275
39 53
39 63
39 108
39 143
39 163
40 42
40 71
40 93
40 154
40 169
40 171
41 63
41 106
41 163
41 180
41 263
41 271
41 292
42 51
42 64
42 92
42 93
42 105
42 119
42 124
42 138
42 232
42 266
42 274
42 288
43 56
43 72
43 77
43 90
43 103
43 106
43 110
43 138
43 166
43 167
43 198
43 216
44 53
44 70
44 77
44 100
44 135
44 196
44 270
45 53
45 99
45 118
45 130
45 223
45 270
46 141
46 200
46 208
46 218
47 91
47 108
47 115
47 143
47 154
48 54
48 59
48 125
48 148
48 224
48 227
48 244
49 59
49 67
49 103
49 141
49 146
49 192
49 195
49 269
49 271
49 285
50 89
50 116
50 127
50 177
50 194
50 230
50 245
50 272
51 52
51 93
51 99
51 107
51 128
51 133
51 142
51 255
51 271
51 277
52 64
52 81
52 107
52 133
52 220
52 248
52 296
53 63
53 66
53 72
53 99
53 100
53 127
53 160
53 190
53 196
53 223
53 231
53 256
53 283
54 59
54 64
54 92
54 94
54 103
54 114
54 192
54 203
54 232
54 234
55 74
55 81
55 84
55 94
55 110
55 114
55 164
57 155
57 196
58 69
58 77
58 83
58 87
58 99
58 124
58 128
58 135
58 161
58 207
58 217
58 229
58 238
58 249
58 291
58 292
59 110
59 219
59 224
59 244
59 281
60 61
60 66
60 72
60 115
60 196
60 216
60 231
60 241
60 294
61 72
61 115
61 133
61 136
61 218
61 237
61 274
61 294
62 90
62 123
62 212
62 291
63 160
63 167
63 180
63 260
64 81
64 92
64 125
64 138
64 148
64 192
64 213
64 292
66 117
66 132
66 196
66 263
66 292
66 297
67 90
67 95
67 141
67 151
67 204
67 248
68 78
68 142
68 199
68 217
68 220
68 250
68 267
69 70
69 72
69 73
69 77
69 91
69 97
69 124
69 142
69 195
69 199
69 222
69 245
69 257
69 287
69 298
70 72
70 100
70 157
70 169
70 177
70 180
70 190
70 223
71 93
71 129
71 143
71 146
71 153
71 172
71 257
72 115
72 191
72 196
72 210
72 216
72 260
72 264
73 76
73 91
73 124
74 179
74 253
74 290
75 79
75 104
75 127
75 128
75 134
75 193
75 286
76 88
76 145
76 163
76 207
76 300
77 100
77 109
77 177
77 239
77 294
78 85
78 106
78 127
78 178
79 80
79 86
79 88
79 94
79 103
79 104
79 118
79 130
79 259
79 285
80 94
80 130
80 136
80 142
80 155
80 164
80 279
81 84
81 107
81 192
81 263
82 119
82 122
82 128
82 138
82 221
83 128
83 179
83 232
84 139
84 157
84 158
84 162
84 205
85 91
85 98
85 108
85 122
85 127
85 130
85 138
85 216
85 261
86 133
86 259
87 91
87 92
87 119
87 229
87 250
88 118
88 145
88 246
88 287
88 300
89 96
89 157
89 177
89 275
90 103
90 128
90 179
90 213
90 230
90 251
90 274
90 286
91 100
91 108
91 166
91 171
91 175
91 182
91 228
91 242
91 296
92 119
92 156
93 138
93 144
93 159
93 300
94 114
94 148
94 195
95 97
95 113
95 126
95 201
95 213
95 222
95 266
95 290
96 126
96 176
96 256
97 126
97 193
97 222
98 124
98 125
98 127
98 204
98 208
99 128
99 129
99 142
99 161
99 162
99 182
99 223
99 227
100 135
100 144
100 239
100 263
100 295
101 125
101 226
101 229
101 240
101 275
102 162
102 263
103 138
103 156
103 190
103 232
103 252
104 134
104 187
104 286
104 295
105 124
105 138
105 152
105 188
105 197
105 232
105 266
106 113
106 178
106 211
106 214
106 277
106 288
107 131
107 154
107 190
107 193
107 194
108 115
108 136
108 143
108 166
108 268
109 128
109 269
109 292
110 114
110 117
110 122
110 130
110 137
110 145
110 169
110 216
110 247
110 260
111 116
111 257
112 126
112 128
112 169
112 205
112 212
112 254
113 131
113 195
113 228
114 117
114 155
114 247
115 136
115 147
115 169
115 262
115 274
116 127
117 132
117 183
117 186
117 220
117 293
118 145
118 223
119 122
119 138
119 174
119 193
119 204
119 211
119 235
119 250
120 192
120 251
120 262
120 272
121 189
121 194
121 243
122 127
122 130
122 138
122 145
122 155
122 285
123 275
123 291
123 293
124 257
125 148
125 167
125 217
125 250
126 176
126 212
126 256
126 276
126 277
127 132
127 166
127 223
128 134
128 138
128 142
128 212
128 227
129 161
129 184
129 198
129 220
129 269
130 138
130 221
130 250
130 279
130 285
130 299
131 137
131 145
131 161
131 209
132 196
132 220
132 252
132 286
133 180
133 294
134 184
134 206
134 212
134 284
135 144
135 183
135 291
136 237
137 139
137 145
138 195
138 214
139 158
139 239
140 277
141 162
141 286
142 177
142 294
142 300
143 146
143 156
143 210
143 249
144 159
144 278
145 157
145 226
146 166
146 196
146 204
146 219
146 271
147 243
147 295
148 265
148 281
149 191
149 225
149 290
150 222
150 279
151 185
151 227
151 235
151 291
152 184
152 215
152 242
152 272
152 277
153 185
153 228
153 242
153 248
153 254
153 266
153 268
153 272
154 186
154 191
154 210
154 217
154 225
155 183
155 215
156 221
156 223
156 226
156 232
156 235
156 280
157 177
157 210
157 220
157 266
157 294
158 215
158 254
158 265
158 284
158 298
159 196
159 219
159 223
159 246
159 278
159 284
160 166
160 212
160 249
161 207
161 251
161 254
161 274
162 177
162 205
162 210
162 211
162 231
162 237
162 240
162 258
162 266
162 284
162 287
162 294
163 173
164 173
164 189
164 205
164 207
164 214
164 246
164 253
164 262
164 268
164 279
164 284
164 300
165 175
165 215
165 283
166 212
166 247
166 296
167 170
167 194
167 195
167 207
167 222
167 240
167 243
167 250
167 260
167 300
168 222
169 171
169 190
169 200
169 233
169 260
169 269
170 181
170 213
170 264
171 176
171 213
171 222
171 236
171 237
171 242
171 256
171 273
172 205
172 209
172 217
173 189
173 207
173 214
173 253
173 300
175 182
175 186
175 216
175 229
175 244
175 250
175 271
175 282
175 283
175 287
175 297
176 237
176 238
176 242
176 253
177 181
177 294
177 299
178 197
178 211
179 230
180 243
181 294
181 299
182 186
182 223
182 256
182 271
183 221
183 226
183 240
183 285
183 286
183 293
184 186
184 196
184 215
184 217
184 222
184 231
184 252
184 269
184 277
184 284
185 229
185 268
185 299
186 197
186 220
186 244
186 277
186 297
187 238
187 244
187 245
187 295
188 206
188 242
188 266
189 194
189 279
189 300
191 196
191 210
191 225
191 242
191 267
192 288
193 235
193 286
193 291
194 228
194 230
194 231
194 243
194 256
194 258
194 268
195 218
195 240
195 293
196 219
196 246
196 258
196 284
196 292
197 248
198 204
198 279
199 217
199 250
199 264
199 267
199 274
200 286
200 287
201 216
201 262
202 247
203 225
203 234
203 240
203 290
204 235
204 242
205 207
205 209
205 231
205 237
205 242
205 266
205 275
206 210
206 214
206 221
206 237
206 242
206 255
206 270
207 240
207 243
208 252
209 220
210 225
210 236
210 242
210 266
210 267
210 272
210 277
211 214
211 227
211 236
211 240
211 260
212 223
212 249
212 270
212 276
213 222
213 259
213 274
214 236
214 246
214 255
214 268
214 300
215 272
215 298
216 262
216 287
217 291
218 237
218 293
219 223
219 279
219 281
219 282
219 284
221 226
221 240
222 240
222 242
222 273
222 281
222 284
222 300
223 235
223 246
223 259
223 267
223 270
223 279
223 297
224 252
224 256
224 272
225 290
226 233
226 240
226 279
226 280
226 285
226 286
227 235
227 260
227 262
228 243
228 258
228 272
229 250
229 299
230 231
230 258
230 260
230 268
230 297
231 241
231 249
231 277
233 234
233 240
233 241
233 267
233 269
233 279
234 247
234 267
234 279
235 273
235 279
235 291
235 297
236 237
236 242
236 272
236 292
237 242
237 263
237 268
237 271
237 282
237 292
238 244
238 249
239 278
240 243
240 275
240 284
241 243
241 267
241 269
241 279
241 282
242 253
242 263
242 267
242 272
242 275
242 290
242 292
243 256
244 283
245 287
245 295
246 270
246 295
248 266
250 279
251 254
252 284
253 262
253 275
253 279
253 300
254 272
254 298
257 269
257 281
258 284
258 300
259 263
259 279
259 292
262 282
262 287
263 279
263 292
266 268
266 272
267 279
267 281
268 271
268 282
268 299
268 300
269 279
270 274
270 289
271 282
273 297
274 277
274 289
275 281
275 290
275 291
278 296
279 300
280 295
281 293
283 287
284 300
286 287
288 289
288 294
291 293
294 299
*Classes
1
1
1
1
1
1
1
1
1
1
1
1
1
1
1
1
1
1
1
1
1
1
1
1
1
1
1
1
1
1
1
1
1
1
1
1
1
1
1
1
1
1
1
1
1
1
1
1
1
1
1
1
1
1
1
1
1
1
1
1
1
1
1
1
1
1
1
1
1
1
1
1
1
1
1
1
1
1
1
1
1
1
1
1
1
1
1
1
1
1
1
1
1
1
1
1
1
1
1
1
1
1
1
1
1
1
1
1
1
1
1
1
1
1
1
1
1
1
1
1
1
1
1
1
1
1
1
1
1
1
1
1
1
1
1
1
1
1
1
1
1
1
1
1
1
1
1
1
1
1
2
2
2
2
2
2
2
2
2
2
2
2
2
2
2
2
2
2
2
2
2
2
2
2
2
2
2
2
2
2
2
2
2
2
2
2
2
2
2
2
2
2
2
2
2
2
2
2
2
2
2
2
2
2
2
2
2
2
2
2
2
2
2
2
2
2
2
2
2
2
2
2
2
2
2
2
2
2
2
2
2
2
2
2
2
2
2
2
2
2
2
2
2
2
2
2
2
2
2
2
2
2
2
2
2
2
2
2
2
2
2
2
2
2
2
2
2
2
2
2
2
2
2
2
2
2
2
2
2
2
2
2
2
2
2
2
2
2
2
2
2
2
2
2
2
2
2
2
2
2
