*Vertices 300
*Edges
1 64
1 68
1 135
1 141
1 161
1 171
1 299
2 6
2 76
2 105
2 110
2 150
2 276
3 36
3 47
3 52
3 69
3 136
3 157
3 190
3 236
3 238
3 254
4 9
4 13
4 42
4 54
4 68
4 80
4 81
4 108
4 129
4 243
4 260
4 280
4 296
5 11
5 24
5 80
5 83
5 85
5 93
5 113
5 117
5 127
5 146
5 148
5 167
5 244
6 45
6 50
6 62
6 69
6 78
6 106
6 110
6 127
6 281
7 25
7 72
7 81
8 28
8 65
8 90
8 122
8 126
8 156
8 161
8 165
8 186
8 205
9 39
9 43
9 93
9 123
9 142
9 143
9 244
9 279
9 280
10 98
11 42
11 85
11 120
11 127
11 181
11 230
12 20
12 55
12 80
12 90
12 91
12 138
12 259
13 42
13 54
13 95
13 163
14 26
14 66
14 125
14 223
14 251
14 266
15 50
15 52
15 89
15 101
15 102
15 117
15 165
15 267
15 277
15 289
16 38
16 50
16 59
16 73
16 83
16 124
16 230
16 262
17 158
17 228
18 32
18 34
18 39
18 44
18 56
18 71
18 120
18 121
18 130
18 141
18 153
18 277
18 298
19 67
19 166
19 191
19 194
19 261
20 46
20 51
20 80
20 127
20 226
21 218
22 106
22 124
22 206
22 227
22 248
23 45
23 55
23 58
23 62
23 81
23 93
23 117
23 138
23 146
23 158
23 250
23 291
24 43
24 116
24 127
24 135
24 184
24 187
25 44
25 83
25 111
25 164
25 180
25 185
25 259
25 291
26 125
26 128
26 130
26 148
26 201
26 238
26 265
26 278
27 33
27 58
27 77
27 89
27 107
27 113
27 122
27 137
27 141
27 144
27 243
27 290
27 294
28 35
28 48
28 53
28 55
28 71
28 75
28 76
28 117
28 125
28 130
29 48
29 57
29 71
29 87
29 92
29 118
29 187
29 259
29 287
30 58
30 59
30 83
30 104
30 184
30 218
31 173
31 175
31 177
31 275
32 48
32 56
32 61
32 118
32 141
32 223
32 256
33 57
33 77
33 89
33 122
33 169
34 133
34 153
34 218
34 283
34 295
35 75
35 122
35 134
35 177
36 96
36 136
36 143
36 223
37 59
37 83
37 141
37 204
37 215
37 238
38 59
38 61
38 110
38 222
38 235
39 50
39 56
39 65
39 100
39 141
39 142
39 143
39 144
40 63
40 112
40 134
40 164
40 174
40 179
40 194
40 246
40 265
41 99
41 123
41 129
41 132
42 54
42 80
42 145
42 199
43 135
43 140
43 198
43 217
43 218
43 220
44 56
44 190
44 224
45 63
45 72
45 74
45 85
45 117
45 118
45 199
45 236
45 253
45 281
46 50
46 127
46 162
46 208
46 226
46 253
47 64
47 135
47 178
48 57
48 71
48 118
48 269
49 60
49 143
49 170
49 284
49 292
50 65
50 110
50 130
50 144
50 187
50 211
50 234
50 265
50 274
51 92
51 187
51 210
51 219
52 69
52 78
52 102
52 147
52 300
53 75
53 77
53 209
53 265
53 269
54 80
54 127
54 134
54 136
54 187
54 229
55 76
55 120
55 125
55 138
56 100
56 183
57 87
57 102
57 112
57 214
58 83
58 89
58 101
58 113
58 122
58 126
58 134
58 227
58 228
59 61
59 83
59 85
59 274
60 251
60 292
61 74
61 110
61 225
61 274
61 290
62 93
62 109
62 110
62 146
62 178
62 195
63 72
63 74
63 84
63 86
63 111
63 112
63 291
64 135
64 151
64 220
64 279
65 90
65 143
65 199
65 213
65 277
66 91
66 94
66 227
66 232
67 212
68 107
68 152
68 253
68 292
69 84
69 106
69 136
69 177
69 226
69 264
70 206
70 261
71 87
71 103
71 104
71 106
71 118
71 120
71 127
71 140
71 169
71 177
71 180
71 218
71 231
71 267
72 145
72 152
72 162
72 166
72 193
72 220
73 130
73 148
73 202
73 230
73 241
73 262
74 84
74 111
74 119
74 172
74 282
74 290
75 77
75 105
75 125
75 246
75 251
76 138
76 150
76 152
76 159
76 285
77 92
77 141
77 168
77 241
77 277
78 79
78 106
78 119
78 128
78 147
78 168
78 169
78 284
78 294
79 132
79 212
79 254
79 262
80 91
80 127
80 139
81 93
81 166
81 285
82 114
82 146
82 162
83 85
83 108
83 164
83 170
84 126
84 226
84 229
84 238
84 239
84 274
84 275
85 98
85 99
85 113
85 117
85 148
86 128
86 141
86 156
86 159
86 186
86 242
87 99
87 103
87 112
87 127
87 139
87 249
87 256
87 275
88 95
88 122
89 98
89 144
89 193
89 280
90 119
90 164
90 201
90 224
91 99
91 207
91 227
92 106
92 107
92 160
92 197
93 124
93 146
93 189
93 279
93 285
94 105
94 131
94 233
94 237
94 269
94 283
95 122
95 207
95 217
95 221
96 134
96 174
97 152
97 272
97 284
98 99
98 121
98 212
99 110
99 119
99 123
99 207
101 228
101 277
102 117
102 147
102 208
102 291
103 140
103 147
103 221
103 222
103 253
104 106
104 127
104 200
104 229
104 237
104 267
104 295
105 117
105 125
106 110
106 114
106 146
106 159
106 197
106 206
106 300
107 122
107 139
107 163
107 197
107 209
107 291
107 292
108 224
108 234
108 257
108 266
108 280
109 123
109 256
109 268
109 282
110 113
110 127
110 132
110 165
110 211
111 150
111 155
111 185
111 273
112 129
112 132
112 134
112 216
112 264
113 114
113 230
113 300
114 149
114 162
114 171
114 200
114 245
114 300
115 193
115 226
116 118
116 131
116 151
116 175
116 208
116 219
116 255
117 119
117 124
117 125
117 148
117 166
117 189
118 164
118 173
118 175
118 199
118 242
119 164
119 207
119 290
120 145
120 209
120 277
120 279
121 133
121 193
121 230
121 298
121 299
122 136
122 137
122 170
123 142
123 162
123 211
123 216
123 227
123 268
124 125
124 146
124 196
124 262
124 295
125 231
125 266
127 131
127 148
127 165
127 175
127 200
127 225
127 274
128 148
128 150
128 169
129 132
129 272
130 141
130 187
130 211
130 240
130 242
131 148
131 184
131 227
132 173
132 211
132 223
132 295
133 138
133 175
133 188
133 218
133 223
133 230
134 224
135 273
136 210
136 227
137 214
138 218
139 175
139 190
139 249
140 215
140 222
140 248
141 221
141 238
143 150
143 164
143 184
145 162
146 193
146 206
147 150
147 165
147 172
147 186
147 212
147 221
147 287
148 227
148 298
149 300
150 177
150 186
152 217
152 253
152 288
153 199
154 161
154 166
154 218
154 248
155 156
155 190
155 201
155 205
155 215
155 221
155 222
156 159
156 172
156 201
156 212
156 235
156 253
156 262
156 274
156 280
156 297
157 164
157 190
157 224
157 268
158 163
158 222
158 246
158 263
159 206
159 211
159 233
159 262
159 283
159 291
161 165
161 168
161 170
161 178
161 202
161 210
161 218
161 226
161 257
161 258
161 282
162 208
163 229
163 246
163 294
164 174
164 181
164 188
164 189
164 190
164 192
164 208
164 216
164 222
164 250
164 260
165 276
165 278
166 193
166 197
166 209
166 248
166 260
166 287
166 294
166 296
167 291
168 170
168 222
168 251
168 255
168 277
169 176
169 178
169 239
169 267
170 202
170 221
170 292
170 300
171 229
172 191
172 208
172 235
172 244
172 282
173 224
173 234
174 208
174 211
174 216
174 295
175 186
175 227
175 249
175 274
175 280
175 283
176 178
176 181
177 192
177 250
177 279
178 181
178 204
178 224
178 257
178 273
179 194
179 199
179 275
180 222
180 227
180 239
180 263
180 281
180 283
181 189
181 201
181 232
181 251
181 260
181 273
182 188
182 218
182 259
182 269
182 275
182 277
183 245
183 298
184 233
184 246
184 248
184 261
184 287
185 193
186 200
186 243
186 256
186 283
186 295
187 204
187 224
187 265
188 200
188 205
188 222
189 222
189 246
190 204
190 221
190 222
190 260
191 194
191 214
191 221
191 243
191 249
191 250
191 259
191 272
191 282
192 250
193 220
193 291
194 196
194 210
194 236
194 261
194 264
195 220
195 229
195 231
195 276
196 236
196 243
196 249
196 256
196 265
196 295
197 206
197 290
197 298
198 290
199 205
199 235
199 242
199 253
199 267
199 281
200 205
200 222
200 243
200 263
200 268
201 232
201 235
201 276
201 297
203 246
203 249
203 268
203 272
203 283
203 295
204 222
204 224
205 215
205 222
205 242
205 264
206 207
206 220
206 232
206 238
206 290
207 221
207 238
207 297
208 291
209 248
209 277
209 282
209 287
210 251
210 258
210 264
210 273
210 280
210 283
211 216
211 235
211 240
211 276
211 299
212 235
212 284
213 256
213 269
214 236
214 243
214 246
214 249
214 268
215 225
215 265
216 258
216 276
216 299
217 229
217 288
218 269
218 277
218 279
219 233
219 262
219 287
219 300
220 231
220 238
220 260
220 291
221 250
221 272
222 251
222 263
222 268
222 273
223 226
223 244
223 256
223 276
223 282
224 234
224 235
224 268
224 299
225 238
225 265
226 233
226 245
226 264
227 248
227 283
228 233
228 262
229 246
229 268
230 233
230 258
230 263
232 238
233 262
233 291
234 299
234 300
235 253
235 258
235 262
235 264
235 274
235 284
235 299
236 253
236 289
238 239
240 242
242 263
242 267
243 246
243 249
243 296
245 285
245 298
246 251
246 254
246 261
246 268
246 294
246 295
248 296
250 272
251 259
251 266
251 273
252 266
253 289
254 268
256 282
256 283
257 286
258 262
258 297
259 287
260 296
261 268
261 297
261 300
264 278
264 284
265 266
265 278
269 277
269 283
274 280
276 299
280 283
280 291
280 297
281 283
283 291
283 295
284 297
287 294
287 300
290 298
292 300
297 300
*Classes
1
1
1
1
1
1
1
1
1
1
1
1
1
1
1
1
1
1
1
1
1
1
1
1
1
1
1
1
1
1
1
1
1
1
1
1
1
1
1
1
1
1
1
1
1
1
1
1
1
1
1
1
1
1
1
1
1
1
1
1
1
1
1
1
1
1
1
1
1
1
1
1
1
1
1
1
1
1
1
1
1
1
1
1
1
1
1
1
1
1
1
1
1
1
1
1
1
1
1
1
1
1
1
1
1
1
1
1
1
1
1
1
1
1
1
1
1
1
1
1
1
1
1
1
1
1
1
1
1
1
1
1
1
1
1
1
1
1
1
1
1
1
1
1
1
1
1
1
1
1
2
2
2
2
2
2
2
2
2
2
2
2
2
2
2
2
2
2
2
2
2
2
2
2
2
2
2
2
2
2
2
2
2
2
2
2
2
2
2
2
2
2
2
2
2
2
2
2
2
2
2
2
2
2
2
2
2
2
2
2
2
2
2
2
2
2
2
2
2
2
2
2
2
2
2
2
2
2
2
2
2
2
2
2
2
2
2
2
2
2
2
2
2
2
2
2
2
2
2
2
2
2
2
2
2
2
2
2
2
2
2
2
2
2
2
2
2
2
2
2
2
2
2
2
2
2
2
2
2
2
2
2
2
2
2
2
2
2
2
2
2
2
2
2
2
2
2
2
2
2
