*Vertices 300
*Edges
1 23
1 45
1 62
1 83
1 96
1 177
1 180
1 198
1 286
2 24
2 28
2 61
2 68
2 69
2 78
2 96
2 113
2 127
2 133
2 138
2 144
2 147
2 149
2 158
2 180
2 187
2 280
3 30
3 48
3 149
3 155
3 174
3 178
3 205
3 228
3 257
4 85
4 109
4 182
4 190
4 277
5 24
5 29
5 32
5 42
5 61
5 62
5 105
5 109
5 126
5 129
5 135
5 173
5 211
5 229
5 256
6 15
6 123
6 131
6 178
6 192
6 232
6 250
6 262
7 19
7 33
7 72
7 113
7 118
7 121
7 250
7 270
8 29
8 50
8 97
8 99
8 267
9 55
9 86
9 132
9 284
10 19
10 43
10 75
10 101
10 104
10 143
10 172
10 218
10 231
10 239
10 278
11 80
11 150
11 154
11 158
11 221
11 296
12 43
12 47
12 121
12 134
12 155
12 246
13 280
14 29
14 93
14 153
14 227
14 240
15 29
15 42
15 53
15 95
15 102
15 123
15 128
15 138
15 141
15 193
15 208
15 215
15 223
15 274
16 52
16 120
16 183
16 191
17 170
17 206
17 222
17 265
18 39
18 70
18 102
18 114
18 135
18 137
19 27
19 33
19 58
19 79
19 98
19 109
19 118
19 121
19 128
19 167
19 218
19 232
19 244
20 26
20 45
20 158
20 217
20 240
21 30
21 39
21 45
21 66
21 71
21 72
21 87
21 94
21 108
21 113
21 121
21 143
21 266
21 295
22 24
22 41
22 63
22 68
22 90
22 100
22 144
22 170
22 197
22 199
23 25
23 78
23 83
23 88
23 106
23 111
23 113
23 116
23 124
23 140
23 146
23 215
23 238
24 52
24 61
24 68
24 100
24 127
24 169
25 63
25 118
25 140
25 158
25 265
25 299
26 45
26 46
26 103
26 131
26 143
26 237
27 73
27 79
27 125
27 255
27 262
27 273
28 133
28 136
28 195
28 260
28 293
29 42
29 50
29 72
29 93
29 102
29 141
30 45
30 94
30 122
30 149
30 157
30 248
30 294
31 38
31 40
31 85
31 101
31 130
31 235
31 279
31 285
32 40
32 42
32 55
32 96
32 109
32 111
32 115
32 128
32 194
32 261
32 286
32 293
33 58
33 109
33 127
33 128
33 216
33 236
33 244
33 277
34 56
34 86
34 98
34 109
34 119
34 122
34 129
34 259
35 52
35 60
35 63
35 99
35 151
35 193
35 272
36 111
36 139
36 140
36 165
36 185
36 277
37 210
38 112
38 132
38 233
38 289
38 300
39 108
39 143
39 181
39 257
40 57
40 83
40 96
40 112
40 173
40 177
40 205
40 229
40 257
41 43
41 124
41 170
41 212
41 241
42 61
42 102
42 119
42 126
42 128
42 205
42 213
42 219
43 45
43 48
43 75
43 94
43 124
43 143
43 151
43 155
44 55
44 104
44 158
44 187
44 222
44 227
44 257
45 83
45 88
45 122
45 124
45 157
45 224
45 246
45 250
45 264
45 267
46 63
46 131
46 143
46 283
47 121
47 130
47 244
47 291
48 54
48 74
48 88
48 89
48 118
48 124
48 129
48 158
48 178
48 217
48 231
48 281
48 286
49 80
49 280
49 298
50 68
50 98
50 109
50 159
50 201
50 247
50 254
51 100
51 236
52 61
52 63
52 160
52 197
53 119
53 122
53 187
53 252
54 65
54 72
54 93
54 124
54 135
54 141
54 142
54 160
54 169
54 300
55 63
55 86
55 90
55 111
55 139
55 178
55 191
55 193
55 210
55 227
55 265
56 60
56 109
56 202
56 244
56 274
57 96
57 131
57 215
58 100
58 127
58 128
58 244
58 248
58 259
58 271
59 199
59 233
59 263
59 282
60 274
61 100
61 174
61 295
62 77
62 78
62 82
62 110
62 180
62 185
62 204
62 213
62 253
62 279
62 290
63 88
63 158
63 169
63 191
63 193
63 199
63 236
63 259
63 268
63 283
63 297
64 144
64 203
64 260
65 81
65 118
65 204
65 208
65 223
65 258
65 263
65 274
65 300
66 94
66 98
66 113
66 182
67 91
67 171
67 184
67 188
67 189
67 234
68 69
68 79
68 90
68 93
68 132
68 133
68 159
68 196
68 203
68 264
68 266
68 284
68 294
69 125
69 147
69 151
69 246
69 256
69 263
70 137
70 163
70 217
70 244
70 248
71 72
71 82
71 111
71 275
72 80
72 93
72 94
72 95
72 102
72 108
72 121
72 129
72 141
72 159
72 168
72 174
72 187
72 294
73 79
73 146
74 118
74 124
75 143
75 152
75 169
75 281
76 193
76 211
76 252
77 82
77 99
77 111
77 255
78 82
78 83
78 99
78 100
78 110
78 113
78 118
78 137
78 149
78 166
78 232
78 253
78 279
79 90
79 125
79 146
79 180
79 217
80 93
80 158
80 277
81 84
81 113
81 140
81 143
81 278
81 292
81 299
82 111
82 139
82 145
82 229
83 88
83 94
83 96
83 106
83 110
83 132
83 138
83 151
83 153
83 176
83 216
83 224
84 88
84 113
84 115
84 118
84 124
84 172
84 198
84 219
84 280
85 101
85 104
85 130
85 134
85 202
85 210
85 265
85 285
86 237
87 108
87 112
87 216
87 234
87 281
87 296
88 113
88 116
88 124
88 140
88 155
88 173
88 191
88 241
88 264
88 274
88 287
89 105
89 126
89 129
89 199
89 226
89 287
90 93
90 113
90 140
90 144
91 102
91 138
91 155
91 201
91 245
93 95
93 121
93 141
93 153
93 251
94 98
94 106
94 113
94 128
94 132
94 138
94 143
94 165
94 213
94 230
94 240
95 102
95 121
95 141
95 168
95 205
95 298
96 100
96 101
96 115
96 128
96 133
96 177
96 252
96 269
96 276
97 117
97 149
97 177
97 267
98 100
98 109
98 129
98 143
98 182
98 190
98 236
98 246
98 256
98 258
99 113
99 193
99 255
100 106
100 133
100 185
100 190
100 232
100 236
100 259
100 281
101 104
101 105
101 134
101 149
101 173
101 178
101 250
101 259
102 121
102 135
102 206
102 245
102 253
103 131
104 107
104 149
104 178
104 195
104 239
104 277
105 114
105 126
105 134
105 232
105 258
106 111
106 132
106 139
106 151
106 171
106 219
106 252
107 178
107 259
108 156
108 208
108 279
109 129
109 135
109 190
109 217
109 226
109 237
110 137
110 166
110 167
110 218
111 138
111 139
111 146
111 147
111 169
111 209
111 211
111 224
111 271
112 130
112 184
112 257
112 294
113 115
113 118
113 128
113 140
113 228
114 137
114 260
115 128
115 137
115 165
115 175
115 254
116 130
116 146
116 157
116 187
116 208
116 267
117 138
117 147
118 220
118 223
119 122
119 184
119 202
119 214
119 224
119 258
119 263
120 198
120 204
120 206
120 225
120 265
120 298
121 134
121 135
121 148
121 158
122 160
122 207
123 183
123 240
123 274
123 296
124 173
124 185
124 195
124 230
125 142
125 194
125 263
125 283
126 129
126 261
127 133
127 154
127 180
127 229
127 297
129 168
129 178
130 244
131 214
131 237
131 238
132 191
132 243
132 267
133 144
133 147
133 202
133 240
133 252
133 260
133 281
133 286
134 164
134 194
134 228
134 283
134 297
135 160
135 175
135 256
135 265
136 234
137 197
137 224
137 233
137 246
137 249
138 139
138 147
138 223
139 225
139 233
140 230
140 289
141 228
141 251
141 273
141 298
142 201
143 198
143 226
143 247
143 283
144 177
144 242
144 250
144 294
145 229
146 264
146 279
147 154
147 259
147 280
148 158
148 203
148 247
148 298
149 174
149 274
149 280
149 290
151 182
151 193
151 195
151 198
151 205
151 208
151 210
151 246
151 271
153 159
153 178
153 202
153 216
153 233
153 287
154 171
155 163
155 246
155 255
156 167
156 175
156 191
156 193
156 199
156 204
156 208
156 220
156 223
156 229
157 180
157 192
158 179
158 222
159 263
160 203
160 212
160 219
160 250
161 162
161 165
161 167
161 194
161 201
161 204
161 212
161 217
161 251
162 194
162 201
162 204
162 234
162 256
162 260
162 280
163 178
163 185
163 232
163 248
163 255
163 294
165 172
165 213
165 233
165 280
165 282
165 290
165 300
166 193
166 205
166 245
167 191
167 217
167 223
167 271
168 205
168 242
169 198
169 268
169 286
169 290
170 203
170 213
170 222
170 225
170 272
170 291
170 296
170 297
171 180
171 192
171 241
171 267
172 195
172 219
172 233
172 290
173 174
173 178
173 181
173 229
173 230
173 242
173 251
173 255
173 261
173 262
174 242
174 274
175 199
176 187
176 189
176 226
176 234
176 237
176 253
176 279
176 281
177 182
177 213
177 215
177 237
178 226
178 229
178 232
178 233
178 240
178 247
178 259
178 261
178 272
178 274
178 286
178 287
178 294
179 197
179 262
180 192
180 216
181 242
182 195
182 207
182 208
182 213
182 233
182 236
182 259
183 227
183 268
184 203
184 205
184 221
184 258
184 275
185 232
185 272
186 246
186 264
187 234
187 279
188 191
188 197
188 206
188 215
188 227
188 239
188 259
188 262
188 265
188 288
189 234
189 238
189 246
189 275
189 281
189 298
190 244
190 248
190 294
190 297
191 224
191 229
191 259
191 294
192 216
192 267
193 197
193 198
193 205
193 208
193 219
193 227
193 239
193 245
193 292
194 201
195 210
195 219
195 246
195 263
195 264
195 265
195 278
196 247
196 248
196 264
197 224
197 262
197 292
198 208
198 233
198 286
198 290
198 292
199 208
199 220
199 294
200 208
200 219
200 220
200 236
200 265
200 294
201 204
201 210
201 234
201 251
201 256
201 293
202 258
203 212
203 217
203 247
203 258
203 266
203 275
203 291
204 210
204 211
204 223
204 278
205 226
205 239
205 258
206 265
207 208
207 262
208 213
208 219
208 259
209 220
209 249
210 223
210 265
210 278
211 223
211 252
212 217
212 219
213 215
213 225
213 233
213 237
213 268
213 296
215 227
216 223
216 277
216 287
219 263
219 284
220 235
220 249
220 259
220 294
221 230
221 278
222 241
222 243
222 273
224 262
224 263
224 290
225 272
225 283
225 284
226 234
226 247
226 258
227 288
227 292
228 255
230 261
230 293
231 247
231 253
232 248
232 272
232 287
233 287
233 290
233 296
234 246
234 247
234 260
234 281
236 263
236 300
237 253
237 279
238 240
238 293
238 298
239 263
239 270
239 271
239 276
239 288
240 247
240 261
240 274
240 281
242 251
242 255
243 267
243 273
243 289
244 248
244 256
244 294
246 255
246 264
246 281
247 248
247 258
247 261
247 274
247 291
248 259
248 264
248 274
248 294
249 285
251 256
251 293
252 299
254 300
255 261
256 280
256 286
258 274
259 294
261 274
263 271
263 284
263 288
270 271
271 276
272 297
273 289
280 286
280 290
280 300
286 290
287 296
289 300
291 297
294 297
296 297
*Classes
1
1
1
1
1
1
1
1
1
1
1
1
1
1
1
1
1
1
1
1
1
1
1
1
1
1
1
1
1
1
1
1
1
1
1
1
1
1
1
1
1
1
1
1
1
1
1
1
1
1
1
1
1
1
1
1
1
1
1
1
1
1
1
1
1
1
1
1
1
1
1
1
1
1
1
1
1
1
1
1
1
1
1
1
1
1
1
1
1
1
1
1
1
1
1
1
1
1
1
1
1
1
1
1
1
1
1
1
1
1
1
1
1
1
1
1
1
1
1
1
1
1
1
1
1
1
1
1
1
1
1
1
1
1
1
1
1
1
1
1
1
1
1
1
1
1
1
1
1
1
2
2
2
2
2
2
2
2
2
2
2
2
2
2
2
2
2
2
2
2
2
2
2
2
2
2
2
2
2
2
2
2
2
2
2
2
2
2
2
2
2
2
2
2
2
2
2
2
2
2
2
2
2
2
2
2
2
2
2
2
2
2
2
2
2
2
2
2
2
2
2
2
2
2
2
2
2
2
2
2
2
2
2
2
2
2
2
2
2
2
2
2
2
2
2
2
2
2
2
2
2
2
2
2
2
2
2
2
2
2
2
2
2
2
2
2
2
2
2
2
2
2
2
2
2
2
2
2
2
2
2
2
2
2
2
2
2
2
2
2
2
2
2
2
2
2
2
2
2
2
