*Vertices 300
*Edges
1 29
1 55
1 78
1 79
1 85
1 90
1 93
1 105
1 106
1 141
1 149
1 150
1 245
1 280
1 282
2 18
2 66
2 116
2 118
2 140
2 272
3 5
3 55
3 60
3 69
3 115
3 123
3 134
3 147
3 163
3 195
3 200
3 265
4 8
4 16
4 23
4 29
4 32
4 59
4 61
4 71
4 72
4 87
4 92
4 95
4 96
4 135
4 138
4 150
4 263
5 69
5 87
5 94
5 113
5 121
5 136
5 234
5 255
6 20
6 28
6 63
6 89
6 106
6 135
6 138
6 140
6 171
6 236
6 281
7 14
7 15
7 23
7 30
7 38
7 62
7 79
7 80
7 85
7 99
7 128
7 132
7 184
7 205
7 233
8 12
8 39
8 69
8 145
8 150
8 152
8 159
8 217
9 59
9 96
9 114
9 133
10 16
10 55
10 64
10 74
10 75
10 96
10 137
10 165
10 213
10 218
10 264
11 32
11 43
11 57
11 61
11 68
11 74
11 103
11 105
11 122
11 140
11 173
11 177
11 244
11 272
11 287
12 27
12 49
12 55
12 69
12 85
12 102
12 137
12 253
13 18
13 29
13 94
13 118
13 137
13 172
13 219
13 250
13 288
14 30
14 38
14 47
14 99
14 234
14 235
14 239
14 291
15 54
15 62
15 65
16 27
16 29
16 74
16 100
16 108
16 115
16 124
16 130
16 135
16 255
16 290
17 44
17 61
17 72
17 195
17 223
17 227
17 260
17 283
18 66
18 68
18 77
18 106
18 118
18 135
18 156
18 199
18 234
18 252
19 53
19 84
19 119
20 28
20 160
20 214
21 77
21 78
21 85
21 133
21 149
21 179
21 185
21 217
22 43
22 44
22 55
22 58
22 76
22 85
22 101
22 142
22 193
22 256
22 286
23 86
23 96
23 188
23 294
24 70
24 76
24 78
24 134
24 149
24 205
25 28
25 263
25 279
25 284
25 300
26 29
26 105
26 142
27 37
27 63
27 66
27 100
27 102
27 111
27 123
27 138
27 167
27 172
27 228
28 35
28 129
28 171
28 239
28 279
29 32
29 66
29 105
29 118
29 176
29 206
30 33
30 41
30 77
30 133
30 188
31 36
31 40
31 41
31 219
31 248
31 266
32 53
32 57
32 65
32 83
32 87
32 96
32 118
32 138
32 140
32 199
32 229
32 250
32 289
33 127
33 133
33 227
34 43
34 65
34 66
34 83
34 98
34 106
34 107
34 229
34 269
35 65
35 83
35 133
35 155
35 208
36 40
36 41
36 49
36 59
36 69
36 109
36 114
36 293
37 66
37 89
37 94
37 109
37 211
38 42
38 45
38 63
38 79
38 85
38 88
38 180
38 254
39 44
39 101
39 115
40 74
40 120
40 180
40 191
40 194
40 205
40 242
41 79
41 102
41 114
41 134
41 137
41 164
41 214
41 242
41 285
42 66
42 88
42 181
42 260
42 276
43 46
43 75
43 76
43 83
43 113
43 124
43 244
43 275
43 286
44 76
44 101
44 153
44 157
44 162
44 174
44 179
44 223
44 283
45 46
45 86
45 110
45 151
45 222
45 254
45 298
46 66
46 83
46 91
46 106
46 124
46 171
46 233
46 240
46 275
47 57
47 63
47 86
47 170
47 183
47 225
47 245
47 250
48 68
48 129
49 51
49 69
49 109
49 269
49 289
49 300
50 74
50 108
50 123
50 158
50 175
50 180
50 231
50 290
50 292
50 297
51 77
51 177
51 245
51 269
51 280
52 64
52 81
52 89
52 100
52 103
52 109
52 113
52 135
52 197
52 231
52 238
53 96
53 220
53 259
54 62
54 203
54 289
55 60
55 69
55 75
55 85
55 126
55 137
55 148
55 149
55 237
55 245
55 260
55 280
55 291
56 71
56 241
57 61
57 68
57 78
57 103
57 122
57 127
57 183
58 84
58 88
58 96
58 100
58 107
58 115
58 225
58 253
58 265
58 266
58 279
58 297
59 74
59 96
59 114
59 133
59 138
59 167
59 204
59 281
60 92
60 94
60 123
60 242
60 277
61 71
61 72
61 95
61 96
61 135
62 63
62 65
62 88
62 128
62 130
62 148
62 182
62 186
62 206
62 275
62 295
63 75
63 88
63 89
63 102
63 147
63 161
63 183
63 211
63 256
64 74
64 100
64 182
64 186
64 199
64 217
64 231
64 247
65 83
65 87
65 94
65 98
65 109
65 118
65 130
65 152
65 154
65 173
65 295
66 106
66 118
66 129
66 135
66 176
66 223
67 72
67 99
67 156
67 189
67 210
68 74
68 77
68 96
68 108
68 118
68 127
68 129
68 134
68 141
68 205
68 208
68 218
68 256
68 283
69 94
69 112
69 115
69 121
69 270
70 78
70 167
70 189
70 276
71 87
71 95
71 96
71 112
71 127
71 128
71 150
71 241
71 254
71 264
71 284
72 99
72 110
72 207
72 227
72 297
73 96
73 138
73 140
73 145
73 294
74 96
74 108
74 115
74 124
74 134
74 138
74 143
74 205
74 209
75 86
75 137
75 183
75 197
75 209
75 251
76 120
76 124
76 139
76 144
76 218
77 133
77 190
77 225
77 232
77 270
77 284
78 85
78 122
78 149
78 181
78 272
79 108
79 114
79 116
79 128
79 152
79 170
79 183
79 204
79 282
80 90
80 132
80 188
80 267
81 89
81 100
81 132
81 251
81 254
82 239
82 291
83 89
83 98
83 106
83 109
83 124
83 138
83 229
84 154
84 259
85 97
85 126
85 133
85 137
85 149
85 150
85 210
85 232
86 143
86 179
86 183
86 222
86 241
86 283
86 294
87 90
87 94
87 95
88 89
88 100
88 102
89 100
89 102
89 109
89 117
89 147
89 262
89 274
90 91
90 93
90 94
90 139
90 148
90 171
90 188
90 223
90 224
90 226
90 250
90 280
91 105
91 106
91 139
91 187
91 280
92 98
92 172
92 173
92 277
92 286
93 94
93 106
93 111
93 136
93 162
93 175
93 288
94 148
94 208
94 211
95 140
95 192
95 271
95 274
96 118
96 134
96 138
96 150
96 167
96 237
96 279
97 143
97 210
97 254
98 106
98 286
98 289
98 294
99 219
100 102
100 120
100 132
100 193
100 216
101 115
101 182
101 212
102 138
102 300
103 111
103 113
103 135
103 142
103 178
104 125
104 285
104 287
105 182
105 190
105 244
106 107
106 109
106 111
106 138
106 237
106 276
106 282
107 126
107 212
107 216
107 266
107 273
108 176
108 204
108 231
108 246
110 207
110 298
111 113
111 135
111 138
111 140
111 142
111 157
111 162
111 210
111 278
112 115
112 127
112 141
112 175
112 180
112 234
113 162
113 208
113 234
113 286
113 291
113 295
114 152
114 204
115 121
115 133
115 168
115 242
115 252
116 122
116 140
116 158
116 226
116 279
117 274
118 140
118 153
118 193
119 235
120 128
120 159
120 193
120 205
120 206
120 218
121 134
122 149
122 272
122 287
123 187
123 228
123 247
124 144
125 247
126 165
126 212
126 223
126 251
127 141
127 175
128 162
128 168
128 176
128 194
128 218
128 245
128 264
129 135
129 156
130 196
130 255
131 163
131 188
131 218
131 255
132 272
133 167
133 172
133 182
133 210
133 242
133 267
134 149
134 214
134 250
135 138
135 227
136 235
137 186
137 203
137 240
137 242
137 288
138 140
138 160
138 161
138 211
138 240
139 169
139 184
140 154
140 161
140 164
140 264
140 271
140 289
141 156
141 202
141 282
141 287
142 216
142 258
142 261
142 290
143 157
143 163
143 209
143 213
143 215
143 222
143 234
143 285
143 300
144 236
144 263
144 281
145 159
146 164
147 161
147 191
147 195
147 235
147 256
148 182
148 245
149 150
149 238
149 244
150 158
150 265
151 193
151 228
152 170
152 204
152 207
152 239
152 291
153 174
153 176
153 200
153 208
153 243
153 258
153 263
153 275
153 285
153 288
153 291
153 294
153 295
154 161
154 164
154 190
154 233
154 244
154 264
155 205
155 218
155 242
155 268
155 285
155 300
156 197
156 198
156 199
156 234
156 252
156 289
156 295
157 176
157 213
157 258
157 283
158 191
158 199
158 213
158 247
158 265
158 268
158 296
158 297
158 300
159 192
159 193
159 205
159 218
159 240
159 285
159 288
160 163
160 167
160 231
160 284
160 288
160 296
161 170
161 198
161 211
161 246
161 247
161 253
161 264
161 282
162 172
162 175
162 194
162 217
162 279
162 281
162 283
162 297
163 213
163 221
163 224
163 288
163 294
163 295
164 218
164 258
165 218
165 222
166 180
166 182
166 191
166 240
166 246
166 247
166 281
166 283
166 297
167 228
167 296
168 169
168 205
168 227
168 268
169 234
169 273
169 274
170 214
170 242
170 246
170 271
171 181
171 197
171 198
171 205
171 227
171 234
171 235
171 236
171 239
171 251
171 264
171 274
171 278
171 280
171 286
171 292
171 295
172 174
172 217
172 236
172 242
172 259
172 270
172 275
172 279
172 292
172 297
173 232
173 237
173 286
173 287
174 190
174 208
174 263
174 275
174 276
174 277
175 185
175 231
175 260
175 300
176 206
176 207
176 239
176 250
176 258
176 291
178 179
178 203
178 232
178 291
179 203
179 285
179 287
180 192
180 240
180 242
180 247
180 254
180 297
181 201
181 234
181 235
181 271
181 273
182 228
182 237
182 244
182 246
182 247
182 269
183 186
183 241
183 257
183 259
183 272
183 277
183 281
184 190
185 196
185 238
185 241
186 188
186 228
186 240
186 244
186 246
186 247
186 257
186 292
188 189
188 209
188 247
189 236
189 276
189 292
190 214
190 244
190 276
190 280
191 199
191 213
191 217
191 247
191 248
191 270
191 297
192 195
192 227
192 240
193 202
193 206
193 228
193 231
193 247
193 277
193 294
193 300
194 266
195 227
195 260
196 238
196 241
197 244
197 251
197 264
197 278
198 202
198 236
198 246
198 295
199 221
199 250
199 286
199 296
199 299
200 265
200 286
200 299
201 207
201 208
201 223
201 229
201 230
201 233
201 240
201 252
201 271
202 236
202 270
202 295
203 214
203 215
203 218
203 285
203 289
204 281
204 291
205 227
205 268
206 231
206 300
207 223
207 229
207 239
207 258
207 285
207 288
207 291
208 210
208 233
208 243
208 288
208 291
208 295
209 215
209 222
210 233
210 254
210 262
210 278
210 295
211 238
212 222
212 237
212 280
213 234
213 248
213 258
213 285
214 215
214 242
214 246
214 248
214 275
215 234
217 233
217 248
217 270
217 278
217 279
218 250
218 258
218 284
218 285
219 248
220 280
221 262
221 295
221 299
222 237
223 226
223 230
223 241
223 253
224 226
224 280
225 262
225 279
225 282
225 284
225 299
225 300
226 238
226 276
226 280
226 298
227 236
227 241
227 251
227 278
228 231
228 236
228 241
228 247
228 260
228 292
228 293
229 233
229 250
230 280
231 265
231 270
231 296
231 300
232 239
232 258
232 284
232 287
232 291
233 240
233 252
233 278
233 279
233 295
234 235
234 273
234 274
234 286
234 295
234 300
235 281
235 286
236 290
236 292
236 293
236 295
237 255
237 264
237 280
237 291
238 251
238 279
238 298
239 284
239 286
239 291
239 294
240 242
241 260
242 267
242 271
242 285
242 288
243 249
243 292
243 295
244 246
244 247
244 251
244 269
244 275
244 280
244 287
245 246
245 265
245 268
246 247
246 265
246 268
247 260
247 297
248 270
248 275
248 279
250 284
250 285
250 289
251 264
251 278
251 279
251 298
252 265
252 268
253 266
253 287
254 284
255 264
256 284
256 296
257 275
257 277
258 291
260 300
262 279
262 282
262 295
262 299
263 281
264 278
265 268
265 270
265 285
265 300
266 287
266 297
268 269
270 279
270 300
272 281
273 274
274 286
274 299
275 277
275 279
275 297
276 298
277 292
279 281
279 298
279 300
281 297
283 297
284 286
284 294
284 296
285 288
285 294
285 300
286 295
286 299
287 300
288 294
288 296
290 293
293 295
*Classes
1
1
1
1
1
1
1
1
1
1
1
1
1
1
1
1
1
1
1
1
1
1
1
1
1
1
1
1
1
1
1
1
1
1
1
1
1
1
1
1
1
1
1
1
1
1
1
1
1
1
1
1
1
1
1
1
1
1
1
1
1
1
1
1
1
1
1
1
1
1
1
1
1
1
1
1
1
1
1
1
1
1
1
1
1
1
1
1
1
1
1
1
1
1
1
1
1
1
1
1
1
1
1
1
1
1
1
1
1
1
1
1
1
1
1
1
1
1
1
1
1
1
1
1
1
1
1
1
1
1
1
1
1
1
1
1
1
1
1
1
1
1
1
1
1
1
1
1
1
1
2
2
2
2
2
2
2
2
2
2
2
2
2
2
2
2
2
2
2
2
2
2
2
2
2
2
2
2
2
2
2
2
2
2
2
2
2
2
2
2
2
2
2
2
2
2
2
2
2
2
2
2
2
2
2
2
2
2
2
2
2
2
2
2
2
2
2
2
2
2
2
2
2
2
2
2
2
2
2
2
2
2
2
2
2
2
2
2
2
2
2
2
2
2
2
2
2
2
2
2
2
2
2
2
2
2
2
2
2
2
2
2
2
2
2
2
2
2
2
2
2
2
2
2
2
2
2
2
2
2
2
2
2
2
2
2
2
2
2
2
2
2
2
2
2
2
2
2
2
2
