*Vertices 300
*Edges
1 41
1 62
1 65
1 70
1 165
1 197
1 286
1 295
2 21
2 53
2 68
2 69
2 118
2 135
2 287
3 14
3 29
3 40
3 60
3 126
3 128
3 142
3 155
3 229
3 231
3 234
3 236
3 274
3 281
4 63
4 131
4 176
5 89
5 94
5 130
5 144
5 147
5 148
5 164
5 267
6 64
6 85
6 103
7 12
7 42
7 45
7 90
7 98
7 131
7 132
7 149
7 194
7 198
7 215
7 238
7 284
8 12
8 32
8 40
8 47
8 104
8 112
8 127
8 140
8 148
8 177
8 192
8 226
8 235
8 264
8 291
9 70
9 83
9 87
9 98
9 101
9 106
9 107
9 115
9 129
9 149
9 156
9 164
9 193
9 207
9 233
9 297
10 71
10 144
10 171
10 267
10 275
11 14
11 63
11 80
11 102
11 172
11 179
11 199
11 203
11 220
11 242
12 32
12 73
12 98
12 126
12 148
12 149
12 152
12 176
12 224
12 226
12 241
12 275
13 32
13 54
13 67
13 157
13 169
13 180
13 203
13 280
14 19
14 48
14 58
14 82
14 84
14 91
14 134
14 137
14 154
14 155
14 174
14 177
14 223
14 227
14 242
14 282
14 284
15 61
15 86
15 110
15 132
15 274
15 281
16 53
16 108
16 136
16 156
16 216
16 295
17 22
17 70
17 80
17 214
17 249
17 250
17 276
17 284
17 300
18 32
18 92
18 104
18 112
18 177
18 230
18 293
19 58
19 91
19 101
19 113
19 232
20 46
20 61
20 213
20 247
20 248
20 261
20 278
21 53
21 75
21 111
21 119
21 246
21 255
21 283
21 291
22 214
22 250
23 157
23 170
23 226
23 268
23 298
24 56
24 69
24 102
24 152
24 175
24 211
24 264
25 37
25 41
25 45
25 99
25 111
25 115
25 145
25 151
25 168
25 181
25 195
25 196
25 205
25 234
25 254
25 278
25 290
25 293
26 59
26 97
26 117
26 131
26 133
26 221
26 249
26 266
26 289
27 28
27 37
27 40
27 61
27 276
28 39
28 49
28 51
28 114
28 151
28 158
28 159
28 160
28 213
28 214
28 231
28 256
28 276
29 49
29 274
30 63
30 91
30 95
30 127
30 173
30 176
30 194
30 216
30 290
31 143
31 166
31 274
32 70
32 85
32 140
32 175
32 177
32 194
32 210
32 236
32 243
32 245
32 290
33 44
33 50
33 55
33 73
33 79
33 86
33 87
33 103
33 116
33 123
33 126
33 165
33 192
33 208
33 235
33 242
33 249
33 259
33 262
33 275
33 283
33 296
34 108
34 156
34 158
34 175
34 254
35 59
35 130
35 131
35 174
35 177
35 228
35 282
36 44
36 56
36 68
36 94
36 114
36 129
36 141
36 147
36 172
36 203
37 127
37 193
37 202
37 205
37 244
38 50
38 93
38 140
38 196
38 220
39 40
39 49
39 74
39 139
39 158
39 224
39 252
39 254
39 260
40 49
40 125
40 131
40 172
40 218
40 234
40 263
40 291
40 300
41 46
41 71
41 96
41 113
41 114
41 125
41 145
41 160
41 171
41 223
41 236
41 263
41 278
42 194
43 52
43 102
43 113
43 130
43 270
43 278
43 284
43 285
43 290
44 56
44 67
44 92
44 171
44 176
44 190
44 235
44 264
44 267
45 96
45 148
45 149
45 168
45 178
45 215
46 114
46 184
46 220
46 240
46 261
47 66
47 96
47 124
47 140
47 148
47 151
47 163
47 170
47 234
47 295
48 58
48 102
48 106
48 175
48 185
48 199
48 212
48 262
49 111
49 291
50 166
50 214
51 57
51 65
51 141
51 151
51 193
51 237
52 59
52 73
52 231
52 233
52 261
53 70
53 118
53 136
54 180
54 201
55 70
55 126
55 275
55 286
56 72
56 76
56 102
56 171
56 205
56 235
56 256
57 65
57 86
57 191
57 284
58 155
58 187
58 199
58 247
58 252
58 262
59 73
59 77
59 99
59 131
59 133
59 149
59 169
59 180
60 111
60 117
60 129
60 147
60 214
60 237
60 259
60 274
61 110
61 168
61 190
61 213
61 221
62 246
63 207
63 216
64 66
64 111
64 192
64 197
64 211
64 231
64 280
65 81
65 95
65 137
65 162
65 173
65 190
65 218
65 250
65 296
66 82
66 109
66 120
66 134
66 210
66 227
66 295
67 84
67 91
67 172
67 201
67 202
67 229
67 235
67 258
68 94
68 103
68 126
68 135
68 146
68 155
68 159
68 204
68 243
68 250
68 262
68 273
68 292
69 102
69 208
69 244
69 253
69 282
70 85
70 87
70 90
70 118
70 133
70 136
70 153
70 188
70 194
70 238
70 239
70 288
70 300
71 84
71 114
71 171
72 90
72 146
72 205
73 126
73 137
73 188
73 200
73 250
74 173
74 252
74 268
74 284
74 297
75 99
75 119
75 151
75 154
75 186
75 232
75 255
75 293
76 128
76 164
76 265
76 293
77 81
77 109
77 139
77 159
77 169
77 176
77 180
77 183
77 198
77 217
77 222
77 223
77 250
77 256
78 103
78 126
78 136
78 225
79 86
79 87
79 92
79 192
79 208
79 216
79 259
79 262
80 95
80 121
80 163
80 179
80 227
80 228
80 241
80 249
80 280
80 284
80 292
80 297
81 100
81 115
81 139
81 148
81 155
81 172
81 181
82 128
82 227
82 263
82 284
83 87
84 91
84 133
84 134
84 161
84 221
84 235
84 238
85 103
85 112
85 126
85 141
85 153
85 187
85 213
85 231
86 113
86 180
86 214
86 229
86 231
86 233
86 274
86 276
86 280
86 289
87 90
87 92
87 107
87 131
87 145
87 149
87 167
87 238
87 272
87 288
87 297
88 128
89 94
89 138
89 199
89 211
89 212
89 222
89 269
90 123
90 133
90 198
91 154
91 155
91 191
91 258
91 281
91 293
92 105
92 112
92 142
92 224
92 235
92 249
93 140
94 153
94 204
94 222
94 232
94 272
95 137
95 157
95 163
95 173
95 184
95 188
95 190
95 214
95 229
95 234
95 258
95 262
95 265
96 118
96 148
96 163
96 168
96 176
96 227
97 101
97 114
97 133
97 135
97 273
98 149
98 156
98 168
98 171
99 121
99 131
99 134
99 154
99 168
99 221
99 228
99 232
99 256
99 293
99 299
100 118
100 256
101 113
101 135
101 183
101 189
101 232
101 246
101 283
102 172
102 175
102 204
102 226
102 253
102 282
102 300
103 120
103 126
103 155
103 177
103 178
103 181
103 297
104 127
104 131
104 133
104 288
105 112
105 116
105 119
105 142
105 204
105 208
105 218
105 222
105 235
105 249
105 257
105 273
105 282
105 294
106 207
106 226
106 232
106 267
106 278
106 286
106 292
107 151
107 290
108 136
108 138
108 216
108 232
109 141
109 159
109 172
109 217
109 222
109 239
109 243
110 132
110 150
110 195
110 205
110 257
111 115
111 116
111 119
111 133
111 147
111 177
111 191
111 197
111 207
111 221
111 246
112 117
112 186
112 192
112 195
112 209
112 211
112 235
112 257
112 294
113 145
113 199
113 210
113 214
113 229
113 239
113 243
113 259
113 272
113 290
114 126
114 130
114 135
114 163
114 181
114 186
114 188
114 213
114 214
114 256
114 272
114 276
114 278
114 288
115 133
115 155
115 182
115 219
115 237
116 159
116 169
116 197
116 207
116 249
116 259
117 181
117 192
117 286
118 135
118 188
119 154
119 259
119 273
120 134
120 148
120 226
120 227
120 241
120 297
121 163
121 228
121 292
122 172
122 203
123 126
123 142
123 149
123 290
124 194
124 225
125 143
125 234
125 237
125 279
126 168
126 259
126 274
126 288
127 131
127 133
127 234
127 268
127 288
127 290
128 293
129 147
129 191
129 208
129 244
129 259
129 290
130 131
130 144
130 174
130 284
131 149
131 154
131 158
131 176
131 254
131 288
131 291
132 284
133 182
133 210
133 219
133 221
133 237
134 181
134 202
134 227
134 244
134 264
134 265
134 299
135 155
135 203
135 232
135 248
135 262
136 188
136 295
137 173
137 178
137 204
138 170
139 158
139 181
139 204
139 208
139 215
139 250
140 159
140 197
140 248
140 254
140 281
141 144
141 171
141 172
141 208
141 239
141 284
142 234
142 258
142 261
142 282
144 171
144 180
144 243
144 267
145 196
145 222
145 272
146 153
146 174
146 187
146 224
146 235
146 262
147 148
147 164
147 191
147 221
147 284
147 290
148 156
148 164
148 227
148 249
148 264
148 290
148 291
149 224
150 155
151 154
151 177
151 201
151 234
151 268
151 278
151 297
152 176
152 197
153 222
153 224
153 232
153 238
153 239
154 177
154 186
154 218
154 228
154 235
154 281
155 203
155 243
155 248
155 269
156 164
156 191
156 223
157 170
157 203
157 206
157 233
157 265
157 279
158 164
158 175
158 178
158 181
158 201
158 254
158 265
159 169
159 197
159 222
159 243
159 276
159 293
160 177
160 186
160 209
160 263
160 300
161 198
161 237
161 246
161 300
162 192
162 197
162 198
162 251
162 283
163 181
163 188
163 204
163 292
164 178
164 192
164 210
164 243
164 250
165 218
165 286
165 296
166 179
166 182
166 238
166 257
166 274
166 294
167 238
167 266
167 283
168 178
168 184
168 205
168 221
168 239
168 259
168 289
168 290
169 180
169 185
169 188
169 219
169 251
169 283
169 300
170 181
170 227
170 242
170 260
170 269
170 272
170 281
172 181
172 186
172 203
172 208
172 229
172 300
173 234
173 251
173 253
173 258
173 298
174 177
174 200
174 223
174 226
174 235
174 250
174 282
175 236
176 185
176 217
176 226
176 235
176 278
176 282
177 186
177 233
178 183
178 194
178 204
178 247
178 297
179 280
180 256
181 227
181 254
181 256
181 265
181 269
182 198
182 223
183 194
183 207
183 223
183 233
183 251
183 289
184 220
184 222
184 234
184 236
184 240
184 242
184 259
184 285
184 296
185 200
185 212
185 213
185 278
185 283
186 203
186 209
188 258
188 259
188 282
188 288
189 222
189 246
190 240
190 296
191 194
191 247
191 284
192 198
192 211
192 230
192 235
192 243
192 251
192 280
193 233
193 237
193 256
194 225
194 245
194 247
194 290
195 202
195 205
195 207
195 229
195 244
195 257
195 266
195 294
196 272
197 223
198 223
198 227
198 296
199 212
199 246
199 276
199 283
200 212
200 218
200 250
200 291
201 203
201 247
201 254
202 244
202 257
202 258
203 209
203 226
203 248
203 250
203 263
203 282
204 228
204 231
204 236
204 282
207 226
207 278
207 294
208 244
208 250
208 273
210 230
210 233
210 237
210 243
210 259
210 291
210 294
211 212
211 230
211 263
211 282
212 259
212 269
212 274
212 285
213 231
213 233
213 261
213 276
214 275
215 250
215 294
216 300
218 235
218 250
218 254
218 273
220 242
221 285
221 287
221 289
222 272
224 233
225 247
226 245
226 282
227 241
227 258
227 296
229 234
229 266
229 289
229 300
230 233
230 291
230 293
231 233
231 248
231 258
231 260
231 280
231 281
231 282
232 235
232 278
234 236
234 268
234 296
234 298
235 254
235 273
236 258
236 261
236 299
237 259
238 239
238 257
238 284
239 259
239 270
241 253
243 250
243 267
246 283
246 291
247 252
247 289
247 292
248 254
248 266
248 269
248 274
248 278
248 281
249 256
249 273
250 282
250 291
251 276
251 283
251 289
252 260
253 298
254 264
254 265
254 267
254 281
254 299
257 273
257 294
258 261
258 262
258 282
258 296
260 272
260 283
262 273
262 292
263 300
264 267
266 269
266 283
268 298
270 285
271 285
271 287
271 290
272 299
274 276
274 281
274 285
274 287
275 283
275 294
276 284
276 289
278 293
281 285
281 291
281 293
284 290
285 287
286 292
289 292
291 293
295 298
*Classes
1
1
1
1
1
1
1
1
1
1
1
1
1
1
1
1
1
1
1
1
1
1
1
1
1
1
1
1
1
1
1
1
1
1
1
1
1
1
1
1
1
1
1
1
1
1
1
1
1
1
1
1
1
1
1
1
1
1
1
1
1
1
1
1
1
1
1
1
1
1
1
1
1
1
1
1
1
1
1
1
1
1
1
1
1
1
1
1
1
1
1
1
1
1
1
1
1
1
1
1
1
1
1
1
1
1
1
1
1
1
1
1
1
1
1
1
1
1
1
1
1
1
1
1
1
1
1
1
1
1
1
1
1
1
1
1
1
1
1
1
1
1
1
1
1
1
1
1
1
1
2
2
2
2
2
2
2
2
2
2
2
2
2
2
2
2
2
2
2
2
2
2
2
2
2
2
2
2
2
2
2
2
2
2
2
2
2
2
2
2
2
2
2
2
2
2
2
2
2
2
2
2
2
2
2
2
2
2
2
2
2
2
2
2
2
2
2
2
2
2
2
2
2
2
2
2
2
2
2
2
2
2
2
2
2
2
2
2
2
2
2
2
2
2
2
2
2
2
2
2
2
2
2
2
2
2
2
2
2
2
2
2
2
2
2
2
2
2
2
2
2
2
2
2
2
2
2
2
2
2
2
2
2
2
2
2
2
2
2
2
2
2
2
2
2
2
2
2
2
2
