*Vertices 300
*Edges
1 152
1 164
1 181
1 248
1 250
1 254
1 265
2 29
2 42
2 64
2 182
2 185
2 202
2 226
2 269
3 6
3 15
3 77
3 139
3 214
3 215
3 237
3 262
3 263
4 40
4 81
4 103
4 192
4 250
4 260
5 87
5 90
5 112
5 203
5 210
5 234
5 241
5 249
5 255
5 271
5 296
6 40
6 77
6 89
6 155
6 162
6 223
6 247
6 259
6 291
7 11
7 13
7 33
7 136
7 145
7 156
7 194
7 220
8 35
8 39
8 54
8 98
8 99
8 102
8 140
8 142
8 150
8 172
8 194
8 203
8 218
8 235
8 255
8 256
8 258
8 260
9 159
9 263
10 14
10 21
10 147
10 149
10 224
10 225
11 45
11 91
11 106
11 117
11 127
11 130
11 148
11 184
11 192
11 193
11 203
11 220
11 276
11 280
11 296
12 18
12 43
12 83
12 142
12 169
12 182
12 202
12 295
13 29
13 53
13 69
13 83
13 85
13 102
13 145
13 184
13 213
13 215
13 228
13 266
14 83
14 131
14 142
14 200
14 201
14 217
14 219
14 224
14 246
15 35
15 52
15 261
15 263
16 36
16 43
16 45
16 49
16 68
16 73
16 74
16 117
16 223
16 247
16 265
16 277
16 281
17 20
17 56
17 94
17 164
17 172
17 243
17 259
18 24
18 31
18 77
18 83
18 100
18 128
18 132
18 139
18 211
18 251
18 287
19 30
19 34
19 50
19 62
19 93
19 128
19 162
19 168
19 187
19 191
19 203
19 218
19 221
19 288
19 299
20 22
20 95
20 164
20 167
20 231
20 243
21 42
21 61
21 69
21 101
21 140
21 149
21 153
21 163
21 184
21 200
21 231
21 247
21 262
21 282
21 292
21 293
21 299
22 115
22 183
22 210
22 221
22 248
23 31
23 33
23 58
23 69
23 90
23 103
23 151
23 160
23 167
23 171
23 209
23 230
23 239
23 243
23 259
23 289
24 30
24 34
24 42
24 79
24 115
24 139
24 143
24 168
24 234
24 248
24 270
24 272
25 43
25 78
25 111
25 134
25 162
25 163
25 207
25 214
25 227
25 242
25 248
25 252
25 260
25 276
26 63
26 83
26 88
26 105
26 116
26 128
26 142
26 153
26 165
26 211
26 255
26 278
27 84
27 163
27 164
27 231
27 252
27 272
28 96
28 106
28 108
28 120
28 147
28 198
28 243
28 294
29 67
29 76
29 82
29 185
29 205
29 224
29 228
29 261
29 288
29 295
30 34
30 44
30 81
30 87
30 96
30 104
30 113
30 132
30 213
30 228
31 43
31 58
31 90
31 101
31 125
31 128
31 129
31 149
31 217
31 278
32 34
32 65
32 167
32 216
32 230
32 252
32 286
33 58
33 156
33 160
33 200
33 201
33 265
34 79
34 93
34 168
34 228
34 230
34 272
35 47
35 51
35 57
35 99
35 158
35 159
35 180
35 192
35 230
36 45
36 60
36 246
37 79
37 153
37 248
38 54
38 85
38 107
38 128
38 200
38 214
38 240
38 268
38 282
39 47
39 54
39 91
39 97
39 184
39 203
39 218
39 231
39 233
39 260
39 292
40 59
40 68
40 77
40 97
40 103
40 213
40 223
40 247
40 266
40 272
40 293
41 95
41 138
41 187
41 291
42 51
42 64
42 124
42 140
42 143
42 198
42 226
43 101
43 117
43 138
43 141
43 142
43 164
43 214
43 225
43 227
43 245
43 255
43 266
43 299
44 53
44 81
44 83
44 91
44 182
44 299
45 118
45 130
45 147
45 158
45 181
45 262
45 276
45 277
46 51
46 91
46 123
46 148
46 150
46 175
46 187
46 249
46 265
46 292
47 59
47 97
47 119
47 143
47 159
47 180
47 192
47 232
47 293
47 299
48 72
48 92
48 96
48 100
48 104
48 107
48 116
48 127
48 142
48 155
48 161
48 181
48 273
48 274
48 288
48 295
49 55
49 60
49 141
49 286
49 292
50 60
50 91
50 169
50 170
50 173
50 177
50 208
50 213
50 240
50 270
50 288
50 296
50 299
51 59
51 64
51 97
51 118
51 162
51 172
51 175
51 180
51 190
51 191
51 207
51 256
51 262
51 291
52 144
52 146
52 175
52 197
52 231
52 261
52 268
53 91
53 161
53 213
53 299
54 62
54 90
54 128
54 149
54 171
54 196
54 285
54 296
55 61
55 123
55 293
56 109
56 136
56 221
56 261
57 70
57 71
57 178
57 198
57 242
57 248
58 62
58 92
58 128
58 156
58 200
58 201
58 206
58 224
58 237
58 238
59 68
59 71
59 97
59 103
59 200
59 213
59 224
59 247
59 260
59 276
59 281
60 147
60 158
60 239
61 101
61 163
61 183
61 184
61 195
61 224
61 269
61 293
62 128
63 142
63 153
63 170
63 171
63 232
63 244
63 274
63 289
63 296
64 68
64 90
64 144
64 160
64 185
64 190
64 208
64 283
65 85
65 100
65 107
65 137
65 160
65 219
65 246
65 258
65 261
66 71
66 240
66 255
66 264
66 293
66 300
67 211
67 212
67 295
68 90
68 97
68 160
68 228
68 266
68 272
68 283
69 83
69 90
69 110
69 188
69 228
70 71
70 91
70 144
70 148
70 213
71 144
71 213
71 214
71 254
71 255
71 264
72 116
72 120
72 123
72 135
72 180
72 266
73 80
73 116
73 234
73 262
74 247
74 254
75 82
75 116
75 161
75 251
75 258
76 82
76 94
76 119
76 137
76 205
76 212
76 261
77 83
77 139
77 262
78 82
78 94
78 164
78 180
78 195
78 207
78 216
78 219
78 221
78 227
78 231
78 266
78 272
78 282
78 286
78 292
79 97
79 127
79 239
79 254
80 116
80 190
80 220
80 234
80 252
81 115
81 277
81 299
82 94
82 116
82 191
82 231
83 85
83 105
83 128
83 132
83 142
83 153
83 169
83 177
83 182
83 213
84 92
84 140
84 195
84 200
84 205
85 107
85 128
85 142
85 160
85 170
85 214
85 240
85 282
85 284
86 91
86 173
86 206
87 113
87 194
87 235
87 247
87 249
88 128
88 151
88 155
88 164
88 199
88 200
88 264
88 269
89 135
89 155
89 184
89 233
89 264
90 125
90 249
90 272
90 278
90 289
91 117
91 137
91 144
91 148
91 173
91 223
91 245
91 285
91 292
92 112
92 131
92 159
92 200
92 205
92 217
92 238
93 106
93 128
93 144
94 116
94 138
94 146
94 179
94 191
94 219
94 254
94 260
95 136
95 184
95 198
95 291
95 297
96 100
96 104
96 120
96 132
96 205
96 206
96 213
96 237
96 246
96 252
97 119
97 120
97 127
97 213
97 239
97 260
97 284
97 296
98 102
98 159
98 207
98 227
99 102
99 116
99 140
99 146
99 148
99 150
99 158
99 165
99 182
99 192
99 198
99 203
99 218
100 104
100 120
100 132
100 137
100 211
100 213
100 249
100 292
101 110
101 129
101 164
101 182
101 218
101 244
101 272
101 287
102 149
102 158
102 191
102 192
102 198
102 207
102 213
102 215
102 226
102 235
102 255
102 278
102 298
103 203
103 212
103 270
103 278
103 296
104 120
104 176
104 208
104 239
104 245
104 260
105 126
105 129
105 133
105 142
105 177
106 127
106 134
106 140
106 192
106 198
106 215
106 294
107 117
107 142
107 158
107 161
107 229
107 242
107 245
108 147
108 153
108 158
108 231
108 257
108 294
109 113
109 118
109 130
109 180
109 184
109 203
109 228
109 241
109 292
110 129
110 228
110 273
111 132
111 163
111 207
111 231
111 242
111 252
112 150
112 154
112 165
112 196
112 210
112 223
112 230
112 239
112 243
112 278
112 281
112 292
113 118
113 194
113 200
113 223
113 224
113 247
113 281
114 131
114 261
114 264
114 268
115 197
115 221
115 248
116 130
116 135
116 211
116 222
116 234
116 266
116 297
117 118
117 144
117 148
117 245
117 265
117 289
117 291
117 292
117 297
118 130
118 175
118 181
118 207
118 265
118 292
119 212
119 293
120 123
120 127
120 128
120 142
120 147
120 188
120 226
120 246
121 134
121 205
121 277
121 278
121 297
122 215
123 187
123 223
125 209
125 283
125 289
126 133
126 148
126 150
126 161
126 185
127 128
127 149
127 152
127 181
127 209
127 284
127 288
127 291
127 295
128 129
128 149
128 151
128 162
128 200
128 251
128 267
128 291
129 228
129 287
130 152
130 181
130 183
130 242
130 262
131 132
131 142
131 152
131 159
131 164
131 172
131 173
132 142
132 145
132 188
132 206
132 231
132 234
132 238
132 252
132 287
133 177
133 206
134 165
134 196
134 207
134 255
134 278
134 297
135 244
135 254
136 177
136 189
136 191
136 207
136 261
136 286
137 144
137 254
137 261
137 286
137 292
138 179
138 187
138 270
139 154
139 215
139 270
140 149
140 156
140 195
140 198
140 216
140 241
141 168
141 188
141 204
141 225
141 227
141 243
142 145
142 147
142 158
142 161
142 164
142 172
142 188
142 194
142 201
142 202
142 235
142 238
142 299
143 270
144 175
144 213
144 214
144 254
144 255
144 279
145 156
145 194
145 220
146 165
146 196
147 153
147 158
147 192
147 220
147 243
148 150
148 186
148 285
148 292
149 155
149 158
149 163
149 172
149 191
149 214
149 218
149 262
149 298
149 299
150 154
151 175
151 208
151 243
151 259
152 181
152 182
152 227
152 248
152 266
152 284
153 164
153 197
153 225
153 231
154 212
154 217
155 172
155 179
155 181
155 189
155 264
155 297
155 298
156 178
156 192
156 198
157 210
157 300
158 190
158 191
158 192
158 198
158 218
158 237
158 255
158 262
158 279
158 291
159 191
159 291
160 243
160 246
160 256
160 258
161 172
161 190
161 258
162 207
162 223
162 226
162 259
162 282
162 292
163 232
163 247
163 290
164 181
164 182
164 197
164 231
164 237
164 238
164 244
164 245
164 269
165 196
165 213
165 255
165 281
165 300
166 170
166 186
166 202
166 203
166 268
166 285
166 298
167 230
167 236
167 298
168 202
168 243
168 275
168 294
169 213
170 175
170 190
170 191
170 208
170 223
170 284
170 298
171 234
171 274
171 296
172 179
172 190
172 225
172 243
172 262
172 284
173 195
173 209
173 245
173 299
174 199
174 218
174 279
175 208
175 245
175 279
176 220
176 225
177 237
177 238
177 258
177 286
177 299
178 194
178 198
178 203
178 235
178 263
178 270
178 296
179 181
179 189
179 193
179 201
179 265
179 286
180 213
180 230
180 256
180 260
180 276
181 248
181 262
181 275
182 193
182 218
182 227
182 269
182 282
183 210
183 222
183 257
183 271
183 294
184 223
184 258
184 259
184 266
184 278
184 286
184 292
184 297
185 251
186 270
186 285
187 191
187 221
187 264
189 282
189 286
190 191
190 220
190 221
190 225
190 243
190 261
191 192
191 209
191 291
191 296
192 198
192 215
192 221
192 250
192 289
193 218
193 220
193 280
194 218
194 235
194 258
195 240
195 256
195 269
195 288
195 290
196 230
196 281
197 231
197 290
198 293
198 300
199 218
199 226
199 265
199 279
199 297
200 224
201 212
201 219
201 229
201 242
201 265
201 280
202 222
202 226
202 267
202 273
202 285
202 295
203 218
203 228
203 241
203 249
203 268
203 271
203 272
203 285
203 291
203 296
204 289
205 207
205 238
205 240
205 246
205 295
207 227
207 240
208 245
209 221
209 230
209 291
209 296
210 234
210 239
210 278
210 282
211 218
211 249
211 251
211 253
211 265
212 263
212 267
212 295
213 214
215 237
215 289
216 231
216 241
217 246
217 263
217 283
218 228
218 237
218 251
218 253
218 260
218 279
219 221
219 242
219 251
219 254
220 225
220 252
220 257
220 280
220 294
222 226
222 297
223 247
223 259
223 292
223 298
225 243
226 259
226 285
227 229
227 253
227 266
227 269
228 272
228 273
228 292
229 242
229 248
229 255
229 266
230 231
230 252
230 276
230 286
230 291
231 237
231 252
231 266
231 269
232 290
233 247
234 247
235 256
237 238
237 244
237 258
238 240
238 246
239 243
239 245
239 268
240 288
241 273
242 248
243 245
243 259
243 278
243 291
244 254
246 263
246 278
246 283
247 281
247 282
248 299
249 265
251 279
252 280
253 260
255 271
255 298
257 294
259 278
259 291
259 296
260 276
261 268
263 265
263 300
264 298
265 274
265 279
265 289
265 300
266 280
267 276
267 280
267 295
269 282
269 290
270 277
270 285
270 296
272 290
272 293
273 285
273 295
275 294
278 291
282 288
285 295
286 292
288 295
290 293
291 296
292 297
292 298
293 300
*Classes
1
1
1
1
1
1
1
1
1
1
1
1
1
1
1
1
1
1
1
1
1
1
1
1
1
1
1
1
1
1
1
1
1
1
1
1
1
1
1
1
1
1
1
1
1
1
1
1
1
1
1
1
1
1
1
1
1
1
1
1
1
1
1
1
1
1
1
1
1
1
1
1
1
1
1
1
1
1
1
1
1
1
1
1
1
1
1
1
1
1
1
1
1
1
1
1
1
1
1
1
1
1
1
1
1
1
1
1
1
1
1
1
1
1
1
1
1
1
1
1
1
1
1
1
1
1
1
1
1
1
1
1
1
1
1
1
1
1
1
1
1
1
1
1
1
1
1
1
1
1
2
2
2
2
2
2
2
2
2
2
2
2
2
2
2
2
2
2
2
2
2
2
2
2
2
2
2
2
2
2
2
2
2
2
2
2
2
2
2
2
2
2
2
2
2
2
2
2
2
2
2
2
2
2
2
2
2
2
2
2
2
2
2
2
2
2
2
2
2
2
2
2
2
2
2
2
2
2
2
2
2
2
2
2
2
2
2
2
2
2
2
2
2
2
2
2
2
2
2
2
2
2
2
2
2
2
2
2
2
2
2
2
2
2
2
2
2
2
2
2
2
2
2
2
2
2
2
2
2
2
2
2
2
2
2
2
2
2
2
2
2
2
2
2
2
2
2
2
2
2
