*Vertices 300
*Edges
1 4
1 8
1 33
1 55
1 62
1 148
1 172
1 182
1 190
1 232
1 243
1 246
2 18
2 95
2 112
2 177
3 5
3 61
3 126
3 191
4 55
4 106
4 270
5 59
5 149
5 213
5 263
6 13
6 43
6 46
6 48
6 82
6 92
6 111
6 125
6 130
6 132
6 145
6 179
6 252
7 27
7 50
7 108
7 120
7 133
7 141
7 151
7 184
7 204
7 208
7 249
7 270
7 281
7 283
7 289
8 13
8 63
8 92
8 111
8 141
8 146
8 148
8 297
9 26
9 62
9 108
9 145
9 147
9 172
9 206
9 211
9 232
9 276
9 297
10 18
10 46
10 105
10 162
10 201
11 17
11 32
11 33
11 172
11 211
11 247
12 43
12 79
12 163
12 191
12 193
12 223
13 31
13 43
13 92
13 203
13 244
13 261
13 298
14 19
14 34
14 45
14 85
14 89
14 108
14 121
14 177
14 182
14 195
14 240
14 257
15 98
15 150
15 175
16 27
16 71
16 88
16 98
16 108
16 121
16 133
16 187
16 197
16 209
16 230
16 263
16 272
17 19
17 32
17 58
17 91
17 103
17 113
17 121
17 162
17 226
17 233
18 24
18 46
18 74
18 105
18 162
18 168
18 238
18 267
18 269
19 32
19 42
19 61
19 96
19 121
19 218
19 266
19 289
19 297
20 63
20 83
20 180
20 194
21 33
21 47
21 74
21 155
21 169
21 190
22 30
22 69
22 126
22 206
22 276
22 279
22 289
23 42
23 55
23 70
23 111
23 135
23 237
23 290
24 27
24 43
24 46
24 58
24 66
24 82
24 92
24 119
24 127
24 130
24 139
24 142
24 153
24 300
25 31
25 45
25 66
25 98
25 99
25 160
25 188
26 45
26 77
26 97
26 106
26 113
26 147
27 97
27 100
27 108
27 153
27 226
27 256
27 273
27 283
28 77
29 51
29 91
29 100
29 135
29 224
29 233
29 280
30 126
30 181
30 187
30 224
30 298
31 45
31 50
31 84
31 99
31 126
31 188
31 248
31 273
32 113
32 225
32 268
33 75
33 126
33 127
33 172
33 201
33 253
33 282
34 47
34 50
34 85
34 90
34 94
34 108
34 117
34 133
34 142
34 148
34 150
34 167
34 187
34 215
34 299
35 42
35 45
35 84
35 194
35 282
35 293
36 75
36 89
36 196
36 214
36 295
37 44
37 95
37 96
37 266
39 60
39 122
39 137
40 83
40 87
40 89
40 95
40 145
40 216
40 285
41 143
41 192
41 243
42 74
42 135
42 159
42 293
43 46
43 78
43 92
43 111
43 127
43 163
43 242
43 254
43 283
44 49
44 95
44 121
44 131
44 145
44 259
44 261
44 285
45 50
45 65
45 77
45 84
45 85
45 97
45 144
45 155
45 205
45 267
46 49
46 74
46 130
46 139
46 151
46 165
46 221
46 279
47 196
48 64
48 102
48 134
48 135
48 138
48 145
48 159
48 271
49 50
49 114
49 124
49 128
49 137
49 150
49 240
49 251
49 259
49 279
50 84
50 133
50 142
50 150
51 73
51 79
51 90
51 93
51 122
51 196
51 204
51 237
51 260
51 282
52 57
52 69
52 78
52 95
52 110
52 121
52 148
52 182
52 236
52 290
53 122
53 216
53 263
54 172
54 179
54 246
55 65
55 142
55 290
56 67
56 99
56 186
57 63
57 74
57 90
57 95
57 105
57 138
57 143
57 148
57 197
57 198
57 249
57 289
57 290
58 76
58 99
58 165
58 182
59 123
60 122
60 197
61 168
61 227
61 242
61 250
62 67
62 81
62 101
62 104
62 118
62 142
62 232
63 83
63 91
63 148
63 184
63 186
63 204
64 243
64 271
65 89
65 93
65 179
65 218
65 265
65 272
65 290
66 78
66 82
66 87
66 102
66 188
66 207
66 254
66 269
66 285
67 75
67 77
67 89
67 95
67 130
67 232
67 285
67 299
68 184
68 254
69 139
69 140
69 229
69 236
70 128
70 288
71 87
71 93
71 99
71 100
71 125
71 223
71 237
71 247
71 277
72 94
73 79
73 124
73 143
73 176
73 252
74 95
74 96
74 145
74 155
74 190
74 221
74 230
75 89
75 127
75 236
75 237
75 277
76 99
76 147
76 178
76 193
76 203
76 252
76 270
76 291
77 98
77 113
77 197
77 232
78 102
78 121
78 122
78 131
78 196
78 254
79 104
79 137
79 193
79 203
79 266
79 279
80 87
80 130
80 137
80 198
80 249
80 279
80 280
80 284
80 290
81 121
81 182
81 246
81 284
82 93
82 129
82 179
82 230
82 235
82 280
83 89
83 145
83 256
83 268
84 116
84 144
84 155
84 173
84 219
84 235
85 119
85 122
85 134
85 160
85 240
85 258
85 268
86 116
86 146
86 200
86 207
86 219
87 93
87 132
87 145
87 275
87 285
87 298
88 98
88 173
88 190
88 199
88 296
89 177
89 186
89 196
89 218
89 295
90 117
90 134
90 148
90 167
90 186
90 202
90 204
90 259
91 100
92 111
92 130
92 133
92 141
92 146
92 163
92 202
92 230
92 262
92 282
92 286
92 294
93 99
93 132
93 179
93 220
94 277
95 96
95 102
95 105
95 112
95 145
95 177
95 184
95 196
95 225
96 145
96 172
96 287
96 297
97 106
97 113
97 221
97 278
98 119
98 188
98 197
98 263
99 106
99 109
99 111
100 112
100 114
100 119
100 125
100 130
100 140
100 153
100 244
101 112
101 142
101 153
101 178
102 138
102 181
102 183
102 220
102 225
103 104
103 124
104 124
104 193
105 123
105 153
105 231
106 111
106 164
106 165
108 246
108 253
108 257
108 264
109 185
109 214
109 254
109 283
110 141
110 150
110 182
110 235
110 258
111 141
111 293
112 229
112 285
113 281
113 298
114 124
114 127
114 139
114 140
114 145
114 151
114 164
114 205
114 206
114 209
114 251
114 273
115 116
115 138
115 153
115 205
115 274
116 144
116 147
116 170
116 207
116 270
116 274
116 295
117 129
117 134
117 156
117 299
118 178
118 249
119 146
119 164
119 185
119 188
119 226
119 247
119 268
119 297
120 130
120 288
120 289
121 131
121 231
121 232
121 272
121 283
122 137
122 160
122 196
122 226
122 233
122 268
123 257
123 293
125 128
125 130
125 221
125 251
125 287
125 289
126 172
126 273
127 140
127 151
127 183
127 200
127 207
127 228
127 253
127 264
127 271
127 282
127 292
127 293
127 294
128 161
128 257
128 279
129 144
129 156
129 174
129 176
129 182
129 235
129 281
130 133
130 145
130 192
130 198
130 222
130 285
130 287
130 289
131 138
131 231
131 252
131 272
132 180
132 265
133 141
133 175
133 287
134 148
134 202
135 145
135 248
135 268
135 280
136 250
137 161
137 279
138 177
138 198
138 214
138 252
139 201
140 150
140 230
140 246
140 289
141 148
141 263
142 153
142 214
142 233
143 176
143 208
143 213
143 275
144 156
144 220
144 297
145 189
145 209
145 247
145 276
146 147
146 154
146 202
146 271
146 297
147 245
147 270
147 286
147 297
148 199
148 295
150 182
150 230
150 240
150 250
151 198
151 239
151 241
151 242
152 165
152 168
152 198
152 212
152 214
152 245
152 264
152 281
152 283
153 240
153 258
153 289
154 163
154 167
154 202
154 221
154 233
154 246
154 282
154 287
155 173
155 187
155 188
155 190
155 215
155 295
156 271
157 223
157 225
157 242
157 254
158 162
158 200
158 229
158 261
158 267
158 287
159 161
159 166
159 171
159 220
159 224
159 287
159 289
159 290
159 293
160 268
161 163
161 178
161 217
161 220
161 230
161 236
161 241
161 249
161 282
161 290
162 229
162 249
163 193
163 221
163 230
163 236
163 237
163 254
163 279
163 282
164 182
164 185
164 253
164 269
164 273
164 291
164 297
165 167
165 171
165 195
165 214
165 217
165 221
165 245
165 246
165 261
165 274
165 298
166 221
166 224
166 240
166 274
166 285
166 287
167 191
167 192
167 231
167 240
167 244
167 246
167 248
167 277
167 289
167 298
168 190
168 194
168 199
168 245
169 216
169 217
170 253
170 258
170 263
170 284
170 290
171 177
171 180
171 186
171 217
171 274
171 282
171 291
172 174
172 179
172 211
172 222
172 224
172 241
172 246
172 249
172 276
172 281
172 296
172 299
173 193
173 208
173 228
173 274
174 179
174 184
174 224
174 281
175 280
175 287
176 188
176 199
176 213
176 226
176 235
176 236
176 252
177 180
177 186
177 190
177 252
177 261
177 268
178 193
178 203
178 249
178 282
178 288
179 220
179 230
179 245
179 281
179 294
180 288
181 196
181 225
182 184
182 187
182 206
182 207
182 226
182 232
182 248
182 251
182 273
182 296
184 186
184 206
184 232
184 235
184 242
184 246
184 254
184 262
184 264
184 281
184 294
184 296
184 299
185 213
185 214
186 204
186 238
186 246
186 262
187 207
187 215
187 239
187 248
187 263
187 265
187 272
188 199
188 228
188 247
188 269
189 191
189 193
189 215
189 254
189 282
189 288
190 199
190 221
190 243
190 245
190 268
191 263
191 277
192 206
192 227
192 231
192 240
192 248
193 254
193 274
193 279
193 282
193 291
193 294
194 245
195 261
195 298
196 208
196 223
196 275
197 222
197 247
197 299
198 227
198 239
198 285
198 295
199 213
199 263
199 295
200 235
200 253
200 261
200 292
201 235
202 204
202 287
203 261
203 268
204 251
204 264
204 296
205 299
206 226
206 234
206 235
206 241
206 242
206 287
206 296
207 228
207 240
207 252
207 265
208 270
208 274
208 275
209 221
209 224
209 237
209 244
209 251
211 232
211 235
211 241
212 245
213 245
213 263
213 276
213 287
214 227
214 245
214 254
214 281
214 283
215 263
216 217
216 229
216 242
216 250
216 283
217 250
217 264
217 281
217 296
219 235
219 236
219 291
220 226
220 242
220 245
220 252
220 276
220 283
220 294
220 297
221 230
221 251
221 282
221 285
221 291
222 269
222 274
222 276
222 279
223 242
223 283
223 285
224 287
225 298
226 236
226 297
227 240
227 259
227 266
228 232
229 249
229 265
229 283
230 236
230 245
230 250
230 276
231 232
232 251
232 254
233 246
233 287
234 243
234 287
234 296
235 245
235 296
236 290
237 276
237 277
237 282
238 269
239 265
239 272
240 241
240 281
240 289
241 242
241 249
241 281
241 296
241 299
242 251
242 254
242 283
242 294
242 296
244 249
244 289
244 298
245 276
245 281
245 296
245 298
246 287
247 297
248 298
249 282
249 288
249 289
249 296
250 299
251 254
251 259
251 264
252 261
253 257
253 291
253 292
254 274
254 294
257 293
258 299
259 266
261 268
262 286
264 281
265 283
269 273
269 274
270 274
274 278
274 282
276 277
276 279
276 298
277 282
284 286
284 290
286 290
286 297
293 294
*Classes
1
1
1
1
1
1
1
1
1
1
1
1
1
1
1
1
1
1
1
1
1
1
1
1
1
1
1
1
1
1
1
1
1
1
1
1
1
1
1
1
1
1
1
1
1
1
1
1
1
1
1
1
1
1
1
1
1
1
1
1
1
1
1
1
1
1
1
1
1
1
1
1
1
1
1
1
1
1
1
1
1
1
1
1
1
1
1
1
1
1
1
1
1
1
1
1
1
1
1
1
1
1
1
1
1
1
1
1
1
1
1
1
1
1
1
1
1
1
1
1
1
1
1
1
1
1
1
1
1
1
1
1
1
1
1
1
1
1
1
1
1
1
1
1
1
1
1
1
1
1
2
2
2
2
2
2
2
2
2
2
2
2
2
2
2
2
2
2
2
2
2
2
2
2
2
2
2
2
2
2
2
2
2
2
2
2
2
2
2
2
2
2
2
2
2
2
2
2
2
2
2
2
2
2
2
2
2
2
2
2
2
2
2
2
2
2
2
2
2
2
2
2
2
2
2
2
2
2
2
2
2
2
2
2
2
2
2
2
2
2
2
2
2
2
2
2
2
2
2
2
2
2
2
2
2
2
2
2
2
2
2
2
2
2
2
2
2
2
2
2
2
2
2
2
2
2
2
2
2
2
2
2
2
2
2
2
2
2
2
2
2
2
2
2
2
2
2
2
2
2
