*Vertices 300
*Edges
1 14
1 16
1 41
1 95
1 124
1 138
1 143
1 209
1 227
1 234
2 7
2 29
2 68
2 81
2 89
2 101
2 104
2 124
2 209
2 246
3 22
3 55
3 129
3 142
3 145
3 163
3 192
3 250
4 20
4 21
4 50
4 57
4 95
4 102
4 206
4 249
4 283
5 99
5 112
5 218
5 253
5 287
5 291
6 49
6 57
6 76
6 79
6 84
6 109
6 128
7 30
7 67
7 75
7 77
7 92
7 101
7 118
7 130
7 150
7 163
7 164
7 256
7 260
7 277
8 31
8 52
8 80
8 137
8 185
8 195
8 228
8 230
8 233
8 292
9 12
9 15
9 37
9 48
9 75
9 95
9 109
9 118
9 123
9 142
9 214
9 295
10 179
11 33
11 37
11 40
11 51
11 69
11 75
11 84
11 118
11 150
11 209
11 222
11 261
12 42
12 48
12 59
12 61
12 85
12 113
12 159
12 196
12 203
12 231
12 277
12 297
13 41
13 65
13 79
13 126
14 22
14 45
14 59
14 111
14 118
14 143
14 271
15 23
15 72
15 94
15 95
15 120
15 149
15 170
15 201
15 228
15 231
15 244
15 285
15 289
16 41
16 60
16 280
17 18
17 19
17 71
17 77
17 130
17 169
17 258
18 39
18 62
18 70
18 98
19 113
19 218
19 241
20 57
20 71
20 75
20 90
20 143
20 148
20 149
20 164
20 227
20 239
20 282
21 50
21 57
21 98
21 131
21 141
21 146
21 208
21 219
21 240
21 294
22 36
22 44
22 78
22 95
22 109
22 120
22 129
22 138
22 143
22 153
22 225
22 230
22 276
23 36
23 37
23 46
23 65
23 70
23 71
23 76
23 94
23 111
23 119
23 138
23 180
23 186
23 205
23 227
23 269
23 289
24 62
24 94
24 123
24 146
24 283
25 29
25 32
25 39
25 94
25 97
25 300
26 50
26 173
26 287
27 33
27 66
27 87
27 109
27 150
27 225
27 265
28 42
28 61
28 84
28 135
28 150
28 168
28 171
28 183
28 231
28 241
29 32
29 92
29 99
29 121
29 211
29 233
29 257
29 267
29 273
29 287
29 299
30 31
30 64
30 67
30 118
30 123
30 127
30 130
30 207
30 243
30 277
31 53
31 116
31 146
31 147
31 204
31 208
31 226
31 233
31 273
33 125
33 141
33 150
33 224
33 272
34 136
34 140
34 201
34 292
34 299
35 50
35 81
36 43
36 86
36 88
36 95
36 130
36 180
36 206
36 269
36 298
37 100
37 123
37 142
37 151
37 214
37 227
37 267
38 39
38 45
38 87
38 166
38 265
39 62
39 94
39 126
39 130
39 139
39 142
39 155
39 195
39 213
39 233
40 64
40 65
40 88
40 118
40 126
40 251
40 282
40 291
41 63
41 108
41 118
41 126
41 144
41 200
42 61
42 167
42 210
42 219
43 77
43 86
43 130
43 224
44 73
44 74
44 80
44 143
44 171
45 59
45 82
45 102
45 110
45 118
45 211
45 278
45 292
46 76
46 85
46 132
46 139
47 85
47 110
47 127
47 205
47 213
47 263
48 108
48 204
48 262
49 68
49 135
49 150
49 211
49 221
49 228
49 257
50 52
50 57
50 97
50 102
50 158
50 189
50 244
51 202
51 267
52 102
52 145
52 190
52 191
52 244
52 257
52 272
53 56
53 71
53 90
53 100
53 108
53 112
53 116
53 157
53 182
53 211
53 270
54 75
54 76
54 85
54 107
54 172
54 236
54 296
55 71
55 83
55 111
55 119
55 120
55 154
55 163
55 183
55 243
55 269
55 289
56 60
56 143
56 174
56 240
56 271
56 296
57 67
57 77
57 110
57 113
57 128
57 132
57 189
57 295
58 92
58 196
58 222
58 299
59 61
59 168
59 186
59 199
60 117
60 128
60 172
60 280
61 272
63 112
63 120
63 149
64 105
64 120
64 188
64 231
64 241
64 243
64 291
64 292
65 70
65 119
65 120
65 126
65 131
65 167
65 272
65 299
66 134
66 218
66 292
67 262
67 279
67 287
67 295
68 150
68 235
68 262
69 210
69 274
69 279
70 94
70 98
70 119
70 157
70 177
70 201
70 278
70 282
70 284
70 299
71 80
71 90
71 91
71 111
71 129
71 182
71 193
71 196
71 268
72 105
72 151
72 237
73 171
73 176
74 86
74 106
74 143
74 185
74 187
74 196
74 199
74 250
74 268
74 277
75 84
75 92
75 150
75 227
75 229
76 85
76 119
76 175
77 86
77 90
77 91
77 117
77 126
77 127
77 130
77 191
78 149
78 197
78 229
79 90
79 115
79 116
79 144
79 166
79 172
79 195
79 239
80 111
80 123
80 137
80 143
80 146
80 179
80 235
81 92
81 161
81 170
81 174
81 209
81 238
81 267
81 279
81 299
82 132
82 227
82 238
83 119
83 284
84 105
84 127
84 150
84 242
85 107
85 154
85 159
85 160
85 234
85 236
85 270
85 280
86 132
86 143
86 166
86 167
86 210
86 220
87 105
87 139
87 169
87 180
87 265
87 296
87 300
88 140
88 272
89 99
89 123
89 218
89 241
89 283
89 299
90 127
90 144
90 285
91 111
91 125
91 127
91 175
91 207
91 298
92 98
92 150
92 299
93 101
93 226
93 232
93 246
93 269
93 288
93 294
94 123
94 130
94 142
94 146
95 109
95 256
96 140
96 228
97 115
97 203
98 141
98 150
98 155
98 187
98 263
99 214
99 229
99 233
100 113
100 123
100 297
101 104
101 130
101 139
101 147
101 159
102 148
103 141
103 202
103 246
104 130
104 259
104 297
105 246
105 252
106 139
106 147
106 150
106 154
106 250
107 143
107 147
107 189
107 198
108 200
108 270
108 281
109 133
109 194
110 203
110 206
110 278
110 293
111 115
111 119
111 165
112 172
112 224
112 227
112 291
113 132
113 170
113 234
113 241
113 288
114 155
114 162
115 116
115 130
115 164
115 166
115 214
115 251
115 261
115 277
115 289
116 179
116 214
116 243
117 130
117 158
117 170
117 207
117 242
117 254
118 142
118 163
118 200
118 256
118 260
118 276
119 127
119 138
119 145
119 191
119 298
120 149
120 154
120 243
120 283
121 133
121 140
121 203
122 199
123 146
123 149
123 226
123 270
124 126
124 143
124 197
124 209
124 267
125 160
125 200
125 278
125 284
125 298
126 128
126 144
126 195
126 239
126 253
127 173
127 222
127 273
128 139
128 181
128 260
128 292
128 300
129 203
129 240
129 243
130 196
130 215
130 253
130 254
130 261
131 141
131 240
131 250
131 299
132 139
132 193
134 154
134 186
134 256
135 183
136 264
136 271
137 225
138 177
138 193
138 216
138 252
139 147
139 213
139 254
139 296
140 186
140 201
141 146
141 150
141 168
141 209
141 219
141 283
141 296
141 298
143 164
143 183
143 184
143 205
143 206
143 222
144 176
144 187
145 250
145 269
146 147
146 161
146 191
146 295
147 198
147 204
147 276
148 150
148 204
148 227
148 297
149 227
149 235
149 243
149 248
149 271
151 155
151 160
151 179
151 191
151 199
151 258
151 281
151 294
152 161
152 188
152 224
153 173
153 228
153 240
153 290
154 243
154 247
154 265
154 279
154 283
154 300
155 174
155 187
155 191
155 263
156 237
156 275
157 171
157 180
157 195
157 207
158 161
158 288
158 297
159 194
160 166
160 181
160 218
160 234
160 242
160 251
160 266
160 298
161 177
161 249
161 295
162 204
162 206
162 227
162 243
162 259
162 261
162 273
163 287
164 166
164 213
164 223
164 241
164 243
164 262
164 282
164 285
164 290
164 293
165 216
165 228
165 236
165 245
165 271
165 293
166 234
166 263
166 274
167 195
167 210
167 221
167 268
168 177
168 183
168 187
168 199
168 223
168 235
168 255
168 296
169 175
169 235
170 207
170 215
170 286
170 297
170 300
171 183
171 207
171 209
171 227
171 237
171 246
171 275
172 214
172 260
172 278
172 297
173 234
174 191
174 233
174 261
174 267
176 257
176 258
177 235
178 209
178 220
178 266
179 238
179 242
179 247
179 249
179 282
179 293
179 294
180 257
181 243
182 232
182 240
182 268
183 218
183 280
183 299
184 240
184 299
184 300
185 196
185 261
186 190
186 227
186 266
186 267
187 190
187 199
187 234
187 243
187 253
187 255
187 263
187 268
188 224
188 228
188 237
188 291
189 198
189 221
189 258
189 290
190 192
190 204
190 243
191 193
191 258
191 272
192 199
192 204
192 234
192 250
192 275
192 281
192 284
193 218
193 223
193 229
193 288
194 200
194 219
194 244
194 286
195 221
195 223
195 227
195 259
196 240
196 261
196 299
197 211
197 216
197 223
197 247
197 260
197 264
197 265
197 267
197 291
197 299
199 223
199 235
199 258
199 281
199 284
200 244
200 256
200 280
200 281
200 286
200 299
201 215
201 225
201 242
201 244
201 262
201 284
201 300
202 212
202 238
202 284
203 228
203 240
203 248
203 262
205 270
208 226
209 220
209 234
209 235
209 239
210 211
210 239
210 242
210 251
210 269
211 217
211 228
211 263
211 264
211 269
211 275
211 287
212 236
212 238
212 277
212 284
213 290
213 293
214 243
214 251
214 297
215 300
216 245
216 247
216 263
216 264
216 271
216 274
216 279
216 287
217 226
217 264
218 242
218 292
219 289
220 239
220 291
220 292
221 223
223 247
223 299
223 300
224 258
225 262
225 284
225 300
227 246
227 251
227 273
228 240
228 245
228 291
229 265
230 250
230 263
230 276
230 292
231 276
231 289
231 297
234 242
234 251
234 253
234 284
234 288
235 239
235 282
236 242
236 249
236 273
238 247
238 284
238 300
239 242
239 253
240 250
241 264
241 290
242 247
242 258
242 271
242 273
242 282
242 300
243 259
243 262
244 263
244 274
244 286
245 249
245 266
245 294
246 269
247 282
247 284
247 300
248 271
248 277
249 294
250 252
250 276
251 273
252 276
253 254
255 296
257 267
257 280
257 299
258 273
258 290
259 288
260 272
260 273
260 300
262 274
262 295
262 296
263 274
263 275
264 291
265 299
267 283
267 285
269 280
269 298
271 287
271 299
271 300
274 293
280 291
280 292
280 299
283 285
283 294
285 294
290 293
291 292
291 299
299 300
*Classes
1
1
1
1
1
1
1
1
1
1
1
1
1
1
1
1
1
1
1
1
1
1
1
1
1
1
1
1
1
1
1
1
1
1
1
1
1
1
1
1
1
1
1
1
1
1
1
1
1
1
1
1
1
1
1
1
1
1
1
1
1
1
1
1
1
1
1
1
1
1
1
1
1
1
1
1
1
1
1
1
1
1
1
1
1
1
1
1
1
1
1
1
1
1
1
1
1
1
1
1
1
1
1
1
1
1
1
1
1
1
1
1
1
1
1
1
1
1
1
1
1
1
1
1
1
1
1
1
1
1
1
1
1
1
1
1
1
1
1
1
1
1
1
1
1
1
1
1
1
1
2
2
2
2
2
2
2
2
2
2
2
2
2
2
2
2
2
2
2
2
2
2
2
2
2
2
2
2
2
2
2
2
2
2
2
2
2
2
2
2
2
2
2
2
2
2
2
2
2
2
2
2
2
2
2
2
2
2
2
2
2
2
2
2
2
2
2
2
2
2
2
2
2
2
2
2
2
2
2
2
2
2
2
2
2
2
2
2
2
2
2
2
2
2
2
2
2
2
2
2
2
2
2
2
2
2
2
2
2
2
2
2
2
2
2
2
2
2
2
2
2
2
2
2
2
2
2
2
2
2
2
2
2
2
2
2
2
2
2
2
2
2
2
2
2
2
2
2
2
2
