*Vertices 300
*Edges
1 46
1 64
1 106
1 169
1 200
1 274
2 5
2 9
2 78
2 111
2 141
2 186
2 215
2 289
2 291
3 32
3 82
3 90
3 143
3 161
3 209
3 257
3 263
3 268
3 272
3 273
3 274
3 283
3 291
4 5
4 54
4 143
4 206
4 288
5 6
5 27
5 52
5 57
5 75
5 78
5 106
5 112
5 176
5 180
5 271
6 68
6 120
6 123
6 135
6 161
6 185
6 271
6 272
6 280
7 28
7 38
7 62
7 73
7 116
7 143
7 169
7 264
7 272
8 35
8 55
8 102
8 154
8 158
8 199
8 221
8 244
8 265
8 274
9 22
9 46
9 55
9 72
9 170
9 192
9 230
9 232
9 243
9 250
9 289
10 34
10 54
10 80
10 96
10 114
10 130
10 154
10 192
10 206
10 269
10 291
11 64
11 108
11 158
11 164
11 174
11 181
11 278
11 294
11 299
12 17
12 37
12 56
12 76
12 108
12 123
12 176
12 194
12 258
12 293
13 87
13 93
13 123
13 136
13 151
13 160
13 224
13 260
13 261
13 268
13 275
14 32
14 192
14 207
14 209
15 133
15 226
15 246
16 51
16 52
16 67
16 75
16 78
16 86
16 113
16 125
16 156
16 165
16 197
16 219
16 244
16 255
16 280
16 282
17 57
17 96
17 108
17 112
17 194
17 297
18 46
18 75
18 105
18 133
18 169
18 171
18 213
18 286
18 288
18 290
18 298
19 99
19 176
19 262
20 35
20 63
20 87
20 93
20 106
20 112
20 137
20 153
20 185
20 207
20 217
20 222
20 257
20 275
20 299
21 75
21 78
21 123
21 141
21 142
21 171
21 186
21 197
21 246
22 51
22 156
22 165
22 236
22 240
22 250
22 299
23 43
23 65
23 166
23 179
23 226
23 241
23 280
24 25
24 54
24 63
24 78
24 85
24 88
24 101
24 107
24 117
24 128
24 193
24 206
24 266
24 282
25 42
25 54
25 101
25 107
25 129
25 189
25 201
25 208
25 266
25 280
25 282
26 33
26 34
26 36
26 40
26 159
26 160
26 170
26 171
26 195
26 218
26 232
26 245
26 253
26 258
26 293
26 294
27 55
27 60
27 74
27 75
27 78
27 86
27 102
27 106
27 213
27 219
27 255
27 289
28 38
28 66
28 114
28 135
28 221
28 225
28 234
28 273
28 276
28 282
28 284
28 297
29 226
30 50
30 115
30 137
30 168
30 173
30 185
30 214
30 227
30 241
30 243
30 254
30 277
31 51
31 71
31 149
31 158
31 271
31 278
32 45
32 133
32 207
32 209
32 222
32 292
33 40
33 43
33 95
33 124
34 36
34 51
34 56
34 89
34 100
34 102
34 124
34 171
34 206
34 209
34 249
34 258
35 57
35 106
35 112
35 141
35 154
35 229
35 236
35 260
36 56
36 102
36 184
36 206
36 208
36 209
36 266
36 289
37 135
37 193
37 246
38 60
38 92
38 95
38 112
38 116
38 135
38 202
38 221
38 268
38 282
39 228
39 284
40 42
40 169
40 230
40 240
41 118
41 123
41 151
42 46
42 64
42 124
42 169
42 171
42 172
42 185
43 92
43 209
43 233
43 264
44 62
44 79
44 163
44 171
44 181
44 268
45 161
45 172
45 216
45 272
45 281
46 64
46 65
46 80
46 130
46 187
46 201
46 227
46 239
46 288
47 160
47 179
47 229
48 139
48 195
49 57
49 65
49 105
49 129
49 137
49 139
49 141
49 147
49 188
49 192
49 200
49 217
49 236
49 244
49 274
50 156
50 203
50 277
50 281
51 78
51 89
51 211
52 55
52 86
52 125
52 154
52 165
52 169
52 180
52 193
52 236
53 81
53 91
53 95
53 199
53 201
53 228
53 238
53 298
54 93
54 102
54 147
54 215
54 232
54 252
54 254
54 263
54 278
54 288
55 72
55 100
55 102
55 125
55 134
55 154
55 204
55 219
55 244
55 255
56 72
56 107
56 123
56 167
56 208
56 231
56 238
57 96
57 103
57 112
57 141
57 176
57 217
57 258
57 267
58 296
59 238
59 270
59 300
60 74
60 75
60 164
60 176
60 210
60 211
60 213
60 228
60 285
61 100
61 122
62 79
62 163
62 165
62 171
62 181
62 188
62 196
62 223
62 249
62 275
62 276
62 284
62 292
63 82
63 88
63 100
63 117
63 128
63 150
63 153
63 154
63 185
63 193
63 254
63 271
63 283
63 286
63 290
64 106
64 108
64 154
64 169
64 263
64 266
64 268
64 289
65 105
65 157
65 164
65 176
65 242
65 265
65 275
66 124
66 135
66 211
66 225
66 254
66 261
66 282
67 91
67 222
67 239
67 254
68 75
68 83
68 85
68 121
68 131
68 159
68 179
68 197
68 215
68 217
68 229
68 241
68 257
68 273
69 100
69 158
69 215
69 228
69 258
69 295
70 137
70 164
70 221
70 266
70 290
70 299
71 78
71 278
72 107
72 154
72 192
72 208
72 231
72 232
73 143
73 222
73 239
73 264
74 93
74 106
74 121
74 286
75 83
75 86
75 105
75 119
75 141
75 238
75 290
76 86
76 103
76 104
76 112
76 113
76 176
76 185
76 197
76 241
76 281
77 157
77 182
77 190
77 263
77 268
77 292
78 142
78 219
79 94
79 96
79 111
79 125
79 140
79 170
79 171
79 178
79 268
80 130
80 140
80 299
81 98
81 102
81 201
81 296
81 298
81 300
82 119
82 143
82 150
82 160
82 167
82 174
82 197
82 200
82 212
82 237
82 253
83 105
83 117
83 119
83 127
83 186
83 221
83 254
83 261
83 278
83 280
84 88
84 115
84 116
84 177
84 186
84 194
84 196
84 234
84 261
84 272
85 189
85 223
85 242
85 282
86 113
86 141
86 169
86 180
86 197
86 203
86 238
86 250
86 282
87 90
87 93
87 97
87 105
87 136
87 158
87 160
87 172
87 182
87 217
87 238
87 244
87 260
87 275
87 296
88 107
88 150
88 161
88 163
88 193
88 196
88 244
88 255
88 272
88 298
89 152
89 188
89 242
90 97
90 217
90 268
90 283
90 284
90 294
91 104
91 160
91 199
91 211
91 263
92 95
92 108
92 170
92 171
92 190
92 233
92 263
92 265
92 268
93 155
93 156
93 172
93 215
93 230
93 232
93 265
94 111
94 170
94 175
94 268
95 267
95 288
95 295
96 108
96 125
96 178
96 233
96 262
96 264
96 276
96 285
96 297
97 169
97 170
97 173
97 177
97 187
97 188
97 219
97 253
97 255
97 259
98 105
98 109
98 210
98 222
98 280
99 148
99 242
99 245
99 253
100 102
100 117
100 185
100 215
100 226
100 227
100 228
100 269
100 287
101 129
101 201
101 224
101 268
101 271
101 293
102 124
102 201
102 252
102 258
102 288
103 112
103 122
103 125
103 177
103 200
103 231
103 243
104 112
104 160
104 193
104 198
104 211
104 239
104 263
104 268
105 110
105 121
105 136
105 142
105 221
105 263
106 148
106 169
106 201
106 255
106 256
107 198
107 230
107 271
107 288
108 267
108 268
108 297
108 299
109 159
109 163
109 176
109 198
109 210
109 244
109 269
109 273
109 277
109 281
109 287
110 175
110 183
110 204
110 209
110 263
111 141
111 182
111 186
111 230
111 246
111 286
111 297
112 119
112 141
112 158
112 172
112 217
112 236
112 258
112 260
112 265
112 284
112 286
113 122
113 177
113 197
113 242
113 250
113 281
113 298
114 130
114 157
114 221
114 269
115 126
115 135
115 165
115 168
115 173
115 176
115 185
115 196
115 216
115 227
115 234
115 246
115 254
115 262
116 138
116 186
116 244
116 258
116 282
117 128
117 145
117 219
117 221
117 261
117 285
117 291
118 123
118 151
118 157
118 181
118 203
118 234
118 244
118 250
118 265
118 275
118 278
119 133
119 141
119 165
119 221
119 253
119 272
120 135
120 161
120 185
120 215
120 280
120 291
121 130
121 189
121 222
121 223
121 239
121 261
121 272
121 286
122 177
122 274
122 281
122 288
122 289
122 298
123 151
123 161
123 181
123 185
123 197
123 198
123 235
123 251
124 171
124 218
124 261
125 170
125 230
126 135
126 161
126 165
126 202
126 243
126 262
126 299
127 168
127 210
127 261
127 267
128 132
128 154
128 200
128 213
128 281
129 136
129 137
129 169
129 200
129 219
129 248
129 266
130 140
130 156
130 213
130 225
130 259
130 299
131 155
131 215
131 217
131 231
131 259
132 147
132 188
132 192
132 213
132 281
133 141
133 152
133 157
133 168
133 197
133 213
133 226
133 241
133 260
133 296
134 154
134 285
135 168
135 227
135 246
135 273
136 142
136 197
136 200
136 222
137 243
137 299
138 154
138 158
138 179
138 217
138 225
138 236
138 261
138 280
138 282
139 145
139 254
140 151
140 153
140 171
140 231
141 142
141 168
141 186
141 197
141 200
141 235
141 246
141 261
141 286
142 167
142 170
142 177
142 236
142 255
142 266
142 283
142 289
143 154
143 257
143 262
144 251
145 191
145 242
146 239
146 281
147 251
147 263
147 274
147 278
148 163
148 171
148 213
148 218
148 251
148 256
148 269
149 271
150 160
150 197
150 219
150 254
150 271
150 284
150 286
150 294
151 208
151 231
151 252
151 261
152 157
152 187
152 190
152 222
152 259
153 245
153 253
153 283
154 158
154 180
154 185
154 245
154 274
154 284
155 212
155 224
155 228
155 235
156 180
156 203
156 205
157 176
157 190
157 218
157 260
157 278
158 181
158 217
158 230
158 258
159 205
159 234
159 274
160 167
160 258
160 268
161 172
161 187
161 190
161 192
161 215
161 216
161 243
161 244
161 272
161 281
162 179
162 229
162 245
162 253
162 297
163 165
163 171
163 172
163 196
163 218
163 223
163 238
163 248
163 262
163 273
163 297
164 176
164 236
164 299
165 196
165 222
165 239
165 265
165 268
165 270
165 272
165 275
165 299
166 249
167 238
167 243
167 266
168 250
169 172
169 237
169 272
170 173
170 177
170 197
170 227
170 232
170 239
170 253
170 265
171 172
171 196
171 213
171 218
171 225
171 233
171 273
171 282
172 175
172 182
172 223
172 237
172 238
172 286
173 177
173 253
173 260
173 265
173 296
174 282
175 204
175 293
176 185
176 299
177 227
177 255
177 261
179 199
179 210
179 224
179 229
179 280
180 203
180 245
180 284
181 198
181 238
181 275
182 194
182 217
182 238
185 290
186 261
187 190
187 227
187 239
188 192
188 242
189 223
190 216
190 281
191 217
192 214
192 243
192 269
193 295
194 217
195 224
195 229
195 268
196 223
196 238
196 244
196 246
196 262
196 273
196 297
197 219
197 221
197 241
197 265
197 281
198 211
198 243
199 229
199 280
199 287
199 298
200 208
201 257
201 291
203 221
203 254
203 284
205 258
205 274
205 298
206 245
206 288
207 216
207 222
207 237
207 257
207 299
209 243
209 248
209 291
210 213
210 280
210 282
211 230
211 235
211 239
211 243
211 297
212 244
212 281
213 259
213 284
214 217
214 218
214 254
214 267
215 216
215 225
215 227
215 232
215 248
215 254
215 291
216 222
216 227
216 233
216 241
216 254
216 257
217 259
217 267
217 284
218 250
219 296
220 255
220 291
221 254
221 256
221 294
222 239
222 259
222 275
222 299
223 226
224 228
224 229
224 268
225 253
225 259
225 284
227 265
229 269
230 271
230 283
230 297
231 233
231 238
231 250
231 252
231 263
232 254
233 245
233 257
233 263
233 276
233 282
233 294
234 257
234 273
234 274
235 239
235 261
236 299
237 257
238 275
239 259
239 265
239 275
239 290
243 269
244 262
244 274
244 275
244 281
244 298
245 253
245 257
245 297
246 266
248 291
249 267
250 252
250 278
251 269
251 287
252 278
253 256
254 294
255 272
256 257
256 276
256 294
257 273
257 291
257 295
258 293
259 284
260 296
261 280
263 276
263 279
264 276
265 275
266 289
267 295
268 299
269 287
269 292
271 293
272 275
274 298
276 294
276 297
280 282
284 294
285 298
286 290
286 295
287 292
288 298
290 299
294 297
296 300
*Classes
1
1
1
1
1
1
1
1
1
1
1
1
1
1
1
1
1
1
1
1
1
1
1
1
1
1
1
1
1
1
1
1
1
1
1
1
1
1
1
1
1
1
1
1
1
1
1
1
1
1
1
1
1
1
1
1
1
1
1
1
1
1
1
1
1
1
1
1
1
1
1
1
1
1
1
1
1
1
1
1
1
1
1
1
1
1
1
1
1
1
1
1
1
1
1
1
1
1
1
1
1
1
1
1
1
1
1
1
1
1
1
1
1
1
1
1
1
1
1
1
1
1
1
1
1
1
1
1
1
1
1
1
1
1
1
1
1
1
1
1
1
1
1
1
1
1
1
1
1
1
2
2
2
2
2
2
2
2
2
2
2
2
2
2
2
2
2
2
2
2
2
2
2
2
2
2
2
2
2
2
2
2
2
2
2
2
2
2
2
2
2
2
2
2
2
2
2
2
2
2
2
2
2
2
2
2
2
2
2
2
2
2
2
2
2
2
2
2
2
2
2
2
2
2
2
2
2
2
2
2
2
2
2
2
2
2
2
2
2
2
2
2
2
2
2
2
2
2
2
2
2
2
2
2
2
2
2
2
2
2
2
2
2
2
2
2
2
2
2
2
2
2
2
2
2
2
2
2
2
2
2
2
2
2
2
2
2
2
2
2
2
2
2
2
2
2
2
2
2
2
