*Vertices 300
*Edges
1 24
1 32
1 87
1 96
1 135
1 138
1 148
1 156
1 207
1 255
1 290
1 294
2 41
2 212
2 217
2 236
2 237
2 241
3 4
3 19
3 59
3 66
3 71
3 91
3 105
3 109
3 122
3 125
3 133
3 140
3 170
3 180
3 189
3 237
3 242
3 267
3 278
3 291
4 66
4 77
4 94
4 97
4 105
4 138
4 148
4 200
4 228
4 236
4 288
5 48
5 52
5 55
5 65
5 134
5 149
5 209
5 219
5 223
5 251
5 255
5 289
6 77
6 104
6 165
6 254
7 72
7 85
7 86
7 105
7 148
7 209
7 228
7 255
7 271
7 275
7 291
8 14
8 33
8 46
8 53
8 109
8 151
8 184
9 61
9 130
9 142
9 147
9 155
9 164
9 196
10 84
10 167
10 286
11 105
11 137
11 153
11 186
11 204
12 30
12 73
12 76
12 99
12 105
12 117
12 127
12 130
12 158
12 195
12 197
12 209
12 214
12 221
12 240
12 292
13 101
13 130
13 184
13 199
13 221
13 232
14 53
14 100
14 209
14 276
15 200
15 245
15 263
16 172
16 189
16 191
16 197
16 243
16 259
16 279
16 283
16 291
17 18
17 19
17 27
17 44
17 45
17 55
17 59
17 90
17 129
17 228
17 234
18 30
18 55
18 96
18 129
18 137
18 251
18 271
18 283
19 45
19 66
19 92
19 126
19 134
19 194
19 213
20 156
20 164
20 178
20 184
20 204
20 208
20 220
20 250
20 274
20 275
21 53
21 83
21 110
21 135
21 143
21 173
21 268
21 270
22 26
22 30
22 88
22 93
22 115
22 138
22 139
22 149
22 212
22 230
22 238
22 271
22 274
22 291
23 51
23 115
23 133
23 144
23 204
23 241
23 279
23 299
24 30
24 140
24 152
24 163
24 207
24 211
24 260
24 262
25 114
25 127
25 143
25 144
25 159
25 274
26 30
26 35
26 89
26 115
26 138
26 142
26 229
26 274
27 31
27 55
27 76
27 78
27 88
27 100
27 161
27 177
27 198
27 228
27 262
27 274
27 279
28 151
28 154
28 176
28 219
28 234
28 253
29 86
29 129
29 183
29 262
29 298
30 75
30 96
30 133
30 140
30 214
30 227
30 240
30 244
30 267
30 289
31 53
31 100
31 265
32 85
32 134
32 154
32 176
32 232
33 58
33 75
33 86
33 87
33 107
33 109
33 150
33 226
33 237
33 288
34 92
34 94
34 170
34 171
34 233
34 264
34 272
34 289
35 84
35 97
35 184
35 193
35 229
35 285
36 42
36 76
36 100
36 130
36 139
36 174
36 212
36 220
36 230
36 234
36 251
36 283
37 128
37 169
38 41
38 65
38 76
38 85
38 98
38 170
38 275
39 75
39 97
39 184
39 202
39 261
39 275
39 288
40 289
41 61
41 76
41 81
41 132
41 202
41 204
41 205
41 241
41 260
41 287
41 299
42 69
42 101
42 230
42 245
43 57
43 106
43 134
43 247
44 55
44 58
44 90
44 137
44 184
44 204
44 213
44 262
44 293
45 59
45 134
45 193
45 234
46 53
46 87
47 159
47 245
48 150
48 175
48 251
48 277
49 71
49 127
49 191
49 196
49 201
49 241
49 251
49 292
49 294
50 112
50 175
50 189
51 142
51 206
51 208
51 236
51 241
52 58
52 71
52 74
52 172
52 181
52 209
52 267
53 66
53 89
53 100
53 137
53 234
53 270
54 138
54 148
54 168
54 194
54 207
54 247
54 254
54 273
54 287
55 88
55 93
55 98
55 109
55 118
55 147
55 150
55 223
55 289
55 294
56 60
56 75
56 83
56 86
56 104
56 139
56 142
56 207
56 219
56 229
56 230
56 286
57 87
57 103
57 120
57 217
57 237
57 244
57 300
58 63
58 107
58 137
58 181
58 204
58 226
59 193
59 221
59 260
60 65
60 142
60 165
60 191
60 223
60 226
60 269
60 284
60 289
61 82
61 104
61 121
61 130
61 147
61 160
61 164
61 178
61 196
61 204
61 207
61 259
61 283
62 176
62 189
62 258
64 116
64 149
64 153
64 166
64 186
64 223
64 232
64 282
64 289
65 74
65 91
65 134
65 165
65 179
65 191
65 226
65 269
65 284
65 294
65 300
66 75
66 105
66 109
66 126
66 180
66 187
66 213
66 240
66 245
66 275
67 210
67 258
67 263
68 79
68 118
68 156
68 170
68 174
68 176
68 188
68 189
68 226
69 109
69 280
70 76
70 163
70 214
70 255
70 266
70 289
71 74
71 83
71 86
71 125
71 141
71 164
71 210
71 219
71 227
71 243
71 266
71 297
71 300
72 78
72 85
72 106
72 175
72 222
72 228
72 246
72 275
73 198
73 209
73 278
74 86
74 91
74 106
74 127
74 144
74 227
74 262
74 300
75 83
75 86
75 89
75 91
75 119
75 126
75 144
75 151
75 182
75 202
75 215
75 230
75 246
75 288
76 212
76 260
76 292
77 92
77 94
77 251
78 90
78 106
78 129
78 133
78 161
78 162
78 177
78 182
78 242
78 273
79 109
79 170
79 189
79 213
79 229
79 249
79 251
79 263
80 87
80 150
80 201
80 208
80 230
80 286
81 150
81 178
81 186
81 204
81 216
81 233
81 239
81 248
81 289
81 290
82 202
83 110
83 175
83 219
83 243
83 266
83 280
84 92
84 144
84 202
84 249
84 255
84 260
85 170
85 279
85 285
86 105
86 115
86 119
86 144
86 182
86 202
86 246
86 247
86 280
86 296
86 298
87 103
87 110
87 135
87 150
87 153
87 162
87 234
87 237
88 139
88 147
88 169
88 279
89 94
89 95
89 105
89 119
89 137
89 174
89 184
89 186
89 208
89 225
89 290
90 133
90 173
90 182
90 186
91 122
91 125
91 126
91 148
91 156
91 219
91 245
91 272
92 189
92 194
92 201
92 272
92 274
93 95
93 109
93 139
93 170
93 174
93 182
93 213
93 223
93 284
93 289
93 294
94 100
94 137
94 184
94 202
94 206
94 209
94 213
94 229
94 230
94 236
94 251
94 272
94 283
95 100
95 174
95 186
95 190
95 206
95 291
96 148
96 157
96 244
96 289
97 184
97 193
97 285
98 290
99 129
99 131
99 153
99 158
99 174
99 202
99 255
100 177
100 236
101 166
101 177
101 279
101 298
102 113
102 205
102 270
103 128
103 218
103 220
103 244
103 292
104 160
104 235
104 286
105 137
105 189
105 209
105 225
105 246
105 298
106 126
106 143
106 144
106 173
106 262
106 300
107 181
107 269
107 288
108 169
108 174
108 213
108 247
109 139
109 151
109 184
109 189
109 251
110 122
110 125
110 135
110 143
110 228
111 265
112 127
112 157
112 158
112 250
113 174
113 176
113 213
113 233
113 262
114 143
114 194
114 293
115 137
115 226
115 247
115 261
115 279
115 280
115 283
116 207
116 213
116 227
116 229
116 230
116 280
116 300
117 184
117 197
117 286
117 294
117 295
118 188
119 162
119 182
119 212
119 292
120 154
120 183
120 199
120 222
120 224
120 271
120 289
121 160
121 207
121 254
121 264
121 289
122 125
122 139
122 148
122 205
122 207
123 162
123 165
123 176
123 221
123 229
124 140
124 289
125 139
125 159
125 164
125 189
125 219
125 228
125 229
125 239
125 278
125 297
126 215
127 143
127 196
127 197
127 218
127 240
127 243
127 291
128 216
128 227
129 143
129 166
129 174
129 194
129 251
129 271
129 273
130 132
130 195
130 214
130 262
130 274
131 152
131 162
131 249
132 220
132 236
132 283
133 221
133 236
133 237
134 171
134 175
134 186
134 197
134 232
134 287
135 136
135 138
135 143
135 214
135 234
135 293
136 227
136 229
136 234
136 239
137 145
137 178
137 184
137 205
137 208
137 225
137 226
137 230
137 234
137 236
137 261
137 279
137 283
137 286
138 148
138 168
138 169
138 174
138 187
139 146
139 156
139 169
139 200
139 207
139 212
139 225
139 286
140 189
140 211
141 253
142 169
142 171
142 208
142 290
142 291
143 144
143 159
143 194
143 254
143 293
144 168
144 171
144 188
144 201
144 239
144 284
145 186
145 188
145 205
145 262
145 274
145 286
146 200
146 297
147 161
147 189
147 258
148 156
148 179
148 198
148 212
148 247
148 290
149 198
149 209
149 244
150 162
150 249
151 224
151 253
152 248
153 165
153 166
153 199
154 163
154 176
154 184
154 224
154 293
155 249
155 281
156 175
156 180
156 184
156 198
156 212
156 221
157 206
157 217
157 231
157 297
158 250
159 230
160 202
160 244
160 267
160 273
161 231
161 297
162 214
162 221
162 238
162 248
162 249
162 273
162 277
162 292
163 176
163 184
163 252
163 262
163 270
164 268
165 199
165 229
165 252
165 254
165 259
165 295
165 299
167 170
167 219
168 182
168 187
168 212
168 223
168 232
168 256
168 278
168 287
169 174
169 233
169 240
169 291
169 300
170 177
170 183
170 210
170 289
170 294
171 182
171 187
171 188
171 208
171 232
171 241
171 242
171 246
171 248
171 250
171 252
171 255
171 273
172 210
172 231
172 283
172 285
173 206
174 199
174 233
174 283
175 212
175 241
175 251
176 183
176 287
177 189
177 267
177 294
177 298
178 179
178 216
178 279
178 280
178 296
179 185
179 216
179 229
179 279
180 265
181 188
181 203
181 277
181 290
182 212
182 217
182 241
182 242
182 261
182 286
182 294
183 199
183 239
183 287
183 289
183 298
184 206
184 208
184 212
184 224
184 241
184 248
184 259
184 274
184 293
184 295
185 229
186 195
186 205
186 225
186 232
186 247
186 248
186 262
186 282
187 256
187 278
188 203
188 248
188 252
189 229
189 237
189 258
190 223
190 294
191 195
191 241
191 259
191 299
192 227
192 291
194 254
196 210
196 214
196 266
196 294
198 209
198 247
199 222
199 283
200 238
201 203
201 272
201 284
201 296
202 203
202 213
202 244
202 255
202 260
202 262
202 270
202 298
203 244
203 247
203 290
204 205
204 260
204 274
204 299
205 225
205 249
205 281
205 297
206 231
206 241
206 265
206 271
206 291
207 229
207 253
207 255
207 280
207 283
207 294
208 250
208 290
209 227
209 233
209 243
209 247
209 267
209 278
209 285
210 222
210 231
210 258
210 265
210 285
210 294
211 248
211 260
211 286
211 293
211 295
212 217
212 240
212 241
212 261
212 287
213 218
213 229
213 240
213 242
213 267
214 215
214 221
214 253
214 266
214 267
216 240
216 280
216 286
216 294
216 295
217 231
217 242
217 246
218 240
218 258
218 259
220 234
220 283
221 249
221 251
221 260
221 277
222 246
222 273
223 287
223 289
223 294
224 271
226 256
226 261
227 247
227 257
227 278
227 291
228 278
228 288
229 239
229 280
230 245
230 269
230 274
231 246
231 265
231 297
232 250
232 287
233 242
233 253
233 264
233 267
233 283
234 257
234 283
235 286
235 294
236 241
237 241
238 271
238 292
239 267
239 289
242 267
242 270
243 271
243 285
243 298
244 270
245 272
246 249
246 251
246 252
246 289
246 296
247 257
247 285
248 273
248 277
248 293
248 295
249 251
249 281
249 297
250 254
251 252
251 260
252 254
252 255
253 255
253 267
255 271
255 289
255 298
256 276
256 299
257 283
257 292
257 295
257 299
260 292
260 295
262 270
262 274
262 298
267 289
271 274
271 291
271 298
278 288
278 291
279 296
280 294
280 298
284 286
284 294
286 294
288 295
289 296
291 300
293 296
295 299
*Classes
1
1
1
1
1
1
1
1
1
1
1
1
1
1
1
1
1
1
1
1
1
1
1
1
1
1
1
1
1
1
1
1
1
1
1
1
1
1
1
1
1
1
1
1
1
1
1
1
1
1
1
1
1
1
1
1
1
1
1
1
1
1
1
1
1
1
1
1
1
1
1
1
1
1
1
1
1
1
1
1
1
1
1
1
1
1
1
1
1
1
1
1
1
1
1
1
1
1
1
1
1
1
1
1
1
1
1
1
1
1
1
1
1
1
1
1
1
1
1
1
1
1
1
1
1
1
1
1
1
1
1
1
1
1
1
1
1
1
1
1
1
1
1
1
1
1
1
1
1
1
2
2
2
2
2
2
2
2
2
2
2
2
2
2
2
2
2
2
2
2
2
2
2
2
2
2
2
2
2
2
2
2
2
2
2
2
2
2
2
2
2
2
2
2
2
2
2
2
2
2
2
2
2
2
2
2
2
2
2
2
2
2
2
2
2
2
2
2
2
2
2
2
2
2
2
2
2
2
2
2
2
2
2
2
2
2
2
2
2
2
2
2
2
2
2
2
2
2
2
2
2
2
2
2
2
2
2
2
2
2
2
2
2
2
2
2
2
2
2
2
2
2
2
2
2
2
2
2
2
2
2
2
2
2
2
2
2
2
2
2
2
2
2
2
2
2
2
2
2
2
