*Vertices 300
*Edges
1 43
1 66
1 72
1 91
1 151
1 173
1 281
2 68
2 111
2 116
2 123
2 171
2 178
2 192
2 194
2 199
2 203
2 218
2 286
3 13
3 39
3 69
3 85
3 96
3 162
3 177
3 242
4 25
4 192
4 228
4 234
4 292
5 86
5 87
5 113
5 164
5 206
5 207
5 216
5 221
5 259
5 283
5 297
6 25
6 54
6 116
6 147
6 168
6 181
6 194
6 211
6 269
6 299
7 10
7 27
7 37
7 41
7 45
7 96
7 101
7 166
7 198
7 216
7 222
8 34
8 40
8 68
8 82
8 86
8 95
8 156
9 44
9 51
9 52
9 91
9 216
9 245
9 272
10 24
10 44
10 101
10 110
10 281
11 80
11 172
11 189
11 245
12 77
12 80
12 86
12 90
12 128
12 191
12 206
12 254
12 282
12 288
13 22
13 34
13 35
13 54
13 60
13 77
13 97
13 122
13 127
13 249
13 294
14 88
14 91
14 171
14 217
14 265
14 280
15 145
15 168
15 201
16 20
16 22
16 34
16 40
16 57
16 68
16 87
16 137
16 139
16 164
16 165
16 218
16 220
16 266
16 274
17 29
17 45
17 59
17 103
17 110
17 114
17 244
18 57
19 81
19 84
19 150
19 165
19 169
20 39
20 69
20 73
20 85
20 92
20 156
20 236
20 266
21 30
21 49
21 98
21 145
21 164
22 34
22 37
22 39
22 64
22 92
22 101
22 104
22 105
22 127
22 129
22 133
22 149
22 167
22 186
22 193
22 228
22 275
22 277
22 281
23 60
23 66
23 70
23 73
23 79
23 81
23 110
23 138
23 168
23 195
23 298
24 43
24 53
24 100
24 110
24 231
24 281
25 50
25 69
25 116
25 137
25 181
25 201
25 285
26 38
26 41
26 72
26 112
26 116
26 145
26 197
26 274
27 40
27 57
27 96
27 110
27 116
27 139
27 141
27 282
27 298
28 34
28 42
28 61
28 67
28 68
28 73
28 80
28 97
28 106
28 127
28 155
28 172
28 195
28 272
28 274
28 293
29 43
29 47
29 103
29 110
29 124
29 149
29 157
29 181
29 208
29 273
29 289
29 295
30 72
30 78
30 87
30 92
30 145
31 78
31 85
31 95
31 250
31 283
32 37
32 101
32 176
32 222
32 227
32 238
32 253
32 256
32 259
33 60
33 100
33 119
33 120
33 142
33 143
33 151
33 159
33 167
33 231
33 257
33 278
33 286
34 50
34 85
34 86
34 97
34 131
34 133
34 172
34 245
34 263
34 289
35 44
35 75
35 77
35 80
35 94
35 110
35 122
35 149
35 153
35 252
36 37
36 61
36 98
36 120
36 176
36 194
36 234
37 101
37 102
37 133
37 169
37 234
37 239
38 41
38 112
38 141
38 184
38 217
38 246
39 58
39 105
39 127
39 177
39 289
40 82
40 87
40 105
40 115
40 139
40 164
40 211
40 212
40 218
41 86
41 112
41 216
41 224
41 232
42 68
42 156
42 215
42 274
43 53
43 91
43 120
43 149
43 208
44 47
44 75
44 83
44 94
44 110
44 139
44 153
44 175
44 239
45 59
45 95
45 103
45 122
45 250
45 258
46 146
46 150
46 184
46 223
46 278
47 149
47 152
47 196
47 213
48 71
48 103
48 136
48 216
48 221
48 273
48 280
48 282
48 288
49 68
49 98
49 145
49 169
49 173
49 247
49 280
49 294
50 69
50 85
50 131
50 133
50 150
50 151
50 239
50 263
50 284
51 65
51 86
51 98
51 181
51 226
51 248
51 269
51 272
52 106
52 116
52 128
52 262
53 80
53 84
53 96
53 120
53 144
53 164
53 170
53 197
53 232
53 244
53 257
54 68
54 101
54 115
54 127
54 144
54 147
54 149
54 190
54 215
54 263
55 91
55 96
55 130
55 131
55 146
55 223
56 145
56 299
57 58
57 69
57 85
57 87
57 109
57 114
57 115
57 146
57 172
57 175
57 188
57 202
57 255
57 276
57 298
58 114
58 127
58 134
58 190
58 270
58 289
59 62
59 84
59 95
59 96
59 99
59 120
59 122
59 130
59 133
59 184
59 296
60 66
60 87
60 122
60 126
60 155
60 197
60 213
60 271
60 275
60 278
60 290
61 62
61 70
61 80
61 82
61 141
61 174
61 188
61 233
62 70
62 94
62 121
62 122
62 137
62 141
62 162
62 201
63 99
63 109
63 131
63 196
63 200
63 201
63 217
63 224
63 257
63 259
63 263
64 70
64 98
64 100
64 105
64 120
64 251
64 265
64 275
65 268
66 70
66 88
66 125
66 163
66 173
66 174
66 197
66 237
66 242
66 243
66 278
66 294
67 119
67 123
67 142
67 147
67 151
67 163
67 207
67 229
67 255
67 270
67 272
68 70
68 123
68 173
68 190
68 251
68 274
68 299
69 77
69 85
69 111
69 150
69 198
69 284
70 89
70 108
70 110
70 114
70 155
70 271
71 146
71 150
72 78
72 86
72 101
72 116
72 135
72 149
72 253
73 77
73 92
73 121
73 128
73 138
73 155
74 93
74 95
74 107
74 207
74 233
74 247
74 250
75 94
75 117
75 120
75 123
75 186
75 188
75 208
75 253
75 279
76 215
76 242
77 126
77 128
77 155
77 209
77 242
77 250
78 85
78 90
78 95
78 113
78 148
78 193
79 81
79 84
79 96
79 100
80 90
80 127
80 206
80 225
80 232
80 239
81 88
81 145
81 272
81 299
82 141
82 165
83 110
83 154
83 219
83 285
84 96
84 115
84 145
84 157
84 161
84 164
84 165
84 281
85 109
85 244
85 250
85 261
86 89
86 90
86 94
86 101
86 216
86 226
86 287
86 292
86 296
87 94
87 109
87 145
87 176
87 206
87 223
87 261
87 297
88 125
88 177
88 273
89 227
89 231
89 241
90 193
90 206
90 260
91 117
91 145
91 146
91 211
91 268
92 145
92 183
93 177
93 215
93 245
93 247
94 101
94 121
94 122
94 137
94 149
94 185
94 197
94 218
94 223
94 224
94 226
94 293
95 97
95 122
95 131
95 148
95 162
95 227
96 99
96 101
96 116
96 130
96 145
96 163
96 165
96 213
96 242
96 281
96 282
97 113
97 119
97 131
97 164
97 207
97 218
97 223
98 114
98 189
98 207
98 234
99 131
99 133
99 141
99 169
99 207
100 107
100 120
100 142
100 149
100 265
100 273
101 104
101 149
101 172
101 238
101 277
102 194
102 239
102 282
103 108
103 143
103 223
103 282
103 293
104 107
104 132
104 133
104 138
104 154
105 115
105 116
105 130
105 132
105 133
105 149
105 212
105 232
105 298
106 116
106 240
106 255
106 281
107 138
107 139
107 207
107 272
107 273
108 114
108 160
108 179
108 212
108 218
108 235
108 286
109 131
109 184
109 187
109 223
110 139
110 175
110 180
110 183
111 112
111 130
111 140
111 164
111 167
111 198
111 203
111 275
112 131
112 141
112 178
112 198
112 228
112 235
112 288
113 131
113 148
113 152
113 178
113 189
113 196
113 221
113 265
114 115
114 134
114 189
114 195
114 244
114 281
115 130
115 132
115 149
115 159
115 212
115 273
116 145
116 176
116 192
116 200
116 246
116 247
116 298
117 145
117 184
117 269
117 292
118 158
118 175
118 275
119 123
119 142
119 201
120 122
120 157
120 164
120 203
120 246
120 296
121 122
121 128
121 224
122 184
122 193
122 229
122 238
122 274
123 186
123 286
123 293
123 297
123 298
124 149
124 157
124 159
124 193
124 252
124 299
125 240
125 300
126 128
126 147
126 183
126 195
126 242
126 247
126 291
127 133
127 149
128 284
128 298
129 186
130 135
130 140
130 143
130 145
130 146
130 149
130 163
130 203
131 133
131 141
131 147
131 148
131 183
131 187
131 210
131 223
131 286
132 134
132 165
132 264
133 169
133 193
133 250
133 254
133 263
133 287
134 140
134 222
134 257
134 295
135 146
135 154
135 182
136 233
137 207
137 266
138 155
138 236
138 263
138 280
138 289
139 141
139 187
139 251
139 289
140 143
141 142
141 174
141 234
141 257
142 226
142 234
142 237
142 251
143 153
143 183
143 198
143 220
143 228
143 233
143 237
143 264
143 278
143 292
144 208
144 244
144 283
145 192
145 213
145 266
145 283
145 299
146 150
146 160
146 172
146 210
146 226
146 230
146 237
147 163
147 195
147 210
147 217
147 273
147 276
148 289
149 157
149 231
149 235
149 256
149 271
149 273
149 300
150 252
151 263
151 264
151 270
151 281
152 162
152 168
152 189
152 190
152 204
152 235
152 239
152 271
152 277
153 158
153 178
153 191
153 213
153 232
153 233
153 261
153 279
154 172
154 222
154 247
154 285
154 298
155 186
155 194
155 215
155 228
155 270
155 271
156 170
156 223
156 224
156 227
156 231
157 159
157 160
157 168
157 169
157 203
157 213
157 241
157 243
157 252
157 256
157 261
158 169
158 171
158 178
158 210
159 164
159 184
159 276
159 293
160 169
160 230
160 235
161 261
162 208
162 216
162 239
162 266
162 269
162 274
162 276
162 277
162 294
163 207
163 210
163 225
163 245
163 254
163 270
163 273
164 184
164 205
164 266
164 293
165 176
165 193
165 211
165 214
165 259
166 218
167 176
167 184
167 215
167 228
167 231
167 277
167 285
167 286
168 174
168 192
168 203
168 204
168 211
168 261
168 273
168 281
169 173
169 245
169 287
169 293
169 294
170 223
170 231
170 232
170 245
170 289
170 297
170 298
171 178
171 182
171 183
171 239
171 251
171 274
172 175
172 185
172 223
172 237
172 238
172 261
172 276
173 191
173 192
173 201
173 209
173 215
173 237
173 247
173 251
173 294
173 299
174 188
174 192
174 193
174 209
174 221
174 243
174 283
174 294
175 188
175 298
175 299
176 184
176 193
176 211
176 234
176 259
176 287
176 291
176 297
177 239
177 292
177 297
178 185
178 189
178 196
178 223
178 280
179 203
179 212
179 237
180 205
180 295
181 207
181 246
181 273
182 183
183 217
183 251
183 278
184 217
184 223
184 264
184 296
185 188
185 197
185 223
185 225
185 280
185 291
185 294
186 197
186 202
186 258
186 268
186 270
186 296
187 210
187 241
187 246
187 258
187 269
187 275
188 193
188 223
188 279
188 298
189 220
189 235
190 191
190 299
191 192
191 232
191 233
191 247
191 249
191 294
192 200
192 204
192 209
192 215
192 228
192 234
192 273
192 292
193 281
193 283
194 244
194 270
194 280
194 286
194 287
194 299
195 210
195 212
195 231
195 285
195 293
195 298
196 200
196 201
196 237
197 199
197 217
197 224
197 225
197 263
197 268
197 282
198 220
198 235
198 237
198 246
198 275
199 217
199 286
200 263
201 212
201 225
201 226
201 227
201 237
201 268
201 294
202 208
202 221
202 239
202 260
202 263
202 265
202 276
202 277
202 282
203 239
203 241
203 269
204 209
204 211
204 243
204 267
204 271
204 281
205 216
205 263
205 282
206 225
207 220
207 226
207 234
207 246
207 283
207 285
207 296
208 216
208 244
208 284
208 292
209 210
209 215
209 243
209 294
210 223
210 243
211 269
212 232
212 235
212 237
212 255
212 297
213 215
213 223
213 249
213 261
214 226
215 231
215 237
215 249
215 263
215 285
216 221
216 224
216 292
217 225
217 227
217 244
217 276
219 232
219 240
219 247
219 285
219 291
220 235
220 266
220 296
221 243
221 282
222 259
222 274
222 298
223 225
223 226
223 282
223 294
224 253
224 285
225 227
225 241
225 254
225 268
225 297
226 237
226 285
226 293
227 231
227 237
227 268
227 275
228 237
229 239
229 274
229 289
230 259
231 285
232 247
232 254
232 291
233 264
234 288
235 246
235 259
235 273
235 292
236 248
237 251
237 255
237 292
237 297
238 259
238 261
239 241
239 265
239 271
239 274
239 276
239 292
240 255
240 291
240 300
241 258
241 269
243 256
243 261
244 270
244 283
244 287
244 293
245 273
245 276
245 289
246 258
246 283
247 272
247 291
247 294
247 298
248 269
250 254
250 263
250 282
251 297
255 272
255 289
255 297
256 257
256 295
257 275
257 295
258 275
259 289
259 292
263 272
263 282
265 271
265 274
265 277
266 269
266 294
268 275
270 287
272 282
275 296
275 297
276 277
277 282
280 289
282 298
283 299
286 297
287 290
287 291
287 299
289 292
290 291
292 297
297 298
*Classes
1
1
1
1
1
1
1
1
1
1
1
1
1
1
1
1
1
1
1
1
1
1
1
1
1
1
1
1
1
1
1
1
1
1
1
1
1
1
1
1
1
1
1
1
1
1
1
1
1
1
1
1
1
1
1
1
1
1
1
1
1
1
1
1
1
1
1
1
1
1
1
1
1
1
1
1
1
1
1
1
1
1
1
1
1
1
1
1
1
1
1
1
1
1
1
1
1
1
1
1
1
1
1
1
1
1
1
1
1
1
1
1
1
1
1
1
1
1
1
1
1
1
1
1
1
1
1
1
1
1
1
1
1
1
1
1
1
1
1
1
1
1
1
1
1
1
1
1
1
1
2
2
2
2
2
2
2
2
2
2
2
2
2
2
2
2
2
2
2
2
2
2
2
2
2
2
2
2
2
2
2
2
2
2
2
2
2
2
2
2
2
2
2
2
2
2
2
2
2
2
2
2
2
2
2
2
2
2
2
2
2
2
2
2
2
2
2
2
2
2
2
2
2
2
2
2
2
2
2
2
2
2
2
2
2
2
2
2
2
2
2
2
2
2
2
2
2
2
2
2
2
2
2
2
2
2
2
2
2
2
2
2
2
2
2
2
2
2
2
2
2
2
2
2
2
2
2
2
2
2
2
2
2
2
2
2
2
2
2
2
2
2
2
2
2
2
2
2
2
2
