*Vertices 300
*Edges
1 24
1 50
1 51
1 111
1 142
1 228
1 275
2 45
2 137
2 147
2 159
2 181
2 189
2 201
2 212
2 213
3 14
3 66
3 81
3 139
3 152
3 168
4 29
4 71
4 85
4 183
4 231
4 234
4 250
5 11
5 43
5 92
5 129
5 143
5 144
5 149
5 167
5 179
5 185
5 186
5 214
5 220
5 243
5 249
5 263
6 12
6 149
6 157
6 158
7 84
7 187
7 202
7 218
7 237
8 48
8 70
8 91
8 141
8 158
8 170
8 198
8 213
8 256
8 258
8 262
8 267
9 22
9 33
9 43
9 53
9 61
9 88
9 105
9 150
9 173
9 185
9 250
9 259
10 19
10 53
10 56
10 108
10 111
10 145
10 162
10 189
10 240
10 256
11 27
11 44
11 92
11 144
11 205
11 209
11 267
11 293
12 115
12 123
12 149
12 164
12 201
12 258
13 67
13 83
13 98
13 113
13 125
13 148
13 155
13 183
13 197
13 214
13 234
13 252
14 66
14 101
14 118
14 123
14 223
14 231
14 299
15 140
15 183
15 219
15 241
15 256
15 263
15 278
16 37
16 61
16 83
16 97
16 102
16 119
16 127
16 281
17 26
17 204
17 221
18 127
18 176
18 195
18 234
18 285
19 56
19 106
19 249
19 255
19 263
19 284
19 296
20 212
20 213
20 222
20 246
21 29
21 68
21 85
21 88
21 101
21 122
21 161
21 162
21 163
21 194
21 223
21 229
21 290
21 298
22 33
22 55
22 61
22 179
22 181
22 187
22 235
22 250
22 277
22 286
23 182
23 187
23 221
23 267
23 299
24 50
24 51
24 112
24 142
24 154
24 176
24 228
24 230
24 277
25 43
25 47
25 62
25 96
25 140
26 35
26 128
26 134
26 143
26 151
26 159
26 253
26 255
26 271
26 281
27 144
27 254
28 80
28 172
28 193
28 239
28 282
28 288
29 42
29 85
29 134
29 146
29 183
29 275
30 58
30 75
30 92
30 97
30 115
30 126
30 203
30 240
30 269
31 133
31 141
31 187
31 190
31 198
31 246
32 45
32 52
32 213
32 266
32 269
32 277
32 288
32 296
33 40
33 108
33 117
33 147
33 288
34 64
34 152
34 174
34 227
35 52
35 159
35 229
35 273
35 276
35 281
36 61
36 81
36 94
36 294
37 61
37 102
37 123
37 153
37 157
37 262
38 41
38 104
38 160
38 161
38 197
38 202
38 222
38 226
38 230
38 277
39 41
39 44
39 104
39 134
39 214
39 224
40 47
40 62
40 92
40 97
40 144
41 92
41 104
41 115
41 133
41 161
41 189
41 230
41 293
42 115
42 146
42 166
42 186
42 200
43 96
43 105
43 136
43 150
43 152
43 214
43 220
43 266
43 294
43 297
43 300
44 87
44 91
44 134
44 211
44 239
44 267
45 52
45 56
45 132
45 175
45 188
45 213
45 241
45 245
45 273
45 276
45 278
45 296
46 99
46 104
46 112
46 155
46 205
46 228
47 62
47 140
48 89
48 115
48 130
48 155
48 158
48 162
48 198
48 238
48 268
48 288
49 92
49 191
49 224
49 270
50 101
50 111
50 212
50 286
50 297
51 137
51 204
51 239
51 261
51 277
51 280
52 209
52 229
53 129
53 149
53 150
53 158
53 200
53 289
54 91
54 252
56 96
56 108
56 119
56 132
56 145
56 171
56 196
56 283
56 291
56 296
57 76
57 98
57 111
57 143
57 153
57 157
57 218
57 273
58 66
58 117
58 163
58 203
59 198
59 222
59 245
59 290
60 164
60 198
60 256
60 292
61 63
61 93
61 94
61 105
61 130
61 166
62 63
62 93
62 132
62 179
62 286
63 76
63 83
63 93
63 105
63 156
63 173
63 218
63 219
63 221
63 230
63 255
63 265
64 141
64 177
64 252
65 111
65 149
65 268
66 81
66 115
66 117
66 146
66 213
66 220
66 279
66 298
67 98
67 111
67 125
67 198
67 239
67 269
67 291
67 294
68 88
68 288
69 86
69 92
69 128
69 145
69 211
69 216
69 235
69 249
69 261
69 263
70 74
70 91
70 102
70 106
70 278
70 285
71 205
72 280
73 166
73 174
73 180
73 200
73 225
73 251
73 292
74 104
74 127
74 206
74 233
74 269
74 292
75 125
75 126
75 235
75 273
75 295
76 80
76 93
76 118
76 143
76 157
76 161
76 164
76 194
76 223
76 226
76 274
77 100
77 138
78 165
78 213
78 216
78 220
78 241
78 278
79 81
79 94
79 222
79 299
80 193
80 194
80 282
81 94
81 114
81 122
81 135
81 146
81 164
81 184
81 205
81 294
82 92
82 100
82 115
82 135
82 170
82 188
82 222
82 257
82 275
82 291
83 113
84 138
85 121
85 134
85 194
86 92
86 128
86 163
86 243
86 279
86 284
86 299
87 91
87 131
87 154
87 188
87 191
87 231
87 273
88 105
88 122
88 194
88 198
89 92
89 115
89 130
89 170
89 171
89 179
89 187
89 232
89 261
89 294
90 270
91 151
91 159
91 183
91 192
91 217
91 239
91 285
91 288
92 97
92 115
92 121
92 135
92 144
92 158
92 195
92 219
92 294
93 94
93 105
93 143
93 218
93 231
93 274
94 97
94 135
94 182
94 299
95 113
95 158
95 160
95 211
95 217
95 257
95 299
96 108
96 136
96 152
96 166
96 175
96 258
96 270
96 297
97 135
97 158
97 205
98 105
98 111
98 125
98 241
98 271
99 161
99 226
100 138
100 163
101 242
101 284
102 123
102 194
102 290
103 107
103 130
103 133
103 180
103 199
103 211
103 213
103 256
103 278
104 174
104 181
104 194
104 208
104 221
105 191
105 231
105 241
105 249
106 153
106 170
106 218
106 233
106 235
106 266
106 284
107 114
107 166
107 173
107 214
107 260
108 117
108 132
108 226
108 236
108 288
109 121
109 139
109 165
109 203
109 244
110 114
110 186
110 218
111 149
111 160
111 162
111 181
111 256
111 268
112 142
112 266
113 161
113 239
113 242
114 142
114 214
114 229
114 260
114 272
114 273
115 146
115 195
115 221
115 250
115 259
115 294
117 127
117 236
117 241
117 278
117 284
118 123
118 289
119 132
119 157
119 190
119 201
120 219
120 237
120 249
120 255
120 274
121 144
121 163
121 183
122 166
122 193
122 235
122 273
123 149
123 223
124 241
125 158
125 164
125 175
125 220
125 222
125 235
125 273
126 137
126 146
126 147
126 156
126 158
126 186
126 206
126 240
126 292
127 231
127 240
127 269
127 281
127 289
127 297
128 134
128 172
128 178
128 184
128 235
128 247
128 255
128 282
128 297
129 143
129 149
129 241
129 262
129 269
129 278
129 280
130 238
131 154
131 188
131 233
132 171
132 214
132 226
132 285
133 211
133 246
133 293
134 184
134 229
134 241
134 258
134 292
135 219
135 239
136 244
137 147
137 151
137 156
137 238
137 283
138 151
138 225
138 229
138 277
138 280
139 165
139 241
140 232
140 263
141 146
141 168
141 177
141 190
141 197
141 208
141 231
141 252
142 183
142 234
142 236
142 300
143 262
143 269
144 194
144 205
144 248
144 254
145 197
145 211
145 283
146 211
146 237
146 279
147 179
147 189
147 230
147 232
147 251
147 271
147 283
147 284
148 155
148 183
148 264
149 160
149 164
149 185
150 223
150 279
150 290
151 239
151 255
151 277
152 168
152 232
152 273
152 279
152 298
153 218
153 276
153 296
154 176
154 209
154 213
154 228
154 243
154 254
154 260
154 295
154 298
155 173
155 209
155 228
155 260
155 290
156 176
156 238
157 189
157 277
157 280
158 217
158 230
158 267
158 288
159 189
159 232
159 261
159 268
160 171
160 197
160 246
161 163
161 174
161 220
161 226
162 240
162 274
162 295
163 203
163 205
163 232
163 240
163 267
163 279
164 188
164 191
164 206
165 213
165 217
165 228
165 237
165 240
165 241
165 265
165 288
165 292
165 295
165 298
166 209
166 218
166 225
166 230
166 243
166 251
166 260
166 293
167 179
167 254
168 279
169 172
169 177
169 184
169 224
170 176
170 188
170 196
170 201
170 206
170 216
170 244
170 253
170 258
170 261
170 264
170 291
171 183
171 197
171 222
171 234
171 285
172 177
172 184
172 210
172 230
172 268
172 271
172 282
172 287
173 185
173 214
173 226
173 255
173 260
174 194
174 195
174 220
174 292
175 187
175 226
175 291
176 253
177 179
177 184
177 189
177 205
177 268
177 271
178 247
178 276
179 189
179 191
179 214
179 225
179 237
179 260
179 268
179 271
179 286
180 210
180 236
180 278
180 287
180 299
181 201
181 208
181 286
182 242
183 210
183 234
183 239
183 256
183 279
183 293
184 268
184 274
184 298
185 226
185 243
186 198
186 244
187 206
187 226
188 191
188 196
188 206
188 213
188 286
189 193
189 202
189 222
189 230
189 231
189 232
189 241
189 243
189 257
189 268
189 277
189 282
189 299
190 198
190 210
191 231
191 242
191 286
192 230
192 243
193 232
193 273
194 195
194 248
194 288
194 292
195 265
195 287
196 240
197 222
197 252
197 286
198 244
198 245
198 256
198 275
198 280
198 286
199 208
199 252
199 266
199 274
199 295
200 210
200 216
200 223
200 225
200 287
200 293
201 258
202 222
203 205
203 240
203 244
203 267
203 294
204 209
204 262
205 244
205 294
206 233
206 264
206 292
207 212
207 249
207 278
207 292
208 218
208 225
208 254
208 260
208 266
209 214
209 260
209 262
210 239
210 242
210 282
210 287
212 246
213 274
213 296
213 298
214 218
214 228
214 251
214 260
215 263
215 287
216 236
216 261
216 263
217 230
217 267
217 288
218 219
218 228
218 260
218 285
219 231
219 241
219 285
221 267
222 234
222 257
223 225
223 239
223 290
223 298
224 244
224 264
225 239
225 251
225 260
225 264
225 272
225 293
225 298
226 241
226 288
226 292
228 254
228 256
228 260
228 275
228 295
229 240
230 243
230 255
230 263
230 267
230 282
230 285
230 287
231 241
231 288
231 289
231 294
232 261
232 279
234 238
234 239
234 278
234 279
234 285
234 293
236 278
237 251
237 265
237 295
237 296
238 285
239 291
240 289
240 298
241 278
241 292
241 295
242 286
243 260
243 299
244 264
244 271
244 272
245 247
246 252
247 250
248 254
248 288
248 295
249 255
249 263
249 287
249 292
250 294
251 284
252 274
252 286
253 291
254 274
254 295
255 260
255 277
255 282
256 275
256 291
256 297
257 274
258 270
259 268
259 299
260 290
262 277
263 282
263 287
264 271
264 272
265 287
265 296
266 274
266 277
268 299
269 272
269 280
269 288
271 282
271 284
271 287
272 280
273 274
273 279
273 298
274 295
274 298
275 297
276 289
276 296
277 280
277 286
278 285
280 286
281 283
288 294
288 298
294 300
*Classes
1
1
1
1
1
1
1
1
1
1
1
1
1
1
1
1
1
1
1
1
1
1
1
1
1
1
1
1
1
1
1
1
1
1
1
1
1
1
1
1
1
1
1
1
1
1
1
1
1
1
1
1
1
1
1
1
1
1
1
1
1
1
1
1
1
1
1
1
1
1
1
1
1
1
1
1
1
1
1
1
1
1
1
1
1
1
1
1
1
1
1
1
1
1
1
1
1
1
1
1
1
1
1
1
1
1
1
1
1
1
1
1
1
1
1
1
1
1
1
1
1
1
1
1
1
1
1
1
1
1
1
1
1
1
1
1
1
1
1
1
1
1
1
1
1
1
1
1
1
1
2
2
2
2
2
2
2
2
2
2
2
2
2
2
2
2
2
2
2
2
2
2
2
2
2
2
2
2
2
2
2
2
2
2
2
2
2
2
2
2
2
2
2
2
2
2
2
2
2
2
2
2
2
2
2
2
2
2
2
2
2
2
2
2
2
2
2
2
2
2
2
2
2
2
2
2
2
2
2
2
2
2
2
2
2
2
2
2
2
2
2
2
2
2
2
2
2
2
2
2
2
2
2
2
2
2
2
2
2
2
2
2
2
2
2
2
2
2
2
2
2
2
2
2
2
2
2
2
2
2
2
2
2
2
2
2
2
2
2
2
2
2
2
2
2
2
2
2
2
2
