*Vertices 300
*Edges
1 130
1 185
2 79
2 108
2 186
2 189
2 201
2 211
2 229
3 79
3 109
3 176
3 211
3 280
4 7
4 15
4 53
4 128
4 222
4 253
4 295
5 14
5 61
5 100
5 110
5 128
5 145
5 148
5 154
5 160
5 164
5 165
5 170
5 176
5 188
5 194
5 211
5 223
5 230
5 263
5 277
5 283
5 285
5 290
6 162
6 275
7 16
7 22
7 57
7 119
7 128
7 138
7 168
7 202
7 212
7 220
7 249
7 262
8 54
8 72
8 96
8 131
8 181
8 252
9 120
9 132
9 140
9 141
9 177
9 212
9 227
9 252
9 258
9 262
9 276
10 24
10 27
10 122
10 137
10 142
10 158
10 243
10 258
10 300
11 60
11 179
11 185
11 246
12 25
12 80
12 97
12 240
12 257
12 261
13 16
13 18
13 29
13 37
13 56
13 57
13 154
13 168
13 198
13 207
13 224
13 230
13 272
14 40
14 89
14 110
14 138
14 181
14 210
14 250
15 31
15 77
15 97
15 132
15 159
15 216
15 227
15 265
16 21
16 32
16 56
16 57
16 218
16 290
17 39
17 57
17 99
17 134
17 165
17 197
17 207
17 237
17 271
18 29
18 30
18 238
18 259
19 42
19 105
19 111
19 167
19 184
19 187
19 200
19 243
19 295
20 109
20 121
20 156
20 188
20 193
20 244
20 263
21 52
21 116
21 157
21 163
21 177
21 207
21 218
21 262
22 57
22 67
22 73
22 119
22 174
22 182
22 229
22 236
23 65
23 101
23 146
23 167
23 200
23 229
23 280
23 287
24 137
24 196
24 296
25 40
25 70
25 87
25 92
25 93
25 97
25 131
25 143
25 202
25 294
26 70
26 91
26 122
26 141
27 74
27 137
27 168
27 170
27 188
27 220
27 270
27 281
27 298
28 128
28 223
28 249
28 254
28 259
29 30
29 109
29 154
29 165
29 198
29 207
29 224
29 256
29 271
29 294
30 31
30 65
30 77
30 80
30 81
30 109
30 112
30 113
30 154
30 159
30 204
30 211
30 256
30 289
31 33
31 59
31 95
31 113
31 116
31 159
31 178
31 204
31 225
31 239
31 258
32 218
32 256
33 97
33 154
33 217
33 225
33 282
34 47
34 48
34 139
34 204
34 243
35 58
35 75
35 106
35 108
35 127
35 147
35 170
35 216
35 234
35 260
35 268
36 103
36 120
36 159
36 219
36 241
36 252
36 259
37 56
37 62
37 146
37 169
37 185
37 195
37 198
37 211
37 223
37 233
37 272
37 283
37 290
38 62
38 90
38 110
38 156
39 96
39 142
39 155
39 165
39 202
40 70
40 85
40 86
40 93
40 110
40 111
40 115
40 131
40 202
40 221
40 265
41 76
41 120
41 158
41 197
41 231
42 91
42 123
42 126
42 132
42 135
42 182
42 184
43 78
43 112
43 166
43 247
44 60
44 114
44 117
44 259
45 76
45 91
45 152
45 160
45 182
45 195
45 208
45 223
45 225
45 252
45 255
45 298
46 185
46 201
46 256
46 276
46 280
47 49
47 102
47 139
47 160
47 161
47 253
47 268
48 85
48 93
48 156
48 196
48 204
49 129
49 139
49 146
49 149
49 150
49 178
49 180
49 268
50 92
50 93
50 147
50 161
50 164
50 214
50 231
50 232
50 274
50 292
51 86
51 151
51 161
51 172
51 182
51 219
51 244
51 261
52 71
52 104
52 107
52 167
52 177
52 252
52 260
53 99
53 128
53 134
53 227
53 242
53 243
53 271
53 295
54 72
54 98
54 107
54 132
54 135
54 146
54 198
54 214
54 278
54 296
55 91
55 110
55 134
55 137
55 167
55 173
55 200
55 208
55 239
55 241
55 259
56 128
56 139
56 149
56 211
56 221
56 251
57 138
57 290
58 106
58 109
58 121
58 133
58 162
58 176
58 219
58 269
58 300
59 60
59 78
59 164
59 235
59 246
60 77
60 80
60 116
60 185
60 226
60 229
60 241
60 246
60 279
60 283
60 293
61 110
61 215
61 240
61 270
62 83
62 188
62 194
62 214
62 233
62 291
63 127
63 194
63 195
63 234
64 74
64 88
64 90
64 93
64 160
64 193
64 276
64 290
65 70
65 101
65 112
65 140
65 167
65 171
65 200
65 264
65 268
66 96
66 98
66 113
66 133
66 168
66 186
66 188
66 190
66 193
66 216
66 266
66 290
67 131
67 161
67 193
67 220
67 228
67 236
67 238
69 76
69 215
69 247
69 284
70 140
70 255
70 265
70 291
71 142
71 202
71 213
71 218
71 219
71 249
71 254
71 260
72 79
72 156
72 241
72 252
72 272
72 300
73 149
73 243
73 244
73 270
73 274
73 292
74 193
74 194
74 220
74 241
74 282
74 283
74 298
75 107
75 171
75 178
75 189
75 190
75 218
75 252
75 291
76 82
76 120
76 231
76 255
76 291
77 109
77 116
77 132
77 140
77 192
77 208
77 222
77 231
77 234
77 293
78 247
78 258
79 154
79 155
79 187
79 211
79 216
79 229
79 253
79 292
79 300
80 109
80 115
80 167
80 246
81 112
81 182
81 222
81 227
81 239
81 247
81 256
81 267
81 290
82 83
82 131
82 206
83 131
83 139
83 160
83 164
83 188
83 194
83 198
83 202
83 211
83 232
83 236
83 252
84 145
84 206
84 224
84 263
85 104
85 115
85 156
85 262
85 279
85 290
86 131
87 90
87 93
87 163
87 184
87 189
87 281
87 292
88 90
88 93
88 127
88 131
88 144
89 116
89 250
89 262
90 93
90 127
90 200
90 207
90 222
90 283
90 298
91 152
91 173
91 182
91 185
91 187
91 222
91 223
91 241
91 276
92 93
92 97
92 122
92 129
92 202
92 260
92 263
92 277
93 97
93 144
93 156
93 163
93 232
93 249
93 260
93 281
93 292
94 141
94 148
94 171
94 177
94 190
94 219
94 258
95 112
95 131
95 155
95 159
95 167
95 177
95 186
95 212
95 245
95 252
95 273
95 286
96 113
96 116
96 202
96 213
97 129
97 143
97 148
97 180
97 219
97 282
98 107
98 132
98 135
98 187
98 188
98 196
98 214
98 255
98 262
98 266
99 134
99 151
99 160
99 197
99 227
99 237
99 264
99 273
99 296
99 300
100 171
100 177
100 194
100 280
100 294
101 171
101 227
101 229
101 254
101 268
102 178
102 257
102 268
103 235
103 272
104 105
104 115
104 163
104 193
104 209
104 221
104 256
104 257
104 258
105 111
105 163
105 170
105 234
105 257
105 293
106 108
106 127
106 131
106 214
106 216
106 293
107 132
107 167
107 171
107 205
107 214
107 249
107 252
108 121
108 189
108 226
108 261
108 279
109 121
109 137
109 145
109 191
109 224
109 226
109 242
109 256
109 265
110 120
110 134
110 148
110 155
110 156
110 173
110 179
110 181
110 200
110 202
110 210
110 212
110 224
110 232
111 171
111 221
111 257
111 278
111 293
112 131
112 159
112 166
112 203
112 290
112 298
113 116
113 168
113 212
113 217
113 246
114 193
115 117
115 186
115 212
115 234
115 257
115 262
115 280
116 123
116 157
116 229
116 251
116 262
116 294
116 300
117 128
117 176
117 225
117 257
117 259
117 287
118 134
118 150
118 167
118 172
118 205
119 138
119 153
119 169
119 220
120 158
120 169
120 187
120 191
120 224
120 237
120 252
120 273
121 226
121 263
121 265
122 129
122 219
122 258
123 129
123 173
123 189
123 190
123 219
123 262
123 264
123 276
123 281
123 299
124 181
124 272
124 282
125 164
125 167
125 289
125 298
126 135
126 221
126 288
127 134
127 136
127 144
127 193
127 194
127 200
127 222
127 248
127 266
128 148
128 149
128 150
128 168
128 190
128 222
128 223
128 238
128 285
128 287
128 290
129 149
129 150
129 219
130 215
131 144
131 162
131 203
131 222
131 236
131 238
131 252
131 293
131 294
132 140
132 146
132 177
132 265
133 145
133 174
133 186
133 213
133 242
133 269
134 179
134 193
134 196
134 205
134 249
134 300
135 171
135 177
135 221
135 251
135 294
136 177
136 200
136 212
136 267
137 145
137 177
137 191
137 213
137 259
137 286
137 289
139 164
139 211
139 251
139 252
139 253
139 273
140 176
140 220
140 224
140 244
140 263
140 264
141 195
141 212
141 252
143 202
143 285
144 148
144 186
144 194
144 201
144 216
144 291
145 158
145 173
145 174
145 187
145 213
145 224
145 237
145 242
145 243
145 265
145 269
145 277
146 149
146 211
146 234
147 219
147 283
147 300
148 150
148 160
148 180
148 190
148 194
148 199
148 290
149 150
149 212
149 221
149 223
149 234
149 255
149 262
149 270
150 205
150 221
150 225
150 234
150 275
151 161
151 165
151 183
151 237
151 282
152 247
152 267
152 294
154 156
154 165
154 211
154 225
154 230
154 235
154 236
154 277
154 298
155 156
155 177
155 199
155 212
155 292
156 165
156 211
156 230
156 236
156 252
157 182
157 183
157 214
157 239
157 249
157 254
158 173
158 207
158 217
158 225
158 243
158 299
159 167
159 186
159 205
159 250
159 262
159 267
159 273
159 289
160 179
160 198
160 237
161 164
161 165
161 182
161 193
161 264
161 282
162 169
162 222
162 293
163 175
163 181
163 189
163 291
164 191
164 193
164 231
164 241
164 260
164 264
164 292
165 198
165 204
165 230
165 232
166 173
166 183
166 214
167 187
167 200
167 205
167 212
167 262
167 277
167 289
168 212
168 283
169 191
169 223
169 294
170 220
170 234
170 263
170 270
171 177
171 216
173 190
173 200
173 226
173 242
173 279
174 182
174 229
175 189
176 224
176 254
176 257
176 270
176 276
176 282
176 283
177 212
177 216
177 221
177 260
177 267
177 280
177 286
177 289
178 192
178 201
178 204
178 239
178 258
179 194
179 269
180 199
180 291
181 272
182 214
182 222
182 239
183 214
183 281
184 200
184 243
184 270
185 191
185 198
185 241
185 276
185 282
185 283
186 193
186 216
186 223
186 232
186 262
186 266
186 290
187 200
187 224
188 214
188 263
188 266
188 281
188 296
189 190
189 194
189 201
189 219
189 223
189 291
190 223
190 279
191 193
191 241
191 247
191 260
191 294
192 201
192 205
192 271
192 293
193 228
193 266
194 269
194 287
194 290
194 291
194 298
195 207
195 223
195 232
195 233
196 204
196 236
196 262
198 238
199 250
199 255
199 273
199 285
199 292
202 213
202 232
202 257
203 221
203 252
203 294
203 298
204 239
204 253
204 273
204 286
205 207
205 271
205 277
205 289
206 226
206 245
206 279
206 295
207 218
207 223
207 224
207 232
207 233
207 243
207 271
207 294
207 298
208 223
209 258
211 212
211 249
211 273
211 294
212 249
212 262
212 294
213 232
214 274
214 278
214 281
214 293
214 296
216 292
217 242
217 246
217 299
218 219
218 258
219 244
219 258
219 267
219 276
219 300
220 282
221 256
221 298
222 227
222 258
222 293
223 290
224 257
224 263
224 276
224 298
225 235
225 243
225 252
225 271
225 275
225 298
226 246
226 279
227 243
227 249
227 254
227 258
227 282
230 248
231 232
231 234
231 260
233 234
233 288
234 257
234 260
235 241
235 257
235 279
235 286
235 293
235 296
236 238
236 244
237 250
237 253
237 273
237 299
238 244
239 258
239 267
239 273
240 261
240 270
242 246
242 271
243 254
243 259
243 270
243 275
243 298
244 270
245 295
246 297
247 251
247 256
247 258
247 294
249 254
249 281
250 273
251 294
252 298
253 274
253 285
254 282
255 262
255 265
255 267
256 262
256 280
256 281
257 268
257 280
257 293
258 267
258 293
258 294
259 270
260 263
260 268
260 280
261 278
262 265
262 281
263 277
264 296
266 274
267 286
270 283
270 292
271 277
271 283
271 294
273 286
273 292
276 282
278 285
279 293
279 295
280 283
280 286
280 293
282 283
284 287
284 291
285 292
287 291
287 298
290 291
292 296
*Classes
1
1
1
1
1
1
1
1
1
1
1
1
1
1
1
1
1
1
1
1
1
1
1
1
1
1
1
1
1
1
1
1
1
1
1
1
1
1
1
1
1
1
1
1
1
1
1
1
1
1
1
1
1
1
1
1
1
1
1
1
1
1
1
1
1
1
1
1
1
1
1
1
1
1
1
1
1
1
1
1
1
1
1
1
1
1
1
1
1
1
1
1
1
1
1
1
1
1
1
1
1
1
1
1
1
1
1
1
1
1
1
1
1
1
1
1
1
1
1
1
1
1
1
1
1
1
1
1
1
1
1
1
1
1
1
1
1
1
1
1
1
1
1
1
1
1
1
1
1
1
2
2
2
2
2
2
2
2
2
2
2
2
2
2
2
2
2
2
2
2
2
2
2
2
2
2
2
2
2
2
2
2
2
2
2
2
2
2
2
2
2
2
2
2
2
2
2
2
2
2
2
2
2
2
2
2
2
2
2
2
2
2
2
2
2
2
2
2
2
2
2
2
2
2
2
2
2
2
2
2
2
2
2
2
2
2
2
2
2
2
2
2
2
2
2
2
2
2
2
2
2
2
2
2
2
2
2
2
2
2
2
2
2
2
2
2
2
2
2
2
2
2
2
2
2
2
2
2
2
2
2
2
2
2
2
2
2
2
2
2
2
2
2
2
2
2
2
2
2
2
