*Vertices 300
*Edges
1 12
1 23
1 65
1 78
1 103
1 110
1 115
1 203
1 246
1 265
1 295
2 45
2 55
2 106
2 128
2 129
2 154
2 163
2 166
2 168
2 178
2 192
2 208
2 231
2 251
2 253
2 290
3 26
3 61
3 101
3 114
3 157
4 26
4 29
4 35
4 45
4 54
4 80
4 115
4 128
4 162
4 171
4 189
4 230
4 282
5 41
5 91
5 105
5 112
5 140
5 156
5 182
5 192
5 202
5 215
5 227
5 260
5 280
6 14
6 50
6 56
6 61
6 115
6 116
6 151
6 176
6 192
6 213
6 246
7 11
7 35
7 36
7 45
7 49
7 50
7 63
7 69
7 90
7 92
7 135
7 175
7 179
7 193
7 205
7 250
7 267
7 270
7 281
7 293
8 97
8 115
8 262
8 278
9 35
9 48
9 91
9 95
9 96
9 131
9 138
9 141
9 144
9 193
9 205
9 232
9 272
10 83
10 173
11 49
11 62
11 192
11 200
11 265
11 285
12 26
12 78
12 103
12 107
12 145
12 148
12 193
12 261
13 19
13 30
13 39
13 58
13 70
13 82
13 84
13 95
13 104
13 109
13 118
13 135
13 149
13 151
13 171
13 179
13 194
13 211
13 222
13 226
13 241
13 243
13 250
13 262
14 49
14 119
14 120
14 132
14 142
14 151
14 152
14 171
14 184
14 192
14 245
14 273
14 274
14 275
14 297
15 45
15 46
15 63
15 83
15 121
15 135
15 165
15 167
15 195
15 207
15 235
15 271
16 23
16 35
16 73
16 84
16 266
16 293
17 43
17 98
17 124
17 153
17 181
17 265
17 299
18 69
18 90
18 140
18 224
18 235
18 254
18 262
18 264
18 267
18 270
18 274
19 38
19 73
19 82
19 107
19 148
19 149
19 151
19 180
19 194
19 196
19 197
19 246
20 58
20 84
20 229
20 267
21 62
21 129
21 251
21 296
22 36
22 85
22 204
22 248
22 260
22 275
23 29
23 41
23 74
23 88
23 105
23 119
23 136
23 164
23 178
23 198
23 203
23 282
24 58
24 142
24 161
24 199
24 204
24 278
25 38
25 53
25 77
25 180
25 195
25 200
25 208
25 231
25 254
25 278
26 61
26 130
26 145
26 146
26 171
26 203
26 222
26 278
27 203
27 252
27 264
27 294
28 82
28 102
28 103
28 155
28 180
28 188
28 210
28 254
28 256
28 270
28 274
28 280
29 35
29 67
29 72
29 88
29 149
29 164
29 169
29 177
29 200
29 243
29 245
29 257
29 267
29 269
29 273
29 280
29 284
29 292
30 50
30 84
30 116
30 181
30 233
30 241
30 274
30 282
31 104
31 109
31 170
31 213
31 214
31 280
31 282
32 33
32 52
32 60
32 86
32 90
32 130
32 213
33 54
33 56
33 57
33 97
33 108
33 164
33 198
33 242
33 248
34 64
34 146
34 147
34 151
34 155
34 180
34 195
34 198
34 214
35 40
35 67
35 73
35 84
35 88
35 99
35 112
35 115
35 144
35 162
35 177
35 187
35 237
35 243
35 257
35 281
36 72
36 85
36 90
36 96
36 119
36 132
36 248
37 83
37 86
37 95
37 107
37 156
37 252
37 283
37 296
38 73
38 78
38 107
38 161
38 166
38 169
38 177
38 180
38 195
38 196
38 224
38 247
39 151
39 245
39 251
39 262
39 269
39 279
39 285
39 297
40 42
40 112
40 129
40 132
40 133
40 146
40 151
40 185
40 219
41 105
41 178
41 271
41 291
41 293
42 52
42 59
42 134
42 146
42 169
42 185
42 203
42 255
42 258
42 262
43 71
43 98
43 197
43 288
44 69
44 73
44 147
44 153
44 202
44 211
44 225
44 254
45 53
45 73
45 80
45 83
45 121
45 129
45 150
45 196
45 199
45 205
45 208
45 211
45 222
45 225
45 231
45 250
45 271
45 281
45 297
45 298
46 49
46 56
46 76
46 156
46 199
46 204
46 205
46 232
46 255
46 293
46 299
47 120
47 155
47 184
47 185
47 251
47 296
48 77
48 131
48 151
48 153
48 263
49 57
49 69
49 76
49 97
49 108
49 120
49 121
49 179
49 195
49 208
49 293
49 296
50 60
50 116
50 117
50 180
50 194
51 133
51 151
51 219
51 269
51 300
52 134
52 203
52 213
52 258
52 272
53 69
53 121
53 190
53 278
54 108
54 113
54 186
55 166
55 181
55 284
56 61
56 113
56 132
56 151
56 176
56 184
56 192
56 207
56 248
56 250
57 83
57 97
57 265
58 71
58 84
58 105
58 118
58 119
58 120
58 171
58 189
58 278
58 283
59 73
59 106
59 119
59 134
59 143
59 165
59 189
59 233
59 290
60 117
60 130
60 153
60 181
60 222
60 291
61 146
61 157
61 205
61 232
61 243
61 260
61 273
61 275
62 64
62 111
62 163
62 241
62 265
63 120
63 131
63 135
63 136
63 145
63 150
63 153
63 157
63 181
63 215
64 108
64 111
64 180
65 103
65 256
65 261
66 124
66 125
66 134
66 164
66 198
66 265
66 292
67 73
67 196
67 271
68 167
68 225
69 90
69 121
69 166
69 217
69 262
69 293
69 296
70 82
70 85
70 148
70 171
70 245
71 109
71 118
71 169
71 171
71 197
71 212
71 230
71 283
72 126
72 127
72 131
72 149
72 178
72 190
72 235
72 292
73 80
73 96
73 98
73 100
73 110
73 119
73 138
73 147
73 150
73 201
73 230
74 108
74 120
74 145
74 184
74 210
74 216
74 218
74 243
75 80
75 101
75 172
75 179
75 208
75 238
76 98
76 100
76 119
76 190
76 276
77 82
77 131
77 171
77 208
77 231
77 256
77 262
78 103
78 107
78 178
78 182
78 235
78 241
78 288
79 105
79 119
79 147
79 204
79 214
79 238
79 249
79 298
80 172
80 199
80 205
80 225
80 234
80 284
81 111
82 100
82 148
82 171
82 254
83 156
83 258
83 287
83 299
84 90
84 95
84 109
84 162
84 218
84 237
84 241
85 96
85 149
85 191
85 204
85 206
85 219
85 247
85 248
85 257
85 273
86 90
86 117
87 117
87 154
87 252
87 253
87 275
88 215
88 298
89 133
89 253
89 279
90 119
90 124
90 133
90 179
91 97
91 131
91 142
91 156
91 159
91 161
91 167
91 200
91 222
91 242
91 285
91 297
92 175
93 126
93 135
93 289
94 124
94 143
94 164
94 168
94 202
94 250
94 292
94 300
95 96
95 211
95 237
95 243
95 296
95 300
96 99
96 101
96 107
96 134
96 138
96 144
96 192
96 243
96 273
97 142
97 170
97 204
98 119
98 124
98 163
98 166
98 183
98 294
99 104
99 112
99 138
99 205
100 134
100 138
100 211
101 114
101 138
101 166
101 179
101 209
101 255
102 103
102 180
102 243
102 295
103 243
104 112
104 174
104 186
104 211
104 226
104 235
104 243
104 287
105 118
105 122
105 164
105 206
105 238
105 239
105 242
105 248
105 249
105 257
105 258
105 266
105 275
105 293
105 294
105 300
106 116
106 117
106 128
106 150
106 164
106 165
106 183
106 194
106 208
106 223
106 229
106 242
106 254
106 290
107 122
107 127
107 148
107 172
107 195
107 217
107 252
107 258
107 263
108 111
108 113
108 120
108 198
108 209
108 223
108 229
108 276
109 118
109 170
109 214
109 280
109 300
110 119
110 161
110 218
111 159
111 198
112 133
112 140
112 184
112 192
112 205
112 214
112 215
112 248
112 250
112 258
112 263
112 268
113 173
113 186
113 190
113 231
113 233
113 239
113 298
114 137
114 174
114 220
114 259
114 283
114 298
115 116
115 126
115 127
115 128
115 235
116 151
116 290
117 164
117 180
117 194
117 199
117 204
117 253
117 264
118 121
118 150
118 159
118 165
118 197
118 206
118 212
118 230
118 237
118 243
118 267
118 278
119 120
119 136
119 138
119 145
119 152
119 201
119 221
119 230
119 273
120 145
120 168
120 184
120 223
121 150
121 153
121 296
122 157
122 224
122 234
122 258
122 291
123 126
123 153
123 181
123 224
123 274
123 299
124 177
124 191
124 228
124 261
124 265
124 274
124 278
125 134
125 138
125 143
125 157
125 159
125 185
125 190
125 214
125 265
125 295
126 138
126 149
126 152
126 153
126 161
126 209
126 235
126 267
126 276
126 289
127 178
127 180
127 190
127 214
127 217
127 240
127 243
127 252
128 169
128 177
128 204
128 228
128 283
128 290
128 298
129 174
129 178
130 222
130 275
130 291
131 135
131 179
132 133
132 162
132 176
132 203
133 146
133 151
133 180
133 244
134 138
134 139
134 211
134 214
134 226
134 232
134 250
134 258
134 280
134 295
135 168
135 175
135 184
135 193
135 208
135 215
135 250
135 278
136 201
137 285
138 161
138 211
138 222
138 230
139 177
139 180
139 265
140 157
140 158
140 173
140 182
140 186
140 235
140 268
141 254
141 260
141 267
141 270
141 272
142 151
142 159
142 161
142 166
142 263
142 294
143 155
143 159
143 165
143 189
143 190
143 202
143 241
144 162
144 193
145 156
145 236
146 193
146 207
147 195
147 204
147 206
147 211
147 214
147 296
148 172
149 192
149 194
149 260
149 282
150 153
150 183
150 214
150 244
150 250
150 254
151 171
151 244
151 255
151 263
151 300
152 195
152 223
153 181
153 183
153 268
153 274
154 188
154 196
154 200
154 242
154 253
154 270
154 271
154 278
155 180
155 253
155 291
156 178
156 180
156 218
156 231
156 236
156 255
156 287
156 293
156 299
157 224
157 227
158 181
158 193
158 216
158 272
159 231
159 242
159 273
160 167
160 189
160 200
160 207
160 210
160 221
160 235
160 269
160 272
160 278
160 288
161 166
161 170
161 223
161 224
161 276
162 178
162 179
162 187
162 203
162 213
162 223
162 256
162 270
162 287
162 294
163 183
163 231
163 263
163 270
164 196
164 198
164 229
164 242
164 300
165 175
165 233
166 224
166 294
166 296
167 171
167 187
167 202
167 210
167 225
167 235
167 273
167 274
168 169
168 184
168 205
168 214
168 250
168 253
168 265
168 270
168 282
169 180
169 181
169 184
169 196
169 200
169 259
169 283
171 180
171 189
171 230
171 239
171 244
171 266
171 274
171 278
171 282
171 293
172 227
172 234
173 186
173 191
173 193
173 202
173 215
173 248
174 220
174 287
175 176
175 207
176 207
177 180
177 197
177 222
177 228
177 288
177 293
178 192
178 196
178 214
178 235
178 260
178 287
179 188
179 192
179 222
179 287
180 219
180 222
180 240
180 244
181 196
181 219
181 283
182 186
182 193
182 202
182 205
182 210
182 232
183 253
183 254
183 267
183 268
183 270
184 250
184 253
184 282
185 203
185 213
185 255
185 265
185 269
186 193
186 241
186 275
186 297
187 213
187 225
187 286
188 196
188 210
188 222
188 286
189 207
191 216
191 248
191 261
191 266
192 223
192 260
193 202
193 256
193 261
194 247
195 207
195 223
195 241
196 205
196 226
196 247
196 271
197 229
197 271
197 288
197 293
198 205
198 223
198 276
199 204
199 264
200 278
200 285
200 293
201 230
201 267
202 210
202 254
202 260
202 273
202 274
202 283
202 298
203 223
203 256
203 294
204 205
204 298
205 232
205 241
205 253
205 268
205 271
205 284
205 291
205 298
206 211
206 239
206 300
207 235
208 262
208 293
209 276
209 299
210 216
210 250
210 251
210 272
211 235
211 300
213 246
213 269
213 282
214 250
214 296
215 230
215 248
215 267
215 280
215 284
215 293
216 220
216 251
216 266
217 296
218 220
218 234
218 237
218 277
218 287
219 244
220 277
220 287
221 278
222 297
222 300
223 229
223 230
223 240
223 260
223 276
223 294
224 227
224 274
225 235
225 251
225 273
225 274
225 284
226 247
226 278
226 282
226 293
227 234
227 291
229 230
229 267
229 271
230 240
230 267
231 236
231 263
232 241
233 242
235 269
235 273
236 248
236 293
237 264
238 279
239 282
239 298
240 260
241 268
241 275
242 273
243 273
244 246
244 273
245 251
245 269
245 297
246 252
246 264
246 273
248 280
248 293
250 258
251 284
251 296
251 297
252 255
252 264
252 275
252 287
252 294
253 270
253 297
254 260
254 270
254 298
255 269
255 294
255 299
255 300
257 267
257 270
259 283
259 298
260 275
261 272
262 264
262 275
264 294
266 293
267 268
267 270
267 271
267 276
267 284
276 299
278 293
280 293
284 298
286 288
291 298
*Classes
1
1
1
1
1
1
1
1
1
1
1
1
1
1
1
1
1
1
1
1
1
1
1
1
1
1
1
1
1
1
1
1
1
1
1
1
1
1
1
1
1
1
1
1
1
1
1
1
1
1
1
1
1
1
1
1
1
1
1
1
1
1
1
1
1
1
1
1
1
1
1
1
1
1
1
1
1
1
1
1
1
1
1
1
1
1
1
1
1
1
1
1
1
1
1
1
1
1
1
1
1
1
1
1
1
1
1
1
1
1
1
1
1
1
1
1
1
1
1
1
1
1
1
1
1
1
1
1
1
1
1
1
1
1
1
1
1
1
1
1
1
1
1
1
1
1
1
1
1
1
2
2
2
2
2
2
2
2
2
2
2
2
2
2
2
2
2
2
2
2
2
2
2
2
2
2
2
2
2
2
2
2
2
2
2
2
2
2
2
2
2
2
2
2
2
2
2
2
2
2
2
2
2
2
2
2
2
2
2
2
2
2
2
2
2
2
2
2
2
2
2
2
2
2
2
2
2
2
2
2
2
2
2
2
2
2
2
2
2
2
2
2
2
2
2
2
2
2
2
2
2
2
2
2
2
2
2
2
2
2
2
2
2
2
2
2
2
2
2
2
2
2
2
2
2
2
2
2
2
2
2
2
2
2
2
2
2
2
2
2
2
2
2
2
2
2
2
2
2
2
