*Vertices 300
*Edges
1 130
1 208
1 254
2 7
2 8
2 26
2 29
2 62
2 240
3 53
3 75
3 137
3 217
3 273
4 56
4 71
4 80
4 88
4 92
4 117
4 193
4 218
4 240
4 242
4 283
4 284
4 289
5 46
5 107
5 114
5 118
5 182
5 191
5 294
6 46
6 47
6 60
6 94
6 106
6 127
6 131
6 175
6 177
6 244
6 275
6 289
7 17
7 18
7 21
7 26
7 29
7 49
7 97
7 105
7 109
7 124
7 129
7 130
7 165
7 214
7 297
8 29
8 62
8 83
8 108
8 135
8 213
8 248
8 274
9 70
9 79
9 132
9 134
9 192
9 239
9 250
9 251
9 256
9 278
10 36
10 42
10 48
10 98
10 116
10 269
10 296
11 25
11 40
11 44
11 95
11 112
11 116
11 153
11 251
12 47
12 157
13 15
13 41
13 57
13 58
13 144
13 253
13 286
14 24
14 82
14 106
14 138
14 226
14 245
15 35
15 54
15 73
15 89
15 166
15 175
15 230
15 232
16 189
17 26
17 56
17 130
17 208
17 284
17 291
18 21
18 32
18 36
18 41
18 47
18 49
18 97
18 115
18 116
18 124
18 130
18 179
18 190
18 256
18 285
19 56
19 109
20 30
20 32
20 33
20 170
21 32
21 105
21 115
21 119
21 157
21 176
21 179
22 28
22 33
22 38
22 137
22 138
22 189
22 220
22 286
23 46
23 59
23 91
23 261
23 299
23 300
24 39
24 46
24 68
24 75
24 221
25 29
25 40
25 44
25 195
26 105
26 130
26 215
26 291
27 37
27 123
27 142
27 149
27 170
27 210
27 229
27 245
28 33
28 51
28 69
28 138
28 248
30 90
30 178
31 97
31 124
31 132
31 136
31 151
31 207
31 256
31 258
31 263
32 115
32 194
32 202
32 206
32 228
32 267
32 292
33 87
33 108
33 137
33 169
34 51
34 83
34 197
34 219
34 294
35 54
35 57
35 59
35 67
35 68
35 75
35 87
35 110
35 163
35 177
35 295
36 98
36 116
36 129
36 148
36 257
37 96
37 123
37 193
37 204
37 226
38 119
38 184
38 185
38 189
38 235
38 267
39 40
39 46
39 48
39 65
39 77
39 98
39 113
39 128
39 132
39 140
39 145
39 148
39 153
39 159
39 168
39 182
39 200
39 204
39 209
39 223
39 240
39 273
39 279
40 44
40 69
40 74
40 116
40 131
40 140
40 156
40 208
40 247
40 292
41 52
41 109
41 111
41 124
41 129
41 144
41 173
41 177
42 63
42 85
42 98
42 110
42 147
42 245
42 277
43 63
43 66
43 67
43 73
43 222
44 52
44 92
44 121
44 156
44 180
44 196
44 206
44 235
44 252
45 101
45 158
45 192
45 206
45 210
45 233
46 60
46 65
46 73
46 91
46 127
46 205
47 116
47 162
48 103
48 119
48 129
48 132
48 155
48 187
48 219
49 51
49 77
49 105
49 197
49 214
49 294
50 160
50 223
50 224
51 60
51 69
51 84
51 138
51 190
51 245
51 277
51 294
52 64
52 83
52 92
52 111
52 128
52 159
52 178
52 180
52 182
52 227
52 250
53 75
53 91
53 137
53 141
53 163
53 191
53 223
53 257
53 262
54 57
54 73
54 123
54 173
54 212
54 295
54 296
55 99
55 107
55 118
55 149
55 264
56 72
56 88
56 117
56 170
56 242
56 261
56 269
56 284
56 292
57 58
57 60
57 63
57 64
57 110
57 147
57 170
57 171
57 177
57 244
58 149
58 230
58 257
59 74
59 180
59 188
59 256
60 69
60 84
60 190
60 249
61 74
61 122
61 146
61 151
61 254
61 264
61 269
62 65
62 73
62 77
62 89
62 109
62 119
62 135
62 174
62 238
62 247
62 279
63 66
63 108
63 110
63 166
63 184
63 289
64 71
64 162
64 167
64 246
65 73
65 136
65 196
66 110
66 203
67 74
67 122
67 131
67 164
67 222
67 245
67 280
68 75
68 87
68 95
68 96
68 139
68 150
68 198
69 110
69 140
69 143
69 168
69 202
70 77
70 148
70 232
70 251
70 274
71 171
71 249
72 86
72 112
72 140
72 170
72 194
72 204
73 77
73 135
73 273
74 131
74 146
74 156
74 188
74 208
74 242
74 290
75 91
75 97
75 137
75 142
75 172
75 176
75 237
76 79
76 118
76 153
76 205
76 223
76 278
77 156
77 214
77 240
77 251
77 276
77 296
78 93
78 104
78 160
78 181
78 209
78 223
79 100
79 123
79 128
79 132
79 138
79 227
79 272
79 276
79 278
80 92
80 155
80 195
80 292
81 141
81 233
81 248
81 288
82 106
82 123
82 277
83 104
83 117
83 119
83 143
83 182
83 244
83 281
83 294
84 156
84 223
84 262
85 134
85 150
85 199
85 243
85 262
85 267
85 275
85 277
85 282
86 112
86 160
86 204
86 251
87 109
87 169
87 241
88 123
88 126
88 138
88 214
88 229
89 232
89 247
89 262
90 93
90 143
90 150
90 180
91 136
91 137
91 142
91 150
91 204
91 297
92 283
93 150
93 151
93 205
94 106
94 135
94 170
94 175
94 209
94 248
94 265
94 299
95 96
95 114
95 122
95 153
95 154
95 226
96 122
96 138
96 150
96 182
96 200
96 226
96 272
96 295
97 99
97 101
97 113
97 116
97 119
97 151
97 174
97 176
97 191
97 205
97 259
97 294
98 107
98 132
99 100
99 126
99 149
99 199
99 206
99 220
99 228
99 259
99 267
100 111
100 227
100 230
101 151
101 250
101 285
102 111
102 128
102 147
102 185
103 109
103 129
103 275
103 287
104 113
104 158
104 163
104 243
104 244
105 129
105 176
105 178
105 227
105 274
105 276
105 279
106 123
106 154
106 246
107 118
107 257
108 110
108 186
109 129
109 135
109 144
109 168
109 238
110 147
110 166
110 170
110 287
111 147
111 156
111 175
111 198
111 235
111 244
111 270
112 251
112 282
113 127
113 145
113 210
113 259
114 128
114 182
114 254
114 278
115 179
116 140
116 190
116 213
116 247
116 282
116 293
117 125
117 126
117 176
117 234
117 236
117 294
118 131
118 170
118 191
118 223
119 125
119 141
119 166
119 184
119 187
119 220
119 244
119 247
119 259
120 172
120 195
120 247
120 265
120 271
120 280
121 132
121 145
122 227
123 138
123 173
123 228
124 136
124 245
124 258
125 159
125 197
125 216
125 220
125 234
125 280
126 149
126 167
126 176
126 231
126 237
126 267
126 284
127 131
127 268
128 146
128 169
128 227
128 234
128 240
128 278
129 288
130 196
130 208
130 259
131 146
131 299
132 149
132 209
132 226
132 263
132 270
132 278
133 207
133 209
133 211
133 250
134 143
134 163
134 179
134 199
134 212
134 239
135 225
136 141
136 145
136 200
136 216
137 150
138 149
138 226
138 228
138 245
139 174
139 295
140 143
140 148
140 156
140 204
140 217
141 145
141 184
141 191
141 252
142 149
142 190
143 164
143 185
143 221
144 284
145 147
145 179
145 226
145 246
145 293
146 205
146 238
146 300
147 154
147 204
147 211
147 228
147 259
147 285
147 293
148 230
148 236
148 257
149 187
149 211
149 225
149 229
149 236
149 278
150 215
150 282
150 283
150 295
151 185
151 205
151 248
151 253
151 294
152 167
152 185
152 246
153 219
153 240
153 291
154 204
154 259
154 269
154 285
155 195
155 211
155 246
155 276
156 162
156 183
156 199
156 201
156 232
156 235
156 251
156 280
156 281
157 188
157 189
157 219
157 236
157 243
157 254
157 291
158 261
158 292
159 177
159 200
159 254
159 265
159 270
159 279
160 234
160 280
161 164
161 167
161 175
161 204
161 228
161 251
161 264
161 296
162 183
162 231
162 232
162 235
162 236
162 268
163 185
163 190
163 200
163 267
164 167
164 178
164 207
164 221
164 251
165 175
165 205
165 265
165 287
166 261
167 176
167 202
167 207
167 218
167 246
168 202
168 203
168 209
168 238
168 246
168 297
168 300
169 172
169 187
169 222
169 229
169 239
169 278
170 191
170 219
170 229
170 269
170 292
172 176
172 187
172 214
172 215
172 221
172 222
172 223
172 228
172 229
172 232
172 242
172 265
172 300
173 204
173 212
173 250
173 259
173 285
174 193
174 238
174 240
174 252
175 178
175 189
175 200
175 204
175 205
175 219
175 224
175 230
175 239
175 244
175 264
175 292
175 294
176 186
176 223
176 231
176 273
176 300
177 210
177 217
177 244
177 265
178 180
178 195
178 207
178 213
178 241
178 280
179 285
180 195
180 280
180 285
181 192
181 195
181 199
182 207
182 257
182 272
182 273
182 283
183 199
183 224
183 236
183 242
183 280
185 189
185 248
185 267
186 242
187 195
187 223
187 224
187 229
187 236
187 242
187 277
187 278
187 290
188 199
188 291
189 219
189 236
189 243
189 244
189 257
189 283
189 284
189 288
189 294
190 198
190 200
190 211
191 262
192 206
193 240
193 252
194 215
194 229
194 242
195 242
195 247
195 266
195 277
195 280
196 206
196 257
196 288
196 299
197 233
198 199
198 215
198 216
198 238
198 284
199 228
199 259
199 262
199 282
199 289
199 300
200 219
200 256
200 270
201 213
201 281
201 293
201 300
202 228
202 246
202 276
203 224
203 258
203 277
204 211
204 215
204 221
204 250
204 251
204 272
204 273
204 279
204 280
204 285
205 253
205 265
205 274
205 277
206 267
206 295
207 209
207 213
207 218
207 256
207 257
207 263
207 282
207 283
207 293
208 254
208 264
208 292
209 223
209 248
209 251
209 262
209 265
210 244
211 240
211 246
211 263
211 274
211 285
211 297
213 215
213 221
213 248
213 282
213 283
213 293
214 221
214 229
214 252
214 300
215 221
215 238
216 234
216 249
216 272
216 274
217 253
217 273
218 240
218 257
219 245
219 254
219 291
219 292
220 247
221 222
222 239
223 232
223 251
223 262
223 278
224 232
224 242
224 244
224 260
224 278
226 270
227 246
227 276
227 283
228 278
228 289
228 300
229 252
229 278
231 246
231 267
231 268
232 236
232 251
233 238
233 242
233 248
233 284
234 245
234 269
234 280
236 288
237 241
237 262
237 288
237 296
238 284
238 297
239 248
239 264
239 278
240 246
240 250
240 263
240 274
241 262
242 260
242 290
243 246
243 261
244 260
244 275
245 291
246 261
246 276
248 274
248 288
249 272
250 285
251 296
253 286
254 265
254 291
256 270
256 294
257 264
257 284
257 288
258 263
259 294
262 267
265 277
267 284
267 287
269 285
271 280
272 273
273 285
274 277
276 283
278 300
280 285
281 290
282 288
282 290
282 296
283 288
284 288
285 293
288 294
288 296
288 299
297 299
*Classes
1
1
1
1
1
1
1
1
1
1
1
1
1
1
1
1
1
1
1
1
1
1
1
1
1
1
1
1
1
1
1
1
1
1
1
1
1
1
1
1
1
1
1
1
1
1
1
1
1
1
1
1
1
1
1
1
1
1
1
1
1
1
1
1
1
1
1
1
1
1
1
1
1
1
1
1
1
1
1
1
1
1
1
1
1
1
1
1
1
1
1
1
1
1
1
1
1
1
1
1
1
1
1
1
1
1
1
1
1
1
1
1
1
1
1
1
1
1
1
1
1
1
1
1
1
1
1
1
1
1
1
1
1
1
1
1
1
1
1
1
1
1
1
1
1
1
1
1
1
1
2
2
2
2
2
2
2
2
2
2
2
2
2
2
2
2
2
2
2
2
2
2
2
2
2
2
2
2
2
2
2
2
2
2
2
2
2
2
2
2
2
2
2
2
2
2
2
2
2
2
2
2
2
2
2
2
2
2
2
2
2
2
2
2
2
2
2
2
2
2
2
2
2
2
2
2
2
2
2
2
2
2
2
2
2
2
2
2
2
2
2
2
2
2
2
2
2
2
2
2
2
2
2
2
2
2
2
2
2
2
2
2
2
2
2
2
2
2
2
2
2
2
2
2
2
2
2
2
2
2
2
2
2
2
2
2
2
2
2
2
2
2
2
2
2
2
2
2
2
2
