*Vertices 300
*Edges
1 26
1 43
1 50
1 118
1 130
1 141
1 220
1 223
1 266
1 277
1 286
1 292
1 294
2 7
2 21
2 37
2 75
2 79
2 196
2 204
3 52
3 81
3 184
3 240
3 286
4 62
4 112
4 156
4 167
4 174
4 288
5 32
5 93
6 7
6 96
6 125
6 141
6 146
6 211
6 271
6 282
7 24
7 87
7 96
7 107
7 110
7 141
7 178
7 198
7 255
7 261
7 282
8 25
8 105
8 109
8 119
8 132
8 146
8 184
8 186
8 241
9 40
9 48
9 50
9 57
9 65
9 97
9 264
10 25
10 28
10 36
10 39
11 161
11 193
11 284
12 24
12 157
12 234
13 21
13 38
13 47
13 131
13 145
13 185
13 253
13 276
14 188
14 192
14 241
14 244
14 295
15 30
15 45
15 58
15 61
15 66
15 97
15 133
15 203
15 267
16 78
16 116
16 282
16 284
16 296
17 37
17 55
17 75
17 132
17 211
18 42
18 67
18 100
18 150
18 204
18 256
18 292
19 54
19 75
19 77
19 80
19 141
19 159
19 173
19 275
19 280
20 94
20 122
21 22
21 37
21 49
21 51
21 77
21 102
21 123
21 148
21 165
21 237
21 262
21 290
22 77
22 85
22 155
23 39
23 59
23 83
23 85
23 100
23 143
23 153
23 159
23 195
23 201
23 210
23 214
23 215
23 231
23 252
23 300
24 102
24 110
24 116
24 157
24 176
24 234
24 286
25 29
25 39
25 109
25 204
25 241
25 249
26 46
26 128
26 130
27 98
27 164
27 249
27 277
28 34
28 36
28 43
28 72
28 83
28 92
28 120
28 157
28 179
28 184
28 200
28 240
28 285
29 42
29 129
29 194
29 241
29 275
29 287
29 291
29 295
29 300
30 45
30 272
31 54
31 79
31 173
31 185
32 112
32 209
32 216
32 220
32 260
32 279
33 64
33 120
33 159
33 173
33 245
34 56
34 78
34 92
34 107
34 125
34 140
34 170
34 259
35 76
35 91
35 152
35 191
35 259
35 275
35 277
36 42
36 73
36 83
36 85
36 114
36 224
36 254
37 46
37 51
37 60
37 75
37 79
37 89
37 103
37 132
37 153
37 193
37 294
38 63
38 122
38 125
38 141
38 149
38 155
38 171
38 208
38 253
38 259
38 278
38 283
39 59
39 83
39 197
39 236
40 109
40 155
40 218
40 253
40 286
41 51
41 75
41 113
41 124
41 129
41 188
41 224
41 281
42 75
42 83
42 85
42 96
42 113
42 129
42 130
42 146
42 190
42 204
42 250
42 268
43 48
43 49
43 50
43 59
43 80
43 92
43 138
43 143
43 177
44 133
44 142
44 168
44 227
44 274
44 290
45 116
45 198
45 288
46 103
46 126
46 140
46 288
47 157
47 161
47 273
47 276
48 50
48 57
48 65
48 99
48 152
48 160
48 167
48 226
48 280
48 281
49 70
49 77
49 78
49 92
49 224
49 277
49 281
50 86
50 167
50 226
50 281
51 153
51 188
51 240
51 270
52 62
52 64
52 66
52 96
52 173
52 208
52 221
52 286
53 63
53 83
53 99
53 143
53 164
53 190
53 192
53 199
53 284
53 297
54 130
54 190
54 198
54 222
54 245
55 82
56 92
56 125
56 170
56 208
56 275
57 97
57 99
57 206
57 225
58 133
58 134
58 170
58 202
58 220
58 253
58 258
58 270
59 85
59 113
59 115
59 122
59 177
59 184
59 198
59 224
59 248
59 253
59 268
59 271
59 292
59 293
60 62
60 66
60 93
60 101
60 103
60 153
60 158
60 167
60 294
61 79
61 107
61 155
61 164
61 166
61 190
61 237
62 66
62 87
62 117
62 148
62 156
62 188
62 189
62 207
62 244
62 290
63 71
63 83
63 102
63 110
63 122
63 136
63 147
63 149
63 178
63 191
63 200
63 266
64 87
64 110
64 120
64 150
64 164
64 205
64 211
65 99
65 103
65 175
65 198
65 199
66 117
66 207
66 267
67 102
67 150
67 164
67 167
67 200
67 245
67 288
68 113
68 130
68 133
68 257
69 92
69 132
69 211
69 249
69 258
69 286
70 111
71 83
71 88
71 202
72 92
72 93
72 140
73 254
74 80
74 121
74 126
74 177
74 196
74 295
75 141
75 244
75 250
75 266
75 289
75 300
76 111
76 131
76 210
77 104
77 131
77 227
77 270
78 92
78 140
78 183
78 191
78 230
78 236
78 279
79 113
79 159
79 173
79 185
79 252
80 141
80 146
80 177
80 202
80 217
80 229
80 250
80 280
80 295
81 114
81 152
82 151
82 266
83 85
83 113
83 130
83 147
83 215
83 299
84 126
84 140
84 185
84 241
84 283
85 106
85 184
85 214
86 139
86 174
86 222
86 252
87 107
87 117
87 178
87 245
87 255
88 130
88 169
88 203
88 220
88 279
89 127
89 139
89 142
89 192
89 206
89 211
89 214
89 222
89 242
89 251
90 252
90 255
90 265
90 268
91 106
91 257
92 105
92 132
92 140
92 164
92 187
92 207
92 236
92 285
92 296
93 268
94 124
94 222
94 284
95 151
95 154
95 189
95 252
95 271
96 146
96 173
96 186
96 187
96 204
96 246
96 247
96 294
97 120
97 135
97 151
97 199
97 251
98 238
98 242
99 152
100 111
100 150
100 216
100 299
100 300
101 169
101 192
101 194
102 136
102 138
102 148
102 149
102 173
102 176
102 200
102 223
102 275
103 154
103 167
103 188
103 189
103 212
103 229
103 254
104 131
104 161
104 266
104 285
104 296
105 132
105 186
105 205
105 282
106 153
106 257
107 125
107 167
107 185
107 189
107 208
107 245
107 278
107 288
108 146
108 205
108 207
109 119
109 231
109 253
109 269
109 289
110 200
110 266
110 271
111 112
111 123
111 148
111 157
111 161
111 170
111 248
111 299
112 149
112 151
112 162
112 210
112 272
112 281
112 288
113 124
113 130
113 133
113 138
113 240
113 248
114 145
114 150
114 197
114 245
114 254
114 257
114 267
114 273
114 285
114 288
115 122
115 127
115 156
115 159
115 184
116 209
116 242
116 262
116 281
117 272
118 157
118 178
118 223
118 230
119 210
119 250
120 123
120 157
120 173
120 218
120 250
120 272
120 289
121 207
121 209
121 239
122 125
122 259
122 277
123 148
123 211
123 214
123 269
123 271
123 272
123 287
124 145
124 188
124 194
124 267
125 141
125 208
125 220
125 224
125 245
126 140
126 196
126 247
126 265
126 267
127 142
127 189
127 193
127 228
127 294
128 155
128 234
128 277
129 146
129 179
129 209
129 216
129 268
129 269
129 281
130 138
130 169
130 199
130 248
131 136
131 198
131 227
131 247
131 285
131 291
132 146
132 184
133 142
133 247
133 251
133 274
134 210
134 220
134 229
134 271
135 207
135 251
135 263
136 173
136 213
136 299
137 156
137 157
137 185
138 140
138 143
138 159
138 193
138 213
138 288
139 216
140 187
140 189
140 221
140 236
140 247
140 249
140 288
140 290
140 296
141 154
141 170
141 248
141 266
141 274
142 259
142 292
142 297
143 163
143 214
143 299
144 269
145 165
145 262
145 267
145 276
146 250
146 279
146 280
146 290
147 149
147 225
147 273
148 170
148 212
148 269
149 163
149 210
149 288
150 158
150 239
150 259
150 288
151 161
151 162
151 188
151 213
151 223
151 225
151 229
151 293
152 184
152 232
152 253
152 277
152 285
153 193
153 201
153 202
153 284
154 155
154 206
154 239
154 248
154 249
154 286
155 164
155 202
155 232
155 238
155 248
155 249
155 251
155 253
156 174
156 184
156 185
156 204
156 235
157 161
157 173
157 228
157 234
157 251
157 253
158 159
158 177
158 233
158 278
159 184
159 252
159 278
160 208
160 238
160 280
161 169
161 173
161 193
161 214
161 218
161 251
161 254
162 171
162 208
162 234
162 244
162 285
162 291
163 236
163 240
163 246
163 299
164 196
164 202
164 221
164 226
164 238
164 245
164 249
165 242
165 266
166 193
166 213
166 242
167 251
167 263
167 298
168 170
168 211
168 234
169 173
169 194
169 246
169 262
169 267
170 189
170 196
170 234
170 239
171 185
171 234
171 244
171 278
171 283
171 296
172 210
173 213
173 246
173 247
173 271
173 280
174 184
174 221
174 245
175 194
175 219
175 258
176 197
176 222
176 234
176 283
177 261
178 252
178 295
179 187
179 250
179 265
179 269
179 285
180 203
181 197
181 212
183 279
184 193
184 232
184 240
184 268
186 230
186 241
186 250
186 284
186 291
187 189
187 199
187 230
187 241
187 265
187 285
188 223
188 239
188 244
188 274
189 252
189 256
190 209
190 241
190 271
190 281
192 209
192 231
193 213
193 242
193 294
194 219
194 284
194 295
195 199
195 221
195 237
196 234
197 217
197 234
197 245
197 283
198 199
198 245
199 221
199 230
199 245
200 230
200 236
202 223
202 229
202 258
202 269
202 284
202 294
204 234
204 235
204 249
204 277
204 286
205 207
205 243
205 257
205 264
205 276
205 296
206 239
206 242
206 248
207 243
207 276
207 286
207 296
208 221
208 223
208 285
209 239
209 241
209 244
209 279
209 281
211 234
211 267
211 290
212 229
212 232
212 272
213 225
213 229
213 236
213 246
213 251
214 251
214 283
214 291
215 220
215 285
215 298
216 276
217 276
217 283
218 251
218 268
219 230
219 262
220 230
220 236
220 241
221 238
223 275
223 293
224 292
225 227
225 229
225 273
226 249
227 241
229 234
229 269
230 236
230 241
231 248
231 289
232 253
232 285
232 293
234 267
234 278
236 241
238 280
238 292
239 244
239 279
240 245
240 266
241 253
241 288
241 291
243 256
243 257
244 274
247 251
248 249
248 260
248 291
248 300
249 258
249 277
249 286
250 269
250 289
250 298
251 253
251 258
251 263
253 291
253 293
254 259
255 261
257 273
260 285
262 267
262 287
262 290
264 268
264 276
266 290
267 287
268 269
269 293
271 280
271 287
273 298
278 295
278 296
283 297
284 291
285 288
285 291
288 291
288 298
289 300
290 298
291 298
*Classes
1
1
1
1
1
1
1
1
1
1
1
1
1
1
1
1
1
1
1
1
1
1
1
1
1
1
1
1
1
1
1
1
1
1
1
1
1
1
1
1
1
1
1
1
1
1
1
1
1
1
1
1
1
1
1
1
1
1
1
1
1
1
1
1
1
1
1
1
1
1
1
1
1
1
1
1
1
1
1
1
1
1
1
1
1
1
1
1
1
1
1
1
1
1
1
1
1
1
1
1
1
1
1
1
1
1
1
1
1
1
1
1
1
1
1
1
1
1
1
1
1
1
1
1
1
1
1
1
1
1
1
1
1
1
1
1
1
1
1
1
1
1
1
1
1
1
1
1
1
1
2
2
2
2
2
2
2
2
2
2
2
2
2
2
2
2
2
2
2
2
2
2
2
2
2
2
2
2
2
2
2
2
2
2
2
2
2
2
2
2
2
2
2
2
2
2
2
2
2
2
2
2
2
2
2
2
2
2
2
2
2
2
2
2
2
2
2
2
2
2
2
2
2
2
2
2
2
2
2
2
2
2
2
2
2
2
2
2
2
2
2
2
2
2
2
2
2
2
2
2
2
2
2
2
2
2
2
2
2
2
2
2
2
2
2
2
2
2
2
2
2
2
2
2
2
2
2
2
2
2
2
2
2
2
2
2
2
2
2
2
2
2
2
2
2
2
2
2
2
2
