*Vertices 300
*Edges
1 28
1 30
1 32
1 51
1 80
1 101
1 136
1 150
1 158
1 175
1 208
1 295
2 15
2 19
2 30
2 63
2 77
2 79
2 124
2 129
2 138
2 163
2 225
2 249
3 25
3 34
3 39
3 125
3 250
4 29
4 87
4 91
4 101
4 294
5 9
5 10
5 11
5 14
5 22
5 31
5 104
5 107
5 135
5 171
5 216
5 244
5 251
6 56
6 65
6 67
6 93
6 113
6 119
6 149
6 206
7 37
7 58
7 92
7 108
7 148
7 159
7 191
7 231
7 247
8 21
8 29
8 64
8 91
8 101
8 139
8 208
8 222
8 245
8 252
9 10
9 14
9 104
9 107
9 135
9 219
10 34
10 107
10 185
10 210
10 225
10 249
10 273
11 31
11 49
11 62
12 34
12 36
12 68
12 76
12 117
12 119
12 168
12 179
12 183
12 198
12 268
12 286
12 292
13 52
13 103
13 124
13 143
14 33
14 38
14 71
14 84
14 95
14 98
14 103
14 107
14 144
14 192
14 195
15 30
15 37
15 43
15 61
15 77
15 108
15 128
15 187
15 217
15 234
15 239
15 249
15 250
15 255
15 291
16 67
16 184
17 18
17 43
17 104
17 166
17 227
17 254
18 27
18 43
18 64
18 78
18 110
18 226
18 231
19 30
19 38
19 40
19 81
19 94
19 103
19 124
19 206
19 207
19 230
19 240
19 268
19 288
20 43
20 48
20 63
20 102
20 110
20 119
20 138
20 143
20 198
20 214
20 220
20 280
20 292
21 82
21 101
21 119
21 136
21 245
21 262
22 27
22 48
22 95
22 106
22 112
22 113
22 117
22 189
22 205
22 207
22 237
22 244
22 278
22 286
22 292
23 36
23 98
23 174
23 182
23 207
23 285
23 295
24 45
24 68
24 79
24 152
24 163
24 175
24 238
25 79
25 125
25 130
25 286
26 62
26 106
26 125
26 126
26 143
26 176
26 255
26 289
27 35
27 48
27 63
27 78
27 101
27 104
27 106
27 112
27 141
27 163
27 175
27 180
27 181
27 190
27 231
27 238
27 266
27 268
27 278
28 39
28 110
28 113
28 114
28 118
28 119
28 123
28 129
28 136
28 190
28 205
28 218
28 258
28 284
28 298
29 134
29 139
29 209
30 53
30 63
30 80
30 83
30 116
30 124
30 141
30 153
30 158
30 182
30 183
30 279
30 299
31 49
31 62
31 66
31 72
31 161
31 216
31 298
32 67
32 68
32 100
32 119
32 206
32 210
32 295
33 38
33 42
33 62
33 69
33 73
33 79
33 89
33 95
33 103
33 133
33 144
33 160
33 170
33 195
33 258
33 274
33 285
33 295
34 38
34 113
34 115
34 119
34 125
34 157
34 206
34 210
34 268
34 283
35 40
35 63
35 75
35 79
35 83
35 91
35 99
35 130
35 190
35 210
35 216
36 39
36 42
36 58
36 76
36 95
36 114
36 117
36 129
36 131
36 135
36 136
36 163
36 224
36 234
36 244
36 268
37 58
37 92
37 103
37 129
37 138
37 143
37 169
37 200
37 217
37 224
37 247
37 263
37 269
38 40
38 84
38 98
38 107
38 119
38 241
38 283
38 290
39 75
39 79
39 123
39 130
39 172
39 188
39 205
39 208
39 218
39 224
39 249
40 44
40 49
40 66
40 83
40 131
40 161
40 173
40 203
40 228
40 229
41 49
41 173
42 62
42 83
42 89
42 95
42 112
42 136
42 167
42 223
42 256
42 265
42 277
42 296
43 64
43 110
43 125
43 137
43 160
43 226
43 231
43 239
43 278
44 74
44 75
44 111
44 139
44 140
44 144
44 164
44 167
44 185
44 191
44 228
44 235
44 240
45 68
45 79
45 91
45 99
45 108
45 122
45 130
45 172
45 178
45 190
45 220
45 222
45 255
45 262
46 54
46 102
46 260
46 275
47 59
47 63
47 106
47 109
47 145
47 167
47 250
47 300
48 54
48 111
48 117
48 189
49 55
49 66
49 72
49 76
49 111
49 117
49 132
49 136
49 171
49 173
49 229
49 264
49 288
50 108
50 156
50 190
51 79
51 131
51 208
52 85
52 88
52 103
52 121
52 170
52 213
52 226
52 270
53 63
53 65
53 81
53 116
53 136
53 153
53 164
53 165
53 180
53 207
53 215
53 290
53 298
53 300
54 66
54 102
54 123
54 144
54 252
54 259
54 283
54 294
55 70
55 72
55 87
55 124
55 127
55 151
55 196
55 264
56 66
56 83
56 87
56 93
56 119
56 122
56 135
56 150
56 206
56 212
56 228
57 76
57 112
57 117
57 170
57 175
57 193
57 235
58 136
58 141
58 178
58 194
59 91
59 101
59 106
59 121
59 141
59 167
59 183
59 187
59 250
59 266
60 100
60 161
60 179
61 69
61 123
61 179
61 214
61 291
62 63
62 83
62 94
62 125
62 133
62 262
62 296
62 299
63 79
63 81
63 106
63 121
63 125
63 136
63 185
63 194
63 220
63 255
63 291
64 79
64 124
64 125
64 208
64 233
65 67
65 77
65 86
65 108
65 149
65 153
65 193
65 204
65 231
66 76
66 83
66 90
66 95
66 111
66 118
66 132
66 144
66 146
66 156
66 166
66 256
66 267
66 274
66 284
67 74
67 77
67 86
67 129
67 168
67 172
67 184
67 188
67 231
67 240
67 294
68 82
68 113
68 119
68 132
68 285
69 102
69 123
69 190
69 207
69 252
69 253
69 258
70 76
70 90
70 107
70 196
70 232
70 234
70 265
71 103
71 124
71 154
71 277
71 295
72 116
72 132
72 160
73 77
73 96
73 125
73 133
73 147
73 151
73 193
73 212
73 233
73 280
73 295
74 89
74 164
74 184
74 198
74 252
75 79
75 111
75 191
75 195
75 243
75 250
75 259
76 92
76 95
76 103
76 107
76 112
76 117
76 118
76 135
76 211
76 234
76 235
76 264
76 298
76 300
77 79
77 119
77 129
77 133
77 145
77 187
77 203
77 245
77 284
77 285
78 104
78 163
78 202
78 270
79 83
79 91
79 124
79 130
79 133
79 185
79 198
79 208
79 220
79 250
79 259
80 141
80 176
80 234
80 273
80 284
80 298
81 155
81 221
81 252
82 119
82 132
82 178
82 193
82 207
82 264
82 283
83 89
83 95
83 111
83 118
83 123
83 131
83 150
83 182
83 193
83 232
83 264
84 91
84 94
84 121
84 130
84 193
84 196
84 215
84 218
84 222
84 281
85 88
85 89
85 121
85 205
85 207
85 274
87 98
87 101
87 102
87 123
87 127
87 178
87 195
87 237
87 292
88 121
88 167
88 177
88 257
88 258
89 164
89 198
89 207
90 120
90 146
90 167
90 203
90 213
90 215
90 246
91 94
91 101
91 120
91 121
91 185
91 271
91 279
92 133
92 141
92 150
92 156
92 176
92 191
92 210
92 235
92 241
93 145
93 159
93 214
94 130
94 162
94 211
94 233
94 253
94 296
95 114
95 117
95 122
95 135
95 156
95 228
96 177
96 198
96 212
96 267
97 123
97 188
97 203
97 285
97 287
98 116
98 123
98 127
98 144
98 182
98 199
98 233
98 268
98 271
99 108
99 175
99 200
99 210
99 226
99 242
99 280
99 284
100 210
100 218
100 279
101 120
101 126
101 136
101 185
101 237
101 266
101 271
101 279
101 294
102 107
102 123
102 144
102 148
102 199
102 259
102 268
102 275
102 292
102 295
103 107
103 118
103 124
103 143
103 195
103 230
103 248
103 256
103 267
103 275
103 277
104 158
104 186
105 120
105 170
105 193
105 232
105 264
106 119
106 141
106 143
106 178
106 198
106 200
106 235
106 248
107 144
107 292
108 164
108 214
108 231
108 239
108 251
109 140
109 143
109 191
109 250
109 285
110 151
110 164
110 194
110 264
111 146
112 226
112 265
112 286
113 119
113 161
113 216
113 218
113 228
113 252
113 262
113 291
113 292
113 300
114 118
114 155
114 227
114 272
114 277
115 264
116 123
116 136
116 153
116 154
116 160
116 168
116 170
116 180
116 196
116 205
116 207
116 215
116 224
117 145
117 198
117 300
118 124
118 144
118 145
118 146
118 184
118 190
118 243
118 258
118 260
118 264
118 267
118 284
119 133
119 143
119 198
120 142
120 229
120 232
120 237
120 245
121 145
121 266
121 271
121 284
122 135
122 193
122 239
122 262
122 270
123 160
123 168
123 188
123 201
123 233
123 249
124 132
124 138
124 146
124 151
124 233
124 259
124 268
125 130
125 158
125 194
125 218
125 233
125 262
126 289
127 184
127 281
127 292
128 170
128 234
128 238
128 290
129 136
129 143
129 168
129 169
129 207
129 244
129 246
129 249
129 256
130 133
130 177
130 194
130 281
131 156
131 158
131 192
131 224
132 176
132 184
132 274
132 280
132 283
132 285
133 150
133 188
133 295
134 148
134 203
134 204
134 213
134 230
134 263
135 193
135 200
135 205
135 228
135 281
136 171
136 195
136 205
136 244
136 290
137 289
138 224
138 260
139 267
140 144
140 184
140 252
141 156
141 172
141 183
141 188
141 194
141 248
142 175
142 221
143 169
143 185
143 285
144 148
144 162
144 164
144 179
144 205
144 220
144 239
144 240
144 288
144 294
145 155
145 159
145 181
145 266
145 283
145 284
145 300
146 160
146 165
146 199
146 203
146 215
146 218
146 239
146 263
146 268
147 186
147 193
148 159
148 184
148 186
148 213
148 215
148 226
148 232
148 256
148 265
148 283
149 168
149 237
150 247
151 170
151 176
151 212
151 264
151 287
151 288
152 247
153 164
153 167
153 189
153 197
153 206
153 239
153 288
153 293
153 298
154 160
154 295
155 206
155 246
155 277
156 164
156 192
156 256
157 158
157 165
157 177
157 205
157 207
157 209
157 223
157 258
157 275
158 165
158 192
158 218
158 256
158 293
159 184
159 226
159 240
159 256
160 224
160 261
160 274
160 276
161 194
161 216
161 239
161 300
162 179
162 217
162 253
163 182
163 216
163 225
163 238
163 271
164 193
164 235
164 275
165 180
165 186
165 187
165 198
165 200
165 215
165 223
165 293
165 297
166 254
166 292
167 176
167 193
167 197
167 200
167 225
167 226
167 239
167 249
167 250
167 261
167 270
167 276
168 211
168 224
168 248
168 257
168 273
170 176
170 207
170 213
170 219
170 222
170 253
170 258
170 264
171 195
171 200
171 229
171 241
171 243
171 282
171 298
172 188
172 221
172 228
172 262
173 188
173 208
173 209
173 229
173 230
174 190
174 191
174 203
174 272
174 285
175 189
175 236
175 237
175 242
175 244
175 254
175 300
176 184
176 210
176 241
176 264
177 198
177 200
177 258
178 222
178 230
178 235
178 253
178 255
178 264
178 296
179 240
180 187
180 199
180 209
180 215
180 230
180 268
181 190
181 217
181 221
181 228
181 235
181 296
182 268
183 198
183 279
184 191
184 223
184 248
184 252
184 265
184 267
184 272
184 294
185 259
185 262
185 273
185 291
186 213
186 223
186 284
186 288
187 209
187 230
187 261
188 208
189 206
189 210
189 236
189 242
189 300
190 200
190 209
190 216
190 226
190 230
190 252
190 253
190 267
190 272
191 219
191 270
191 272
191 294
192 206
192 219
192 224
192 233
192 260
192 270
192 284
193 196
193 205
193 207
193 215
193 216
193 222
193 225
193 232
193 235
193 250
193 270
193 296
194 216
194 224
194 257
194 260
195 282
196 265
197 226
197 264
197 270
198 200
198 243
198 292
198 293
199 217
199 258
199 268
200 204
200 205
200 226
200 227
200 243
200 290
200 293
200 297
201 202
201 250
201 252
202 270
203 204
203 246
203 268
203 285
204 213
204 268
204 285
204 297
205 207
205 222
205 244
205 248
205 253
205 275
205 292
205 294
206 210
206 236
206 260
206 275
206 293
206 295
207 208
207 215
207 224
207 232
207 235
207 246
207 248
207 250
207 256
207 274
207 285
207 288
208 229
209 230
209 255
209 275
210 226
210 243
210 264
210 291
210 298
211 248
211 256
211 270
212 249
212 287
212 288
213 215
213 219
213 276
215 218
215 225
215 232
215 235
215 268
215 293
216 225
216 300
217 235
218 221
218 235
219 260
219 270
220 228
220 262
220 273
220 280
221 235
222 252
222 253
223 246
223 248
223 277
223 283
223 297
224 229
224 239
224 257
224 260
224 263
224 269
224 284
225 226
225 233
225 235
225 237
225 242
225 249
225 271
226 261
227 264
227 290
228 262
228 273
229 243
229 257
229 269
229 282
230 255
230 268
230 272
230 276
231 233
231 251
232 265
233 249
233 250
233 253
233 255
233 287
234 238
234 299
235 296
236 260
237 242
237 254
237 266
237 292
237 294
238 266
239 278
239 293
241 282
241 298
242 249
242 254
242 271
242 280
243 282
243 290
243 297
244 281
244 286
244 300
245 284
245 285
246 273
246 285
248 256
248 272
248 275
249 250
249 252
249 255
249 287
249 296
250 252
252 272
255 291
255 296
260 267
260 284
261 270
261 276
261 277
262 270
262 273
264 282
264 290
264 298
266 268
266 294
267 274
267 287
268 276
268 278
268 286
271 279
272 277
274 276
274 280
275 286
281 283
282 298
283 300
284 288
291 298
*Classes
1
1
1
1
1
1
1
1
1
1
1
1
1
1
1
1
1
1
1
1
1
1
1
1
1
1
1
1
1
1
1
1
1
1
1
1
1
1
1
1
1
1
1
1
1
1
1
1
1
1
1
1
1
1
1
1
1
1
1
1
1
1
1
1
1
1
1
1
1
1
1
1
1
1
1
1
1
1
1
1
1
1
1
1
1
1
1
1
1
1
1
1
1
1
1
1
1
1
1
1
1
1
1
1
1
1
1
1
1
1
1
1
1
1
1
1
1
1
1
1
1
1
1
1
1
1
1
1
1
1
1
1
1
1
1
1
1
1
1
1
1
1
1
1
1
1
1
1
1
1
2
2
2
2
2
2
2
2
2
2
2
2
2
2
2
2
2
2
2
2
2
2
2
2
2
2
2
2
2
2
2
2
2
2
2
2
2
2
2
2
2
2
2
2
2
2
2
2
2
2
2
2
2
2
2
2
2
2
2
2
2
2
2
2
2
2
2
2
2
2
2
2
2
2
2
2
2
2
2
2
2
2
2
2
2
2
2
2
2
2
2
2
2
2
2
2
2
2
2
2
2
2
2
2
2
2
2
2
2
2
2
2
2
2
2
2
2
2
2
2
2
2
2
2
2
2
2
2
2
2
2
2
2
2
2
2
2
2
2
2
2
2
2
2
2
2
2
2
2
2
