*Vertices 300
*Edges
1 15
1 50
1 108
1 220
1 254
2 203
2 206
2 230
3 88
3 178
3 203
3 205
3 266
4 37
4 113
4 151
4 194
4 230
4 281
4 292
5 15
5 18
5 35
5 49
5 65
5 92
5 202
5 206
5 246
6 76
6 112
6 178
6 241
6 272
6 290
7 76
7 137
7 145
7 195
7 197
7 229
7 262
7 290
8 54
8 77
8 109
8 223
8 228
8 235
8 250
9 14
9 42
9 61
9 63
9 74
9 92
9 144
9 147
9 224
9 236
9 289
9 296
10 62
10 228
10 233
10 241
10 253
11 27
11 32
11 53
11 63
11 204
11 273
11 291
12 100
12 163
12 172
12 200
12 236
12 248
12 283
13 86
13 116
13 166
14 30
14 114
14 120
14 147
15 50
15 92
15 132
15 151
15 180
15 188
15 208
15 209
15 221
15 253
16 84
16 221
16 272
17 130
17 210
17 224
17 257
18 31
18 94
18 106
18 137
18 166
18 229
18 238
18 252
18 292
19 83
19 85
19 126
19 192
19 212
19 263
19 271
20 51
20 74
20 94
20 145
20 165
20 191
20 194
20 253
20 255
21 69
21 83
21 125
21 146
21 164
21 191
21 203
21 218
21 226
21 253
21 266
22 50
22 77
22 236
22 285
23 25
23 32
23 109
23 110
23 213
24 27
24 116
24 160
24 166
24 202
24 247
25 87
25 101
25 145
25 159
25 191
25 270
26 39
26 98
26 286
27 34
27 40
27 63
27 147
27 197
27 272
27 285
28 87
28 126
28 142
28 174
28 210
28 222
28 269
29 39
29 53
29 75
29 111
29 114
29 120
29 146
29 167
29 196
30 39
30 40
30 63
30 201
30 215
30 227
30 254
30 264
31 35
31 46
31 66
31 95
31 106
31 147
31 292
32 55
32 61
32 63
32 80
32 109
32 117
32 157
32 250
32 286
33 36
33 84
33 108
33 118
33 208
33 225
33 270
34 66
34 112
34 197
34 206
34 266
34 272
35 46
35 65
35 71
35 81
35 96
35 119
35 144
35 212
35 257
35 264
36 60
36 69
37 78
37 113
37 114
37 168
37 288
38 121
38 223
38 232
39 75
39 150
39 169
40 63
40 152
40 162
40 210
40 218
40 270
40 272
40 282
41 55
41 88
41 89
41 150
41 158
42 59
42 203
42 276
43 59
43 238
44 137
44 146
45 110
45 161
45 177
45 194
45 204
45 231
45 252
46 94
46 106
46 223
46 227
46 230
46 243
46 254
46 282
46 283
47 113
47 147
48 148
48 175
48 195
48 256
48 289
49 65
49 73
49 186
49 207
49 208
49 250
50 84
50 108
50 129
50 158
50 168
50 209
50 236
50 241
51 94
51 149
51 159
52 74
52 88
52 110
52 118
52 119
52 135
52 147
52 216
53 65
53 90
53 151
53 156
53 220
53 232
53 296
54 139
54 172
54 188
55 70
55 98
55 109
55 152
55 225
55 227
55 248
55 268
56 86
56 103
56 120
56 149
56 165
56 168
57 84
57 190
57 213
57 285
58 104
58 150
58 152
58 200
58 242
58 276
59 64
59 74
59 105
59 157
59 164
59 175
59 186
59 226
59 235
59 240
59 289
60 132
60 169
60 250
60 286
61 144
61 211
61 222
61 247
61 263
61 270
61 292
62 116
62 130
62 178
62 183
62 202
62 210
62 299
63 80
63 109
63 117
63 147
63 190
63 286
64 175
64 277
65 71
65 119
65 144
65 165
65 207
65 220
65 232
65 239
65 246
66 68
66 95
67 69
67 134
67 141
67 191
67 199
67 230
67 244
68 72
68 238
68 287
69 83
69 125
69 141
70 86
70 98
70 103
70 138
70 145
70 191
70 218
70 222
70 252
71 121
71 144
71 172
71 202
71 206
71 225
71 250
71 257
71 258
72 124
72 202
73 160
73 192
73 202
73 206
73 282
74 98
74 110
74 157
74 164
74 206
74 255
75 76
75 102
75 133
75 134
75 135
75 137
75 145
75 150
75 169
75 175
75 225
75 234
75 242
75 249
76 97
76 102
76 137
76 145
76 146
76 150
76 178
76 227
76 243
77 109
77 200
77 281
78 168
78 173
79 89
79 140
79 161
79 198
79 233
81 96
81 119
81 197
81 247
82 138
82 149
82 240
83 110
83 125
83 130
83 246
83 264
83 288
84 108
84 231
84 270
85 125
85 150
85 154
85 236
85 271
86 103
86 116
86 156
86 165
86 192
86 290
87 90
87 123
87 126
88 150
88 209
88 229
88 283
89 99
89 150
89 161
89 186
89 198
89 246
89 270
90 123
90 135
90 188
90 221
90 222
90 296
91 100
91 133
91 157
91 263
91 278
91 281
92 132
92 224
92 265
92 286
93 96
93 102
93 173
93 206
93 224
94 176
94 283
95 123
95 147
95 277
96 102
96 197
96 224
97 105
97 127
97 137
97 160
97 249
98 138
98 152
98 166
98 179
98 184
98 206
98 210
98 222
98 236
99 230
99 252
99 281
100 163
100 183
100 236
101 118
101 126
101 145
101 150
101 223
101 228
101 252
101 286
102 130
102 173
102 206
102 285
103 145
103 271
104 106
104 123
104 193
105 161
105 188
105 204
105 210
105 264
105 291
106 122
106 123
106 152
106 153
106 157
106 164
106 170
106 196
106 212
106 226
106 292
107 115
107 279
108 118
108 151
108 161
108 199
108 201
108 265
108 270
109 161
109 213
110 119
110 161
110 183
110 233
110 253
110 288
111 263
111 287
112 213
112 235
112 241
112 266
113 147
114 128
114 196
114 288
115 207
116 123
116 164
116 183
116 202
116 206
116 262
116 265
117 137
117 148
117 179
118 150
118 165
118 169
118 178
118 181
118 190
118 195
118 224
118 225
118 266
118 274
118 294
119 135
119 165
120 147
120 149
120 226
120 282
121 144
121 161
121 170
121 186
122 152
122 178
123 164
123 186
123 193
123 200
124 128
124 174
124 202
124 203
124 237
125 134
125 150
125 254
126 135
126 145
126 212
127 133
127 198
127 222
128 214
128 264
128 296
128 297
129 182
129 212
129 228
129 270
130 206
130 224
130 239
130 247
130 264
131 132
131 168
131 213
133 158
133 222
133 279
134 135
134 141
134 162
134 181
134 291
135 196
135 201
135 231
136 219
136 278
137 146
137 148
137 265
137 287
138 155
138 194
138 233
138 252
139 179
139 191
140 196
140 216
141 164
141 197
141 199
141 266
142 192
142 210
143 160
143 168
143 197
143 232
143 249
143 282
144 189
144 239
144 247
145 173
145 224
145 228
146 199
146 297
147 164
147 181
147 236
147 255
147 257
147 278
148 248
148 256
148 268
148 273
148 285
149 202
149 204
149 223
149 245
149 246
149 255
149 281
150 154
150 181
150 195
150 252
151 156
151 208
151 258
151 298
151 299
152 178
152 210
152 248
153 196
154 190
154 222
154 273
154 284
154 291
155 254
156 179
156 191
156 251
156 257
156 258
156 290
157 224
157 250
157 254
157 258
157 281
158 173
158 181
158 223
158 228
158 243
158 257
158 269
158 281
159 238
160 288
161 210
161 232
162 187
162 243
162 292
163 180
163 185
163 265
163 273
163 287
164 195
164 199
164 217
164 224
164 253
165 182
165 261
166 199
166 229
166 297
167 205
167 287
168 176
168 187
168 213
169 197
169 216
169 275
169 276
169 294
169 298
169 299
170 186
170 218
171 230
171 238
171 249
172 188
172 200
172 225
172 258
173 197
173 211
173 224
173 282
174 214
174 216
174 259
174 268
174 296
175 231
176 187
176 273
176 291
177 230
177 233
177 245
177 281
178 210
178 224
179 294
180 189
180 228
180 254
180 270
180 273
180 287
181 184
181 215
181 257
181 265
181 271
181 274
182 261
182 267
182 272
182 289
182 296
183 219
183 222
183 225
183 253
183 278
184 214
184 236
184 257
184 258
184 260
185 251
185 267
186 191
186 217
186 270
186 292
187 292
188 193
188 205
188 217
188 221
188 253
188 275
189 223
189 228
189 257
190 195
191 205
191 231
191 234
191 253
191 256
191 270
191 290
191 297
192 210
192 232
193 214
193 265
193 275
194 215
194 252
194 271
194 281
194 292
194 297
195 279
195 285
196 201
197 210
197 224
197 230
197 275
197 290
198 259
198 274
199 217
199 253
199 297
200 210
200 245
200 258
200 271
201 256
202 204
202 206
202 224
202 299
203 232
203 266
204 246
205 253
205 257
205 280
205 287
205 297
206 224
207 231
207 242
207 259
207 270
207 292
208 214
208 250
208 269
208 288
209 243
209 273
210 212
210 213
210 221
210 224
210 232
210 258
210 263
211 222
211 246
211 298
211 300
212 228
212 232
212 257
213 224
213 236
214 256
214 264
214 268
214 288
214 291
215 220
215 260
215 271
216 266
216 268
217 220
217 241
217 275
218 253
219 225
219 227
219 254
219 264
219 278
219 283
219 295
219 297
220 241
220 276
221 232
221 253
221 258
221 262
221 278
222 243
222 280
222 298
223 228
224 248
224 266
224 290
225 231
225 233
225 234
226 243
227 254
227 279
227 292
228 257
229 289
230 259
230 281
230 283
230 290
231 234
231 292
233 241
233 242
234 241
234 242
234 244
234 274
235 250
235 269
235 281
238 247
238 249
239 247
239 263
240 294
241 242
241 271
242 256
242 274
243 273
243 280
244 256
244 264
245 281
247 282
248 268
249 282
249 293
251 267
251 271
251 290
252 265
253 257
253 287
253 297
254 258
254 279
256 264
256 284
257 258
258 271
259 268
259 283
259 292
260 271
261 269
261 275
261 294
262 275
263 266
264 268
264 291
264 297
267 277
268 296
269 281
269 294
270 272
270 292
270 296
271 281
271 293
272 296
273 291
276 294
278 297
279 299
280 287
281 290
289 296
289 298
297 298
298 299
*Classes
1
1
1
1
1
1
1
1
1
1
1
1
1
1
1
1
1
1
1
1
1
1
1
1
1
1
1
1
1
1
1
1
1
1
1
1
1
1
1
1
1
1
1
1
1
1
1
1
1
1
1
1
1
1
1
1
1
1
1
1
1
1
1
1
1
1
1
1
1
1
1
1
1
1
1
1
1
1
1
1
1
1
1
1
1
1
1
1
1
1
1
1
1
1
1
1
1
1
1
1
1
1
1
1
1
1
1
1
1
1
1
1
1
1
1
1
1
1
1
1
1
1
1
1
1
1
1
1
1
1
1
1
1
1
1
1
1
1
1
1
1
1
1
1
1
1
1
1
1
1
2
2
2
2
2
2
2
2
2
2
2
2
2
2
2
2
2
2
2
2
2
2
2
2
2
2
2
2
2
2
2
2
2
2
2
2
2
2
2
2
2
2
2
2
2
2
2
2
2
2
2
2
2
2
2
2
2
2
2
2
2
2
2
2
2
2
2
2
2
2
2
2
2
2
2
2
2
2
2
2
2
2
2
2
2
2
2
2
2
2
2
2
2
2
2
2
2
2
2
2
2
2
2
2
2
2
2
2
2
2
2
2
2
2
2
2
2
2
2
2
2
2
2
2
2
2
2
2
2
2
2
2
2
2
2
2
2
2
2
2
2
2
2
2
2
2
2
2
2
2
