*Vertices 300
*Edges
1 93
1 167
1 256
1 289
2 15
2 30
2 75
2 93
2 114
2 121
2 175
2 176
2 193
2 198
2 217
2 233
2 238
2 284
3 17
3 35
3 55
3 102
3 111
3 115
3 122
3 131
3 142
3 147
3 168
3 189
3 231
3 245
4 8
4 95
4 97
4 162
4 163
4 179
5 8
5 23
5 76
5 77
5 98
5 114
5 256
6 22
6 40
6 45
6 67
6 92
6 95
6 114
6 117
6 122
6 138
6 152
6 161
6 164
6 227
7 36
7 141
7 187
7 199
7 244
7 285
8 13
8 23
8 69
8 77
8 95
8 96
8 98
8 101
8 103
8 172
8 193
8 194
9 11
9 18
9 40
9 51
9 55
9 57
9 72
9 83
9 95
9 102
9 116
9 131
9 145
9 161
9 176
9 202
9 243
9 263
9 292
9 294
10 76
10 182
10 195
10 198
10 203
10 225
10 230
10 259
10 268
10 276
10 295
11 131
11 139
11 231
11 250
11 263
11 270
11 299
12 101
12 110
12 130
12 176
12 189
12 194
12 246
12 279
12 286
12 300
13 32
13 82
13 88
13 96
13 101
13 189
13 220
14 22
14 37
14 45
14 59
14 99
14 106
14 124
14 170
14 238
15 17
15 72
15 81
15 114
15 124
15 142
15 144
15 235
15 253
16 19
16 46
16 68
16 91
16 99
16 116
16 117
16 175
16 221
16 223
16 230
16 237
16 262
16 289
16 293
16 297
17 20
17 80
17 81
17 113
17 128
17 142
17 144
17 233
17 239
17 262
17 276
17 294
17 298
18 55
18 72
18 95
18 186
18 285
19 43
19 71
19 164
19 172
19 211
19 233
19 247
19 254
19 286
19 297
20 55
20 61
20 93
20 153
20 239
20 271
20 287
20 299
21 38
21 113
21 152
21 161
21 167
21 185
21 212
21 274
22 35
22 45
22 46
22 73
22 108
22 149
22 170
22 197
22 205
22 214
22 227
22 300
23 30
23 40
23 50
23 67
23 77
23 81
23 96
23 98
23 100
23 114
23 118
23 149
23 208
23 219
23 237
23 265
24 26
24 54
24 81
24 131
24 156
24 178
24 214
24 219
24 241
24 285
25 82
25 105
25 144
25 163
25 183
25 189
25 206
25 208
25 282
25 287
26 27
26 54
26 118
26 122
26 131
26 177
26 181
26 182
26 247
26 264
26 276
27 37
27 41
27 87
27 163
27 240
27 256
27 289
28 49
28 64
28 130
28 140
28 149
28 170
28 173
28 201
28 213
28 225
28 300
29 103
29 114
29 202
29 209
29 212
29 214
29 235
29 280
29 289
29 297
29 298
30 43
30 49
30 114
30 118
30 127
30 266
30 272
30 280
30 282
31 91
31 92
31 132
31 198
31 246
31 281
32 60
32 73
32 82
32 97
32 118
32 151
32 219
33 51
33 90
33 171
33 197
33 198
33 247
33 253
33 270
33 282
33 294
34 39
34 52
34 63
34 78
34 99
34 100
34 101
35 54
35 72
35 136
35 142
35 144
35 162
35 192
35 214
35 248
35 254
35 265
35 296
35 300
36 51
36 62
36 82
36 90
36 178
36 188
36 241
36 273
36 287
37 59
37 96
37 101
37 133
37 148
37 210
37 216
37 238
37 256
37 277
38 54
38 68
38 88
38 95
38 122
38 161
38 188
38 278
39 52
39 62
39 77
39 89
39 93
39 119
39 122
39 136
39 156
39 199
39 208
39 226
40 65
40 114
40 116
40 117
40 122
40 131
40 219
40 251
40 286
40 289
40 294
41 48
41 69
41 76
41 87
41 140
41 160
41 163
41 184
41 185
41 187
41 240
41 259
43 49
43 50
43 54
43 98
43 105
43 120
43 121
43 161
43 232
43 252
43 283
43 297
44 50
44 67
44 98
44 119
44 129
44 137
44 173
44 188
44 204
45 92
45 106
46 49
46 91
46 105
46 108
46 145
46 160
46 246
46 286
47 48
47 96
47 101
47 120
47 150
47 234
47 269
47 290
48 52
48 63
48 78
48 87
48 91
48 120
48 130
48 152
48 167
48 191
48 234
48 251
49 83
49 105
49 130
49 131
49 136
49 140
49 154
49 235
50 62
50 64
50 98
50 108
50 121
50 157
50 247
50 286
51 55
51 90
51 143
51 163
51 188
51 206
51 239
51 267
52 54
52 56
52 58
52 68
52 77
52 89
52 93
52 100
52 101
52 115
52 119
52 120
52 121
52 122
52 127
52 168
52 201
52 213
52 234
52 246
52 280
52 297
53 242
53 246
53 255
53 263
54 65
54 115
54 120
54 122
54 131
54 136
54 159
54 162
54 196
54 206
54 248
54 296
55 147
55 184
55 197
55 214
55 225
55 238
55 248
55 261
55 263
55 271
55 287
56 113
56 119
56 146
56 154
56 155
56 167
56 168
56 185
56 191
56 192
56 251
56 261
57 101
57 146
57 176
57 186
57 245
57 292
58 70
58 85
58 96
58 101
58 107
58 236
58 269
58 287
59 62
59 75
59 133
59 134
59 146
59 257
60 137
60 144
60 169
60 181
60 190
60 204
60 273
60 278
61 260
61 299
62 64
62 67
62 75
62 77
62 95
62 104
62 105
62 119
62 155
62 159
62 178
62 179
62 199
62 221
62 230
62 260
62 270
63 68
63 78
63 83
63 84
63 109
63 125
63 135
63 171
63 241
63 263
63 266
64 95
64 104
64 111
64 119
64 121
64 149
64 155
64 159
64 221
64 223
64 270
64 293
65 113
65 116
65 153
65 154
65 167
65 173
65 200
65 206
65 210
65 212
65 227
65 248
65 249
65 258
65 261
65 274
65 276
65 277
66 173
67 69
67 74
67 75
67 81
67 85
67 98
67 117
67 119
67 124
67 138
67 142
67 185
67 219
68 84
68 89
68 91
68 92
68 137
68 145
68 152
68 207
68 246
68 278
69 83
69 85
69 98
69 103
69 106
69 125
69 135
69 140
69 158
69 169
69 267
69 300
70 83
70 85
70 101
70 155
70 168
70 175
70 179
70 233
70 245
70 248
71 98
71 149
71 170
71 286
72 82
72 102
72 142
72 144
72 155
72 159
72 184
72 186
72 214
72 260
73 118
73 123
73 151
73 170
73 174
73 180
73 198
73 219
73 225
73 268
73 275
74 75
74 81
74 83
74 85
74 87
74 151
74 185
74 249
74 255
75 81
75 85
75 91
75 138
75 233
75 257
75 273
76 162
76 193
76 198
76 225
76 234
76 240
77 81
77 93
77 122
77 208
78 110
78 120
78 130
78 135
78 138
78 143
78 191
78 226
78 242
78 246
78 270
78 292
79 142
79 163
79 275
80 142
80 216
80 277
81 89
81 98
81 142
81 159
81 231
81 271
81 288
82 96
82 150
82 183
82 186
82 228
82 273
83 87
83 131
83 135
83 176
83 227
83 233
83 247
83 276
83 300
84 278
85 100
85 169
85 265
85 267
86 213
87 106
87 107
87 120
87 176
87 184
87 185
87 187
87 193
87 215
87 254
87 298
88 156
88 171
88 220
88 295
89 100
89 117
89 120
89 186
89 244
90 92
90 110
90 130
90 132
90 143
90 213
91 138
91 145
91 191
91 216
91 222
91 236
91 246
91 262
91 293
92 124
92 132
92 134
92 152
92 161
92 189
92 198
92 206
92 281
92 300
93 114
93 121
93 167
93 263
93 287
93 299
94 95
94 116
94 152
94 188
94 230
94 240
94 246
94 263
94 283
95 117
95 155
95 188
95 193
95 194
95 214
95 227
95 233
95 260
96 101
96 148
96 189
97 162
97 264
97 268
98 119
98 129
98 149
98 163
98 214
98 219
98 247
99 110
99 124
99 126
99 150
99 160
99 168
99 170
99 172
99 230
99 234
99 271
100 136
100 173
100 213
100 265
101 150
101 176
101 234
102 147
102 271
102 275
102 292
103 135
103 140
103 172
103 209
103 245
103 267
104 145
104 223
104 285
104 293
104 297
105 131
105 155
105 160
106 107
106 127
106 135
106 139
106 144
106 168
106 169
106 187
106 239
106 240
106 257
106 272
106 278
106 282
107 127
107 222
107 257
107 287
108 157
108 164
108 279
108 286
109 112
109 122
109 185
109 192
109 204
109 209
109 218
109 221
109 225
109 229
109 240
109 241
109 244
109 245
109 268
110 124
110 130
110 151
110 228
110 271
111 119
111 147
111 148
111 149
111 153
111 176
111 177
111 180
111 187
111 223
111 225
111 235
111 248
111 252
111 291
111 294
112 122
112 209
112 226
112 229
112 241
112 268
113 116
113 130
113 142
113 151
113 167
113 173
113 197
113 202
113 206
113 210
113 212
113 239
113 253
114 118
114 142
114 235
114 280
115 120
115 168
115 245
115 275
116 202
116 209
116 222
116 249
116 251
116 259
116 263
116 281
116 289
117 125
117 138
117 185
117 244
117 293
118 170
118 177
118 225
118 254
118 264
119 121
119 133
119 146
119 149
119 156
119 170
119 213
119 214
119 286
119 292
120 147
120 167
120 196
120 201
120 232
120 234
120 235
120 252
121 149
122 147
122 148
122 153
122 159
122 184
122 206
122 261
123 131
123 192
123 200
123 265
123 287
124 126
124 130
124 152
124 271
125 135
125 138
125 157
125 168
125 207
125 217
125 221
125 244
125 245
126 172
126 269
127 137
127 168
127 225
127 251
127 255
127 262
127 269
127 272
127 278
127 282
127 285
127 290
128 133
128 139
128 142
128 173
128 202
128 209
128 237
128 241
128 264
128 274
129 225
129 251
129 259
130 132
130 151
130 170
130 173
130 213
130 236
130 246
130 280
130 300
131 135
131 136
131 140
131 142
131 147
131 154
131 184
131 185
131 200
131 218
131 225
131 231
131 235
131 270
131 279
131 284
131 289
131 294
132 152
132 154
132 187
132 207
132 223
132 248
133 134
133 138
133 139
133 146
133 175
133 195
133 204
133 221
133 226
133 238
133 240
133 242
133 263
133 279
134 238
134 263
135 138
135 201
135 207
135 266
136 140
136 173
136 178
136 241
136 247
136 276
137 201
137 204
137 205
137 231
137 250
137 278
137 293
137 299
138 145
138 226
138 233
139 144
139 146
139 214
139 215
139 250
139 263
139 279
140 180
140 209
140 214
140 227
140 242
141 156
141 185
141 244
142 144
142 147
142 156
142 163
142 185
142 196
142 295
143 188
143 199
143 218
143 226
143 242
143 297
144 180
144 183
144 190
144 214
144 222
144 239
145 243
145 246
145 258
145 263
145 285
145 293
146 149
146 156
146 211
146 253
146 254
146 279
146 286
146 292
147 168
147 170
147 180
147 181
147 189
147 191
147 235
147 238
147 245
147 248
147 251
147 261
147 268
147 284
147 296
148 153
148 223
148 256
149 153
149 156
149 170
149 173
149 176
149 214
149 225
149 248
149 251
149 264
149 294
150 230
150 252
150 273
151 219
151 249
152 162
152 167
152 212
152 226
152 230
152 264
152 297
153 192
153 239
153 258
153 261
154 195
154 229
154 234
154 258
154 259
155 179
155 186
155 196
155 239
155 251
155 259
155 267
156 160
156 163
156 172
156 185
156 192
156 209
156 212
156 218
156 239
156 241
156 261
156 295
157 166
157 182
157 197
157 203
157 207
157 210
157 223
157 277
157 290
157 291
157 299
159 184
159 207
159 209
159 225
159 260
159 275
159 288
159 291
160 172
160 209
160 221
160 233
161 163
161 174
161 176
161 178
161 215
161 221
161 238
161 251
161 266
161 283
161 287
161 288
162 167
162 192
162 212
162 225
162 254
162 296
163 174
163 179
163 183
163 206
163 208
163 235
163 252
163 266
163 270
163 282
163 300
164 279
164 286
166 192
166 210
166 229
166 231
166 242
167 191
167 210
167 212
167 227
167 231
167 234
167 266
167 274
168 172
168 188
168 189
168 192
168 218
168 244
168 245
168 297
170 174
170 185
170 191
170 213
170 244
170 264
171 198
171 253
171 263
171 293
172 233
172 245
172 276
172 286
173 188
173 202
173 204
173 216
173 237
173 246
173 274
173 292
174 251
175 179
175 193
175 225
175 237
175 247
175 250
175 262
175 281
175 283
175 284
175 288
175 298
176 189
176 215
176 254
176 283
176 292
177 187
177 252
177 256
177 289
178 183
178 241
178 287
179 183
179 233
179 250
180 190
180 196
180 276
180 284
180 296
181 200
181 235
181 236
181 246
181 247
181 273
182 203
182 221
183 206
183 252
183 280
183 282
183 287
184 200
184 225
184 238
184 260
184 284
185 189
185 208
185 218
185 239
185 244
185 277
185 295
185 298
186 195
186 196
186 201
186 231
186 266
186 267
186 269
186 285
187 252
188 189
188 215
188 273
189 206
189 215
189 241
189 255
189 262
189 268
189 277
189 285
191 251
191 268
192 231
192 240
192 254
192 261
192 296
193 195
193 197
193 198
193 225
193 233
193 234
193 240
193 262
193 268
193 274
193 290
193 298
194 207
194 217
194 279
195 201
195 230
195 234
195 240
195 259
195 263
196 223
196 231
196 244
196 267
196 272
196 296
197 207
197 209
197 210
197 211
197 214
197 233
197 253
197 282
197 290
198 225
198 268
198 294
199 226
199 262
199 268
199 285
200 202
200 212
200 235
200 250
200 261
200 265
200 273
200 274
200 294
201 224
202 209
202 214
202 237
202 241
202 274
202 288
202 292
203 272
204 205
204 240
204 250
204 293
204 296
205 218
205 274
206 208
206 249
206 270
206 300
207 210
207 217
207 242
207 277
207 288
207 290
207 291
207 299
208 209
208 226
208 270
208 277
208 288
209 214
209 215
209 221
209 222
209 245
209 288
209 292
209 297
209 298
210 231
210 282
211 214
211 247
211 248
211 253
211 254
211 292
211 297
212 234
212 250
212 261
212 273
212 274
213 227
213 280
213 300
214 215
214 216
214 227
214 248
214 253
214 279
214 282
214 290
214 291
215 216
216 236
216 246
216 248
216 277
217 238
217 288
217 299
218 220
218 264
218 274
218 297
218 298
220 262
220 264
220 298
221 230
221 234
221 242
221 263
221 283
222 251
223 244
223 248
223 267
223 272
223 277
223 290
223 291
223 296
223 297
225 234
225 235
225 251
225 268
225 284
225 290
225 298
226 264
226 270
227 231
227 258
227 280
227 299
228 277
229 258
229 294
230 234
230 264
231 242
231 261
231 267
231 299
233 245
233 248
233 273
233 282
234 259
234 266
234 269
234 274
234 298
235 270
235 297
236 246
236 280
237 247
237 250
237 281
237 283
237 286
239 257
239 267
239 276
240 251
240 259
241 285
242 246
242 255
242 258
242 288
244 245
244 272
246 273
246 277
247 253
247 276
247 279
247 286
247 294
248 253
248 254
248 265
248 277
248 291
248 297
249 262
250 274
250 296
251 259
251 282
252 287
253 254
253 270
254 296
256 289
261 271
262 285
262 298
265 291
266 269
268 285
269 290
270 282
272 278
276 284
276 295
278 300
279 286
279 294
280 282
282 290
283 284
283 287
283 288
284 298
285 298
286 297
287 299
289 298
297 298
*Classes
1
1
1
1
1
1
1
1
1
1
1
1
1
1
1
1
1
1
1
1
1
1
1
1
1
1
1
1
1
1
1
1
1
1
1
1
1
1
1
1
1
1
1
1
1
1
1
1
1
1
1
1
1
1
1
1
1
1
1
1
1
1
1
1
1
1
1
1
1
1
1
1
1
1
1
1
1
1
1
1
1
1
1
1
1
1
1
1
1
1
1
1
1
1
1
1
1
1
1
1
1
1
1
1
1
1
1
1
1
1
1
1
1
1
1
1
1
1
1
1
1
1
1
1
1
1
1
1
1
1
1
1
1
1
1
1
1
1
1
1
1
1
1
1
1
1
1
1
1
1
2
2
2
2
2
2
2
2
2
2
2
2
2
2
2
2
2
2
2
2
2
2
2
2
2
2
2
2
2
2
2
2
2
2
2
2
2
2
2
2
2
2
2
2
2
2
2
2
2
2
2
2
2
2
2
2
2
2
2
2
2
2
2
2
2
2
2
2
2
2
2
2
2
2
2
2
2
2
2
2
2
2
2
2
2
2
2
2
2
2
2
2
2
2
2
2
2
2
2
2
2
2
2
2
2
2
2
2
2
2
2
2
2
2
2
2
2
2
2
2
2
2
2
2
2
2
2
2
2
2
2
2
2
2
2
2
2
2
2
2
2
2
2
2
2
2
2
2
2
2
