*Vertices 300
*Edges
1 86
1 168
1 191
1 217
2 10
2 44
2 107
2 128
3 33
3 81
3 121
3 131
3 258
4 18
4 29
4 58
4 69
4 70
4 91
4 147
4 198
4 219
4 228
5 23
5 94
5 106
5 222
5 251
6 13
6 34
6 38
6 82
6 113
6 171
6 174
6 186
6 266
7 11
7 68
7 133
7 134
7 173
7 211
7 252
8 10
8 16
8 34
8 76
8 106
8 135
8 210
8 288
9 21
9 57
9 103
9 112
9 124
9 126
9 128
9 192
9 220
9 233
9 239
9 251
10 69
10 109
10 128
10 225
10 248
10 288
11 58
11 79
11 97
11 133
11 142
11 152
11 179
11 190
11 194
11 213
11 228
11 232
11 293
12 36
12 39
12 48
12 59
12 62
12 112
12 124
12 125
12 218
12 232
12 285
13 34
13 51
13 58
13 88
13 113
13 118
13 128
13 131
13 135
13 232
14 46
14 50
14 76
14 99
14 136
14 171
15 36
15 79
15 118
15 126
15 141
15 180
15 219
16 27
16 71
16 85
16 87
16 106
16 132
16 164
16 269
17 42
17 122
17 158
17 170
17 222
17 258
18 37
18 41
18 56
18 60
18 75
18 76
18 129
18 149
18 155
18 192
18 214
18 228
18 270
19 23
19 24
19 40
19 86
19 104
19 123
19 178
19 188
19 227
19 242
19 244
19 252
19 272
19 281
19 283
20 114
20 149
20 158
20 170
20 198
21 57
21 84
21 103
21 112
21 238
21 239
22 27
22 115
22 120
23 114
23 122
23 242
24 39
24 58
24 61
24 65
24 176
24 188
24 230
24 245
25 116
25 274
25 296
26 56
26 76
26 173
26 213
26 216
26 236
27 85
27 120
27 137
27 193
28 58
28 163
28 197
28 278
29 38
29 39
29 57
29 67
29 70
29 90
29 102
29 117
29 146
29 230
30 95
30 146
30 178
30 180
30 194
30 220
30 221
30 286
30 288
31 53
31 150
31 159
31 239
32 79
32 105
32 118
32 148
32 156
32 186
32 218
32 236
33 68
33 81
33 102
33 104
33 113
33 136
33 138
33 192
33 285
33 293
34 217
35 62
35 110
35 255
35 259
36 38
36 55
36 86
36 118
36 141
36 171
36 175
36 183
36 197
36 211
36 218
37 101
37 137
37 172
37 183
37 191
37 228
37 269
38 67
38 82
38 96
38 109
38 117
38 132
38 164
38 218
38 225
38 238
38 260
39 59
39 65
39 67
39 87
39 104
39 112
39 124
39 146
39 169
39 198
39 295
40 48
40 75
40 78
40 174
40 188
40 190
41 48
41 75
41 103
41 149
41 211
41 226
41 228
42 84
42 97
42 155
42 205
42 285
43 46
43 149
43 206
44 110
44 132
44 210
45 54
45 199
45 257
46 62
46 125
46 188
46 220
47 89
47 123
47 134
47 136
47 146
47 163
47 211
47 226
47 281
47 282
48 59
48 78
48 116
48 119
48 125
48 151
48 226
48 231
48 234
48 235
48 255
49 51
49 144
49 267
49 272
49 279
50 76
50 99
50 267
51 81
51 92
51 94
51 118
51 128
51 272
51 279
52 121
52 145
52 203
53 143
53 150
53 214
53 224
53 248
54 82
54 103
54 112
54 136
54 214
55 62
55 88
55 118
55 153
55 159
55 216
55 249
55 276
55 280
56 182
56 191
56 207
56 215
57 62
57 70
57 100
57 126
57 188
57 202
57 208
57 211
57 287
58 61
58 64
58 73
58 79
58 88
58 89
58 117
58 130
58 135
58 171
58 180
58 197
58 198
58 262
58 266
58 283
59 67
59 125
59 212
59 280
60 76
60 97
60 187
60 189
60 264
60 297
61 64
61 109
61 135
61 209
61 219
61 225
61 234
61 258
62 71
62 99
62 100
62 103
62 125
62 155
62 212
62 255
62 280
62 290
63 279
64 111
64 148
64 149
64 172
64 177
64 193
64 197
64 226
64 238
65 67
65 72
65 103
65 105
65 112
65 263
66 80
66 217
66 254
66 271
67 105
67 214
67 218
67 244
67 259
67 275
67 281
68 81
68 90
68 117
68 118
68 134
68 138
68 157
68 158
68 185
68 249
68 290
69 73
69 77
69 85
69 86
69 87
69 109
69 139
69 160
69 161
69 267
70 129
70 139
70 161
70 219
70 254
70 271
71 85
71 100
71 117
71 141
71 145
71 174
71 233
71 252
71 279
72 87
72 112
72 164
72 184
72 191
72 263
73 86
73 87
73 109
73 120
73 127
73 191
73 198
73 298
74 101
74 120
74 137
74 172
75 103
75 141
75 255
75 260
76 99
76 110
76 117
76 183
76 185
76 212
76 238
77 139
77 164
78 83
78 95
78 101
78 125
78 130
78 294
79 130
79 133
79 135
79 197
79 219
80 117
80 254
80 259
80 274
80 289
81 127
81 202
81 253
82 103
82 199
82 299
83 102
83 198
83 226
83 294
84 115
84 135
84 199
84 216
84 223
84 241
84 269
85 93
85 137
85 141
85 160
85 174
85 269
86 93
86 127
86 137
86 168
86 175
86 244
87 112
87 129
87 164
87 166
87 181
87 225
88 113
88 158
88 195
89 136
89 153
89 180
89 226
89 235
90 98
90 102
90 108
90 157
90 168
90 221
90 228
90 233
90 249
91 116
91 147
91 181
91 241
92 143
92 273
93 127
93 238
94 123
94 179
95 129
95 130
95 166
95 173
95 194
95 210
95 216
95 246
95 265
96 117
96 125
96 132
96 152
96 221
96 233
96 292
97 168
97 187
97 256
98 102
98 115
98 143
98 154
98 195
98 234
98 277
98 294
99 110
99 125
99 220
99 244
100 103
100 131
100 167
100 180
100 212
100 236
101 113
101 137
101 179
101 195
101 223
102 122
102 125
102 202
102 262
103 131
103 168
103 263
104 149
104 182
104 198
104 227
104 237
104 272
104 285
105 112
105 151
105 186
105 203
106 253
106 265
107 108
107 179
107 181
108 123
108 137
108 165
108 183
109 134
109 206
109 207
109 210
109 225
110 179
110 228
111 118
111 179
111 244
111 252
111 266
111 292
112 153
113 114
113 138
113 151
113 172
113 243
113 283
114 122
114 149
114 177
114 182
114 192
114 243
115 135
115 137
115 143
115 206
115 209
116 123
116 231
116 252
117 135
117 153
117 193
117 225
117 233
117 234
117 238
117 289
118 148
118 155
118 232
118 265
118 276
118 290
119 207
120 191
120 193
120 201
120 240
120 296
121 160
121 172
121 176
121 200
121 269
122 128
122 170
122 183
122 191
122 237
123 126
123 127
123 128
123 165
123 181
123 183
123 244
124 228
124 239
124 293
125 183
125 202
125 214
125 226
125 260
125 292
126 128
126 130
126 167
126 206
126 268
127 137
127 160
127 170
127 189
127 210
127 243
127 253
128 169
128 183
128 200
128 202
128 217
128 225
128 279
129 155
129 258
129 271
130 146
130 252
130 259
130 276
131 218
131 239
131 268
132 188
132 226
132 259
133 142
133 161
133 170
133 245
133 294
134 135
134 136
134 161
134 178
134 266
135 238
135 288
136 226
136 285
137 152
137 179
137 196
137 197
137 206
137 222
137 223
138 294
140 274
140 296
141 155
141 210
141 233
141 252
142 253
142 286
142 289
143 163
143 213
143 247
143 248
144 217
144 272
145 203
145 206
145 216
145 236
145 245
146 163
146 241
146 260
146 274
146 295
147 187
148 179
148 238
149 151
149 178
149 197
150 215
151 172
151 201
151 231
152 153
152 165
152 183
152 190
152 222
152 248
152 297
153 165
153 288
153 297
154 155
154 168
154 175
154 205
154 207
154 222
154 223
154 238
154 262
154 269
154 270
155 163
155 180
155 205
155 243
155 290
155 296
156 211
156 218
156 225
156 234
156 256
156 284
157 187
157 286
157 290
157 296
157 299
159 167
159 191
159 194
159 239
159 249
159 285
159 290
160 174
160 176
160 252
160 269
161 170
161 183
161 185
161 189
161 267
162 178
162 254
162 258
162 271
162 281
162 287
163 171
163 173
163 204
163 205
163 231
163 233
163 245
163 251
163 260
163 264
163 283
164 221
164 225
164 275
164 282
164 294
165 183
165 192
165 196
165 203
165 216
165 230
165 277
166 173
166 179
166 210
166 213
166 225
166 242
166 247
166 273
166 284
167 181
167 192
167 206
167 228
167 239
167 279
167 290
168 187
168 191
168 201
168 207
168 214
168 217
168 263
169 198
170 189
170 198
170 209
171 180
171 190
171 204
172 197
172 249
172 269
172 273
172 294
172 297
173 191
173 211
173 247
173 252
173 264
173 283
173 292
173 298
174 186
174 200
174 225
174 229
174 244
174 247
174 252
174 261
174 270
174 272
175 207
175 240
175 243
176 219
176 224
176 230
176 233
176 234
176 270
177 228
178 192
178 196
178 214
178 221
178 233
178 263
178 271
178 281
178 283
178 298
179 203
179 207
179 212
179 228
179 242
179 252
179 271
179 273
179 277
180 197
180 238
180 243
180 252
180 259
180 261
180 272
180 279
180 286
180 288
182 190
182 191
182 211
182 243
182 247
182 260
182 261
182 263
182 282
183 185
183 196
183 216
183 234
183 264
184 191
184 193
184 268
184 283
185 190
185 200
185 209
185 248
185 250
185 264
185 277
185 290
185 292
186 203
186 229
186 252
186 272
187 244
187 249
187 252
187 256
187 259
187 269
187 272
187 279
187 299
188 201
188 244
188 287
189 230
189 236
189 247
189 297
190 200
190 228
190 246
190 249
190 257
190 260
190 261
191 290
191 292
191 296
192 220
192 228
192 230
192 236
193 233
193 289
194 213
194 265
194 286
195 294
196 263
196 274
197 240
198 232
198 235
198 255
198 297
199 201
199 241
199 262
200 224
200 225
200 244
200 246
200 249
200 279
201 223
201 240
201 244
202 267
203 277
204 222
204 238
204 245
204 283
205 239
205 290
206 224
206 225
206 239
207 214
207 244
207 270
207 281
208 237
208 274
208 285
208 288
208 295
208 299
209 258
209 277
210 247
211 247
211 257
211 259
211 275
211 284
211 291
211 292
212 217
212 277
212 280
213 231
213 246
213 248
213 250
213 266
213 296
213 300
214 232
214 244
214 250
214 260
214 270
214 281
215 245
215 249
215 282
216 223
216 230
216 234
216 236
216 241
216 259
216 265
216 272
218 239
218 256
219 243
219 268
219 270
220 286
220 295
221 233
221 258
221 275
221 294
221 296
221 298
222 238
222 269
223 241
224 233
225 234
225 249
225 257
225 284
228 242
228 279
228 293
230 236
230 241
230 245
230 259
230 274
231 241
231 266
231 268
232 235
232 244
232 270
233 238
233 298
235 260
235 261
235 264
236 247
237 238
237 274
238 279
239 281
239 284
240 256
240 296
241 266
241 274
242 273
243 272
244 252
244 270
244 281
244 287
245 253
246 249
246 300
247 252
247 282
248 250
248 286
248 296
249 269
249 279
251 278
251 286
252 259
252 261
252 271
252 284
253 277
253 286
255 297
257 268
257 275
257 284
257 297
258 298
259 267
259 272
259 274
259 279
259 284
259 300
260 261
260 264
261 264
261 271
262 266
263 281
264 291
264 292
265 286
266 268
266 291
268 283
269 292
269 294
270 273
270 297
271 277
271 287
272 279
272 284
272 294
273 277
274 284
279 288
281 284
283 292
284 300
285 288
285 290
288 295
290 296
291 292
296 298
*Classes
1
1
1
1
1
1
1
1
1
1
1
1
1
1
1
1
1
1
1
1
1
1
1
1
1
1
1
1
1
1
1
1
1
1
1
1
1
1
1
1
1
1
1
1
1
1
1
1
1
1
1
1
1
1
1
1
1
1
1
1
1
1
1
1
1
1
1
1
1
1
1
1
1
1
1
1
1
1
1
1
1
1
1
1
1
1
1
1
1
1
1
1
1
1
1
1
1
1
1
1
1
1
1
1
1
1
1
1
1
1
1
1
1
1
1
1
1
1
1
1
1
1
1
1
1
1
1
1
1
1
1
1
1
1
1
1
1
1
1
1
1
1
1
1
1
1
1
1
1
1
2
2
2
2
2
2
2
2
2
2
2
2
2
2
2
2
2
2
2
2
2
2
2
2
2
2
2
2
2
2
2
2
2
2
2
2
2
2
2
2
2
2
2
2
2
2
2
2
2
2
2
2
2
2
2
2
2
2
2
2
2
2
2
2
2
2
2
2
2
2
2
2
2
2
2
2
2
2
2
2
2
2
2
2
2
2
2
2
2
2
2
2
2
2
2
2
2
2
2
2
2
2
2
2
2
2
2
2
2
2
2
2
2
2
2
2
2
2
2
2
2
2
2
2
2
2
2
2
2
2
2
2
2
2
2
2
2
2
2
2
2
2
2
2
2
2
2
2
2
2
