*Vertices 300
*Edges
1 117
1 132
1 156
1 198
1 206
1 209
1 215
1 229
1 238
1 250
2 16
2 82
2 102
2 138
2 142
2 148
2 169
2 214
2 255
3 14
3 15
3 18
3 23
3 78
3 110
3 260
3 278
4 22
4 35
4 59
4 67
4 97
4 102
4 114
4 115
4 229
4 277
5 25
5 84
5 88
5 277
5 292
6 219
6 270
7 31
7 33
7 43
7 47
7 68
7 83
7 117
7 137
7 150
7 160
7 161
7 233
7 288
8 21
8 35
8 114
8 162
8 201
8 206
8 286
8 295
9 44
9 47
9 62
9 131
9 164
9 188
9 199
9 245
9 288
10 81
10 85
10 86
10 99
10 143
10 215
11 19
11 37
11 42
11 44
11 83
11 84
11 96
11 112
11 118
11 181
11 188
11 190
11 240
11 284
11 292
12 30
12 32
12 40
12 63
12 67
12 71
12 73
12 122
12 139
12 150
12 178
12 187
12 235
12 238
13 36
13 58
13 118
13 148
13 219
13 233
13 265
13 282
13 299
14 15
14 30
14 32
14 56
14 67
14 106
14 113
14 178
14 231
14 244
15 30
15 32
15 45
15 81
15 113
15 151
15 157
15 183
15 235
15 278
16 118
16 148
16 165
16 182
16 215
17 38
17 63
17 87
17 104
17 117
17 121
17 134
17 166
17 194
17 268
17 283
17 298
18 21
18 105
18 110
18 129
18 233
18 295
19 30
19 32
19 33
19 42
19 45
19 90
19 111
19 112
19 118
19 230
19 255
20 38
20 79
20 108
20 140
20 159
20 195
20 235
20 245
20 257
21 158
21 201
21 205
21 257
22 97
22 192
22 206
22 211
22 228
22 231
22 234
23 24
23 31
23 34
23 62
23 76
23 82
23 110
23 134
23 187
23 217
23 247
23 256
24 45
24 65
24 68
24 91
24 98
24 134
24 135
24 136
24 195
24 198
24 227
24 230
24 231
24 238
24 289
25 47
25 53
25 60
25 64
25 76
25 113
25 134
25 213
25 220
25 236
25 240
25 258
26 39
26 54
26 95
26 127
26 149
26 213
26 226
26 259
27 223
27 238
27 240
27 246
28 40
28 121
28 123
28 220
28 269
29 38
29 60
29 65
29 91
29 98
29 155
30 32
30 36
30 45
30 56
30 67
30 88
30 106
30 120
30 139
30 144
30 164
30 169
30 241
31 49
31 62
31 74
31 83
31 137
31 160
31 173
31 258
31 299
32 45
32 57
32 90
32 116
32 120
32 125
32 241
32 268
33 41
33 43
33 44
33 47
33 75
33 86
33 99
33 117
33 118
33 121
33 154
33 230
33 233
33 250
33 265
33 285
33 290
33 292
33 300
34 41
34 101
34 134
34 172
34 188
34 227
34 230
34 249
34 253
34 284
34 292
35 36
35 58
35 63
35 114
35 146
35 150
35 181
35 192
35 205
35 241
35 252
35 288
36 46
36 58
36 67
36 139
36 144
36 148
36 193
36 233
36 282
36 299
37 48
37 66
37 70
37 78
37 83
37 88
37 135
37 165
37 166
37 179
37 186
37 188
37 212
37 214
37 218
37 220
37 226
37 233
38 60
38 63
38 104
38 150
38 168
38 194
38 232
38 234
38 245
38 283
38 293
39 54
39 95
39 153
39 156
39 166
39 170
39 181
39 193
39 207
39 286
40 63
40 75
40 140
40 150
40 176
40 204
40 268
40 269
41 44
41 70
41 75
41 85
41 106
41 111
41 134
41 230
41 271
42 61
42 87
42 118
42 131
42 162
42 256
42 264
42 266
43 54
43 72
43 102
43 149
43 193
43 221
43 250
43 265
43 277
43 292
43 300
44 59
44 75
44 84
44 101
44 102
44 131
44 142
44 190
44 202
44 222
44 231
44 236
44 237
44 273
45 57
45 113
45 120
45 125
45 136
45 205
45 238
45 299
46 144
46 174
46 179
46 183
46 196
46 206
47 60
47 117
47 132
47 137
47 164
47 189
47 275
47 288
48 66
48 159
48 211
48 224
48 245
48 258
48 286
48 295
49 74
49 107
49 115
49 218
49 245
49 292
49 297
50 52
50 56
50 77
50 109
50 154
50 186
50 244
50 253
50 299
51 98
51 122
51 127
51 145
51 173
51 174
51 188
51 197
51 220
52 57
52 65
52 72
52 109
52 169
52 178
52 263
53 64
53 103
53 117
53 121
53 130
53 251
53 262
53 284
54 59
54 72
54 91
54 102
54 104
54 127
54 149
54 213
54 215
54 228
54 250
54 277
54 292
56 59
56 77
56 102
56 106
56 154
56 160
56 161
56 181
56 281
56 294
57 62
57 112
57 126
57 137
57 150
57 192
57 197
57 214
57 263
58 63
58 144
58 154
58 193
58 249
58 279
59 67
59 102
59 104
59 129
60 98
60 113
60 134
60 213
60 236
60 270
61 156
61 162
61 229
61 244
62 140
62 150
62 177
62 181
62 198
62 199
62 205
62 213
62 242
62 247
62 258
62 290
63 126
63 150
63 232
63 245
63 274
63 288
64 76
64 201
64 227
64 236
65 75
65 90
65 91
65 99
65 103
65 104
65 108
65 109
65 110
65 126
65 145
65 150
65 175
65 182
65 220
65 256
65 266
66 70
66 159
66 207
66 266
67 104
67 115
67 157
67 158
67 186
67 259
67 285
67 288
67 289
68 79
68 83
68 114
68 136
68 137
68 160
68 176
68 243
68 296
69 82
69 92
69 178
69 216
69 267
69 279
69 291
69 295
70 75
70 78
70 85
70 135
70 165
70 179
70 244
70 250
70 267
71 78
71 124
71 178
71 232
71 267
71 286
72 149
72 185
72 213
72 228
72 292
73 122
73 152
73 206
73 220
73 252
73 253
73 256
73 278
73 296
74 107
74 145
74 245
74 297
75 84
75 85
75 99
75 104
75 106
75 110
75 117
75 145
75 152
75 233
75 269
76 82
76 109
76 134
76 194
76 201
76 256
76 258
76 283
76 297
77 147
77 186
77 208
77 227
77 247
77 263
78 124
78 129
78 160
78 222
78 226
78 232
78 290
78 297
79 114
79 138
79 195
79 243
79 258
79 292
80 147
80 151
80 153
80 185
80 211
80 212
80 289
81 85
81 92
81 112
81 121
81 123
81 177
81 189
81 217
81 255
81 298
82 194
82 216
82 256
82 291
83 84
83 137
83 150
83 165
83 180
83 186
83 218
83 220
83 227
83 265
83 292
84 94
84 96
84 101
84 190
84 222
84 236
85 123
85 143
85 177
85 193
85 199
85 225
85 230
85 256
86 99
86 196
86 205
86 232
86 240
86 268
86 296
87 93
87 121
87 130
87 131
87 153
87 169
87 184
87 207
87 214
87 233
87 246
87 268
88 139
88 212
88 257
89 96
89 120
89 149
89 217
89 220
89 235
89 251
89 283
89 296
90 109
90 125
90 171
90 192
90 200
90 232
90 288
90 289
91 99
91 109
91 127
91 135
91 145
91 195
91 276
91 287
92 103
92 123
92 196
92 240
92 246
92 274
92 299
93 130
93 132
93 162
93 209
93 216
93 221
93 241
93 255
94 251
95 128
95 151
95 154
95 156
95 162
95 181
95 256
95 269
95 275
96 188
96 192
96 249
96 250
96 251
96 253
96 296
97 121
97 123
97 201
97 211
97 238
97 261
98 135
98 145
98 161
98 227
98 231
99 109
99 119
99 233
99 240
99 268
100 104
100 109
100 115
100 177
100 206
100 256
100 265
100 287
100 297
101 102
101 164
101 172
101 231
102 104
102 131
102 142
102 160
102 161
102 176
102 186
102 294
103 117
103 121
103 128
103 141
103 145
103 171
103 242
104 115
104 142
104 152
104 181
104 216
104 231
105 110
105 129
105 216
105 223
105 258
105 271
105 295
106 110
106 111
106 176
106 179
106 231
106 260
107 153
107 173
107 202
107 218
107 272
108 126
108 228
108 285
109 126
109 171
109 192
109 227
109 232
109 256
109 293
109 299
110 233
110 256
110 280
111 118
111 146
111 181
111 194
111 204
111 220
111 243
111 279
111 281
112 123
112 174
112 208
113 134
113 159
113 183
113 242
114 143
114 146
114 162
114 183
115 152
115 163
115 175
115 218
115 234
115 245
115 285
115 288
116 120
116 241
116 259
116 288
117 121
117 164
117 209
117 233
117 234
117 267
117 275
118 148
118 172
118 186
118 198
118 204
118 230
118 243
118 255
118 267
118 281
118 289
119 216
119 221
119 276
119 286
120 139
120 149
120 192
120 246
120 255
120 283
120 288
121 123
121 141
121 145
121 191
121 194
122 127
122 200
122 211
122 220
122 252
122 258
122 266
122 288
122 290
123 202
123 215
123 234
123 277
123 279
124 192
124 199
124 231
124 232
124 272
125 129
125 160
125 174
126 133
126 150
126 174
126 182
126 242
127 152
127 213
127 247
127 276
128 138
128 142
128 151
128 171
128 181
128 205
128 242
129 159
129 160
129 218
129 258
129 268
130 132
130 155
130 180
130 181
130 209
130 211
130 224
131 190
131 199
131 210
131 214
131 237
131 272
131 288
132 158
132 207
132 250
132 255
133 140
133 143
133 151
133 194
133 198
133 228
133 241
133 256
133 269
133 291
134 172
134 253
134 270
134 291
134 292
135 195
135 226
136 155
136 165
136 238
136 248
137 236
137 251
138 142
138 178
138 224
138 232
138 239
138 244
139 149
139 155
139 236
140 150
140 151
140 244
140 256
141 146
141 161
141 187
141 194
141 198
141 204
141 217
142 161
142 184
142 198
142 232
142 261
142 280
142 285
143 154
143 167
143 183
143 194
143 215
143 234
143 246
143 249
143 259
143 266
143 273
143 274
143 290
143 300
144 233
144 289
145 235
145 297
146 161
146 202
146 204
146 243
146 288
146 289
147 148
147 151
147 289
148 151
148 157
148 165
148 215
148 219
148 250
148 255
148 289
149 236
149 260
149 273
150 152
150 160
150 177
150 178
150 204
150 233
150 242
150 269
150 274
151 175
151 189
151 218
151 268
151 300
152 228
152 243
152 247
152 296
153 185
153 191
153 202
153 207
153 279
153 285
154 189
154 222
154 227
154 239
154 249
154 275
155 165
155 180
155 181
155 183
155 191
155 260
156 177
156 198
156 229
156 234
156 300
157 175
157 189
157 208
157 258
157 282
158 186
158 239
158 293
159 200
159 229
159 249
159 257
159 266
159 300
160 294
161 198
161 206
161 229
161 230
161 233
161 256
162 181
162 186
162 212
162 227
162 241
162 244
162 250
162 261
163 172
163 175
163 278
163 281
164 167
164 169
164 208
164 214
164 222
164 260
164 288
165 191
165 222
165 240
165 271
166 184
166 188
166 292
166 298
167 200
167 208
167 214
167 246
167 249
167 250
167 264
167 274
168 232
169 214
169 246
169 260
170 191
170 286
170 295
171 288
172 224
172 261
172 278
173 202
174 208
174 247
175 182
175 189
175 281
176 187
176 217
176 219
176 224
176 294
177 229
177 265
178 202
178 211
178 215
178 228
178 231
178 244
178 250
178 267
178 271
178 285
178 291
180 181
181 205
181 212
181 227
181 274
181 281
181 284
182 204
182 219
182 220
182 225
182 236
182 250
182 274
182 285
183 191
183 206
183 209
183 235
183 273
183 286
183 295
184 193
184 244
184 268
184 292
185 192
185 214
185 246
185 248
185 285
186 192
186 227
186 249
187 203
187 210
187 217
187 219
187 262
187 276
188 197
188 292
189 275
189 281
191 222
191 260
192 214
192 227
192 231
192 241
192 250
193 202
193 219
193 224
193 244
193 279
193 294
194 198
194 201
194 228
194 229
194 231
194 234
194 256
194 269
194 277
194 285
194 292
195 201
195 228
196 205
196 213
196 234
196 240
196 271
196 274
196 280
196 284
197 290
197 300
198 228
198 234
198 274
198 275
198 288
198 289
199 204
199 225
200 208
200 229
200 259
200 266
200 280
200 288
200 300
201 228
201 231
201 234
201 281
202 225
202 279
202 295
203 205
203 213
203 243
203 262
203 276
204 205
204 213
204 225
204 256
205 213
205 258
205 281
205 299
206 209
206 221
206 225
206 228
206 229
206 231
206 242
206 248
206 256
206 279
206 295
206 297
207 237
207 248
207 296
208 247
208 258
209 219
209 222
209 229
209 236
209 247
209 251
209 255
209 273
209 295
210 225
210 230
210 289
211 224
211 240
211 244
211 271
211 278
211 285
212 214
212 241
212 244
212 246
213 243
214 231
214 246
214 288
215 250
215 288
215 289
216 221
216 273
217 219
217 236
217 265
217 294
218 221
218 268
218 272
218 273
219 220
219 236
219 244
219 270
219 285
220 240
220 244
220 270
220 288
221 231
221 236
221 273
222 231
222 236
222 260
222 275
222 285
222 289
224 261
224 271
224 294
225 230
225 256
225 279
225 290
225 295
225 297
225 299
227 249
228 231
228 243
228 248
228 281
228 292
228 296
229 231
229 249
229 265
229 266
229 277
229 290
229 300
230 287
231 238
231 248
231 260
231 296
233 282
234 236
234 264
234 271
234 274
234 275
234 285
234 289
235 238
235 260
235 286
236 250
236 251
236 255
236 260
236 273
236 285
236 286
236 289
238 260
238 273
239 293
240 271
240 294
240 295
241 261
242 245
243 247
243 281
243 296
244 250
244 285
245 257
246 274
247 255
248 296
249 290
250 264
250 282
250 285
250 286
250 295
251 285
253 262
253 296
253 298
254 270
255 256
255 283
256 264
256 266
256 269
256 279
256 283
256 290
256 293
256 297
258 290
259 261
259 280
259 290
260 273
260 286
261 271
261 280
264 269
264 274
265 268
266 280
266 290
267 286
271 280
271 285
273 286
274 275
274 284
277 292
277 300
279 295
281 284
285 286
286 294
286 295
288 289
290 300
292 298
293 297
294 295
*Classes
1
1
1
1
1
1
1
1
1
1
1
1
1
1
1
1
1
1
1
1
1
1
1
1
1
1
1
1
1
1
1
1
1
1
1
1
1
1
1
1
1
1
1
1
1
1
1
1
1
1
1
1
1
1
1
1
1
1
1
1
1
1
1
1
1
1
1
1
1
1
1
1
1
1
1
1
1
1
1
1
1
1
1
1
1
1
1
1
1
1
1
1
1
1
1
1
1
1
1
1
1
1
1
1
1
1
1
1
1
1
1
1
1
1
1
1
1
1
1
1
1
1
1
1
1
1
1
1
1
1
1
1
1
1
1
1
1
1
1
1
1
1
1
1
1
1
1
1
1
1
2
2
2
2
2
2
2
2
2
2
2
2
2
2
2
2
2
2
2
2
2
2
2
2
2
2
2
2
2
2
2
2
2
2
2
2
2
2
2
2
2
2
2
2
2
2
2
2
2
2
2
2
2
2
2
2
2
2
2
2
2
2
2
2
2
2
2
2
2
2
2
2
2
2
2
2
2
2
2
2
2
2
2
2
2
2
2
2
2
2
2
2
2
2
2
2
2
2
2
2
2
2
2
2
2
2
2
2
2
2
2
2
2
2
2
2
2
2
2
2
2
2
2
2
2
2
2
2
2
2
2
2
2
2
2
2
2
2
2
2
2
2
2
2
2
2
2
2
2
2
