*Vertices 300
*Edges
1 23
1 71
1 95
1 105
1 117
1 132
1 180
1 225
2 10
2 13
2 21
2 35
2 54
2 71
2 76
2 104
2 107
2 109
2 123
2 155
2 182
2 218
2 232
2 270
2 281
3 24
3 62
3 75
3 99
3 166
3 180
3 185
3 188
3 251
3 267
3 276
3 294
4 16
4 53
4 65
4 78
4 93
4 108
4 138
4 145
4 201
4 214
4 222
4 234
4 271
4 283
5 27
5 120
5 127
5 181
5 200
5 231
5 238
5 260
5 279
5 295
6 63
6 105
6 167
6 186
6 194
6 279
6 295
6 298
7 12
7 44
7 70
7 85
7 99
7 101
7 148
7 168
7 266
7 273
7 294
7 297
8 40
8 57
9 11
9 14
9 54
9 82
9 103
9 116
9 126
9 132
9 138
9 139
9 140
9 149
9 170
9 187
9 188
9 205
9 264
10 16
10 21
10 24
10 46
10 49
10 87
10 108
10 119
10 130
10 165
10 176
10 177
10 271
10 273
11 16
11 39
11 86
11 126
11 138
11 223
11 224
11 229
11 256
11 292
12 45
12 69
12 87
12 101
12 120
12 140
12 146
12 166
12 212
12 217
12 231
13 19
13 20
13 35
13 41
13 48
13 77
13 170
13 193
13 210
13 225
13 281
14 42
14 57
14 122
14 132
14 139
14 153
14 278
15 29
15 45
15 78
15 112
15 149
15 239
15 285
16 30
16 37
16 39
16 46
16 63
16 65
16 66
16 73
16 102
16 108
16 118
16 119
16 140
16 150
16 155
16 222
16 256
16 271
17 32
17 38
17 98
17 106
17 132
17 232
17 257
17 272
17 291
18 109
18 130
18 161
18 224
18 262
18 280
19 22
19 35
19 39
19 45
19 48
19 87
19 172
19 191
19 249
19 250
20 31
20 126
20 225
20 234
20 279
21 73
21 79
21 90
21 114
21 136
21 167
21 178
21 207
21 219
21 229
21 253
21 264
21 267
21 269
22 62
22 99
22 159
22 160
22 169
22 179
22 226
23 32
23 75
23 114
23 115
23 136
23 159
23 164
23 180
23 274
24 33
24 102
24 166
24 192
24 237
24 243
24 263
24 295
25 34
25 84
25 134
25 170
25 174
25 177
26 50
26 106
26 125
26 131
26 150
26 184
26 240
26 251
26 300
27 94
27 127
27 236
27 287
28 41
28 80
28 149
28 173
28 298
29 60
29 78
30 63
30 68
30 101
30 278
30 290
31 43
31 75
31 106
31 123
31 186
31 257
32 38
32 55
32 111
32 117
32 135
32 232
33 74
33 159
33 192
33 216
33 227
33 233
33 239
34 61
34 72
34 96
34 124
34 166
34 300
35 48
35 69
35 77
35 144
35 149
35 167
35 238
35 284
36 41
36 66
36 115
36 190
36 253
37 61
37 70
37 78
37 101
37 104
37 111
37 115
37 118
37 149
37 202
37 210
37 224
37 232
37 271
38 111
38 132
38 187
39 63
39 104
39 200
39 250
39 259
39 287
41 44
41 54
41 55
41 66
41 120
41 149
41 155
41 184
41 210
41 251
41 298
42 54
42 57
42 67
42 82
42 110
42 221
42 297
43 66
43 78
43 106
43 153
44 54
44 66
44 148
45 74
45 87
45 92
45 118
45 231
45 257
45 285
46 73
46 122
46 150
46 206
46 242
46 284
47 121
47 129
47 136
47 148
47 237
47 263
48 87
48 284
49 54
49 74
49 85
49 115
49 119
49 192
49 239
49 254
49 259
49 297
50 67
50 77
50 108
50 131
50 142
50 174
50 182
50 208
50 223
50 235
50 294
51 70
51 118
51 149
51 242
51 243
51 262
52 62
52 78
52 103
52 146
52 157
52 288
52 289
53 82
53 126
53 145
53 157
53 170
53 206
53 292
54 63
54 67
54 109
54 115
54 139
54 146
54 191
54 212
54 262
55 66
55 128
55 135
55 184
55 197
55 225
55 234
56 76
56 97
56 173
56 187
57 80
57 122
57 142
57 196
57 199
57 204
57 210
57 222
57 241
57 243
58 80
58 107
58 157
58 179
58 238
58 243
58 271
59 86
59 112
59 161
59 172
59 228
59 267
60 126
60 129
60 148
60 221
61 88
61 96
61 172
61 224
61 270
62 99
62 116
62 157
62 230
63 68
63 101
63 149
63 167
63 168
63 191
63 226
63 236
63 262
64 200
64 277
65 77
65 107
65 132
65 193
65 214
65 250
66 120
66 128
66 132
66 146
66 153
66 189
66 217
66 234
66 247
67 109
67 139
67 166
67 174
67 176
67 178
67 188
67 192
67 197
67 255
68 114
68 167
68 205
68 293
69 109
69 121
69 140
69 212
69 224
69 255
69 276
69 292
70 90
70 149
70 250
70 253
70 262
71 240
71 250
72 98
72 124
72 129
72 160
72 166
72 213
72 244
72 258
72 273
72 277
73 91
73 98
73 118
73 206
73 207
73 224
73 242
73 269
74 77
74 87
74 88
74 160
74 161
74 177
74 192
74 200
74 294
74 297
75 98
75 100
75 123
75 164
75 181
75 227
75 261
75 276
76 131
76 141
76 165
76 206
76 216
76 218
76 258
77 102
77 139
77 142
77 149
77 214
78 93
78 115
78 149
78 204
78 285
78 288
78 294
79 96
79 134
79 150
79 192
79 197
79 199
80 81
80 86
80 153
80 163
80 184
80 204
80 210
80 228
80 243
80 253
80 269
80 277
80 293
80 300
81 91
81 94
81 108
81 147
81 166
81 170
81 194
81 199
81 237
81 293
82 95
82 101
82 102
82 145
82 180
82 217
82 286
83 122
83 151
83 178
83 211
83 241
83 263
84 133
84 136
84 173
84 177
84 221
85 99
85 119
85 133
85 143
85 161
85 277
85 294
86 91
86 175
86 237
86 256
86 267
87 92
87 160
87 177
87 207
87 232
87 294
87 297
88 94
88 151
88 154
88 172
88 192
88 211
89 102
89 164
89 216
89 264
89 295
90 104
90 151
90 156
90 178
90 190
90 205
90 206
90 209
90 211
90 223
90 248
90 250
90 294
91 98
91 167
91 173
91 175
91 186
91 213
91 237
91 239
91 251
91 286
91 289
92 118
92 150
92 172
92 179
92 224
92 265
92 285
93 108
93 115
93 185
93 264
93 288
94 151
94 180
94 194
94 203
94 219
94 225
94 243
95 114
95 117
95 145
95 235
95 285
95 286
96 104
96 141
96 183
96 218
96 230
96 272
96 281
97 146
97 173
97 259
98 227
98 236
99 116
99 147
99 169
99 179
99 244
99 265
99 278
100 103
100 133
100 257
100 268
100 285
101 102
101 104
101 111
101 210
101 224
102 138
102 215
102 229
102 235
102 271
102 295
103 146
103 258
103 271
103 274
104 111
104 129
104 150
104 178
104 224
104 232
104 257
104 259
104 289
105 144
105 217
105 247
105 279
105 295
106 122
106 123
106 125
106 126
106 148
106 158
106 161
106 186
106 192
106 226
106 278
107 162
107 175
107 179
107 193
107 201
107 240
107 248
107 270
108 130
108 165
108 208
108 235
108 247
108 281
108 293
109 179
109 212
109 216
109 219
109 224
109 262
110 150
110 193
110 208
110 221
110 230
110 236
110 297
111 149
112 116
112 127
112 134
112 186
112 187
112 188
112 228
112 283
114 117
114 123
114 136
114 143
114 213
114 218
114 221
115 146
116 132
116 154
116 185
116 192
117 120
117 135
117 148
117 196
117 225
117 235
117 240
118 138
118 140
118 150
118 163
118 181
118 212
118 224
118 242
119 238
119 246
119 257
119 259
119 283
120 146
120 235
120 245
120 247
120 266
120 275
120 295
121 139
121 148
121 162
121 203
121 255
121 259
122 151
122 211
122 222
122 283
122 284
122 300
123 179
123 218
123 225
124 129
124 213
125 126
125 139
125 150
125 192
125 271
125 300
126 136
126 141
126 148
126 156
126 226
126 279
127 134
127 170
127 174
127 228
127 231
127 236
127 294
128 197
129 184
129 221
129 230
129 248
129 251
129 252
129 259
129 285
129 287
130 153
130 161
130 300
131 159
131 204
131 211
131 264
131 271
132 139
132 180
132 204
132 206
132 217
132 293
133 167
133 194
133 215
133 239
133 248
133 269
134 140
134 162
134 170
134 174
134 201
134 241
135 142
135 232
136 143
136 148
136 164
136 199
136 213
136 235
137 141
137 163
137 218
138 222
138 229
138 298
139 149
139 152
139 191
139 258
140 150
140 166
140 170
140 175
140 180
140 209
140 210
140 217
140 228
140 260
140 267
141 146
141 173
141 198
141 218
141 221
142 174
142 191
142 196
143 206
143 213
143 259
143 280
143 287
144 168
144 217
144 247
145 188
146 198
147 171
147 176
147 252
147 268
147 274
149 262
149 299
150 193
150 217
150 224
150 271
150 274
150 275
150 287
151 194
151 206
151 258
151 297
152 156
152 162
152 226
152 240
152 258
152 268
153 253
153 292
154 185
154 211
154 245
155 182
155 200
155 218
155 237
155 251
155 271
155 283
156 201
156 247
156 248
157 170
157 206
157 211
157 230
157 271
158 168
158 177
158 192
158 208
159 188
159 192
159 233
159 253
159 264
159 266
160 177
160 192
160 277
160 289
161 172
161 176
161 192
161 224
161 255
161 297
162 173
162 201
162 238
162 240
162 268
162 295
162 298
163 167
163 176
163 186
163 209
163 242
164 187
164 233
164 246
164 274
165 173
165 238
165 286
166 184
166 195
166 202
166 224
166 243
166 251
166 252
166 300
167 181
167 186
167 194
167 239
167 242
167 264
168 226
168 297
169 262
169 264
169 270
169 296
169 299
170 175
170 199
170 217
170 227
170 282
170 292
171 274
171 275
172 179
172 232
172 265
173 221
173 230
173 286
174 195
174 208
174 294
175 196
175 199
175 201
176 192
176 236
176 255
176 273
176 278
177 191
177 192
177 235
178 214
178 248
178 266
178 285
178 289
179 206
179 224
179 225
179 232
179 234
179 238
179 258
179 269
180 194
180 209
180 246
180 267
180 282
180 286
181 227
181 264
181 286
181 294
181 298
182 196
182 199
182 208
183 186
183 272
183 289
184 216
184 251
184 263
184 265
184 300
185 186
185 190
185 205
185 245
185 276
186 210
186 228
186 297
187 188
187 196
187 204
187 205
187 219
187 220
187 228
187 244
187 246
187 252
187 272
188 226
188 258
188 260
188 264
188 267
188 283
190 195
190 205
190 239
190 245
190 264
190 287
191 236
192 212
192 224
192 244
192 264
192 267
193 225
193 240
193 270
195 238
195 240
195 244
195 287
196 199
196 204
196 240
197 199
197 218
197 255
199 227
200 259
200 261
200 283
201 207
201 234
201 270
202 211
202 224
202 227
202 244
202 300
203 225
203 296
204 228
204 293
205 214
205 216
205 293
206 243
206 258
206 269
206 280
206 292
208 236
208 266
208 295
208 298
209 231
209 232
209 238
209 240
209 242
209 267
209 294
210 228
210 233
210 246
210 296
210 299
211 223
211 241
211 271
212 224
212 242
213 241
213 252
214 248
215 235
215 248
215 250
216 222
216 251
216 258
217 223
217 286
218 225
219 225
219 228
219 276
220 252
220 263
221 230
221 248
222 253
222 258
222 260
222 274
222 282
222 283
222 284
223 292
224 244
224 256
224 267
225 243
226 258
227 233
228 246
228 260
228 269
229 298
230 249
230 255
230 271
230 281
230 290
231 232
231 242
231 257
231 270
231 294
231 300
232 257
233 253
235 240
235 247
235 250
236 294
237 242
237 251
237 256
237 287
238 240
238 247
238 260
238 269
238 271
238 294
239 246
239 259
239 261
239 264
239 269
239 287
239 289
240 260
241 243
241 252
242 251
243 262
243 277
244 246
244 273
244 278
245 275
246 272
246 282
246 283
247 274
248 259
248 270
248 285
249 259
249 261
249 281
250 262
250 291
251 258
251 265
252 263
252 268
253 274
253 282
255 290
255 293
256 287
256 293
257 272
257 285
257 297
258 264
258 273
258 283
259 261
259 287
259 290
260 283
261 265
262 264
262 286
263 300
264 266
264 286
264 289
265 271
266 295
267 281
269 271
269 289
271 275
272 289
274 275
274 288
275 287
275 288
278 289
279 294
279 298
285 297
287 290
287 291
288 289
288 294
288 298
294 298
296 299
*Classes
1
1
1
1
1
1
1
1
1
1
1
1
1
1
1
1
1
1
1
1
1
1
1
1
1
1
1
1
1
1
1
1
1
1
1
1
1
1
1
1
1
1
1
1
1
1
1
1
1
1
1
1
1
1
1
1
1
1
1
1
1
1
1
1
1
1
1
1
1
1
1
1
1
1
1
1
1
1
1
1
1
1
1
1
1
1
1
1
1
1
1
1
1
1
1
1
1
1
1
1
1
1
1
1
1
1
1
1
1
1
1
1
1
1
1
1
1
1
1
1
1
1
1
1
1
1
1
1
1
1
1
1
1
1
1
1
1
1
1
1
1
1
1
1
1
1
1
1
1
1
2
2
2
2
2
2
2
2
2
2
2
2
2
2
2
2
2
2
2
2
2
2
2
2
2
2
2
2
2
2
2
2
2
2
2
2
2
2
2
2
2
2
2
2
2
2
2
2
2
2
2
2
2
2
2
2
2
2
2
2
2
2
2
2
2
2
2
2
2
2
2
2
2
2
2
2
2
2
2
2
2
2
2
2
2
2
2
2
2
2
2
2
2
2
2
2
2
2
2
2
2
2
2
2
2
2
2
2
2
2
2
2
2
2
2
2
2
2
2
2
2
2
2
2
2
2
2
2
2
2
2
2
2
2
2
2
2
2
2
2
2
2
2
2
2
2
2
2
2
2
