*Vertices 300
*Edges
1 2
1 123
1 124
1 154
1 218
1 222
1 231
1 264
1 282
2 84
2 123
2 203
2 233
2 237
2 261
2 262
2 264
2 266
2 289
2 299
3 99
3 184
3 223
3 230
3 235
3 293
4 15
4 74
4 105
4 122
4 136
4 192
4 206
4 213
4 265
5 12
5 23
5 25
5 35
5 38
5 49
5 77
5 188
5 198
5 211
5 236
5 274
5 284
6 29
6 113
6 142
6 236
7 22
7 42
7 55
7 76
7 99
7 115
7 129
7 259
7 265
8 23
8 33
8 58
8 130
8 184
8 227
8 263
8 273
8 278
8 279
9 103
9 106
9 158
9 163
9 219
9 241
10 21
10 81
10 103
10 158
10 179
10 216
10 237
10 251
10 253
10 269
10 286
11 37
11 78
11 125
11 134
11 198
11 236
11 283
11 294
12 25
12 68
12 104
12 134
12 140
12 211
12 249
12 286
13 24
13 28
13 30
13 60
13 100
13 158
13 169
13 174
13 187
13 195
13 234
13 236
13 239
13 241
13 254
14 19
14 37
14 53
14 73
14 120
14 133
14 136
14 155
14 159
14 174
14 241
14 265
15 25
15 33
15 133
15 217
15 225
16 27
16 143
16 216
16 284
16 296
17 39
17 49
17 96
17 125
17 145
17 163
17 178
17 209
17 224
17 270
17 280
18 89
18 149
18 201
18 204
18 293
19 42
19 90
19 91
19 99
19 100
19 212
19 268
19 270
20 125
20 285
21 40
21 44
21 56
21 78
21 101
21 261
21 269
22 66
22 100
22 108
22 115
22 167
22 191
22 208
22 222
22 254
22 291
23 25
23 57
23 114
23 130
23 177
24 26
24 30
24 32
24 35
24 62
24 67
24 70
24 86
24 98
24 122
24 150
24 173
24 225
24 271
25 38
25 45
25 101
25 104
25 133
25 140
25 286
26 32
26 78
26 94
26 98
26 114
26 150
26 174
26 237
26 240
26 276
27 36
27 62
27 106
27 114
27 119
27 143
27 153
27 158
27 191
27 216
27 228
27 243
27 295
28 45
28 48
28 68
28 100
28 115
28 153
28 165
28 259
28 265
28 285
29 44
29 95
29 101
29 113
29 156
29 195
29 212
29 278
29 291
30 35
30 66
30 81
30 128
30 133
31 36
31 74
31 79
31 114
31 197
31 223
32 36
32 44
32 62
32 67
32 119
32 125
32 156
32 171
32 196
32 212
32 215
32 224
32 243
32 297
33 45
33 58
33 61
33 73
33 83
33 93
33 102
33 105
33 108
33 120
33 133
33 166
33 196
33 240
33 287
33 291
34 139
34 193
34 205
34 232
34 235
34 279
35 46
35 60
35 66
35 77
35 86
35 111
35 229
35 233
36 62
36 79
36 202
37 53
37 73
37 89
37 159
37 161
37 175
37 184
37 188
37 213
37 236
37 290
38 45
38 50
38 51
38 83
38 101
38 133
38 146
38 188
38 196
38 208
39 63
39 80
39 90
39 96
39 143
39 159
39 169
39 179
39 181
39 258
39 276
39 290
40 45
40 51
40 78
40 147
40 287
41 123
41 170
41 199
41 206
41 240
42 61
42 64
42 93
42 99
42 166
42 210
42 211
42 225
42 229
42 292
43 62
43 148
43 273
43 291
44 78
44 101
44 119
44 156
44 158
44 174
44 212
44 216
44 264
44 271
44 297
44 299
45 48
45 58
45 83
45 101
45 105
45 148
45 192
45 240
45 298
46 60
46 92
46 114
46 150
46 155
46 239
46 247
46 248
46 273
47 68
47 111
47 136
47 140
47 191
47 216
47 241
47 269
48 72
48 84
48 131
48 240
48 281
49 90
49 96
49 100
49 152
49 154
49 155
49 178
49 179
49 226
49 240
50 78
50 90
50 101
50 123
50 166
50 240
50 251
50 285
50 300
51 61
51 176
51 177
51 182
51 193
51 194
51 217
51 221
52 213
52 229
52 235
53 69
53 97
53 170
53 193
54 65
54 159
54 193
55 76
55 99
55 155
55 156
55 194
55 254
55 262
55 288
56 68
56 72
56 78
56 84
56 88
56 126
56 228
56 261
56 274
57 114
57 129
57 193
58 63
58 73
58 83
58 91
58 114
58 133
58 178
58 275
59 169
59 221
59 282
59 288
59 297
59 298
60 93
60 100
60 109
60 111
60 129
60 141
60 167
60 168
60 181
60 244
60 277
60 296
61 64
61 102
61 166
61 205
61 217
61 281
61 292
62 114
62 126
62 158
62 174
62 187
62 196
62 226
62 277
62 291
63 86
63 91
63 114
63 141
63 169
63 242
63 246
63 273
63 277
64 82
64 180
64 229
64 257
65 98
65 113
65 144
65 154
65 159
65 300
66 111
66 122
66 128
66 157
66 170
66 183
66 223
66 239
66 251
66 254
66 257
67 70
67 84
67 119
67 162
67 173
67 243
67 258
67 271
67 279
67 283
67 289
68 84
68 104
68 110
68 116
68 153
68 154
68 204
68 225
68 243
68 255
68 268
68 269
68 300
69 74
69 97
69 137
69 143
69 146
69 178
69 203
69 216
69 233
69 290
70 122
70 132
70 171
70 176
70 216
70 261
70 274
70 284
70 296
71 222
71 226
71 231
71 246
71 256
72 84
72 95
72 178
72 239
73 93
73 102
73 150
73 198
73 261
73 278
73 291
74 87
74 105
74 113
74 114
74 122
74 126
74 132
74 142
74 150
74 163
74 197
74 213
74 223
75 147
75 189
75 219
75 267
75 299
76 115
76 141
76 222
76 259
77 86
77 211
77 274
78 90
78 147
78 151
78 178
78 190
78 198
78 203
78 240
78 251
78 269
78 285
78 287
78 300
79 122
79 138
79 199
79 229
79 231
79 275
80 159
80 166
80 170
80 172
80 200
80 283
82 115
82 119
82 134
82 141
82 203
82 205
82 260
82 274
82 292
83 91
83 145
83 154
83 178
83 187
83 192
83 209
83 243
83 252
83 281
84 88
84 95
84 169
84 203
84 239
84 268
84 279
85 99
85 115
85 122
85 165
85 176
85 264
85 265
85 291
85 297
86 190
86 262
87 104
87 114
87 132
87 136
87 177
87 197
87 205
87 223
87 240
87 265
87 267
87 268
88 170
88 201
88 233
88 235
89 149
89 163
89 175
89 185
89 197
89 296
90 100
90 101
90 106
90 143
90 157
90 158
90 159
90 161
90 164
90 197
90 216
90 234
90 283
90 294
91 145
91 246
91 290
91 294
92 114
92 168
92 239
92 248
92 283
93 99
93 102
93 150
93 168
93 284
93 296
94 114
94 126
94 131
94 150
94 214
94 219
94 239
94 288
94 296
95 153
95 163
95 166
95 195
95 202
95 236
95 246
95 247
96 179
96 209
96 224
96 233
96 258
97 130
97 137
97 143
97 186
97 222
97 223
97 230
98 113
98 193
98 199
99 100
99 153
99 165
99 172
99 173
99 184
99 252
100 141
100 143
100 195
100 241
100 244
100 254
101 105
101 115
101 123
101 141
101 146
101 159
101 207
101 213
101 216
101 221
101 241
101 262
101 266
101 289
102 126
102 150
102 194
102 236
103 106
103 179
103 196
103 245
103 251
103 253
104 110
104 124
104 209
104 211
105 114
105 126
105 128
105 133
105 139
105 146
105 192
106 143
106 202
106 232
106 249
106 252
107 295
108 120
108 133
108 191
109 154
109 167
109 168
109 181
109 196
109 248
109 258
109 259
109 262
110 136
110 179
110 211
110 214
110 226
110 228
110 244
110 247
111 122
111 127
111 128
111 140
111 170
111 184
111 229
111 268
112 163
112 191
112 213
112 237
112 284
113 131
113 142
113 167
113 186
113 195
113 199
113 218
113 226
113 270
114 126
114 150
114 177
114 217
114 254
114 259
114 275
114 277
115 116
115 119
115 129
115 141
115 224
115 259
115 265
116 121
116 173
116 225
116 265
118 157
118 161
118 162
118 192
118 201
118 205
118 207
118 258
118 286
118 289
119 143
119 154
119 215
119 220
119 243
119 271
119 292
120 133
120 136
120 192
121 185
121 211
121 255
122 138
122 142
122 198
122 231
123 192
123 210
123 243
123 276
123 289
123 299
124 205
124 231
124 239
124 244
124 268
125 134
125 224
125 244
125 285
126 128
126 150
126 196
126 212
126 241
126 254
126 267
127 184
128 133
128 146
128 201
128 223
128 293
129 167
129 248
129 263
130 151
130 159
130 175
130 190
130 213
130 230
130 279
131 142
131 167
131 226
131 288
131 291
132 182
132 267
132 274
132 297
133 172
133 201
133 257
133 276
134 140
134 144
134 157
134 178
134 194
134 203
134 253
134 294
135 175
135 183
135 219
135 226
135 227
136 140
136 151
136 153
136 206
136 239
136 240
136 241
136 265
136 280
137 271
138 172
138 180
138 237
138 283
138 293
139 148
139 193
139 197
139 236
139 244
139 246
140 144
140 229
140 249
140 268
140 281
141 176
141 211
141 222
141 242
141 243
141 245
141 281
141 289
142 153
142 167
142 180
142 182
142 190
142 211
142 258
142 278
142 285
142 292
143 157
143 164
143 202
143 226
143 245
143 249
143 273
144 159
144 188
144 217
144 235
144 286
144 290
145 252
146 233
146 255
147 278
147 287
148 192
148 198
149 154
149 158
149 163
149 187
149 192
149 197
149 201
149 241
149 242
149 258
149 293
150 163
150 237
150 259
151 179
151 190
151 203
151 242
151 263
151 265
151 274
151 299
152 162
152 165
152 170
152 177
152 188
152 193
152 200
152 201
152 216
152 240
152 244
152 245
152 260
152 278
152 287
153 163
153 165
153 212
153 228
153 241
153 257
153 285
154 163
154 187
154 226
154 243
154 274
154 300
155 167
155 248
155 255
156 195
156 215
156 221
156 262
156 288
157 196
157 244
157 245
157 251
158 174
158 219
158 282
158 296
159 192
159 213
159 217
159 224
159 258
159 290
159 293
161 164
161 184
161 193
161 223
161 243
161 254
161 273
161 289
162 178
162 191
162 192
162 193
162 194
162 223
162 261
162 278
162 289
163 165
163 169
163 197
163 217
163 231
163 239
163 241
163 280
163 281
163 296
164 247
165 170
165 257
166 170
166 194
166 196
166 202
166 246
166 298
167 191
167 218
167 248
167 254
167 255
168 246
169 239
169 288
170 188
170 193
170 201
170 258
171 250
171 261
171 290
171 294
172 180
172 248
172 283
173 265
174 212
175 177
175 185
175 188
175 198
175 210
175 217
175 219
175 262
175 267
175 294
176 182
176 211
176 291
177 180
177 211
177 217
177 228
177 232
177 260
177 268
177 270
178 179
178 194
178 203
178 227
179 194
179 203
179 251
179 259
179 266
180 203
180 229
180 231
180 260
180 269
180 283
181 225
181 258
181 295
182 234
183 208
183 257
183 290
184 203
184 223
184 273
185 217
186 222
186 268
186 270
187 226
187 246
187 252
187 254
187 287
187 300
188 196
188 198
188 294
189 194
189 232
189 274
190 192
190 195
190 201
190 236
190 242
190 299
191 228
191 237
191 261
191 269
191 282
192 213
192 289
193 289
194 203
194 221
194 226
194 227
194 235
194 237
194 246
194 274
195 201
195 215
195 236
195 274
196 202
196 224
196 237
196 243
196 251
196 287
196 288
196 293
197 214
197 234
197 236
197 239
197 295
198 261
199 260
200 240
201 205
201 258
202 214
202 224
202 247
203 223
203 231
203 260
203 269
203 274
203 283
204 268
205 232
205 241
205 260
205 292
206 273
207 252
207 266
207 292
208 217
208 264
208 290
208 291
209 224
209 263
209 293
209 296
210 217
210 237
210 257
210 286
211 228
211 258
212 235
212 240
212 241
212 267
212 278
212 291
212 298
213 235
213 265
214 231
214 239
214 243
214 247
214 258
214 278
214 295
215 288
216 245
216 269
216 278
216 294
216 295
217 219
217 232
217 239
217 260
217 262
217 264
217 267
217 268
217 293
218 242
219 282
219 288
219 296
220 229
220 271
221 262
221 266
221 298
222 281
223 237
223 269
223 273
223 278
223 293
224 237
224 293
225 258
226 246
226 254
226 273
227 246
227 262
227 263
228 260
228 261
228 282
228 285
229 257
229 260
230 293
231 239
231 246
231 268
231 270
231 282
233 235
233 251
233 262
235 241
235 279
236 256
237 274
237 286
237 293
239 280
239 295
240 241
240 280
240 298
241 265
241 280
242 265
242 274
243 247
243 287
243 289
244 245
245 287
247 295
248 255
250 294
252 260
252 281
252 292
253 289
253 300
254 277
254 287
254 289
258 295
259 262
260 265
260 283
260 292
262 266
263 274
263 296
263 300
264 282
264 297
266 292
267 291
268 270
269 294
271 297
274 300
280 281
284 296
286 289
286 300
287 288
289 300
290 293
290 294
*Classes
1
1
1
1
1
1
1
1
1
1
1
1
1
1
1
1
1
1
1
1
1
1
1
1
1
1
1
1
1
1
1
1
1
1
1
1
1
1
1
1
1
1
1
1
1
1
1
1
1
1
1
1
1
1
1
1
1
1
1
1
1
1
1
1
1
1
1
1
1
1
1
1
1
1
1
1
1
1
1
1
1
1
1
1
1
1
1
1
1
1
1
1
1
1
1
1
1
1
1
1
1
1
1
1
1
1
1
1
1
1
1
1
1
1
1
1
1
1
1
1
1
1
1
1
1
1
1
1
1
1
1
1
1
1
1
1
1
1
1
1
1
1
1
1
1
1
1
1
1
1
2
2
2
2
2
2
2
2
2
2
2
2
2
2
2
2
2
2
2
2
2
2
2
2
2
2
2
2
2
2
2
2
2
2
2
2
2
2
2
2
2
2
2
2
2
2
2
2
2
2
2
2
2
2
2
2
2
2
2
2
2
2
2
2
2
2
2
2
2
2
2
2
2
2
2
2
2
2
2
2
2
2
2
2
2
2
2
2
2
2
2
2
2
2
2
2
2
2
2
2
2
2
2
2
2
2
2
2
2
2
2
2
2
2
2
2
2
2
2
2
2
2
2
2
2
2
2
2
2
2
2
2
2
2
2
2
2
2
2
2
2
2
2
2
2
2
2
2
2
2
