*Vertices 300
*Edges
1 22
1 64
1 124
1 251
1 276
1 298
2 12
2 28
2 31
2 44
2 87
2 90
2 113
2 123
2 136
2 149
2 161
2 226
2 266
2 275
2 279
2 291
3 32
3 50
3 75
3 83
3 173
3 204
3 219
3 281
3 296
4 5
4 11
4 12
4 37
4 44
4 47
4 74
4 152
4 162
4 203
4 273
5 21
5 41
5 74
5 76
5 84
5 170
5 172
5 173
5 184
5 218
5 267
5 290
6 9
6 22
6 28
6 76
6 81
6 90
6 127
6 132
6 139
6 149
6 150
6 167
6 190
6 231
6 245
6 246
6 296
7 11
7 60
7 72
7 89
7 97
7 119
7 141
7 251
7 278
8 13
8 94
8 106
8 222
8 259
9 11
9 39
9 51
9 66
9 113
9 162
9 180
9 190
9 202
9 225
9 231
9 254
9 275
9 277
9 289
10 57
10 148
10 162
10 191
10 259
11 17
11 42
11 43
11 72
11 97
11 102
11 179
11 225
11 249
11 273
11 278
12 44
12 46
12 79
12 142
13 94
13 151
13 194
13 222
14 37
14 49
14 64
14 92
14 101
14 128
14 153
14 154
14 170
14 190
14 194
14 199
14 203
14 208
14 235
14 245
14 282
15 37
15 54
15 60
15 73
15 145
15 160
15 236
15 277
15 284
16 55
16 69
16 95
16 108
16 122
16 131
16 152
16 153
16 158
16 210
16 217
16 220
16 241
16 248
16 279
16 287
17 28
17 42
17 57
17 91
17 130
17 133
17 134
17 148
17 207
17 219
17 225
17 239
18 28
18 113
18 126
18 145
18 164
18 227
18 249
18 293
19 33
19 176
19 186
19 189
19 210
19 215
19 223
19 234
19 246
19 278
20 42
20 57
20 60
20 67
20 82
20 89
20 90
20 160
20 186
20 263
20 267
20 276
20 290
21 39
21 75
21 102
21 143
21 164
21 183
21 218
21 253
21 262
21 274
21 277
21 280
22 25
22 63
22 81
22 167
22 177
22 186
22 249
22 286
23 69
23 73
23 108
23 112
23 129
23 137
23 168
23 188
23 199
23 268
23 294
24 43
24 77
24 82
24 215
24 268
24 270
25 31
25 39
25 40
25 63
25 76
25 78
25 79
25 84
25 95
25 159
25 179
26 54
26 130
26 142
26 174
26 179
26 212
26 215
26 227
27 45
27 94
27 221
28 33
28 64
28 81
28 90
28 119
28 126
28 127
28 150
28 239
28 271
28 282
29 34
29 55
29 76
29 80
29 100
29 118
29 120
29 124
29 142
29 165
29 208
29 263
29 285
30 70
30 97
30 104
30 106
30 166
30 175
31 79
31 87
31 92
31 102
31 143
31 145
31 159
31 179
31 255
31 258
31 278
32 81
32 83
32 163
32 239
32 259
33 45
33 90
33 107
33 114
33 130
33 133
33 164
33 219
33 258
33 291
34 84
34 90
34 109
34 118
34 120
34 136
34 241
34 252
34 258
34 291
35 54
35 60
35 73
35 147
35 200
35 205
35 224
35 261
36 65
36 72
36 120
36 142
36 158
36 184
37 54
37 64
37 68
37 101
37 145
37 207
37 222
37 236
37 251
37 273
37 284
37 293
38 139
38 252
38 254
39 40
39 50
39 51
39 65
39 120
39 154
39 164
39 169
39 175
39 262
39 275
39 280
39 291
39 292
40 139
40 143
40 175
40 233
40 240
40 243
40 251
40 258
40 259
40 280
41 80
41 89
41 172
41 214
41 240
41 274
42 118
42 121
42 156
42 186
42 222
42 238
42 247
42 254
42 280
43 99
43 115
43 256
44 47
44 64
44 79
44 142
44 143
44 251
44 284
45 104
45 107
45 133
45 168
45 262
46 155
46 164
46 171
46 292
47 57
47 61
47 103
47 143
47 179
48 61
48 117
48 127
48 141
48 153
48 154
48 208
48 246
48 294
49 64
49 101
49 106
49 130
49 145
49 164
49 245
49 258
49 276
49 282
50 93
50 154
50 174
50 199
50 220
50 266
50 286
50 296
51 65
51 154
51 162
51 193
51 202
51 254
51 277
51 290
52 150
52 260
52 272
52 285
52 295
53 63
53 84
53 87
53 92
53 123
53 198
53 202
53 259
53 275
54 58
54 64
54 68
54 71
54 120
54 121
54 124
54 144
54 147
54 161
54 179
54 190
54 199
54 200
54 205
54 215
54 233
54 236
54 279
55 76
55 117
55 180
55 206
55 211
55 217
55 238
56 88
56 98
56 101
56 129
56 137
56 222
56 230
56 266
56 296
57 97
57 130
57 143
57 148
57 150
57 272
57 300
58 76
58 88
58 149
58 182
58 233
58 237
58 241
58 252
58 254
59 75
59 111
59 183
59 193
59 230
59 300
60 67
60 73
60 89
60 117
60 147
60 177
61 137
61 153
61 215
61 216
61 299
62 78
62 134
62 159
62 172
62 207
62 214
62 287
63 86
63 98
63 101
63 126
63 159
63 202
63 252
63 265
63 267
63 284
63 296
64 90
64 144
64 145
64 188
64 251
64 259
65 76
65 81
65 120
65 143
65 149
65 155
65 164
65 179
65 247
65 275
66 165
66 166
66 177
66 251
66 298
67 100
67 115
67 154
67 203
67 238
67 249
68 69
68 71
68 120
68 142
68 161
68 202
68 258
68 292
69 108
69 122
69 142
69 149
69 202
69 296
70 78
70 94
70 101
70 106
70 114
70 175
70 271
71 113
71 121
71 162
71 231
72 119
72 129
72 141
72 278
72 300
73 83
73 106
73 107
73 134
73 138
73 156
73 163
73 192
73 221
73 238
73 246
73 268
73 276
73 282
73 285
74 86
74 125
74 148
74 162
74 172
74 197
74 230
74 249
74 253
74 287
74 293
75 102
75 173
75 201
75 274
76 78
76 84
76 88
76 100
76 121
76 139
76 149
76 238
76 258
76 269
77 82
77 86
77 111
77 300
78 100
78 127
78 168
78 192
78 270
79 87
79 162
79 199
79 262
79 270
80 275
81 127
81 226
81 250
81 268
81 273
82 86
82 138
82 186
82 298
83 168
83 259
84 134
84 136
84 198
84 201
84 207
84 258
84 275
84 290
85 130
85 131
85 160
85 177
85 214
85 247
85 292
85 294
86 110
86 125
86 256
86 296
87 92
87 102
87 124
87 166
87 179
87 237
87 258
87 261
88 298
89 112
89 132
89 141
89 152
89 177
89 199
89 234
89 240
90 109
90 133
90 217
90 248
90 267
91 111
91 122
91 140
91 160
91 230
91 275
91 280
92 96
92 136
92 138
92 166
92 167
92 190
92 224
92 230
92 246
93 121
93 145
93 162
93 249
93 254
93 282
93 293
94 106
94 184
94 291
95 158
95 159
95 191
95 275
95 289
96 144
96 174
96 224
97 98
97 102
97 179
97 213
97 272
98 111
98 128
98 178
98 191
98 213
98 241
98 253
98 265
98 266
99 115
100 115
100 139
100 164
100 248
100 262
100 272
100 295
101 114
101 173
101 210
101 222
101 257
101 264
101 265
101 266
102 169
102 176
102 183
102 237
102 240
102 253
103 191
103 223
103 231
103 256
104 168
105 112
105 125
105 168
105 174
105 227
106 182
106 192
106 204
106 221
106 276
106 282
106 289
107 133
107 151
107 194
107 205
107 219
107 220
107 268
107 294
108 122
108 155
108 188
109 136
110 197
110 296
111 122
111 123
111 128
111 207
111 230
111 265
111 300
112 125
112 141
112 152
112 199
112 220
112 231
112 256
112 294
113 121
113 145
113 149
113 190
113 197
113 231
113 269
113 275
113 293
114 131
114 167
114 168
114 219
114 220
114 238
114 297
115 174
115 184
115 203
115 248
115 256
115 262
116 165
116 205
116 216
116 261
117 180
117 294
118 152
118 247
119 126
119 139
119 143
119 201
119 251
119 253
119 282
120 142
120 179
120 252
120 258
121 142
121 149
121 282
121 289
121 293
122 158
122 169
122 286
123 144
123 149
123 269
124 165
124 170
124 173
124 182
124 228
124 233
124 261
124 276
125 171
125 197
125 211
125 236
125 269
126 282
127 130
127 141
127 150
127 246
127 278
127 296
128 196
128 207
128 208
128 300
129 137
129 195
129 199
130 131
130 139
130 141
130 174
130 176
130 177
130 213
130 214
130 219
130 227
130 234
130 258
131 168
131 199
131 200
131 206
131 220
131 235
131 297
132 141
132 178
132 239
132 245
132 263
133 139
133 173
133 229
133 234
133 258
133 262
133 270
133 273
134 147
134 172
134 192
134 207
134 227
134 278
135 158
135 161
135 195
135 199
135 225
136 138
136 190
136 206
136 241
136 266
136 291
138 184
138 186
138 197
138 216
138 230
138 240
138 248
138 285
139 143
139 149
139 258
140 280
141 159
141 173
141 239
141 260
141 297
142 149
142 168
142 170
142 173
142 186
142 227
143 175
143 179
143 271
143 278
143 280
144 145
144 149
144 188
144 270
145 155
145 160
145 162
145 164
145 179
145 197
145 224
145 248
145 293
146 227
146 282
146 285
147 185
147 189
147 224
148 253
148 268
148 272
148 300
149 186
149 293
150 224
150 252
150 254
150 260
150 275
151 164
151 205
151 258
152 196
152 203
153 220
153 231
154 203
154 223
155 164
156 238
156 263
156 280
157 170
157 216
157 218
157 223
157 291
158 225
158 236
159 170
159 173
159 222
159 230
159 234
159 251
159 260
159 266
160 220
160 263
160 276
160 293
161 193
161 245
161 269
161 274
161 280
162 231
162 249
162 254
163 221
163 239
163 265
163 281
163 300
164 275
164 291
165 173
165 178
165 261
166 185
166 236
166 251
166 261
166 290
167 219
167 227
167 246
168 170
168 174
168 195
168 220
168 227
168 231
168 235
168 241
168 254
168 270
168 282
169 177
169 185
169 193
169 201
169 231
169 256
169 278
169 280
169 284
169 292
170 173
170 192
170 195
170 197
170 216
170 254
170 282
171 177
171 292
172 188
172 230
172 231
172 240
172 254
173 184
173 192
173 209
173 222
173 234
173 260
173 273
173 274
174 198
174 221
174 227
174 259
174 262
174 285
175 190
175 193
175 208
175 215
175 234
175 236
175 245
175 262
175 268
175 270
176 187
176 189
176 196
176 251
176 253
176 277
177 195
177 286
177 292
178 183
178 191
178 263
178 276
179 197
179 224
179 278
179 297
180 199
180 206
180 289
181 210
181 223
182 228
182 230
182 232
182 233
182 242
182 257
182 266
182 284
182 286
182 294
183 194
183 220
183 261
183 263
183 267
183 296
184 209
184 248
185 251
186 210
186 211
186 229
186 242
186 257
186 267
186 293
187 196
187 293
188 251
189 250
189 251
189 277
189 292
190 199
190 206
190 245
191 226
191 231
192 234
192 244
193 196
193 243
193 245
193 269
193 280
193 290
193 296
194 199
194 205
194 220
195 199
195 235
195 241
195 254
195 279
195 292
196 251
196 269
196 296
197 256
197 273
199 206
199 220
199 241
199 268
199 279
199 294
200 211
200 220
200 235
200 241
200 289
201 278
202 258
203 213
203 223
203 238
203 249
204 252
205 261
206 294
206 297
207 227
207 251
207 257
207 293
208 234
208 235
208 236
208 242
208 285
209 250
209 273
210 223
210 265
210 287
211 225
211 229
211 235
211 269
211 270
212 226
212 227
212 246
213 214
213 253
213 258
214 237
214 253
214 274
214 287
215 262
215 270
215 299
216 218
216 223
216 230
216 261
216 291
216 295
217 248
218 261
219 239
219 283
219 289
220 241
220 267
220 276
221 232
221 246
221 288
222 234
222 239
222 254
222 264
222 294
222 297
223 234
223 287
224 248
226 231
226 268
227 246
227 251
227 254
227 259
227 262
227 285
229 269
229 270
229 290
230 231
230 237
230 251
230 266
230 276
230 288
231 254
231 256
232 233
232 266
232 276
232 282
232 288
232 297
233 259
233 286
234 250
234 267
235 242
235 257
235 285
235 290
236 251
237 238
237 266
237 287
237 288
238 263
238 276
238 287
239 247
239 288
239 297
239 300
240 253
241 250
241 265
241 267
241 292
242 257
242 294
243 245
243 266
243 268
244 283
244 289
245 268
245 300
246 251
246 278
247 294
250 251
250 267
250 273
250 289
251 259
252 254
254 270
254 294
256 273
256 296
257 293
258 273
259 262
261 267
261 296
262 270
263 267
263 276
266 276
266 296
267 276
267 290
268 294
268 300
271 282
272 295
273 289
276 287
277 280
277 290
277 292
278 281
278 284
283 289
288 300
*Classes
1
1
1
1
1
1
1
1
1
1
1
1
1
1
1
1
1
1
1
1
1
1
1
1
1
1
1
1
1
1
1
1
1
1
1
1
1
1
1
1
1
1
1
1
1
1
1
1
1
1
1
1
1
1
1
1
1
1
1
1
1
1
1
1
1
1
1
1
1
1
1
1
1
1
1
1
1
1
1
1
1
1
1
1
1
1
1
1
1
1
1
1
1
1
1
1
1
1
1
1
1
1
1
1
1
1
1
1
1
1
1
1
1
1
1
1
1
1
1
1
1
1
1
1
1
1
1
1
1
1
1
1
1
1
1
1
1
1
1
1
1
1
1
1
1
1
1
1
1
1
2
2
2
2
2
2
2
2
2
2
2
2
2
2
2
2
2
2
2
2
2
2
2
2
2
2
2
2
2
2
2
2
2
2
2
2
2
2
2
2
2
2
2
2
2
2
2
2
2
2
2
2
2
2
2
2
2
2
2
2
2
2
2
2
2
2
2
2
2
2
2
2
2
2
2
2
2
2
2
2
2
2
2
2
2
2
2
2
2
2
2
2
2
2
2
2
2
2
2
2
2
2
2
2
2
2
2
2
2
2
2
2
2
2
2
2
2
2
2
2
2
2
2
2
2
2
2
2
2
2
2
2
2
2
2
2
2
2
2
2
2
2
2
2
2
2
2
2
2
2
