*Vertices 300
*Edges
1 28
1 48
1 56
1 75
1 115
1 116
1 124
1 225
1 244
1 258
1 280
1 293
2 171
3 72
3 84
3 137
3 173
3 201
3 212
4 15
4 143
4 174
4 186
4 198
4 237
4 271
4 283
5 13
5 64
5 177
5 205
5 231
5 246
5 250
5 258
5 287
6 10
6 29
6 84
6 99
6 137
6 168
6 179
6 226
6 297
7 12
7 21
7 33
7 39
7 63
7 109
7 151
7 168
7 202
7 262
8 20
8 40
8 41
8 44
8 78
8 179
8 257
8 298
9 16
9 50
9 99
9 100
9 119
9 126
9 139
10 45
10 52
10 61
10 99
10 115
10 136
10 143
10 155
10 168
10 226
10 230
10 241
10 246
10 262
10 297
11 19
11 35
11 55
11 66
11 76
11 124
11 138
11 198
11 221
11 233
11 237
11 241
11 256
11 292
11 298
12 13
12 25
12 33
12 35
12 43
12 53
12 64
12 156
12 192
12 215
12 234
12 240
12 241
12 297
13 17
13 33
13 35
13 40
13 43
13 64
13 159
13 187
13 234
13 235
13 250
13 290
14 32
14 57
14 91
14 116
14 195
14 266
14 280
15 183
15 213
15 271
16 29
16 48
16 99
16 100
16 114
16 120
16 179
16 225
16 244
17 33
17 41
17 64
17 75
17 83
17 96
17 112
17 136
17 144
17 150
17 221
17 229
17 235
17 268
18 67
18 88
18 93
18 136
18 137
18 184
18 186
18 295
19 21
19 192
19 230
19 234
19 256
20 30
20 44
20 45
20 157
20 179
20 205
20 217
20 223
20 225
20 247
20 255
20 258
20 264
21 63
21 219
21 224
21 243
21 289
21 295
22 57
22 73
22 148
22 188
22 244
22 251
22 278
23 44
23 58
23 70
23 132
23 136
23 153
23 201
23 210
23 213
23 259
23 278
24 64
24 66
24 117
24 156
24 163
24 187
24 199
24 285
24 286
24 287
25 26
25 30
25 34
25 50
25 53
25 61
25 119
25 132
25 134
25 138
25 170
25 241
25 287
25 291
26 36
26 37
26 50
26 52
26 77
26 108
26 119
26 141
26 210
26 265
26 272
26 296
27 72
27 85
27 98
27 108
27 291
28 32
28 46
28 52
28 106
28 116
28 117
28 143
28 161
28 198
28 258
29 85
29 99
29 102
29 105
29 118
29 140
29 162
29 185
29 191
29 235
29 287
29 294
30 76
30 138
30 165
30 211
30 247
30 258
30 269
31 87
31 109
31 162
31 288
31 297
32 48
32 57
32 78
32 115
32 117
32 163
32 189
32 190
32 198
32 269
33 40
33 43
33 55
33 73
33 83
33 121
33 131
33 167
33 172
33 224
33 270
34 50
34 54
34 86
34 97
34 114
34 119
34 132
34 165
34 166
34 264
35 43
35 76
35 134
35 138
35 173
35 235
35 255
35 280
35 285
35 297
36 50
36 83
36 88
36 141
36 147
36 174
36 203
36 219
36 224
36 228
36 243
36 286
37 52
37 82
37 85
37 108
37 115
37 245
37 249
37 269
38 81
38 82
38 106
38 110
38 194
38 264
39 86
39 95
39 109
39 150
39 178
39 210
39 213
39 255
40 78
40 217
40 232
40 298
41 44
41 55
41 75
41 110
41 113
41 141
41 145
41 190
41 204
41 253
42 107
42 126
42 159
42 229
42 248
42 278
42 297
43 49
43 124
43 144
43 184
43 187
43 195
43 292
44 113
44 132
44 136
44 141
44 145
44 170
44 182
44 204
44 257
44 259
44 298
45 99
45 115
45 143
45 196
45 201
45 225
46 117
46 142
46 212
46 266
47 96
47 99
47 140
47 142
47 143
47 268
48 69
48 100
48 116
48 218
48 232
48 269
48 294
49 70
49 80
49 83
49 88
49 144
49 159
49 175
49 195
49 224
49 285
50 86
50 89
50 107
50 119
50 135
50 147
50 155
50 224
52 77
52 105
52 108
52 123
52 135
52 143
52 145
52 153
52 179
52 213
52 276
52 280
52 281
52 284
53 156
54 71
54 82
54 86
54 98
54 165
54 180
54 222
55 92
55 93
55 94
55 133
55 145
55 221
55 240
55 242
56 75
56 107
56 124
56 159
56 210
56 234
56 272
56 284
57 78
57 163
57 280
57 281
57 299
58 115
58 182
58 201
58 222
58 225
58 226
58 256
58 299
59 95
59 98
59 170
59 173
59 188
59 206
60 101
60 143
60 146
60 155
60 198
60 202
60 209
60 290
61 68
61 132
61 143
61 171
61 256
61 297
62 84
62 105
62 107
62 146
62 158
62 207
62 214
62 223
62 232
62 243
63 122
63 249
64 75
64 96
64 112
64 144
64 242
66 70
66 84
66 115
66 117
66 124
66 177
66 240
66 244
66 258
66 286
67 88
67 136
67 140
67 175
67 178
67 216
67 258
67 259
67 283
68 74
68 111
68 112
68 126
68 173
68 195
68 218
68 230
69 92
69 110
69 116
69 178
69 208
69 240
69 295
70 76
70 88
70 105
70 177
70 196
70 264
70 273
70 278
71 94
71 98
71 117
71 153
71 170
72 84
72 98
72 235
73 94
73 114
73 121
73 133
73 148
73 164
73 166
73 205
73 218
73 235
73 236
73 252
73 253
73 255
73 268
73 269
73 270
73 278
73 283
74 92
74 112
74 126
74 173
74 278
74 293
75 107
75 185
75 224
75 233
75 235
75 255
75 268
75 272
76 105
76 108
76 134
76 138
76 150
76 257
76 273
77 159
77 219
77 257
77 270
77 271
77 280
77 284
77 289
77 292
78 203
78 214
78 217
78 261
78 268
79 87
79 99
79 188
79 201
79 252
79 267
80 196
80 224
81 82
81 88
82 85
82 86
82 110
82 165
82 175
82 194
82 204
82 225
82 235
82 244
82 262
83 88
83 115
83 131
83 159
83 172
83 176
83 221
83 224
83 233
83 245
83 260
83 291
83 299
84 137
84 155
84 197
84 232
84 291
85 98
85 105
85 118
85 140
85 165
85 191
85 204
85 242
85 249
85 254
85 262
85 292
86 95
86 97
86 109
86 119
86 121
86 150
86 195
87 99
87 109
87 120
87 142
87 157
87 164
87 208
87 283
88 159
88 224
88 292
89 91
89 147
89 165
89 212
89 280
90 125
90 167
90 210
90 267
91 116
91 171
91 270
91 280
92 108
92 110
92 167
92 189
92 208
92 214
92 224
92 240
92 261
92 268
92 269
93 129
93 137
93 145
93 189
93 208
93 241
93 247
93 281
93 291
94 117
94 133
94 220
94 239
94 271
95 98
95 153
95 155
95 235
95 239
96 143
96 150
96 214
96 229
96 235
96 252
96 255
96 264
96 289
97 150
97 151
97 154
97 185
97 239
98 140
98 173
98 205
98 235
99 109
99 116
99 120
99 125
99 143
99 162
99 230
100 114
100 116
100 244
100 266
100 268
101 146
101 215
101 232
101 238
101 294
102 185
102 206
102 263
102 294
103 128
103 149
103 171
103 244
105 108
105 118
105 150
105 202
105 214
105 216
105 238
105 261
105 292
106 108
106 110
106 132
106 165
106 287
107 119
107 147
107 193
108 110
108 135
108 138
108 201
108 251
109 168
109 225
109 226
109 255
109 264
111 115
111 124
111 202
111 214
111 218
111 234
111 235
111 237
111 244
111 253
111 284
112 242
113 114
113 158
113 177
113 252
113 260
113 295
114 121
114 180
114 194
115 124
115 136
115 173
115 176
115 181
115 198
115 201
115 254
115 260
115 265
115 274
115 292
115 299
116 120
116 142
116 225
116 228
116 258
116 268
116 270
117 124
117 142
117 173
117 205
117 277
117 286
118 140
118 150
118 159
118 210
118 256
118 258
118 265
118 289
118 292
119 132
119 135
119 138
119 147
119 155
119 171
120 125
120 142
120 143
120 145
120 160
120 182
120 190
120 226
120 267
121 150
121 164
121 188
121 194
121 201
121 218
122 170
122 249
122 289
123 135
123 156
123 202
123 214
123 216
123 226
123 228
123 238
123 255
123 262
123 266
123 274
124 146
124 183
124 217
124 220
124 244
124 265
124 286
124 292
125 267
125 286
126 139
126 220
126 248
127 153
127 156
127 178
127 284
128 148
128 174
128 211
128 241
128 252
128 280
128 298
129 224
129 247
129 276
129 281
129 295
130 139
130 173
130 191
130 205
130 206
130 263
131 162
131 233
131 235
131 297
132 138
132 153
132 165
132 171
132 177
132 214
132 256
132 273
133 145
133 205
133 220
134 138
134 152
134 272
135 145
135 171
135 177
135 185
135 191
135 218
135 222
135 231
135 253
135 265
135 279
135 292
135 297
136 176
136 184
136 204
136 220
136 221
136 229
136 237
136 241
136 268
137 281
137 284
137 291
138 150
138 159
138 198
138 269
138 272
139 173
139 205
140 171
140 175
140 202
140 204
140 249
140 258
141 154
141 174
141 204
141 221
141 265
142 162
142 164
142 173
142 243
142 287
143 145
143 154
143 155
143 197
143 241
144 184
144 205
144 215
144 257
145 160
145 182
145 261
145 280
145 284
146 158
146 164
146 219
146 243
146 255
146 290
146 292
148 224
148 280
148 285
149 207
150 218
150 289
151 154
151 197
151 199
151 208
151 211
151 227
151 262
151 286
151 293
153 156
153 185
153 223
153 234
153 284
153 297
154 208
154 227
154 237
154 239
155 175
155 197
155 198
155 202
155 255
156 160
156 181
156 202
156 214
156 217
156 285
156 294
157 162
157 164
157 168
157 187
157 202
157 204
157 225
157 235
157 259
157 283
157 287
158 209
158 215
158 224
158 256
158 275
158 295
159 190
159 198
159 212
159 234
159 258
159 265
159 271
159 284
159 292
160 168
160 170
160 182
160 214
160 278
160 296
160 297
161 180
162 163
162 168
162 172
162 191
162 192
162 204
162 235
162 238
162 287
162 297
163 190
163 191
163 195
163 230
163 239
163 287
164 243
165 212
166 215
166 235
166 240
166 267
166 292
167 210
167 238
167 286
168 169
168 191
168 225
168 226
168 259
169 177
169 180
169 191
169 193
169 220
169 222
169 268
169 295
169 299
170 188
170 195
170 205
170 265
170 278
170 292
171 185
171 203
171 279
172 192
172 208
172 235
173 191
173 201
174 186
174 198
174 199
174 202
174 206
174 211
174 214
174 221
174 225
174 228
174 257
174 262
174 269
174 275
174 294
175 202
175 285
176 199
176 220
176 221
176 228
177 189
177 222
177 240
178 205
178 216
178 239
178 268
179 199
179 280
180 222
180 231
181 188
181 201
181 226
181 271
181 292
181 294
182 214
182 247
182 259
182 273
182 296
184 203
184 207
184 222
184 228
184 279
185 224
185 238
185 241
185 247
185 265
185 279
185 296
185 297
186 198
186 202
186 221
186 257
186 258
186 282
187 259
188 195
188 201
188 211
188 219
188 251
188 267
188 269
188 278
188 289
189 192
189 208
189 215
189 240
190 191
190 193
190 218
190 228
190 230
190 253
190 273
191 259
191 297
192 208
192 247
193 208
193 222
193 275
193 286
193 293
193 295
194 223
194 264
195 200
195 212
195 224
195 230
195 234
195 266
195 267
195 291
195 300
197 262
198 258
199 221
199 259
199 262
199 271
199 280
199 287
199 294
200 201
200 266
200 283
200 290
201 266
201 292
202 214
202 225
202 237
202 255
202 274
202 294
203 268
203 279
204 234
204 278
204 284
204 290
204 297
205 216
205 217
205 246
205 252
205 277
206 211
206 214
206 221
206 263
207 222
208 215
208 223
208 247
208 254
208 293
208 295
209 215
209 233
209 242
209 243
209 251
209 256
209 286
209 293
209 295
210 213
210 272
210 288
211 262
211 268
211 269
211 288
211 294
212 278
212 291
212 300
213 288
214 216
214 217
214 228
214 252
214 253
214 261
214 266
214 273
214 285
215 223
215 233
215 240
215 243
215 251
215 292
215 295
216 221
216 275
217 246
218 219
218 233
218 253
218 289
219 243
219 248
219 289
220 225
220 244
220 268
221 237
221 256
221 262
221 275
222 231
222 240
222 244
222 299
223 226
223 234
223 255
223 264
223 284
223 295
223 298
224 247
224 280
224 295
225 226
225 230
225 231
225 234
225 237
225 244
226 284
227 281
227 293
228 238
228 279
228 294
230 234
230 239
230 266
230 291
231 244
231 254
231 265
231 300
233 237
233 253
233 293
234 250
234 284
234 290
234 298
235 255
235 274
235 276
235 297
236 278
237 255
238 243
238 246
238 262
238 286
238 292
238 297
239 268
240 242
241 247
241 281
241 284
241 298
242 243
242 254
242 265
244 292
244 300
245 268
245 269
246 262
246 277
247 250
247 254
247 265
247 271
247 295
247 296
249 296
250 254
250 263
250 279
250 296
252 261
253 273
254 265
254 279
254 292
254 296
255 264
255 274
257 282
258 277
259 262
262 269
262 280
262 292
264 274
265 292
266 290
268 269
268 278
270 292
271 280
271 292
272 296
275 295
276 278
276 295
276 297
278 291
278 297
280 284
280 285
280 294
284 290
284 291
284 298
286 293
287 297
288 298
291 300
292 297
*Classes
1
1
1
1
1
1
1
1
1
1
1
1
1
1
1
1
1
1
1
1
1
1
1
1
1
1
1
1
1
1
1
1
1
1
1
1
1
1
1
1
1
1
1
1
1
1
1
1
1
1
1
1
1
1
1
1
1
1
1
1
1
1
1
1
1
1
1
1
1
1
1
1
1
1
1
1
1
1
1
1
1
1
1
1
1
1
1
1
1
1
1
1
1
1
1
1
1
1
1
1
1
1
1
1
1
1
1
1
1
1
1
1
1
1
1
1
1
1
1
1
1
1
1
1
1
1
1
1
1
1
1
1
1
1
1
1
1
1
1
1
1
1
1
1
1
1
1
1
1
1
2
2
2
2
2
2
2
2
2
2
2
2
2
2
2
2
2
2
2
2
2
2
2
2
2
2
2
2
2
2
2
2
2
2
2
2
2
2
2
2
2
2
2
2
2
2
2
2
2
2
2
2
2
2
2
2
2
2
2
2
2
2
2
2
2
2
2
2
2
2
2
2
2
2
2
2
2
2
2
2
2
2
2
2
2
2
2
2
2
2
2
2
2
2
2
2
2
2
2
2
2
2
2
2
2
2
2
2
2
2
2
2
2
2
2
2
2
2
2
2
2
2
2
2
2
2
2
2
2
2
2
2
2
2
2
2
2
2
2
2
2
2
2
2
2
2
2
2
2
2
