*Vertices 300
*Edges
1 30
1 133
1 299
2 23
2 42
2 51
2 81
2 86
2 101
2 196
2 198
2 267
3 42
3 91
3 94
3 118
3 157
3 193
3 253
4 181
4 214
5 9
5 19
5 22
5 58
5 64
5 80
5 96
5 110
5 152
5 189
5 190
5 221
5 229
5 240
5 244
5 280
6 153
6 166
6 179
6 213
6 214
6 232
6 266
6 296
7 18
7 35
7 43
7 155
7 243
7 293
8 62
8 135
8 183
8 187
8 207
8 234
8 283
9 22
9 43
9 67
9 76
9 94
9 122
9 140
9 165
9 182
9 187
9 188
9 194
9 203
9 246
9 282
9 287
9 293
10 35
10 75
10 137
10 153
10 219
10 261
10 268
10 269
11 142
11 149
11 288
12 22
12 154
12 234
12 247
12 280
13 65
13 101
13 106
13 116
13 124
13 167
14 49
14 131
14 144
14 167
14 180
15 41
15 48
15 63
15 71
15 84
15 176
15 208
15 231
15 249
15 251
15 285
15 298
16 150
16 160
16 233
16 261
17 50
17 70
17 89
17 144
17 160
17 176
17 190
17 211
17 214
17 216
17 241
17 258
17 276
17 282
17 296
18 35
18 46
18 83
18 156
18 233
18 243
18 293
19 58
19 69
19 88
19 159
19 217
19 229
19 240
20 47
20 141
20 245
20 263
20 278
21 29
21 36
21 51
21 65
21 68
21 76
21 77
21 80
21 87
21 135
21 140
21 191
21 204
21 246
21 273
21 282
22 122
22 154
22 187
22 188
22 218
22 245
22 247
22 287
23 164
23 281
24 54
24 72
24 73
24 78
24 89
24 201
24 220
24 293
25 37
25 85
25 131
25 156
25 158
25 168
25 186
25 189
25 207
25 209
25 213
25 219
25 274
25 278
25 292
25 296
25 297
26 29
26 59
26 61
26 63
26 65
26 103
26 115
26 135
26 186
26 244
27 40
27 244
28 30
28 35
28 46
28 99
28 105
28 178
28 238
29 51
29 63
29 65
29 160
29 161
29 165
29 177
29 183
29 239
29 264
29 282
29 292
30 46
30 105
30 133
30 222
31 37
31 39
31 44
31 67
31 96
31 115
31 118
31 140
31 177
31 272
32 67
32 90
32 97
32 105
32 179
32 224
32 251
32 263
32 273
32 275
33 65
33 86
33 113
33 127
33 130
33 163
33 173
33 252
33 276
33 279
34 64
34 83
34 179
34 200
34 201
35 99
35 105
35 178
35 234
36 80
36 85
36 87
36 128
36 136
36 174
37 67
37 111
37 164
37 168
37 219
37 256
38 40
38 192
38 206
38 211
38 251
38 269
38 284
38 289
39 115
39 128
39 183
39 194
39 267
40 187
40 244
41 59
41 64
41 84
41 93
41 100
41 155
41 184
41 187
41 189
41 191
41 218
41 226
41 276
42 91
42 154
42 155
42 164
42 176
42 195
42 277
42 282
43 44
43 76
43 115
43 155
43 257
44 76
44 96
44 190
44 242
44 270
44 274
44 293
44 298
45 48
45 71
45 98
45 182
45 195
45 239
45 267
46 53
46 83
46 130
46 133
46 177
46 243
46 246
46 300
47 245
47 286
48 71
48 98
48 112
48 129
48 165
48 263
48 284
49 129
49 144
49 172
49 173
50 61
50 69
50 73
50 89
50 101
50 107
50 144
50 148
50 159
50 182
50 183
50 190
50 276
50 295
50 296
51 65
51 86
51 105
51 158
51 165
51 214
51 239
51 268
51 271
52 85
52 131
52 136
52 143
52 226
52 262
52 270
52 281
53 83
53 204
53 213
53 215
53 241
53 258
53 290
53 297
54 89
54 179
54 185
54 221
54 246
55 79
55 101
55 102
55 111
55 160
55 165
55 188
55 228
55 299
56 151
56 194
56 219
56 233
56 252
57 71
57 103
57 115
57 124
57 141
57 152
57 176
57 209
57 219
57 272
57 296
57 298
58 80
58 101
58 241
59 61
59 116
59 152
59 157
59 179
59 196
59 200
59 223
59 225
59 236
59 287
60 73
60 101
60 102
60 104
60 107
60 235
60 280
61 94
61 106
61 200
61 222
61 225
61 276
62 207
62 237
62 295
63 150
63 186
63 209
63 243
63 278
63 294
64 84
64 180
64 191
64 201
64 273
64 280
65 86
65 98
65 104
65 124
65 125
65 145
65 181
65 206
65 241
65 244
65 294
65 295
66 185
66 240
67 81
67 97
67 111
67 115
67 122
67 140
67 155
67 205
67 211
67 251
67 259
67 274
68 77
68 109
68 140
68 164
68 174
68 208
68 246
68 253
68 264
68 271
68 291
68 294
69 73
69 89
69 178
69 278
70 79
70 85
70 104
70 119
70 136
70 160
70 163
70 180
70 198
70 207
70 208
70 240
70 252
70 279
71 116
71 176
71 240
71 272
71 300
72 131
72 146
72 204
72 205
72 208
72 254
72 287
73 81
73 89
73 172
73 173
73 183
73 185
73 190
73 235
74 100
74 112
74 202
74 254
74 273
75 137
75 212
75 277
76 80
76 115
76 135
76 204
76 241
76 273
76 287
77 97
77 105
77 155
77 184
77 208
77 228
77 244
77 257
77 292
77 293
78 99
78 165
78 218
78 248
78 255
78 274
78 290
79 108
79 186
79 222
79 248
79 269
79 279
80 126
80 217
81 97
81 205
81 274
83 179
84 100
84 184
84 191
84 276
85 87
85 131
85 136
85 189
85 205
85 227
85 239
85 262
85 268
85 275
86 100
86 112
86 125
86 145
86 198
86 204
86 210
86 213
86 281
87 93
87 124
87 128
87 200
87 206
87 275
87 286
88 159
88 217
89 139
89 153
89 162
89 166
89 202
89 220
89 241
89 251
90 118
90 151
90 174
90 204
90 205
90 249
90 251
90 255
90 275
91 108
91 128
91 154
91 163
91 250
91 276
91 293
92 124
92 127
92 136
92 141
92 157
92 213
92 235
92 252
92 290
93 116
93 124
93 200
93 225
93 264
93 276
94 101
94 105
94 106
94 118
94 137
94 140
94 151
94 165
94 218
94 253
94 259
94 284
94 294
94 295
94 297
95 171
95 197
95 252
95 296
96 114
96 118
96 133
96 134
96 164
96 179
96 278
96 298
97 105
97 192
97 274
98 101
98 107
98 112
98 125
98 159
98 202
98 240
98 276
99 111
99 123
99 212
99 218
99 294
100 112
100 133
100 163
100 223
101 105
101 107
101 280
101 284
102 104
102 143
102 148
102 269
103 115
103 124
103 152
103 185
103 189
103 190
103 192
103 208
103 213
103 221
103 239
104 123
104 125
104 197
104 267
104 286
105 137
105 140
105 151
105 263
106 152
106 242
106 256
106 277
106 284
107 140
107 159
107 169
107 176
107 278
107 284
108 128
108 237
108 269
108 276
109 185
109 246
110 152
110 180
110 187
110 196
110 281
111 142
111 149
111 188
111 273
111 274
112 207
112 223
112 228
112 236
112 273
112 296
113 229
113 291
113 294
114 118
114 160
114 183
114 265
115 137
115 177
115 251
116 179
116 196
116 269
117 131
117 146
117 177
117 207
117 276
117 292
117 297
118 135
118 151
118 178
118 193
118 267
119 165
119 187
119 208
119 240
120 191
120 201
120 289
120 292
121 187
121 190
121 276
123 218
123 256
123 258
123 268
124 127
124 129
124 141
124 205
124 296
125 202
125 240
125 241
125 276
125 286
126 185
126 193
127 141
127 173
127 186
127 222
127 224
127 266
128 237
128 276
129 131
129 146
129 174
129 199
129 205
129 221
129 227
129 251
129 262
129 275
129 276
130 240
130 258
131 141
131 143
131 146
131 188
131 226
132 152
132 162
132 177
132 212
133 222
133 233
134 222
134 223
135 187
135 207
135 228
135 273
136 141
136 177
136 191
136 200
136 227
136 231
136 240
136 249
137 205
137 262
137 286
137 295
137 297
138 290
139 168
139 204
139 246
139 266
140 147
140 168
140 218
140 224
140 254
140 263
141 153
141 224
141 245
141 246
142 149
142 162
142 166
142 176
142 207
142 224
142 264
143 172
143 284
143 286
144 148
144 154
144 156
144 172
144 173
144 186
144 237
144 274
145 179
145 181
146 205
146 207
146 227
147 191
147 254
148 283
148 295
149 207
149 281
149 296
150 164
150 168
150 243
150 261
150 296
151 174
151 190
151 196
151 207
151 259
151 270
151 293
152 170
152 220
152 251
152 259
152 274
152 300
153 166
153 277
153 288
154 164
154 173
154 191
154 210
154 229
154 300
155 176
155 189
155 230
156 234
156 260
156 285
157 232
157 235
158 206
158 239
159 180
159 196
159 205
159 278
159 298
160 177
160 183
160 211
160 228
160 233
160 272
161 172
161 185
161 244
161 280
162 206
162 217
162 264
162 294
163 214
163 252
163 264
163 265
163 269
163 282
163 293
164 182
164 195
164 213
164 216
164 250
164 256
164 264
164 276
164 277
164 282
164 284
164 285
164 292
164 294
164 300
165 203
165 246
165 253
165 263
165 274
166 246
166 264
166 287
167 284
167 285
168 179
168 184
168 204
168 230
168 246
170 182
170 184
170 192
170 194
170 223
170 276
170 289
171 197
171 198
171 201
171 210
171 260
171 280
172 244
172 280
172 290
173 187
173 218
173 246
174 186
174 196
175 202
175 245
176 180
176 219
176 230
176 234
176 283
176 290
176 296
177 183
177 206
177 210
177 246
177 274
177 292
178 204
178 260
178 285
179 198
179 204
180 196
180 296
181 222
181 233
181 262
181 281
182 187
182 192
182 195
182 203
182 211
182 223
182 267
182 287
183 194
183 211
184 194
184 215
184 230
184 237
184 248
185 191
185 221
185 244
185 246
185 283
185 295
185 296
186 222
186 278
186 297
187 203
187 218
187 220
187 251
188 216
188 264
188 276
189 190
189 230
189 232
189 246
190 196
190 207
190 208
190 232
190 235
190 270
191 200
191 220
191 229
191 246
191 251
192 276
193 211
194 237
194 248
195 216
195 250
195 286
195 287
196 205
196 207
196 259
196 286
197 280
198 210
198 270
198 281
198 298
200 236
200 274
201 270
201 289
201 297
202 227
203 246
204 213
204 246
205 251
205 262
205 278
206 234
206 239
206 292
206 294
207 221
207 228
207 273
208 254
209 213
210 217
210 239
210 242
210 245
210 246
210 264
210 281
211 269
212 294
213 264
213 277
213 284
213 292
214 264
214 282
215 248
215 258
216 223
216 250
216 258
216 264
216 278
216 298
216 300
217 264
217 283
218 220
218 234
219 234
219 283
219 296
220 251
221 247
221 273
221 282
222 240
222 258
222 281
223 238
223 275
224 231
225 243
225 263
227 242
228 246
228 273
231 249
232 235
233 272
234 285
235 238
237 252
239 246
239 268
239 273
239 275
240 244
240 258
240 286
240 296
241 257
242 245
242 254
244 250
244 280
244 283
244 295
244 296
245 265
246 251
246 264
246 273
247 282
248 258
248 271
248 289
249 278
249 298
250 264
250 271
250 280
250 294
251 255
251 256
251 259
251 274
251 293
252 265
252 269
253 274
256 264
256 277
256 292
256 293
257 280
258 296
259 293
260 285
264 276
264 282
265 282
268 275
270 297
270 298
271 280
271 289
271 291
272 300
274 300
275 281
276 282
277 284
278 294
278 298
280 296
282 293
284 285
286 296
291 294
*Classes
1
1
1
1
1
1
1
1
1
1
1
1
1
1
1
1
1
1
1
1
1
1
1
1
1
1
1
1
1
1
1
1
1
1
1
1
1
1
1
1
1
1
1
1
1
1
1
1
1
1
1
1
1
1
1
1
1
1
1
1
1
1
1
1
1
1
1
1
1
1
1
1
1
1
1
1
1
1
1
1
1
1
1
1
1
1
1
1
1
1
1
1
1
1
1
1
1
1
1
1
1
1
1
1
1
1
1
1
1
1
1
1
1
1
1
1
1
1
1
1
1
1
1
1
1
1
1
1
1
1
1
1
1
1
1
1
1
1
1
1
1
1
1
1
1
1
1
1
1
1
2
2
2
2
2
2
2
2
2
2
2
2
2
2
2
2
2
2
2
2
2
2
2
2
2
2
2
2
2
2
2
2
2
2
2
2
2
2
2
2
2
2
2
2
2
2
2
2
2
2
2
2
2
2
2
2
2
2
2
2
2
2
2
2
2
2
2
2
2
2
2
2
2
2
2
2
2
2
2
2
2
2
2
2
2
2
2
2
2
2
2
2
2
2
2
2
2
2
2
2
2
2
2
2
2
2
2
2
2
2
2
2
2
2
2
2
2
2
2
2
2
2
2
2
2
2
2
2
2
2
2
2
2
2
2
2
2
2
2
2
2
2
2
2
2
2
2
2
2
2
