*Vertices 300
*Edges
1 105
1 137
1 282
1 283
2 35
2 43
2 61
2 82
2 84
2 88
2 170
2 241
3 36
3 41
3 43
3 52
3 84
3 89
3 97
3 100
3 101
3 114
3 172
3 201
3 209
4 9
4 10
4 21
4 34
4 40
4 65
4 69
4 70
4 220
5 11
5 20
5 42
5 44
5 46
5 64
5 70
5 96
5 104
5 128
5 132
5 247
5 257
6 68
6 131
6 203
6 286
7 11
7 16
7 51
7 70
7 135
7 147
7 178
7 225
7 246
7 251
7 298
8 30
8 73
8 90
8 113
8 125
8 134
8 213
8 275
9 10
9 50
9 76
9 77
9 141
9 256
9 295
10 14
10 23
10 28
10 34
10 69
10 70
10 96
10 115
10 123
10 125
10 141
10 204
10 275
10 292
11 96
11 100
11 135
11 277
12 13
12 16
12 24
12 72
12 77
12 102
12 112
12 154
12 201
13 102
13 128
13 143
13 167
13 257
13 296
14 30
14 31
14 37
14 39
14 90
14 204
15 55
15 82
15 85
15 96
15 141
15 187
15 204
16 29
16 52
16 70
16 72
16 77
16 220
17 23
17 28
17 107
17 115
17 129
17 143
17 219
17 236
18 88
18 213
18 218
19 33
19 35
19 54
19 83
19 147
19 206
19 209
19 239
19 248
19 271
19 278
20 46
20 142
20 168
20 181
20 183
20 197
20 227
20 299
21 26
21 40
21 79
21 93
21 100
21 110
21 141
21 184
21 189
21 292
22 37
22 39
22 80
22 89
22 98
22 114
22 146
22 164
22 218
22 272
23 28
23 34
23 112
23 138
23 143
23 163
23 274
23 294
24 72
24 87
24 142
24 158
24 178
24 205
24 206
24 254
25 51
25 85
25 123
25 129
25 241
25 251
26 79
26 131
26 141
26 158
26 240
26 247
27 98
27 104
27 168
27 240
28 69
28 91
28 151
28 155
28 265
28 285
28 288
29 52
29 181
29 199
29 259
30 69
30 73
30 90
30 125
30 134
30 137
30 202
30 275
30 295
31 37
31 39
31 90
31 209
32 245
33 54
33 106
33 201
33 203
33 239
33 240
33 269
35 43
35 79
35 83
35 131
35 164
35 233
36 41
36 45
36 91
36 117
36 125
36 132
36 157
36 213
36 257
36 283
37 178
37 198
37 254
38 46
38 114
38 148
38 153
38 217
38 263
39 80
39 82
39 101
39 117
39 183
39 207
39 288
40 73
40 80
40 123
40 129
40 146
40 148
40 194
40 204
40 244
40 265
40 293
41 49
41 61
41 63
41 68
41 72
41 89
41 100
41 103
41 131
41 244
42 44
42 49
42 60
42 103
42 104
42 114
42 164
42 172
42 249
42 273
42 285
42 289
43 189
43 198
43 201
43 208
43 274
44 60
44 114
44 128
44 174
44 260
45 48
45 91
45 102
45 110
45 117
45 121
45 125
45 155
45 183
45 230
45 253
45 267
46 75
46 108
46 114
46 132
46 142
46 148
46 158
46 186
46 258
46 260
46 261
46 268
47 236
48 83
48 121
48 134
48 206
48 228
48 252
49 81
49 103
49 114
49 117
49 139
49 143
49 146
49 149
49 250
49 280
50 62
50 72
50 77
50 139
50 277
50 291
51 67
51 89
51 109
51 160
51 162
51 251
51 267
52 98
52 168
52 209
52 248
52 289
53 56
53 61
53 67
53 88
53 169
53 174
53 185
53 196
53 199
53 267
54 108
54 155
54 167
54 171
54 271
54 284
54 294
55 153
55 265
55 268
56 61
56 83
56 87
56 88
56 100
56 110
56 149
56 162
56 168
57 78
57 86
57 87
57 148
57 149
57 186
57 268
57 279
58 209
58 218
58 264
59 62
59 74
59 77
59 82
59 105
59 107
59 111
59 129
59 179
60 104
60 113
60 207
60 259
61 63
61 72
61 88
61 103
61 138
62 67
62 72
62 74
62 77
62 82
62 96
62 126
62 147
62 167
63 71
63 75
63 88
63 138
63 205
63 236
63 251
63 258
63 272
63 298
64 70
64 109
64 129
65 212
65 236
65 284
66 92
66 158
66 185
66 234
66 292
67 77
67 89
67 134
67 185
67 218
67 256
67 271
67 296
68 131
68 235
68 243
68 245
69 137
69 141
69 174
69 300
70 72
70 135
70 165
70 201
70 240
70 256
70 274
70 290
71 174
72 77
72 102
72 136
72 251
73 113
73 123
73 125
73 129
73 137
74 105
74 111
74 177
74 203
74 288
75 108
75 132
75 148
75 222
75 251
76 122
76 128
76 156
76 209
77 136
77 139
77 175
77 238
77 265
78 95
78 147
78 160
78 243
78 252
79 122
79 128
79 131
79 195
79 196
79 220
80 89
80 114
80 212
81 97
81 103
81 149
81 180
81 181
81 275
81 285
82 88
82 96
82 117
82 126
82 127
82 153
82 168
82 220
82 284
83 100
83 162
83 185
83 230
83 252
84 88
84 101
84 224
84 274
84 283
85 141
85 203
85 214
85 271
85 295
86 148
86 268
87 149
87 194
87 201
87 212
87 222
87 237
87 273
87 277
87 280
88 117
88 138
88 167
88 198
88 218
88 221
88 241
89 170
89 186
89 242
90 118
90 157
90 292
91 98
91 114
91 117
91 132
91 144
91 161
91 195
92 102
92 129
92 159
92 170
92 171
92 174
92 268
93 160
93 167
93 179
94 186
95 174
95 190
95 201
95 203
95 214
95 242
96 117
96 127
96 181
96 182
96 224
96 275
97 193
97 212
97 269
97 299
98 112
98 117
98 133
98 168
98 256
99 260
99 294
100 111
100 123
100 141
100 149
100 204
100 260
100 292
101 161
101 191
101 260
102 110
102 128
102 129
102 143
102 164
102 186
102 256
103 198
103 280
104 109
104 126
104 128
104 236
105 127
105 137
105 211
105 284
106 191
107 115
107 129
107 130
107 150
107 215
108 267
109 128
109 129
109 130
109 176
109 226
109 250
110 121
110 128
110 160
110 225
110 298
111 116
111 129
111 207
111 257
112 117
112 152
112 155
112 169
112 295
113 125
113 170
113 275
113 285
114 146
114 161
114 255
114 287
115 123
115 144
115 150
115 170
115 237
115 290
116 209
116 214
116 227
117 146
117 184
117 265
118 176
118 255
119 145
119 161
120 164
120 207
120 241
120 251
120 267
121 141
121 157
121 241
121 242
121 249
122 128
122 190
122 287
123 129
123 181
123 183
123 259
123 264
123 280
123 297
124 145
124 256
124 259
126 128
126 137
126 147
127 137
127 300
128 143
128 199
128 249
128 252
129 189
129 219
129 221
129 255
129 267
130 170
130 295
130 297
131 159
131 180
131 196
131 197
132 164
132 192
132 299
133 273
134 231
134 252
134 264
135 147
136 155
137 194
138 166
138 232
138 241
139 143
139 145
139 198
139 226
139 247
140 174
141 155
141 239
142 157
142 205
142 248
143 183
143 194
143 297
144 167
144 237
145 169
145 175
145 231
145 247
145 258
145 259
145 298
146 162
146 191
146 204
146 223
146 260
147 184
147 220
147 265
147 288
150 223
150 239
151 153
151 174
151 182
151 192
151 198
151 206
151 211
151 218
151 224
151 225
151 253
151 281
151 294
152 168
152 211
152 217
152 241
152 284
152 292
153 157
153 158
153 159
153 171
153 180
153 201
153 204
153 224
153 233
153 260
153 265
153 286
153 296
153 299
154 179
154 211
154 228
154 281
155 218
155 258
155 284
156 165
156 173
156 237
156 240
156 245
156 248
156 256
156 283
156 287
156 290
157 158
157 163
157 182
157 266
157 292
158 171
158 255
158 262
158 264
158 265
158 266
158 285
159 177
159 214
159 285
159 286
160 164
160 169
160 183
160 207
160 217
160 246
160 263
161 190
161 288
162 167
162 200
162 215
162 236
162 237
162 238
162 243
162 249
162 256
162 267
162 268
162 270
163 181
163 185
163 188
163 190
163 201
163 202
163 205
163 219
163 236
163 272
163 279
163 292
164 195
164 205
164 237
164 262
164 269
164 290
164 292
165 171
165 176
165 179
165 186
165 210
165 214
165 231
165 234
165 256
165 258
165 259
165 285
165 290
166 211
166 277
167 236
167 249
167 267
167 276
168 191
168 198
168 201
168 211
168 221
168 248
168 279
168 281
168 289
169 205
169 207
169 263
170 182
170 245
170 264
170 290
171 177
171 179
171 181
171 200
171 203
171 241
171 251
171 258
171 259
171 262
171 264
171 280
171 284
171 285
171 289
172 201
172 224
172 297
173 176
173 196
173 212
173 239
173 245
173 247
173 265
173 266
173 290
174 175
174 198
174 229
174 260
174 294
175 183
175 208
175 229
175 260
176 186
176 187
176 194
176 196
176 211
176 226
176 247
176 250
176 259
176 283
176 286
176 290
177 182
177 214
177 231
177 233
177 284
177 285
178 183
178 185
178 193
178 218
178 221
178 234
178 242
178 272
178 279
179 228
179 240
179 258
179 259
180 235
180 247
180 273
180 296
181 212
181 213
181 222
181 236
181 247
181 259
181 299
182 200
182 233
182 241
182 245
182 253
182 266
182 268
182 274
182 282
182 290
182 292
183 208
183 216
183 243
183 263
183 272
184 210
184 222
184 234
185 190
185 205
185 213
185 221
185 222
185 228
185 230
185 250
185 256
185 267
185 272
186 187
186 223
186 259
187 194
187 212
187 226
187 229
187 248
187 250
187 251
187 262
187 265
187 266
187 287
187 298
188 201
188 202
188 238
189 218
189 231
189 240
189 253
190 205
190 250
190 288
191 273
192 198
192 294
193 281
193 289
194 244
194 248
194 251
194 277
194 298
195 208
195 254
195 269
195 285
195 288
195 290
195 292
196 232
196 267
196 283
197 217
197 239
197 243
197 250
197 252
197 266
198 226
198 254
198 294
199 299
200 233
200 259
200 270
200 285
201 219
201 224
201 241
201 279
201 299
202 225
202 275
202 286
202 291
203 240
203 251
203 264
203 293
204 229
204 244
204 260
205 221
205 248
205 250
206 220
206 253
207 217
207 252
207 263
208 218
208 226
208 227
208 246
208 249
208 250
208 258
208 273
209 223
209 259
209 262
210 234
210 284
211 277
211 281
212 235
212 247
212 265
212 289
213 222
213 236
214 224
214 231
214 233
214 271
214 295
214 299
215 237
215 292
216 263
217 252
217 284
218 219
218 243
218 253
218 258
218 268
218 272
218 288
219 223
219 258
219 268
219 269
220 253
221 234
221 241
221 242
221 274
221 279
221 292
222 224
222 234
222 255
222 299
223 224
223 232
223 233
223 241
223 254
223 258
223 259
223 268
223 284
223 289
224 241
224 255
224 279
224 299
225 231
225 271
225 294
226 227
227 290
228 267
229 243
229 260
229 298
230 231
230 283
231 257
231 270
232 268
232 298
232 300
233 241
233 245
233 248
233 253
233 268
233 274
233 279
235 247
235 264
236 292
237 238
237 243
237 249
237 250
237 290
237 292
238 240
238 256
238 257
238 267
238 268
238 295
239 290
240 256
240 293
241 259
241 268
241 274
241 279
241 284
241 299
242 298
243 250
243 260
243 288
243 298
245 249
245 264
245 290
247 290
248 274
248 287
248 298
249 290
250 273
250 278
253 282
254 259
255 262
255 299
256 259
256 283
257 270
257 295
258 259
258 268
258 269
258 285
259 289
259 299
260 296
262 290
262 299
264 293
265 266
265 289
268 298
269 292
270 271
271 278
271 294
272 292
273 278
274 279
277 280
277 286
278 294
278 295
280 284
280 285
280 297
281 294
282 288
282 295
284 285
285 286
*Classes
1
1
1
1
1
1
1
1
1
1
1
1
1
1
1
1
1
1
1
1
1
1
1
1
1
1
1
1
1
1
1
1
1
1
1
1
1
1
1
1
1
1
1
1
1
1
1
1
1
1
1
1
1
1
1
1
1
1
1
1
1
1
1
1
1
1
1
1
1
1
1
1
1
1
1
1
1
1
1
1
1
1
1
1
1
1
1
1
1
1
1
1
1
1
1
1
1
1
1
1
1
1
1
1
1
1
1
1
1
1
1
1
1
1
1
1
1
1
1
1
1
1
1
1
1
1
1
1
1
1
1
1
1
1
1
1
1
1
1
1
1
1
1
1
1
1
1
1
1
1
2
2
2
2
2
2
2
2
2
2
2
2
2
2
2
2
2
2
2
2
2
2
2
2
2
2
2
2
2
2
2
2
2
2
2
2
2
2
2
2
2
2
2
2
2
2
2
2
2
2
2
2
2
2
2
2
2
2
2
2
2
2
2
2
2
2
2
2
2
2
2
2
2
2
2
2
2
2
2
2
2
2
2
2
2
2
2
2
2
2
2
2
2
2
2
2
2
2
2
2
2
2
2
2
2
2
2
2
2
2
2
2
2
2
2
2
2
2
2
2
2
2
2
2
2
2
2
2
2
2
2
2
2
2
2
2
2
2
2
2
2
2
2
2
2
2
2
2
2
2
