*Vertices 300
*Edges
1 12
1 15
1 51
1 82
1 93
1 98
1 143
1 220
1 227
1 262
1 297
2 34
2 63
2 143
2 172
2 224
2 282
3 8
3 28
3 51
3 57
3 65
3 101
3 102
3 170
3 200
3 203
3 242
3 245
4 10
4 22
4 62
4 146
4 151
5 57
5 61
5 63
5 119
5 131
5 132
5 134
6 52
6 90
6 92
6 103
6 109
6 113
6 187
6 225
6 242
6 261
7 72
7 146
7 148
7 190
7 211
7 240
7 257
7 296
8 10
8 16
8 29
8 32
8 36
8 170
8 200
9 21
9 27
9 72
9 107
9 114
9 179
9 201
9 213
9 217
9 242
9 261
9 271
9 280
9 298
10 36
10 41
10 65
10 71
10 117
10 175
10 236
11 20
11 25
11 31
11 39
11 42
11 44
11 118
11 156
11 200
11 216
11 271
11 281
12 36
12 58
12 82
12 84
12 108
12 111
12 135
12 157
12 160
12 169
12 173
12 203
12 207
12 266
13 30
13 89
13 95
13 106
13 139
13 151
13 171
13 237
13 294
14 25
14 57
14 72
14 91
14 98
14 217
14 257
14 279
14 294
15 25
15 66
15 105
15 114
15 120
15 143
15 155
15 167
15 180
15 186
15 202
15 221
15 223
16 20
16 21
16 29
16 71
16 100
16 107
16 164
16 166
16 203
16 208
16 251
16 260
17 21
17 62
17 120
17 146
17 209
17 212
17 261
17 267
17 278
18 42
18 80
18 109
18 120
18 138
18 142
18 149
18 178
18 212
18 217
19 57
19 77
19 101
19 111
19 121
19 167
19 211
19 224
19 226
19 272
19 285
20 25
20 28
20 83
20 94
20 175
20 218
20 268
20 271
21 58
21 100
21 201
21 218
21 244
22 27
22 62
22 114
22 208
22 212
22 235
22 276
22 288
22 291
23 30
23 73
23 208
23 226
23 246
23 298
24 42
24 55
24 66
24 102
24 121
24 269
25 41
25 44
25 57
25 81
25 94
25 105
25 159
25 175
25 182
25 197
25 237
25 257
26 27
26 47
26 75
26 100
26 160
26 258
26 267
27 42
27 84
27 116
27 212
27 243
27 272
27 276
28 61
28 63
28 80
28 83
28 102
28 108
28 119
28 130
29 46
29 74
29 83
29 146
29 171
29 297
30 53
30 73
30 95
30 98
30 116
30 139
30 173
30 223
30 286
31 44
31 47
31 63
31 90
31 117
31 119
31 144
31 195
31 204
31 254
31 258
32 60
32 82
32 106
32 150
32 198
32 208
32 237
32 276
33 37
33 41
33 50
33 65
33 66
33 71
33 117
33 118
33 162
33 188
33 195
33 269
34 35
34 36
34 58
34 123
34 185
34 190
34 207
34 210
34 213
34 224
35 72
35 83
35 131
35 167
35 190
35 263
35 292
36 58
36 108
36 169
36 186
36 266
37 70
37 71
37 91
37 133
37 139
37 153
37 213
37 233
37 267
38 53
38 63
38 89
38 185
38 201
38 206
38 234
38 287
38 300
39 44
39 74
39 127
39 182
39 186
39 224
39 259
40 41
40 45
40 51
40 83
40 93
40 284
41 59
41 93
41 105
41 117
41 137
41 271
41 287
42 44
42 52
42 82
42 94
42 109
42 116
42 154
42 155
42 165
42 249
42 285
43 146
43 225
43 277
43 290
43 292
44 101
44 105
44 108
44 116
44 121
44 126
44 160
45 60
45 72
45 116
45 140
45 242
45 268
46 55
46 61
46 83
46 119
46 146
46 297
47 59
47 75
47 78
47 79
47 117
47 122
47 124
47 125
47 174
47 195
47 197
47 240
47 282
47 299
48 119
48 139
48 170
48 234
48 254
49 147
49 194
49 205
49 251
49 266
50 62
50 72
50 86
50 118
50 146
50 212
50 230
50 297
51 54
51 57
51 93
51 98
51 115
51 123
51 130
51 142
51 217
52 95
52 106
52 107
52 109
52 199
52 225
52 246
52 251
52 261
52 280
53 63
53 70
53 101
53 107
53 122
53 135
53 157
53 167
53 179
53 201
53 247
53 252
53 267
54 84
54 93
54 121
54 176
54 180
54 209
54 266
54 273
55 61
55 67
55 75
55 95
55 102
55 121
55 129
55 247
55 253
56 113
56 151
56 156
56 178
56 223
56 232
56 242
57 62
57 115
57 167
57 201
57 231
57 250
57 294
58 123
58 141
58 172
58 204
58 210
58 241
58 261
59 154
59 239
59 255
59 282
60 72
60 73
60 81
60 116
60 132
60 137
60 150
60 251
61 67
61 75
61 119
61 172
61 177
61 192
61 277
62 115
62 146
62 230
63 73
63 89
63 119
63 205
63 209
63 227
63 247
63 273
64 97
64 110
64 221
65 71
65 102
65 103
65 240
65 261
66 68
66 72
66 95
66 101
66 105
66 148
66 156
66 188
66 281
67 119
67 152
67 224
67 232
67 235
67 248
67 284
68 128
68 131
68 133
68 213
68 252
68 268
68 284
68 298
69 180
69 283
70 88
70 94
70 122
70 123
70 167
70 173
70 182
70 203
70 264
71 123
71 128
71 169
71 183
71 188
71 234
71 235
71 251
72 105
72 111
72 131
72 190
72 200
72 212
72 263
72 271
72 299
73 98
73 136
73 185
73 209
73 246
73 251
73 297
74 79
74 94
74 102
74 121
74 218
74 274
74 277
75 140
75 194
75 242
75 261
76 142
76 143
76 152
76 154
76 160
76 163
76 207
76 260
76 268
76 275
76 280
77 249
78 124
78 143
78 150
78 171
78 211
78 231
79 80
79 94
79 97
79 115
79 130
79 133
79 139
79 189
79 200
79 204
79 240
80 88
80 122
80 130
80 139
80 142
80 170
80 209
80 256
81 91
81 106
81 122
81 249
82 111
82 126
82 198
82 285
83 131
83 171
83 298
84 212
85 141
85 162
85 184
85 265
86 115
86 227
86 230
86 238
87 107
87 171
87 226
87 227
87 237
88 93
88 154
88 155
88 208
88 256
88 267
89 162
89 182
89 188
89 213
89 232
89 252
90 120
90 140
90 144
90 163
90 174
90 184
90 225
90 254
90 281
91 139
91 164
92 93
92 103
92 128
92 135
92 215
92 234
92 255
92 262
92 273
93 123
93 135
93 209
93 222
93 265
94 129
94 152
94 226
95 106
95 148
95 244
95 245
95 247
95 256
95 282
95 292
96 121
96 160
96 161
96 199
96 210
96 227
96 228
96 244
96 266
96 277
96 286
97 115
97 126
97 177
97 260
97 295
98 99
98 109
98 145
98 146
98 217
98 230
98 283
99 161
99 209
100 101
100 160
100 237
101 102
101 105
101 107
101 167
102 114
102 121
102 202
102 253
102 300
103 135
103 155
103 172
103 210
103 211
103 240
103 284
104 129
104 134
104 227
105 107
105 138
105 159
105 197
106 136
106 248
106 249
107 164
107 177
107 203
107 208
107 213
108 112
108 196
108 274
109 120
109 125
109 138
109 145
109 146
109 177
110 156
110 163
110 185
110 221
110 248
110 270
110 299
111 135
111 157
111 165
111 207
111 285
112 123
112 180
112 240
112 298
113 139
113 144
113 164
113 169
113 178
113 275
113 296
114 140
114 141
114 203
114 212
114 242
114 263
115 177
116 118
116 137
116 172
116 181
116 212
116 271
116 280
116 281
116 282
117 150
117 159
117 222
117 245
117 267
118 282
119 170
119 192
119 229
119 278
120 129
120 138
120 146
120 153
120 174
120 185
120 254
121 142
121 160
121 180
121 264
122 125
122 130
122 134
122 151
122 211
122 264
123 143
123 166
123 199
123 246
123 251
123 298
124 131
124 158
124 170
124 258
125 146
125 197
125 227
125 294
126 146
126 171
126 202
126 235
126 251
128 267
128 274
129 138
129 218
129 226
129 232
129 264
130 209
130 300
131 252
132 136
132 150
132 234
132 235
132 236
133 158
133 175
133 177
133 213
133 266
134 154
134 170
134 211
134 268
136 185
136 238
136 276
136 294
136 297
137 160
137 237
138 164
138 189
138 212
138 254
138 295
139 234
139 275
140 194
140 281
141 190
141 268
142 154
142 178
142 217
142 251
142 264
142 289
143 193
143 211
144 271
144 296
145 173
145 202
145 239
145 249
147 225
147 288
148 156
148 180
148 215
148 282
148 295
151 167
152 164
152 189
152 275
152 286
152 296
153 206
153 291
154 155
154 268
155 172
155 180
155 243
155 267
155 270
156 200
156 223
156 265
156 281
157 165
157 271
157 274
158 190
158 198
159 182
159 222
160 191
160 207
160 235
160 237
160 243
160 245
160 246
160 254
160 300
161 163
161 174
161 177
161 199
161 209
161 231
161 241
161 277
161 284
161 285
162 203
162 244
162 253
162 270
162 276
162 293
163 221
163 260
164 220
164 247
164 253
164 254
164 275
164 286
164 296
166 248
166 260
166 270
166 293
167 178
167 211
167 233
168 180
168 195
168 228
168 230
169 251
170 252
170 258
171 208
171 231
171 237
172 192
172 204
172 276
172 282
172 291
172 299
173 262
173 281
174 177
174 185
174 195
174 196
174 210
174 217
174 265
174 277
175 238
176 193
176 199
176 242
176 266
177 252
177 277
178 225
178 232
178 251
178 265
178 289
179 217
179 226
179 245
179 247
179 295
180 198
180 215
180 240
180 243
180 250
180 256
180 270
181 219
181 227
181 282
182 187
182 213
182 220
182 221
182 223
182 236
182 252
182 259
182 264
182 274
182 278
183 231
183 264
183 279
185 194
185 265
185 287
185 299
187 213
187 225
187 249
187 268
187 272
187 280
188 254
188 267
189 208
190 198
190 240
191 235
191 264
191 268
191 284
192 216
192 219
192 242
193 296
194 198
194 287
195 228
196 207
196 227
196 273
196 274
198 215
198 250
198 276
199 244
199 266
199 289
200 204
200 209
200 262
200 276
200 299
201 220
201 227
201 286
202 239
202 300
203 293
204 299
205 220
205 231
206 211
207 210
207 219
207 227
207 235
207 246
207 252
208 237
208 276
208 298
209 212
209 262
210 276
210 286
211 224
211 258
212 265
212 298
213 252
213 259
214 245
215 273
216 218
216 235
216 291
217 296
218 235
219 282
220 227
220 259
220 273
220 275
220 281
220 286
221 223
221 285
223 265
224 258
224 259
224 281
225 251
225 261
226 247
227 241
227 252
227 273
227 282
227 287
228 253
228 285
229 282
230 283
231 250
231 279
231 284
232 268
232 273
232 284
233 276
233 286
234 236
234 267
235 243
236 274
236 275
236 291
236 294
237 254
237 267
237 271
237 300
238 241
238 282
240 243
241 282
241 285
242 268
243 287
245 247
245 297
246 248
247 256
247 290
247 292
248 260
249 271
249 298
252 259
252 260
252 274
252 282
252 286
252 287
253 275
253 286
253 293
254 267
255 256
255 282
255 288
256 270
256 288
256 290
259 281
260 274
264 279
268 284
270 290
270 293
271 281
271 295
271 298
272 283
275 296
276 294
276 298
281 284
281 295
282 292
282 295
286 287
287 299
290 292
291 294
*Classes
1
1
1
1
1
1
1
1
1
1
1
1
1
1
1
1
1
1
1
1
1
1
1
1
1
1
1
1
1
1
1
1
1
1
1
1
1
1
1
1
1
1
1
1
1
1
1
1
1
1
1
1
1
1
1
1
1
1
1
1
1
1
1
1
1
1
1
1
1
1
1
1
1
1
1
1
1
1
1
1
1
1
1
1
1
1
1
1
1
1
1
1
1
1
1
1
1
1
1
1
1
1
1
1
1
1
1
1
1
1
1
1
1
1
1
1
1
1
1
1
1
1
1
1
1
1
1
1
1
1
1
1
1
1
1
1
1
1
1
1
1
1
1
1
1
1
1
1
1
1
2
2
2
2
2
2
2
2
2
2
2
2
2
2
2
2
2
2
2
2
2
2
2
2
2
2
2
2
2
2
2
2
2
2
2
2
2
2
2
2
2
2
2
2
2
2
2
2
2
2
2
2
2
2
2
2
2
2
2
2
2
2
2
2
2
2
2
2
2
2
2
2
2
2
2
2
2
2
2
2
2
2
2
2
2
2
2
2
2
2
2
2
2
2
2
2
2
2
2
2
2
2
2
2
2
2
2
2
2
2
2
2
2
2
2
2
2
2
2
2
2
2
2
2
2
2
2
2
2
2
2
2
2
2
2
2
2
2
2
2
2
2
2
2
2
2
2
2
2
2
