*Vertices 300
*Edges
1 37
1 44
1 46
1 64
1 79
1 83
1 94
1 115
1 127
1 145
1 184
1 187
1 210
1 224
1 268
1 288
1 297
2 16
2 42
2 84
2 142
2 170
2 190
2 214
2 245
2 247
2 252
3 10
3 18
3 24
3 52
3 62
3 67
3 99
3 157
3 159
3 194
3 206
3 207
3 226
3 258
3 274
4 23
4 71
4 72
4 92
4 152
4 160
5 109
5 184
6 10
6 13
6 38
6 56
6 84
6 88
6 122
6 180
6 215
6 265
6 289
7 29
7 92
7 142
7 222
7 235
7 263
7 294
8 12
8 114
8 121
8 242
8 265
8 287
9 82
9 93
9 114
9 141
9 168
9 195
9 294
10 52
10 88
10 93
10 134
10 158
10 164
10 173
10 244
10 250
10 274
10 282
10 294
11 18
11 58
11 88
11 122
11 134
11 184
11 227
12 71
12 73
12 114
12 184
13 21
13 26
13 84
13 147
13 191
13 195
13 197
13 234
13 265
14 36
14 76
14 113
14 150
14 187
14 224
14 232
14 243
14 266
14 280
15 166
16 113
16 224
16 225
16 228
16 231
16 252
17 23
17 38
17 47
17 53
17 84
17 146
17 152
17 153
17 200
17 231
18 24
18 29
18 41
18 44
18 53
18 62
18 68
18 79
18 80
18 81
18 83
18 96
18 101
18 105
18 122
18 139
18 165
18 210
18 261
18 288
18 296
18 300
19 79
19 115
19 118
19 122
19 135
19 144
19 159
19 186
19 203
19 210
19 213
19 219
19 245
19 247
19 267
19 273
19 299
20 29
20 60
20 81
20 82
20 219
20 229
20 249
21 92
21 105
21 127
21 148
21 195
21 197
21 201
22 24
22 25
22 58
22 59
22 88
22 95
22 252
22 263
23 30
23 38
23 71
23 201
23 255
23 269
24 37
24 44
24 52
24 59
24 70
24 83
24 108
24 145
24 161
25 58
25 112
25 131
25 132
25 152
25 206
25 227
25 248
26 29
26 90
26 107
26 166
26 200
26 234
26 255
26 288
26 289
27 29
27 40
27 137
27 145
27 175
28 46
28 54
28 89
28 94
28 124
28 156
28 256
29 40
29 92
29 137
29 182
29 287
29 288
30 71
30 73
30 213
30 289
31 38
31 53
31 75
31 80
31 154
31 258
31 279
32 84
32 114
32 163
32 197
32 200
33 36
33 51
33 60
33 69
33 102
33 123
33 144
33 206
34 93
34 137
34 272
35 60
35 81
35 182
35 254
35 259
36 79
36 113
36 137
36 182
36 210
36 277
36 280
37 43
37 64
37 67
37 131
37 161
37 169
37 189
37 265
37 269
38 53
38 55
38 75
38 80
38 140
38 154
38 241
38 281
38 289
39 60
39 69
39 104
39 122
39 139
39 293
40 90
40 137
40 162
40 194
40 198
40 199
41 53
41 70
41 100
41 106
41 112
41 199
41 292
42 104
42 142
42 153
42 160
42 180
42 182
42 231
42 288
43 53
43 62
43 81
43 91
43 131
43 136
43 180
43 195
43 282
44 53
44 58
44 67
44 80
44 83
44 105
44 181
44 219
44 265
45 63
45 154
45 176
45 198
45 261
46 53
46 68
46 81
46 86
46 89
46 94
46 96
46 161
46 192
46 197
47 146
47 214
47 242
48 53
48 132
48 177
48 210
48 215
49 186
50 134
50 146
50 157
50 198
50 244
50 250
50 276
51 116
51 123
51 152
51 213
51 264
52 67
52 68
52 72
52 129
52 207
52 219
52 237
53 70
53 81
53 84
53 132
53 177
53 213
54 65
54 89
54 93
54 106
54 171
54 172
54 232
55 67
55 72
55 75
56 102
57 128
57 212
57 229
57 236
58 84
58 134
58 165
58 192
58 207
58 238
58 300
59 126
59 143
59 150
59 178
59 202
60 81
60 101
60 144
60 211
60 282
61 113
61 161
61 279
62 67
62 103
62 120
62 137
62 149
62 179
62 222
62 226
62 256
63 91
63 251
63 270
64 99
64 153
64 161
64 191
64 232
64 269
65 67
65 171
65 179
66 112
66 113
66 131
66 148
66 164
66 179
66 183
66 212
66 216
66 248
66 268
66 277
66 295
67 75
67 83
67 145
67 146
67 157
67 161
67 265
67 297
68 86
68 92
68 155
68 166
68 240
68 245
68 270
68 288
69 92
69 255
69 294
70 87
70 108
70 149
70 152
70 171
70 224
70 292
71 73
71 92
71 103
71 137
71 221
71 281
72 99
72 152
72 248
73 95
73 125
73 155
73 171
73 174
73 178
73 231
73 253
74 87
74 95
74 103
74 139
74 148
74 188
74 290
75 81
75 141
75 181
75 200
75 235
75 241
75 246
75 255
75 282
75 289
76 167
76 187
76 211
77 87
77 148
77 192
77 197
77 218
77 274
77 282
77 287
78 121
78 197
78 267
78 271
78 295
79 94
79 111
79 116
79 178
79 210
79 235
79 258
79 265
79 269
79 280
79 299
80 105
81 85
81 222
81 282
82 251
82 253
82 294
83 104
83 105
83 127
83 145
83 172
83 238
83 268
83 270
83 298
84 147
84 148
84 152
84 170
84 191
84 192
84 241
84 292
85 108
85 132
85 176
85 222
85 227
86 111
86 223
87 148
87 155
87 188
87 218
87 224
88 95
88 245
88 274
88 294
89 124
89 188
89 275
89 285
90 107
90 199
91 116
91 131
91 162
91 185
91 195
91 261
91 299
92 160
92 168
92 208
92 225
92 294
93 106
93 114
93 272
93 274
94 129
94 199
94 221
94 223
94 240
94 253
94 280
94 293
95 125
95 133
95 139
95 178
95 204
95 248
95 269
96 101
96 126
96 150
96 245
96 272
97 127
97 140
97 147
97 148
97 170
97 172
97 193
97 285
98 174
98 228
98 266
100 106
100 118
100 136
100 226
100 265
101 164
101 194
102 172
102 206
102 286
103 137
103 139
104 122
104 142
104 190
104 191
104 236
104 241
104 264
104 270
105 197
105 227
105 242
105 248
105 265
106 112
106 206
106 213
106 226
106 248
107 117
107 125
107 130
107 153
107 166
107 170
107 172
107 268
107 272
108 187
108 235
108 236
109 116
109 249
110 112
110 241
110 257
111 149
111 223
111 258
111 280
112 166
112 248
112 289
113 137
113 179
113 186
113 190
113 224
114 121
114 141
114 163
114 215
114 249
115 134
115 136
115 147
115 187
115 199
115 219
115 243
115 245
115 265
115 296
115 299
116 181
116 235
116 261
116 281
117 170
117 215
118 246
118 265
118 283
119 150
119 227
119 270
120 157
120 182
120 241
121 197
121 206
122 139
122 140
122 296
122 299
123 129
123 151
123 170
123 178
123 190
123 196
123 197
123 234
123 296
124 271
124 292
124 295
125 150
125 204
125 222
126 150
126 230
127 128
127 148
127 244
129 135
129 154
129 157
129 169
129 218
129 223
129 253
130 135
130 173
130 226
131 132
131 179
131 183
131 185
131 208
131 250
131 276
131 295
132 137
132 222
133 150
133 214
133 231
134 165
134 234
134 244
134 296
135 144
135 169
135 173
136 138
136 139
136 199
136 205
136 219
136 224
136 226
137 208
137 211
137 221
137 272
138 229
138 292
139 205
139 219
139 265
139 296
139 300
140 146
140 147
140 243
140 248
140 289
140 296
141 181
142 177
142 191
142 207
143 150
143 169
143 273
144 172
144 255
144 287
144 288
144 298
144 299
145 177
145 178
145 194
145 242
145 253
145 260
146 186
146 191
146 248
147 243
147 296
148 192
148 277
149 179
149 202
150 187
150 214
150 272
150 284
151 167
151 225
151 227
151 279
152 167
152 184
152 208
152 213
152 238
152 258
152 259
152 292
152 297
153 180
153 231
153 265
154 156
154 157
154 241
154 255
155 176
155 194
155 211
156 255
156 279
156 286
156 299
157 230
157 241
157 275
157 279
158 185
158 208
158 228
158 250
158 257
158 267
158 282
158 292
159 233
160 168
160 182
160 206
160 207
160 225
160 255
161 191
161 203
161 256
162 200
162 205
163 184
163 222
163 229
163 235
163 266
163 284
163 286
163 297
164 173
164 179
164 192
164 205
164 214
164 229
164 235
165 222
165 230
165 248
165 275
165 292
165 297
166 248
167 191
167 210
167 225
167 230
167 269
167 285
167 287
168 195
169 189
169 202
169 212
169 227
170 174
170 178
170 204
170 247
171 231
171 246
171 266
171 279
171 285
171 289
171 292
171 293
172 201
172 203
172 222
172 246
172 248
172 255
172 265
172 286
172 297
173 212
173 236
173 252
173 274
174 178
174 196
174 198
174 219
174 223
174 228
174 229
174 253
174 286
174 295
175 186
175 212
176 186
176 194
176 205
176 217
176 229
176 237
176 259
176 263
177 182
177 197
177 210
178 202
178 228
178 243
178 247
178 252
178 260
178 265
178 269
179 233
179 249
179 256
179 260
180 213
180 243
180 272
180 274
180 286
180 288
181 201
181 213
182 207
182 210
182 251
182 254
183 187
183 199
183 232
183 241
184 227
184 279
184 297
185 237
185 242
185 259
185 267
186 241
186 247
187 241
187 265
187 266
188 280
188 285
189 212
189 227
189 257
190 196
190 228
190 236
190 265
191 209
191 291
191 293
192 194
192 228
192 242
192 265
193 195
193 244
194 242
195 206
195 234
195 240
196 228
196 294
196 297
197 210
198 238
198 286
199 226
199 232
199 258
199 289
199 291
199 293
200 246
200 256
200 260
200 270
201 297
202 227
202 254
202 282
202 292
203 247
203 297
205 229
205 235
205 240
206 225
207 277
208 211
208 250
208 292
209 236
210 236
210 240
210 251
210 252
210 285
211 231
211 250
212 228
212 242
212 268
212 274
213 264
213 267
213 288
213 299
214 252
215 236
215 250
215 252
216 249
216 277
217 218
217 232
217 263
217 275
218 241
218 263
218 291
219 223
219 245
220 280
221 223
221 232
221 238
221 295
221 298
222 263
222 285
222 297
223 253
223 271
223 295
224 256
224 260
225 255
226 238
226 258
226 285
227 279
228 231
228 242
228 257
229 232
229 235
229 238
229 243
229 286
230 275
231 265
231 285
231 292
231 297
232 275
232 280
232 295
233 236
234 296
236 240
236 252
236 265
236 285
236 296
237 259
238 258
238 262
238 298
239 262
239 278
239 290
239 300
240 245
243 285
243 286
245 247
245 274
246 247
246 248
246 265
246 289
247 248
247 292
248 249
250 294
250 297
252 265
253 263
255 269
255 270
255 288
256 260
258 297
259 263
259 290
260 264
262 283
262 298
263 291
264 270
265 292
265 296
266 292
266 297
268 277
270 276
270 288
271 277
271 295
278 290
279 292
282 292
284 297
285 297
286 288
286 297
289 293
290 300
291 293
295 298
*Classes
1
1
1
1
1
1
1
1
1
1
1
1
1
1
1
1
1
1
1
1
1
1
1
1
1
1
1
1
1
1
1
1
1
1
1
1
1
1
1
1
1
1
1
1
1
1
1
1
1
1
1
1
1
1
1
1
1
1
1
1
1
1
1
1
1
1
1
1
1
1
1
1
1
1
1
1
1
1
1
1
1
1
1
1
1
1
1
1
1
1
1
1
1
1
1
1
1
1
1
1
1
1
1
1
1
1
1
1
1
1
1
1
1
1
1
1
1
1
1
1
1
1
1
1
1
1
1
1
1
1
1
1
1
1
1
1
1
1
1
1
1
1
1
1
1
1
1
1
1
1
2
2
2
2
2
2
2
2
2
2
2
2
2
2
2
2
2
2
2
2
2
2
2
2
2
2
2
2
2
2
2
2
2
2
2
2
2
2
2
2
2
2
2
2
2
2
2
2
2
2
2
2
2
2
2
2
2
2
2
2
2
2
2
2
2
2
2
2
2
2
2
2
2
2
2
2
2
2
2
2
2
2
2
2
2
2
2
2
2
2
2
2
2
2
2
2
2
2
2
2
2
2
2
2
2
2
2
2
2
2
2
2
2
2
2
2
2
2
2
2
2
2
2
2
2
2
2
2
2
2
2
2
2
2
2
2
2
2
2
2
2
2
2
2
2
2
2
2
2
2
