*Vertices 300
*Edges
1 24
1 32
1 42
1 59
1 61
1 64
1 68
1 69
1 86
1 96
1 97
1 99
1 120
1 147
1 165
1 168
1 177
1 196
1 219
1 300
2 20
2 22
2 35
2 65
2 133
2 161
2 165
2 166
2 190
2 209
2 229
3 44
3 183
3 193
3 213
3 217
3 229
3 253
3 267
3 286
4 62
4 152
4 158
4 216
4 252
5 38
5 40
5 54
5 68
5 125
5 152
5 163
5 183
6 40
6 97
6 109
6 110
6 123
6 161
6 169
7 28
7 29
7 193
7 261
8 24
8 33
8 43
8 69
8 70
8 108
8 126
8 152
8 197
8 222
8 294
9 27
9 69
9 100
9 138
9 225
9 242
10 51
10 54
10 55
10 130
10 168
10 257
10 259
10 270
10 285
11 35
11 105
11 111
11 136
11 160
11 167
11 169
11 172
11 299
12 16
12 24
12 41
12 43
12 77
12 106
12 190
12 214
12 218
12 247
12 260
12 271
13 100
13 136
13 266
14 33
14 124
14 126
14 141
14 208
14 215
14 227
14 272
14 276
14 279
14 287
14 289
15 22
15 134
15 221
15 248
16 53
16 106
16 242
16 286
17 71
17 76
17 88
17 161
17 168
17 172
18 27
18 42
18 58
18 99
18 102
18 107
19 43
19 74
19 99
19 117
19 119
20 22
20 33
20 35
20 65
20 229
21 57
21 221
21 247
21 259
21 265
21 269
22 113
22 170
22 222
22 242
22 268
22 286
22 291
23 33
23 96
23 126
23 166
23 210
24 27
24 43
24 70
24 74
24 86
24 101
24 122
24 141
24 176
24 222
24 270
25 101
25 192
25 292
25 296
26 30
26 171
26 220
26 238
26 256
26 287
26 298
26 299
27 43
27 102
27 192
27 203
27 228
27 233
27 291
27 296
28 29
28 38
28 73
28 121
28 125
28 192
28 193
28 195
28 253
28 270
28 296
29 37
29 44
29 45
29 50
29 54
29 73
29 85
29 94
29 105
29 117
29 174
29 201
29 206
29 243
29 268
29 279
29 287
30 109
30 128
30 129
30 200
30 266
31 163
31 215
31 220
32 34
32 68
32 73
32 96
32 97
32 107
32 139
32 151
32 155
32 200
32 206
32 274
32 287
32 293
33 60
33 113
33 118
33 126
33 134
33 141
33 142
33 205
33 297
34 35
34 62
34 75
34 92
34 94
34 96
34 99
34 128
34 154
34 241
34 277
34 286
35 49
35 55
35 72
35 75
35 80
35 136
36 45
36 98
36 108
36 128
36 129
37 44
37 69
37 100
37 101
37 111
37 122
37 135
37 151
37 172
37 173
37 205
37 288
37 294
37 298
38 125
38 144
38 165
38 174
38 197
38 226
38 288
39 270
40 45
40 50
40 54
40 68
40 105
40 109
40 133
40 178
40 207
40 221
40 273
40 284
41 176
41 178
41 196
41 247
42 61
42 86
42 107
42 177
42 181
42 279
43 74
43 77
43 200
44 50
44 97
44 117
44 123
44 135
44 152
44 169
44 172
44 244
44 253
44 282
45 54
45 117
45 162
45 164
45 173
45 186
45 193
45 194
45 252
45 263
45 286
46 51
46 66
46 121
46 145
46 150
46 212
46 258
46 263
46 271
47 51
47 55
47 71
47 73
47 76
47 79
47 116
47 139
47 150
47 155
47 156
47 196
48 59
48 132
48 185
48 274
48 291
49 80
49 111
49 112
49 165
49 183
49 190
49 230
49 239
49 249
50 84
50 105
50 109
50 115
50 117
50 133
50 143
50 284
50 286
51 55
51 71
51 79
51 86
51 95
51 150
51 155
51 161
51 214
51 232
51 299
52 84
52 297
53 60
53 61
53 65
53 68
53 69
53 82
53 106
53 118
53 134
53 143
53 166
53 183
53 196
53 199
53 241
54 130
54 132
54 174
54 195
54 206
54 207
54 281
55 80
55 95
55 111
55 116
55 148
55 155
55 232
55 241
55 257
55 259
55 270
56 105
56 117
56 129
56 134
56 243
56 268
57 230
57 232
57 296
58 99
58 199
58 257
58 265
59 60
59 118
59 120
59 132
59 134
59 171
59 260
59 273
59 291
59 294
60 61
60 64
60 105
60 118
60 119
60 134
60 257
60 296
61 64
61 65
61 69
61 86
61 99
61 113
61 118
61 142
61 156
61 183
61 196
61 219
61 239
61 241
62 76
62 92
62 99
62 187
62 216
62 252
62 261
63 210
63 211
63 212
64 69
64 93
64 118
64 121
64 203
64 211
64 240
64 249
64 265
64 269
64 271
64 300
65 71
65 72
65 92
65 113
65 123
65 124
65 133
65 181
65 208
65 217
65 226
65 229
65 295
66 150
67 73
67 212
67 221
67 250
67 279
67 285
68 82
68 155
68 219
68 241
69 100
69 101
69 205
69 217
69 222
69 241
69 245
70 86
70 176
70 207
70 251
70 254
70 294
71 72
71 85
71 88
71 116
71 118
71 175
72 75
72 78
72 92
72 111
72 167
72 215
72 279
72 280
72 295
73 76
73 96
73 139
73 205
73 212
73 213
73 238
73 298
74 114
74 136
74 172
74 189
74 208
74 216
74 262
74 292
74 300
75 96
75 128
75 154
75 199
75 226
75 297
76 77
76 85
76 88
76 107
76 115
76 137
76 139
76 187
76 296
77 135
77 137
77 146
77 183
77 184
77 214
77 247
77 260
78 92
78 119
78 123
78 176
78 189
78 200
78 206
78 223
78 256
78 287
79 116
79 131
79 151
79 156
79 179
79 199
80 92
80 111
80 136
80 148
80 164
80 257
80 280
81 132
81 148
81 157
81 160
81 230
81 245
81 288
82 143
82 181
82 191
82 230
82 242
83 124
83 146
83 191
83 199
83 231
83 287
84 120
84 164
84 180
84 201
84 286
85 107
85 118
85 124
85 133
85 139
85 243
85 245
86 122
86 192
86 196
86 237
86 272
86 294
86 300
87 257
88 115
88 118
88 161
88 175
88 217
88 226
89 179
89 279
89 284
89 289
89 293
90 92
90 95
90 159
90 233
90 265
91 181
91 215
92 95
92 99
92 119
92 142
92 148
92 164
92 206
92 215
92 221
92 257
92 261
92 280
92 287
93 112
93 121
93 140
93 168
93 199
93 264
93 273
94 96
94 117
94 159
94 168
94 179
94 185
94 190
94 196
94 239
94 252
94 253
94 268
94 288
94 292
95 197
95 200
95 257
95 273
95 277
95 297
96 151
96 175
96 179
96 206
96 210
96 241
96 254
96 288
96 298
97 123
97 150
97 168
97 246
97 277
98 108
98 135
98 185
98 202
98 257
98 262
98 265
98 291
98 299
99 119
99 156
99 221
99 241
99 247
99 248
99 252
99 283
99 287
100 138
100 141
100 217
100 242
100 266
101 122
101 141
101 151
101 202
101 225
102 107
103 112
103 121
103 223
103 242
103 253
104 123
104 145
104 150
104 179
104 182
104 192
104 194
104 195
104 243
105 115
105 134
105 143
105 169
105 201
105 203
105 255
106 110
106 164
106 249
106 267
106 278
107 139
107 145
107 169
107 203
108 113
108 126
108 142
109 110
109 129
109 142
109 229
109 285
110 285
111 148
111 275
111 280
111 288
111 299
112 121
112 145
112 202
112 278
113 118
113 142
113 152
113 222
113 264
113 271
114 136
114 211
114 216
114 251
114 281
114 298
115 137
115 153
115 172
115 201
115 209
115 249
115 273
115 274
115 296
116 176
116 194
116 196
116 222
116 231
116 258
116 260
116 264
116 288
116 294
117 119
117 128
117 129
117 164
117 194
117 286
118 121
118 151
118 168
118 195
118 232
119 129
119 187
119 195
119 206
119 230
119 242
119 267
119 287
120 147
120 165
120 183
120 210
120 221
120 241
120 266
121 140
121 145
121 216
121 223
121 230
121 240
121 246
121 249
121 280
122 149
122 241
123 150
123 154
123 170
123 176
123 214
124 133
124 161
124 179
124 195
124 200
124 215
124 231
124 276
124 287
124 293
125 144
125 190
125 278
126 205
126 293
126 294
127 152
127 212
127 246
127 284
128 129
129 174
129 266
130 150
130 169
130 271
131 135
131 188
131 197
131 248
131 259
131 269
132 200
132 245
132 246
132 288
133 139
133 161
133 166
133 245
134 174
134 221
134 266
134 272
135 137
135 146
135 194
135 258
135 259
135 260
135 267
136 153
136 211
136 216
136 259
136 266
137 214
137 267
137 298
138 141
138 234
138 264
139 145
139 184
139 192
139 210
139 245
139 263
140 145
140 205
140 300
141 182
142 177
142 191
142 229
143 174
143 179
143 289
143 300
144 211
144 232
144 235
144 253
145 150
145 192
145 259
145 263
145 272
145 285
146 183
146 231
146 258
146 295
147 159
147 174
147 210
147 242
147 289
148 156
148 158
148 237
148 245
150 160
150 181
150 184
150 211
150 271
150 290
151 155
151 156
151 170
151 173
151 209
151 227
151 232
151 239
151 253
151 268
152 158
152 163
152 166
152 171
152 204
152 241
152 253
152 264
152 282
152 283
152 284
153 296
154 170
154 215
155 184
155 199
155 245
156 183
156 252
156 257
157 163
157 167
157 190
157 199
157 220
157 230
157 236
157 238
157 244
157 248
157 255
157 264
157 270
157 273
157 299
158 208
158 237
158 300
159 179
159 197
159 226
159 227
159 232
159 242
159 243
159 251
159 265
159 282
159 288
159 294
160 162
160 230
160 280
161 168
161 174
161 214
161 228
161 234
161 300
162 186
162 193
162 198
162 219
162 223
162 249
162 261
162 293
163 166
163 182
163 190
163 244
163 255
163 282
163 283
164 171
164 173
164 184
164 188
164 198
164 249
164 254
164 256
164 264
165 190
165 226
165 244
165 275
165 283
166 172
166 174
166 179
166 199
166 210
166 221
166 247
166 248
166 266
166 274
166 290
167 218
167 238
167 299
168 172
168 214
168 228
168 246
168 252
168 270
168 292
168 300
169 172
169 203
169 205
169 228
169 280
169 284
169 300
170 215
170 216
170 247
170 268
170 273
170 277
171 188
171 264
171 273
171 278
172 186
172 189
172 199
172 203
172 210
172 274
172 281
172 286
173 184
173 208
173 217
173 256
173 263
173 270
173 273
174 188
174 214
174 221
174 234
175 210
175 249
175 254
175 256
175 290
176 181
176 208
176 215
176 229
176 245
176 267
176 279
178 228
178 247
178 268
179 187
179 199
179 217
179 235
179 243
179 272
180 201
180 217
180 258
180 270
180 273
181 191
181 208
181 215
181 229
181 238
181 242
181 245
181 258
181 262
181 279
181 289
181 292
182 194
182 197
182 244
182 256
182 260
182 287
182 288
183 195
183 239
184 199
184 208
184 214
184 245
184 256
184 274
184 285
185 220
185 238
185 265
186 223
186 286
186 293
187 195
187 217
187 226
187 235
187 256
187 269
187 287
188 221
188 227
188 235
188 257
188 269
189 197
189 206
189 221
189 247
189 271
189 279
189 286
189 287
189 288
190 196
190 244
190 267
190 275
190 296
191 195
191 199
191 206
191 223
191 242
191 243
191 264
191 286
191 287
191 293
191 298
192 195
192 216
192 255
192 272
192 279
192 285
192 296
193 211
193 223
193 234
193 237
193 281
193 286
194 222
194 260
195 200
195 206
195 281
195 287
195 296
196 296
197 200
197 247
197 248
197 275
197 288
198 219
198 248
198 249
198 261
199 221
199 230
199 235
199 256
199 297
200 264
200 287
200 293
201 249
201 251
201 270
201 274
202 225
202 278
202 299
203 228
203 269
204 216
204 255
204 264
204 283
204 295
205 208
205 230
205 236
205 238
205 242
205 248
205 258
205 284
205 300
206 264
206 287
207 256
208 209
208 220
208 237
208 245
208 262
208 270
208 275
208 279
208 300
209 237
209 239
209 254
209 276
210 290
211 223
211 290
214 237
214 246
214 247
214 256
214 267
214 289
214 300
215 286
215 289
215 293
216 244
216 246
216 252
216 255
216 258
216 273
217 226
217 270
217 287
218 225
218 255
218 277
218 295
219 248
219 261
220 236
220 237
220 238
220 280
220 298
220 300
221 247
221 248
221 266
222 236
222 238
223 234
223 237
223 251
223 275
223 281
223 286
223 287
225 299
226 232
226 243
226 245
226 282
227 230
227 235
227 239
227 251
227 256
227 272
227 280
228 246
228 247
228 274
228 292
229 250
229 271
229 279
229 285
229 292
230 239
230 242
230 248
230 253
230 273
230 292
230 300
231 258
231 295
232 242
233 250
235 251
235 257
236 238
236 280
236 298
237 275
237 300
238 258
238 280
238 298
239 253
239 254
239 256
239 279
239 292
239 295
239 297
240 271
240 298
241 282
242 251
242 265
242 286
242 288
242 298
243 272
243 288
243 298
244 255
244 256
244 267
244 270
244 273
245 279
246 252
246 292
247 248
247 265
247 266
247 267
247 268
247 271
247 287
249 251
249 254
250 271
251 265
251 274
251 280
251 281
251 282
252 257
252 292
253 282
253 286
254 256
254 290
255 258
255 270
255 279
255 295
255 296
256 279
256 280
256 287
256 293
256 300
257 259
258 270
258 280
259 269
262 291
264 273
264 287
264 288
264 294
265 282
265 288
267 300
268 271
270 273
270 277
270 291
271 285
272 279
272 297
273 277
273 291
273 294
273 296
274 279
274 281
274 285
275 288
275 289
275 294
277 291
277 296
279 285
279 287
279 292
279 295
279 297
280 281
280 288
280 295
285 287
287 293
287 294
287 297
288 294
289 293
289 300
293 300
295 297
*Classes
1
1
1
1
1
1
1
1
1
1
1
1
1
1
1
1
1
1
1
1
1
1
1
1
1
1
1
1
1
1
1
1
1
1
1
1
1
1
1
1
1
1
1
1
1
1
1
1
1
1
1
1
1
1
1
1
1
1
1
1
1
1
1
1
1
1
1
1
1
1
1
1
1
1
1
1
1
1
1
1
1
1
1
1
1
1
1
1
1
1
1
1
1
1
1
1
1
1
1
1
1
1
1
1
1
1
1
1
1
1
1
1
1
1
1
1
1
1
1
1
1
1
1
1
1
1
1
1
1
1
1
1
1
1
1
1
1
1
1
1
1
1
1
1
1
1
1
1
1
1
2
2
2
2
2
2
2
2
2
2
2
2
2
2
2
2
2
2
2
2
2
2
2
2
2
2
2
2
2
2
2
2
2
2
2
2
2
2
2
2
2
2
2
2
2
2
2
2
2
2
2
2
2
2
2
2
2
2
2
2
2
2
2
2
2
2
2
2
2
2
2
2
2
2
2
2
2
2
2
2
2
2
2
2
2
2
2
2
2
2
2
2
2
2
2
2
2
2
2
2
2
2
2
2
2
2
2
2
2
2
2
2
2
2
2
2
2
2
2
2
2
2
2
2
2
2
2
2
2
2
2
2
2
2
2
2
2
2
2
2
2
2
2
2
2
2
2
2
2
2
