*Vertices 300
*Edges
1 70
1 81
1 91
1 117
1 125
1 230
1 256
1 273
2 8
2 52
2 65
2 76
2 142
2 154
2 156
2 191
2 204
2 233
2 242
2 247
2 278
2 281
2 300
3 43
3 44
3 48
3 75
3 96
3 104
3 108
3 120
3 141
3 172
3 298
4 52
4 58
4 78
4 94
4 102
4 113
4 124
4 152
4 163
4 224
4 297
5 7
5 73
5 106
5 107
5 135
5 197
5 217
5 235
6 12
6 35
6 46
6 69
6 101
6 166
6 290
7 15
7 57
7 66
7 107
7 115
7 137
7 146
7 165
7 185
7 187
7 188
7 215
7 242
7 259
7 292
8 58
8 74
8 76
8 87
8 89
8 131
8 188
8 212
8 223
8 229
8 233
8 271
8 287
8 296
9 48
9 50
9 86
9 100
9 128
9 150
9 157
9 175
9 192
9 211
10 34
10 43
10 56
10 61
10 65
10 82
10 119
10 258
11 134
11 162
11 173
11 285
12 27
12 33
12 35
12 38
12 43
12 52
12 61
12 62
12 65
12 75
12 79
12 81
12 92
12 95
12 101
12 135
12 169
12 174
12 191
12 200
12 234
12 243
12 266
12 293
12 298
13 36
13 49
13 85
13 117
13 137
13 289
13 296
15 41
15 57
15 66
15 112
15 137
15 236
15 238
15 268
15 270
15 283
16 19
16 47
16 84
16 108
16 112
16 134
16 142
16 187
16 210
16 276
17 56
17 84
17 131
17 148
17 210
17 229
17 265
18 74
18 127
18 140
18 155
18 162
18 228
18 232
18 257
18 281
19 131
19 192
19 213
19 217
19 233
19 253
20 50
20 56
20 123
20 163
20 166
20 221
20 253
20 285
21 34
21 35
21 44
21 53
21 65
21 68
21 79
21 123
21 124
21 213
21 217
21 248
21 260
21 284
22 148
22 164
22 199
22 203
22 211
22 247
22 283
23 56
23 157
23 161
23 207
23 288
24 36
24 60
24 74
24 82
24 89
24 101
24 108
24 134
24 136
24 195
24 216
24 236
24 268
25 99
25 113
25 131
25 153
25 170
25 285
26 33
26 49
26 214
26 249
26 252
26 254
26 297
27 61
27 77
27 169
27 178
27 250
27 272
27 289
28 102
28 141
28 178
29 38
29 67
29 93
29 104
29 107
29 150
29 188
29 195
29 204
29 212
29 220
29 225
29 226
29 261
30 42
30 59
30 66
30 74
30 127
30 166
30 197
30 222
30 256
30 263
30 268
30 283
31 53
31 68
31 222
31 232
31 243
31 294
32 161
32 177
32 196
32 257
32 261
32 285
33 49
33 62
33 94
33 191
33 215
33 240
33 254
33 262
33 277
34 43
34 53
34 65
34 82
34 97
34 122
34 135
34 154
34 201
34 248
34 258
34 260
34 267
34 284
35 46
35 79
35 171
35 205
36 60
36 73
36 74
36 106
36 137
37 108
37 113
37 116
37 145
37 159
37 164
37 172
37 199
37 205
37 216
37 223
37 224
37 230
37 270
37 274
37 277
37 279
37 281
37 283
37 290
38 43
38 52
38 67
38 77
38 87
38 101
38 126
38 152
38 163
38 170
38 212
38 220
38 224
38 252
39 41
39 83
39 88
39 97
39 120
39 132
39 138
39 179
39 187
39 215
39 230
39 240
39 277
40 89
40 108
40 124
40 125
40 149
40 293
41 57
41 65
41 79
41 97
41 103
41 111
41 112
41 129
41 154
41 207
41 210
41 212
41 218
41 272
42 59
42 65
42 66
42 74
42 97
42 293
43 82
43 84
43 91
43 96
43 101
43 231
43 243
43 263
43 286
43 294
43 299
44 58
44 104
44 112
44 120
44 124
44 164
44 215
44 223
44 292
44 298
44 299
45 74
45 102
45 150
45 238
46 105
46 115
46 116
46 130
46 166
46 197
46 239
46 245
46 258
46 269
47 50
47 125
47 142
47 208
47 210
47 264
48 49
48 50
48 60
48 75
48 91
48 133
48 141
48 153
48 157
48 205
48 232
48 262
48 283
49 109
49 117
49 137
49 141
49 143
49 153
49 225
49 252
49 287
50 57
50 86
50 89
50 103
50 125
50 128
50 142
50 155
50 194
50 197
50 198
50 210
50 219
50 244
50 247
50 253
50 256
50 278
51 54
51 59
51 121
51 134
51 168
51 187
51 219
52 65
52 92
52 101
52 132
52 152
52 154
52 170
52 191
52 252
52 257
52 263
52 276
52 279
52 285
53 90
53 166
53 186
53 190
53 232
54 83
54 144
54 192
54 265
55 105
55 160
55 169
55 199
56 123
56 161
56 184
56 207
56 253
56 277
56 285
56 288
57 66
57 112
57 137
57 177
57 196
57 228
57 241
58 65
58 76
58 94
58 97
58 112
58 120
58 125
58 154
58 200
58 214
58 236
58 254
58 292
59 121
59 127
59 187
59 221
59 231
60 61
60 73
60 95
60 108
60 151
60 157
60 211
60 236
60 262
61 73
61 85
61 93
61 111
61 119
61 169
61 174
61 200
61 233
61 242
61 284
62 91
62 93
62 94
62 155
62 159
62 188
62 191
62 194
62 197
62 200
62 202
62 203
62 220
62 233
62 243
62 262
63 143
63 162
63 191
63 274
63 299
64 75
64 129
64 157
65 68
65 97
65 120
65 132
65 138
65 154
65 159
65 177
65 189
65 199
65 208
65 209
65 211
65 236
65 238
65 248
65 256
65 271
65 279
66 127
66 139
66 185
66 268
67 107
67 117
67 118
68 86
68 138
68 140
68 163
68 170
68 190
68 198
68 214
68 215
68 217
68 234
68 259
68 265
68 285
68 294
68 297
68 300
69 105
69 109
69 140
69 195
69 208
69 227
69 290
70 89
70 90
70 96
70 117
70 208
70 210
70 251
70 273
71 117
71 160
71 202
71 204
71 237
71 273
73 85
73 106
73 123
73 157
73 233
73 235
74 87
74 118
74 171
74 228
74 234
75 101
75 109
75 117
75 141
75 157
75 158
75 193
75 234
75 248
76 131
76 156
76 191
76 212
76 247
77 100
77 101
77 106
77 178
77 212
77 220
77 226
77 250
78 110
78 149
78 224
79 97
79 129
79 154
79 181
79 282
80 99
80 240
80 243
81 91
81 120
81 124
81 125
81 127
81 138
81 140
81 198
81 199
81 252
81 277
81 295
82 89
82 135
82 150
82 153
82 156
82 194
82 214
82 231
82 237
82 293
83 88
83 144
83 179
84 86
84 96
84 98
84 115
84 148
84 151
84 184
84 210
84 252
84 265
84 271
85 112
85 122
85 257
86 87
86 91
86 100
86 101
86 136
86 151
86 182
86 198
86 250
87 89
87 101
87 126
87 136
87 188
87 241
87 270
87 274
88 120
88 134
88 138
88 177
88 187
88 209
88 252
89 110
89 117
89 125
89 135
89 136
89 155
89 158
89 187
89 208
89 214
89 257
89 268
89 284
89 296
90 117
90 150
90 194
90 223
90 225
91 100
91 125
91 127
91 211
91 256
91 262
91 299
92 134
92 185
92 245
92 263
92 295
93 153
93 164
93 192
93 208
93 233
93 246
93 261
94 104
94 163
94 200
94 204
94 220
94 233
94 235
94 271
95 106
95 200
95 205
95 208
95 211
95 213
95 226
96 98
96 114
96 117
96 148
96 155
96 161
96 193
96 194
96 207
96 256
96 263
97 155
97 191
97 207
97 218
97 236
97 268
98 102
98 184
99 129
99 131
99 152
99 213
99 215
99 237
99 243
99 265
99 288
99 299
100 104
100 127
100 150
100 169
100 199
100 211
101 108
101 111
101 116
101 120
101 126
101 132
101 134
101 137
101 172
101 188
101 217
101 241
101 248
101 251
101 289
101 290
101 292
102 141
102 224
102 238
102 283
103 111
103 128
103 129
103 132
103 143
103 147
103 174
103 176
103 204
103 221
103 228
103 257
103 272
103 287
104 154
104 165
104 211
104 226
104 233
104 235
104 247
104 284
105 109
105 116
105 123
105 140
105 167
106 123
106 191
106 226
106 300
107 114
107 164
107 185
108 113
108 116
108 126
108 134
108 142
108 149
108 172
108 188
108 195
108 223
108 225
108 239
108 251
108 274
108 293
109 143
109 147
109 237
109 249
110 125
110 126
110 149
110 206
110 273
110 293
111 132
111 142
111 143
111 152
111 174
111 247
112 116
112 121
112 124
112 133
112 155
112 166
112 215
112 236
112 266
112 267
113 164
113 276
113 283
114 181
114 194
114 288
115 141
115 187
115 192
115 197
115 210
115 275
116 123
116 124
116 149
116 188
116 197
116 236
117 130
117 208
117 237
117 249
118 138
118 165
118 171
118 230
118 281
119 130
119 135
119 169
119 175
119 236
119 254
119 269
119 289
119 296
120 128
120 138
120 179
120 183
120 193
120 215
120 289
120 299
121 129
121 166
121 244
121 266
121 267
121 294
122 140
122 191
122 267
123 174
124 149
124 215
124 216
124 224
124 252
124 262
124 284
124 291
125 140
125 199
125 214
125 252
125 295
126 133
126 149
126 155
126 200
126 244
126 273
126 287
127 235
127 281
128 143
128 146
128 176
128 179
128 183
128 228
128 236
128 254
128 287
129 142
129 188
129 197
129 227
129 231
129 237
129 244
129 259
129 265
130 164
130 209
130 269
130 288
131 213
131 219
131 229
131 237
131 243
131 296
132 138
132 142
132 150
132 159
132 194
132 240
132 248
132 271
132 277
133 162
133 200
133 228
133 236
133 279
133 283
134 149
134 159
134 187
134 285
134 295
135 150
135 156
135 171
135 201
135 217
135 248
135 269
135 272
135 293
136 204
136 225
136 241
136 257
136 261
136 269
136 274
136 284
136 285
136 292
137 196
137 209
137 217
137 247
138 140
138 152
138 177
138 183
138 215
138 230
138 238
138 252
138 285
138 294
138 299
139 142
139 162
139 165
139 188
139 226
139 239
139 266
139 274
140 228
140 230
140 232
140 278
141 146
141 152
141 183
141 188
141 197
141 215
141 222
141 225
141 232
141 248
141 275
141 292
142 169
142 188
142 197
142 209
142 210
142 220
142 224
142 227
142 244
142 247
143 176
143 221
143 286
144 198
145 270
145 290
146 183
146 215
146 225
146 232
146 257
146 261
146 292
147 161
147 167
147 267
147 269
147 288
147 296
148 164
148 283
149 180
149 293
150 192
150 194
150 225
150 238
151 157
151 182
151 189
151 223
151 263
151 297
152 160
152 208
152 215
152 243
153 154
153 157
153 225
153 246
153 276
154 167
154 172
154 183
154 188
154 226
154 246
154 256
154 267
154 288
154 293
154 294
155 170
155 187
155 191
155 194
155 202
155 204
155 236
155 268
155 275
155 283
155 290
155 292
156 194
156 199
156 237
156 239
157 182
157 205
157 214
157 262
157 297
158 167
158 175
158 233
158 248
158 296
159 199
159 202
159 217
159 231
159 244
159 252
159 289
160 169
160 208
160 244
160 249
160 251
160 259
160 261
160 273
161 184
161 196
161 206
161 207
161 221
161 225
161 230
161 241
161 255
161 261
161 269
161 284
161 288
162 173
162 228
162 274
163 170
163 190
163 205
163 213
163 253
164 177
164 203
164 209
164 290
165 185
165 226
165 250
165 281
166 168
166 186
166 221
166 222
167 172
167 175
167 213
167 253
167 269
167 289
167 296
168 179
168 186
168 208
168 221
168 222
168 239
168 261
168 266
168 287
169 194
169 195
169 208
169 211
169 217
169 220
169 227
169 259
170 181
170 190
170 191
170 208
170 210
171 201
172 188
172 207
172 253
172 275
172 292
172 296
173 177
173 231
173 274
173 283
174 178
174 242
174 300
175 195
175 233
175 270
175 287
175 289
175 296
176 286
177 196
177 209
177 219
177 231
177 252
177 257
178 250
179 276
181 282
182 183
182 193
182 239
182 241
182 245
183 215
183 245
183 267
184 207
184 219
184 221
184 251
184 252
184 290
185 215
185 245
185 259
185 262
185 265
185 280
185 286
185 297
186 218
186 221
186 268
186 279
186 283
187 196
187 219
187 227
187 241
187 242
187 268
188 207
188 227
188 262
188 275
188 292
189 202
189 218
189 271
189 273
189 276
190 218
191 204
191 226
191 236
191 261
191 266
191 274
191 280
191 290
192 213
192 261
192 265
192 299
193 225
193 241
193 245
193 248
193 256
193 263
194 219
194 225
195 208
195 212
195 218
195 225
195 269
195 273
195 284
195 287
196 207
196 241
197 202
197 239
197 256
197 300
198 199
198 238
198 245
198 294
198 298
199 202
199 211
199 230
199 239
199 249
199 270
199 277
199 295
200 235
200 271
201 204
201 252
201 257
201 269
202 203
202 213
202 217
202 262
202 273
202 287
203 243
204 220
204 221
204 226
204 257
204 261
204 274
205 206
205 211
205 218
205 225
205 268
205 283
205 286
206 207
206 211
206 234
207 212
207 225
207 255
207 292
208 210
208 211
208 212
208 217
208 225
208 247
208 259
208 261
208 265
208 269
209 247
210 211
210 217
210 218
210 264
210 271
211 217
211 218
211 230
211 247
211 249
211 269
211 283
211 286
212 217
212 225
212 255
212 271
213 217
213 253
213 291
214 244
214 278
214 297
215 222
215 262
216 224
216 282
216 290
217 240
217 261
217 295
218 246
218 254
218 276
218 287
219 241
219 252
219 257
220 222
220 224
220 299
221 222
221 261
221 288
222 263
223 271
224 229
224 282
224 291
224 299
225 239
225 243
225 245
225 255
225 257
225 272
226 248
226 281
227 241
227 290
228 274
229 282
229 299
230 277
230 284
231 243
231 252
232 257
232 285
233 247
233 284
233 296
234 298
235 236
235 297
236 287
237 249
238 268
238 270
238 298
239 245
239 251
239 266
239 269
239 277
239 280
240 262
240 277
240 295
241 242
242 268
242 300
243 257
243 263
243 272
244 273
244 278
245 257
246 276
246 293
247 278
247 296
248 260
251 252
251 268
251 290
252 257
252 276
252 287
253 269
254 262
254 287
256 262
256 270
256 300
257 261
257 281
257 285
258 269
258 280
259 261
259 265
259 282
259 286
259 294
260 272
261 292
265 297
265 299
266 274
266 280
266 287
267 288
267 294
268 279
268 283
269 274
269 288
270 283
271 286
271 291
271 294
273 287
275 292
279 283
280 297
281 290
281 300
282 293
286 294
287 289
287 296
288 299
289 292
289 296
291 296
294 299
*Classes
1
1
1
1
1
1
1
1
1
1
1
1
1
1
1
1
1
1
1
1
1
1
1
1
1
1
1
1
1
1
1
1
1
1
1
1
1
1
1
1
1
1
1
1
1
1
1
1
1
1
1
1
1
1
1
1
1
1
1
1
1
1
1
1
1
1
1
1
1
1
1
1
1
1
1
1
1
1
1
1
1
1
1
1
1
1
1
1
1
1
1
1
1
1
1
1
1
1
1
1
1
1
1
1
1
1
1
1
1
1
1
1
1
1
1
1
1
1
1
1
1
1
1
1
1
1
1
1
1
1
1
1
1
1
1
1
1
1
1
1
1
1
1
1
1
1
1
1
1
1
2
2
2
2
2
2
2
2
2
2
2
2
2
2
2
2
2
2
2
2
2
2
2
2
2
2
2
2
2
2
2
2
2
2
2
2
2
2
2
2
2
2
2
2
2
2
2
2
2
2
2
2
2
2
2
2
2
2
2
2
2
2
2
2
2
2
2
2
2
2
2
2
2
2
2
2
2
2
2
2
2
2
2
2
2
2
2
2
2
2
2
2
2
2
2
2
2
2
2
2
2
2
2
2
2
2
2
2
2
2
2
2
2
2
2
2
2
2
2
2
2
2
2
2
2
2
2
2
2
2
2
2
2
2
2
2
2
2
2
2
2
2
2
2
2
2
2
2
2
2
