*Vertices 300
*Edges
1 17
1 78
1 82
1 89
1 97
1 124
1 131
1 216
1 223
1 257
1 299
2 34
2 39
2 43
2 47
2 51
2 85
2 88
2 99
2 113
2 118
2 158
2 206
2 212
2 230
2 239
2 280
3 28
3 86
3 98
3 104
3 107
3 175
3 186
3 211
4 9
4 23
4 48
4 96
4 124
4 149
4 157
4 166
4 230
5 63
5 68
5 100
5 105
5 118
5 136
5 142
5 152
6 218
6 240
6 264
7 11
7 69
7 76
7 100
7 112
7 225
7 294
7 295
8 54
8 104
8 111
8 124
8 168
8 176
8 185
8 262
8 269
8 271
9 51
9 74
9 79
9 91
9 96
9 116
9 129
9 130
9 145
9 234
9 249
10 18
10 95
10 109
10 121
10 140
10 213
10 218
10 223
11 36
11 45
11 83
11 112
11 123
11 162
11 189
11 194
11 195
11 207
11 252
11 258
12 67
12 86
12 88
12 111
12 116
12 168
12 173
12 187
12 203
12 204
12 219
12 220
12 254
12 265
13 31
13 37
13 38
13 42
13 66
13 75
13 87
13 95
13 114
13 135
13 173
13 181
13 183
13 204
13 249
13 275
13 286
13 294
14 16
14 100
14 176
14 186
14 219
14 259
15 22
15 53
15 64
15 117
15 201
15 206
15 223
15 260
16 41
16 53
16 100
16 176
16 205
16 219
16 220
16 259
17 18
17 78
17 93
17 120
17 126
17 188
17 193
17 248
17 263
18 20
18 24
18 59
18 85
18 86
18 94
18 98
18 126
18 128
18 129
18 140
18 143
18 148
18 171
18 191
18 197
18 265
19 47
19 61
19 203
19 261
19 268
19 276
19 281
19 290
20 94
20 128
20 149
20 159
20 169
20 181
20 189
20 194
20 265
21 48
21 62
21 71
21 72
21 93
21 103
21 123
21 143
21 146
21 202
21 284
21 298
22 72
22 117
22 140
22 144
22 149
22 157
22 172
22 178
22 191
22 212
22 230
22 273
23 40
23 50
23 134
23 138
23 149
23 171
23 198
23 250
23 275
24 43
24 54
24 55
24 64
24 91
24 141
24 148
24 182
24 192
24 199
24 219
24 224
24 242
25 28
25 81
25 152
25 154
25 189
25 236
25 297
25 299
26 31
26 137
26 172
26 190
26 283
27 144
27 149
27 281
28 64
28 73
28 74
28 80
28 107
28 152
28 170
28 205
28 231
28 285
28 289
28 291
28 299
29 51
29 78
29 80
29 89
29 119
29 149
29 299
30 32
30 69
30 131
30 177
30 200
30 224
30 295
31 71
31 121
31 181
32 39
32 51
32 69
32 218
32 275
33 132
33 213
33 281
34 60
34 105
34 113
34 161
34 217
34 236
34 263
35 109
35 121
35 127
35 175
35 188
35 193
35 223
35 252
35 270
36 52
36 85
36 106
36 145
36 234
36 239
36 243
36 273
36 300
37 38
37 43
37 68
37 83
37 84
37 120
37 167
37 179
37 198
37 215
37 230
37 286
37 287
38 43
38 57
38 68
38 115
38 130
38 155
38 170
38 189
38 215
38 230
38 240
39 47
39 51
39 96
39 99
39 142
39 238
39 259
39 275
40 48
40 109
40 111
40 143
40 151
40 171
40 196
40 294
41 53
41 65
41 100
41 121
41 205
41 276
42 52
42 69
42 92
42 112
42 119
42 135
42 142
42 188
42 214
42 225
42 235
42 262
42 287
43 47
43 55
43 68
43 84
43 108
43 141
43 274
43 290
44 57
44 86
44 100
44 110
44 136
44 152
44 251
45 83
45 266
46 97
46 168
46 201
46 230
46 242
47 61
47 88
47 91
47 138
47 180
47 199
47 231
47 251
47 280
47 286
47 292
47 300
48 59
48 62
48 66
48 74
48 96
48 123
48 144
48 171
48 215
48 288
48 295
49 162
49 246
50 99
50 128
50 134
50 140
50 180
50 198
50 251
50 275
51 96
51 99
51 119
51 152
51 187
51 195
51 209
51 231
51 273
52 87
52 100
52 109
52 119
52 133
52 239
52 243
52 262
52 285
52 298
53 64
53 121
53 156
53 206
53 223
53 237
53 257
54 59
54 60
54 64
54 90
54 101
54 105
54 148
54 162
54 219
54 230
55 100
55 127
55 141
55 152
55 163
55 164
55 178
55 204
55 238
55 242
56 95
56 103
56 176
56 180
56 256
57 149
57 183
57 188
57 189
57 194
57 251
57 253
57 279
57 290
58 69
58 84
58 100
58 108
58 118
58 120
58 141
58 175
58 294
59 113
59 162
59 171
59 179
59 195
59 206
59 215
59 269
60 105
60 161
60 236
61 95
61 147
62 142
62 144
62 146
62 168
62 241
62 288
63 71
63 75
63 97
63 114
63 136
63 178
63 204
63 265
64 73
64 74
64 111
64 123
64 143
64 165
64 237
64 291
65 170
65 180
65 245
66 74
66 87
66 129
66 242
66 266
66 292
67 137
67 154
67 204
67 209
67 231
67 274
67 286
68 74
68 76
68 79
68 100
68 105
68 116
68 129
68 145
68 167
68 205
68 223
68 259
68 287
68 294
69 112
69 117
69 118
69 174
70 92
70 97
70 191
70 228
70 254
71 75
71 107
71 114
71 121
71 127
71 158
71 170
71 181
71 201
71 228
71 275
71 298
72 117
72 162
72 200
72 222
72 260
72 284
72 300
73 107
73 167
74 81
74 123
74 129
74 165
74 169
74 196
74 199
74 216
74 229
74 241
74 249
75 114
75 160
75 217
75 257
76 88
76 129
76 259
76 261
76 286
76 294
77 91
77 133
77 157
77 226
77 257
78 82
78 97
78 120
78 149
78 197
78 200
78 222
78 225
78 254
78 257
78 285
78 299
79 144
79 149
79 205
79 282
79 286
80 89
80 205
80 300
81 82
81 196
81 198
81 216
81 247
81 278
81 297
82 235
82 247
82 280
82 288
83 84
83 88
83 104
83 139
83 211
83 225
83 289
84 120
84 198
84 286
85 86
85 101
85 118
85 137
85 145
85 193
86 94
86 95
86 98
86 110
86 116
86 154
86 191
86 254
87 89
87 119
87 135
87 161
87 181
87 211
87 249
87 266
87 292
88 94
88 103
88 104
88 168
88 246
88 294
89 124
89 135
89 166
89 170
89 180
89 190
89 194
89 211
89 229
89 300
90 101
90 145
90 192
90 273
90 291
91 96
91 129
91 148
91 162
91 199
91 288
92 97
92 112
93 103
93 126
93 170
93 180
93 298
94 103
94 124
94 143
94 159
94 170
94 241
95 103
95 109
95 110
95 114
95 147
95 155
95 184
95 267
96 102
96 124
96 130
96 140
96 288
96 295
97 149
97 204
97 230
97 254
98 104
98 108
98 175
98 261
98 278
99 227
99 294
100 109
100 110
100 118
100 119
100 128
100 141
100 152
100 159
100 163
100 164
100 173
100 174
100 187
100 249
100 251
100 253
100 278
100 285
101 145
101 212
101 230
101 273
101 300
102 110
102 134
102 145
102 291
103 114
103 126
103 196
103 256
104 108
104 109
104 111
104 124
104 139
104 214
104 220
104 225
104 233
105 111
105 162
105 209
105 234
105 235
106 163
106 188
106 273
106 296
106 300
107 156
107 170
107 171
107 184
107 202
107 231
107 271
107 279
107 285
107 289
108 141
108 145
108 275
109 110
109 111
109 119
109 144
109 151
109 158
109 175
109 204
109 206
109 236
109 255
109 300
110 114
110 142
110 167
110 173
110 181
110 184
110 191
110 211
110 215
110 251
110 267
110 291
111 116
111 123
111 124
111 142
111 143
111 144
111 151
111 175
111 234
111 262
111 299
112 135
112 136
112 142
112 186
112 188
112 253
112 260
112 271
112 294
113 118
113 128
113 162
113 215
113 239
113 288
114 136
114 209
114 291
115 130
115 178
115 248
116 123
116 129
116 152
116 178
116 203
116 249
116 284
117 144
117 174
117 182
117 210
117 281
117 292
118 128
118 244
118 246
118 259
119 175
119 275
119 285
120 157
120 212
120 230
120 253
121 144
121 199
121 223
121 228
121 275
122 208
123 258
124 166
124 219
124 225
124 229
124 235
124 241
125 147
125 208
125 251
126 140
126 170
126 221
126 265
127 181
128 140
129 130
129 148
129 194
129 262
129 286
130 166
130 170
130 189
130 222
130 249
131 177
131 223
131 245
131 287
131 290
131 294
132 153
132 189
132 204
132 281
133 195
133 243
134 138
134 145
134 198
134 206
134 253
134 275
134 282
135 193
135 235
135 256
135 275
136 142
136 155
136 166
136 176
136 221
136 254
136 260
136 294
137 161
137 190
137 208
137 281
137 286
138 179
138 195
138 286
139 147
139 256
139 277
140 273
140 295
141 148
141 238
141 288
141 297
142 144
142 149
142 155
142 166
142 167
142 181
142 221
142 254
142 256
142 260
142 291
143 144
143 187
143 234
143 250
143 262
143 274
143 282
144 149
144 166
144 223
144 231
144 281
145 214
145 215
145 223
145 234
145 253
145 282
147 154
147 155
147 182
147 199
147 224
147 248
147 255
147 256
148 191
148 227
148 283
149 244
149 246
149 265
150 186
150 188
150 211
150 253
151 172
151 179
151 180
151 267
151 268
151 299
152 168
152 173
152 195
152 231
152 249
152 286
152 296
153 154
153 183
153 204
153 248
153 265
154 248
154 266
154 274
155 229
156 275
156 292
157 175
157 184
157 185
157 194
157 212
157 213
157 226
157 230
157 243
157 244
157 246
157 252
157 259
157 262
157 274
157 282
158 166
158 192
158 206
158 228
158 242
158 255
158 280
158 300
159 170
159 174
159 180
159 186
159 199
159 210
159 271
159 275
159 276
159 285
159 292
160 210
160 215
160 226
160 243
160 250
160 257
160 258
160 284
160 288
161 168
161 201
161 255
162 207
162 226
162 259
162 280
162 300
163 204
163 209
163 296
164 199
164 254
164 255
165 186
165 199
165 210
165 223
165 276
166 176
166 188
166 192
166 193
166 206
166 222
166 245
166 256
166 287
166 300
167 173
167 215
167 218
167 222
167 254
167 256
167 288
168 173
168 176
168 201
168 204
168 216
168 220
168 223
170 180
170 266
170 298
171 235
171 250
171 265
171 289
172 178
172 180
172 191
172 221
172 267
173 270
174 177
174 184
174 194
174 213
174 262
174 269
174 278
174 282
174 292
174 299
175 186
175 207
175 211
175 219
175 233
175 252
175 261
175 263
175 265
175 278
175 289
176 180
176 188
176 190
176 198
176 210
176 236
176 245
176 265
176 296
177 209
177 232
177 236
177 265
177 278
177 290
177 295
178 204
179 195
180 190
180 193
180 251
180 256
180 266
180 268
180 283
181 249
181 294
182 206
182 234
182 242
182 260
182 292
183 251
183 286
184 202
184 209
184 212
184 213
184 214
184 231
184 268
184 287
184 299
185 212
185 244
185 259
186 206
186 223
186 230
186 266
186 271
186 279
186 292
187 212
187 238
187 274
188 193
188 209
188 210
188 253
188 270
188 271
188 273
189 194
189 214
189 236
189 251
189 252
190 195
190 198
190 210
190 236
190 243
190 251
190 256
190 280
190 283
190 289
191 235
191 257
191 294
192 199
193 208
193 215
193 218
193 223
193 251
193 256
193 269
193 271
193 288
194 237
194 252
194 258
194 260
194 262
194 269
194 299
195 231
195 233
195 236
195 240
195 261
195 265
195 286
196 246
197 243
197 265
197 285
198 205
198 213
198 216
198 236
198 242
198 243
198 259
198 275
198 300
199 255
199 292
200 222
201 215
201 216
201 223
201 241
201 298
202 210
202 264
202 284
203 244
204 236
204 249
204 265
204 295
204 296
206 230
206 260
206 267
207 219
207 226
207 271
207 279
208 251
208 286
209 214
209 231
209 236
209 268
209 278
210 276
210 284
210 292
211 286
211 291
212 229
212 230
212 238
212 259
212 272
212 274
212 290
213 214
213 216
213 231
214 225
214 231
214 234
214 242
214 251
214 255
214 270
215 223
215 230
215 231
215 251
215 259
215 269
215 288
215 297
216 241
216 244
216 249
216 259
217 233
217 263
218 256
218 264
218 287
219 279
219 285
219 299
220 225
220 233
220 261
220 262
222 254
223 231
223 253
223 266
223 268
225 229
225 233
225 234
225 235
225 285
226 240
226 257
228 254
228 297
228 298
230 238
230 253
230 260
230 272
230 282
231 268
231 270
231 286
231 287
231 291
232 236
233 235
233 236
233 261
233 262
234 242
234 257
235 247
235 257
235 258
236 265
236 278
236 280
238 239
238 259
238 272
238 274
238 291
239 274
241 244
241 249
242 243
242 250
242 253
242 255
243 244
243 250
243 255
243 258
243 259
244 246
244 252
245 278
247 288
248 263
248 266
250 282
250 288
251 253
251 256
252 260
252 265
252 300
254 297
256 287
257 258
257 284
259 288
259 294
259 300
260 267
260 300
261 268
262 269
262 282
262 285
262 299
264 265
264 284
265 289
265 296
268 276
270 296
271 279
274 290
274 291
275 292
275 295
280 288
280 289
281 286
284 288
285 289
286 291
288 297
292 295
*Classes
1
1
1
1
1
1
1
1
1
1
1
1
1
1
1
1
1
1
1
1
1
1
1
1
1
1
1
1
1
1
1
1
1
1
1
1
1
1
1
1
1
1
1
1
1
1
1
1
1
1
1
1
1
1
1
1
1
1
1
1
1
1
1
1
1
1
1
1
1
1
1
1
1
1
1
1
1
1
1
1
1
1
1
1
1
1
1
1
1
1
1
1
1
1
1
1
1
1
1
1
1
1
1
1
1
1
1
1
1
1
1
1
1
1
1
1
1
1
1
1
1
1
1
1
1
1
1
1
1
1
1
1
1
1
1
1
1
1
1
1
1
1
1
1
1
1
1
1
1
1
2
2
2
2
2
2
2
2
2
2
2
2
2
2
2
2
2
2
2
2
2
2
2
2
2
2
2
2
2
2
2
2
2
2
2
2
2
2
2
2
2
2
2
2
2
2
2
2
2
2
2
2
2
2
2
2
2
2
2
2
2
2
2
2
2
2
2
2
2
2
2
2
2
2
2
2
2
2
2
2
2
2
2
2
2
2
2
2
2
2
2
2
2
2
2
2
2
2
2
2
2
2
2
2
2
2
2
2
2
2
2
2
2
2
2
2
2
2
2
2
2
2
2
2
2
2
2
2
2
2
2
2
2
2
2
2
2
2
2
2
2
2
2
2
2
2
2
2
2
2
