*Vertices 300
*Edges
1 85
1 91
1 264
1 278
2 49
2 125
2 146
2 192
3 13
3 31
3 66
3 99
3 112
3 119
3 122
3 128
3 132
3 143
3 147
3 158
3 160
3 175
3 186
3 203
3 237
3 240
3 244
3 253
3 295
4 54
4 85
4 105
4 165
4 200
4 255
4 269
4 280
4 283
4 285
5 23
5 24
5 37
5 47
5 56
5 61
5 62
5 97
5 102
5 107
5 149
5 170
5 185
5 205
6 31
6 32
6 43
6 56
6 78
6 100
6 102
6 124
6 175
6 184
6 220
6 231
6 254
6 256
7 69
7 103
8 30
8 48
8 78
8 79
8 100
8 117
8 127
8 140
8 143
8 263
9 108
9 109
9 145
9 175
9 236
9 244
9 256
10 13
10 37
10 76
10 147
10 164
10 186
10 220
10 256
10 277
11 13
11 29
11 31
11 51
11 107
11 147
11 166
11 193
11 226
11 229
12 105
12 112
12 117
12 127
12 167
12 221
12 251
12 252
12 297
13 19
13 28
13 31
13 59
13 75
13 76
13 111
13 122
13 132
13 147
13 198
13 207
13 222
13 269
13 300
14 59
14 111
14 146
14 191
14 294
15 26
15 46
15 93
15 104
15 154
15 211
15 256
15 283
15 290
16 101
16 158
16 164
16 168
16 227
16 238
16 295
17 43
17 235
18 36
18 67
18 104
18 208
18 296
18 299
19 133
19 146
19 147
19 275
19 294
20 50
20 75
20 103
20 111
20 120
20 230
20 234
21 116
21 167
21 178
21 183
21 202
21 235
21 292
21 299
22 99
22 124
22 132
22 181
22 226
22 263
23 27
23 62
23 81
23 203
23 216
24 47
24 61
24 67
24 119
25 29
25 35
25 68
25 83
25 95
25 102
25 117
25 130
25 190
25 198
25 255
25 270
26 56
26 60
26 105
26 187
26 197
26 234
26 290
26 291
27 81
27 149
27 214
27 255
27 295
28 30
28 147
28 149
28 232
29 92
29 117
29 130
29 210
29 215
30 35
30 40
30 48
30 79
30 117
30 149
30 266
31 32
31 68
31 69
31 100
31 107
31 118
31 124
31 147
31 207
32 42
32 67
32 95
32 137
32 139
32 179
32 269
32 276
33 39
33 41
33 54
33 82
33 84
33 219
33 239
33 259
33 266
33 270
33 289
33 300
34 38
34 46
34 53
34 84
34 85
34 170
34 202
34 219
34 261
34 262
34 277
34 284
34 288
35 45
35 79
36 67
36 73
36 192
36 223
36 242
37 81
37 84
37 107
37 133
38 64
38 73
38 75
38 100
38 122
38 152
38 273
38 284
38 300
39 77
39 84
39 96
39 192
39 231
39 239
40 45
40 48
40 79
40 118
40 143
40 201
40 202
40 228
40 231
40 262
41 51
41 260
41 274
42 162
42 165
43 76
43 92
43 156
43 220
43 235
43 260
44 53
44 63
44 78
44 79
44 127
44 133
44 217
44 251
44 295
45 83
45 146
45 147
45 187
45 254
45 255
46 53
46 62
46 66
46 77
46 84
46 85
46 104
46 219
46 257
47 61
47 136
47 185
47 223
47 253
48 98
48 117
48 138
48 140
48 143
48 153
48 184
48 200
48 203
48 223
48 224
48 233
48 238
49 62
49 80
49 125
49 155
49 172
49 196
49 239
49 254
49 259
50 80
50 183
50 200
51 110
51 151
51 270
52 70
52 78
52 79
52 116
52 130
52 192
52 231
52 233
52 272
53 57
53 70
53 78
53 79
53 116
53 136
53 144
53 218
53 240
53 264
54 84
54 85
54 92
54 97
54 104
54 109
54 113
54 123
54 127
54 159
54 182
54 202
54 220
54 284
55 88
55 109
55 138
55 139
56 60
56 72
56 102
56 103
56 131
56 132
56 177
56 188
56 226
57 78
57 79
57 125
57 133
57 231
57 235
58 201
58 219
58 221
58 252
59 97
59 111
59 135
59 162
59 176
60 69
60 187
61 101
61 276
61 279
61 282
62 84
62 107
62 155
62 223
62 258
63 74
63 79
64 94
64 102
64 116
64 160
64 216
64 234
64 254
65 69
65 120
65 129
65 134
65 170
65 253
65 287
66 99
66 104
66 132
66 230
67 81
67 91
67 95
67 147
67 156
68 83
68 117
68 118
69 103
69 107
69 134
69 181
69 274
70 78
70 100
70 150
70 175
70 219
70 244
70 257
70 279
71 87
71 110
71 136
71 144
71 165
72 113
72 287
73 89
73 100
73 163
73 192
74 78
74 99
74 108
74 134
74 137
74 148
75 103
75 122
75 177
75 178
75 188
75 239
75 247
75 292
76 114
76 288
77 96
77 104
77 115
77 194
77 245
77 289
77 290
77 298
78 79
78 100
78 108
78 133
78 144
78 166
78 177
78 232
78 239
78 254
78 296
79 102
79 114
79 118
79 179
79 209
80 82
80 103
80 111
80 171
80 172
80 187
80 283
80 295
81 84
81 98
81 133
81 149
81 223
81 266
81 299
82 96
82 209
82 286
83 118
83 146
83 181
83 295
84 85
84 219
84 230
84 253
85 104
85 109
85 227
85 240
85 257
85 278
86 105
86 128
86 202
86 250
87 212
87 264
88 109
88 259
88 267
88 285
89 100
89 122
89 141
89 161
89 227
89 241
89 283
90 179
90 218
91 96
91 156
91 210
91 228
91 250
91 297
92 117
92 160
92 181
92 191
92 220
92 253
92 263
93 106
93 115
93 151
93 153
93 171
93 189
93 207
93 255
93 258
94 102
94 122
94 153
94 187
94 198
94 210
94 222
94 228
94 296
94 297
95 102
95 114
95 134
95 147
95 177
95 188
96 275
97 98
97 123
97 127
97 205
97 239
97 269
98 133
98 137
98 138
98 174
98 183
98 220
98 223
99 132
99 148
99 239
100 122
100 135
100 140
100 150
100 162
100 209
100 239
100 281
101 124
101 126
101 221
101 238
101 295
102 132
102 223
102 234
103 111
103 134
103 269
104 157
104 162
104 208
104 296
105 112
105 156
105 228
105 245
105 262
105 293
106 128
106 157
106 172
106 232
106 253
107 298
108 111
108 128
108 155
109 141
109 239
109 285
110 129
110 144
110 185
110 194
110 197
110 242
110 278
111 113
111 279
112 171
112 177
112 186
112 188
112 221
112 227
112 228
113 127
113 157
113 167
113 234
113 257
113 287
114 194
114 209
114 234
114 255
115 126
115 139
115 161
115 170
115 198
115 289
116 183
116 218
116 223
117 127
117 128
117 130
117 140
117 159
117 181
117 200
117 209
117 235
117 264
118 172
118 202
118 250
119 132
119 144
119 209
119 261
119 295
120 271
120 275
121 149
122 150
122 160
122 222
123 225
123 251
123 271
123 284
123 287
124 126
124 132
124 276
124 294
125 136
126 131
126 198
126 243
127 251
127 278
128 130
128 132
128 173
128 189
128 199
128 200
128 244
129 170
129 190
129 213
129 214
129 253
129 266
130 179
130 200
131 155
131 157
131 181
131 221
131 226
132 133
132 184
132 294
133 158
133 183
133 200
133 239
133 278
133 283
134 160
134 192
134 255
135 162
135 210
136 193
137 139
137 171
137 223
137 232
138 139
138 167
138 171
139 163
139 172
139 196
139 228
140 157
140 175
140 182
140 236
140 240
140 257
140 270
141 143
141 150
141 222
141 242
142 211
143 201
143 232
143 236
143 240
143 279
144 167
144 228
144 236
144 257
144 261
144 264
144 265
144 281
144 287
145 146
145 172
145 256
146 147
146 191
147 154
147 226
147 266
147 280
148 258
149 243
149 280
150 207
150 225
150 232
151 160
151 201
151 211
151 219
151 224
151 270
151 279
152 220
152 277
152 282
152 290
153 196
153 222
153 223
153 224
154 166
154 184
154 195
154 290
155 226
155 273
156 163
156 177
156 241
156 260
156 271
156 285
156 292
156 299
157 200
157 231
157 264
157 270
157 276
157 278
158 164
158 168
158 183
158 188
158 190
158 252
158 258
158 265
158 267
158 285
159 164
159 179
159 192
159 225
159 244
159 272
160 168
160 216
160 251
160 253
160 270
161 184
161 191
161 192
161 261
162 174
163 197
163 281
164 179
164 205
164 214
164 238
164 272
165 279
165 283
165 288
165 297
166 180
166 184
166 227
166 232
166 237
166 249
166 269
166 298
167 190
167 201
167 202
167 219
167 232
167 249
167 272
168 183
168 202
168 207
168 232
168 253
169 203
169 230
169 258
170 174
170 232
170 266
170 285
171 223
171 234
172 178
172 187
172 193
172 222
172 250
173 217
173 262
173 290
173 291
174 182
174 190
174 200
174 239
174 270
174 285
175 177
175 182
175 197
175 231
175 240
175 256
175 257
175 277
175 278
175 292
176 247
177 188
177 197
177 212
177 227
177 235
177 241
177 292
178 192
180 204
180 227
180 237
180 257
180 258
180 261
181 188
181 227
182 183
182 186
182 200
182 219
182 228
182 235
182 239
182 240
182 243
182 270
182 278
182 289
183 190
183 202
183 220
183 232
183 252
184 192
184 230
184 294
185 191
185 225
185 231
185 293
186 193
186 210
186 216
186 217
186 232
186 240
186 247
186 259
187 198
187 250
188 203
188 227
188 230
188 241
188 265
188 267
188 285
188 292
189 194
189 215
189 230
189 239
189 286
190 200
190 201
190 203
190 232
190 252
190 270
190 280
191 210
191 225
191 261
191 293
192 237
192 248
192 261
192 272
193 216
193 218
193 222
193 232
194 202
194 215
194 239
195 201
195 276
197 281
197 290
198 236
198 263
198 277
198 289
198 296
199 211
199 281
200 203
200 215
200 232
200 235
200 248
200 258
200 269
200 272
200 278
200 280
200 287
201 219
201 229
201 237
201 249
201 255
201 272
201 276
201 279
202 215
203 208
203 215
203 216
203 230
203 232
203 253
203 258
203 280
204 258
204 265
205 208
205 214
205 285
205 296
206 291
207 226
207 232
207 263
207 288
207 298
208 230
208 239
208 254
208 296
209 265
209 295
210 216
211 281
212 235
212 260
213 243
213 289
214 255
214 274
215 259
215 266
216 218
216 241
216 263
216 277
217 290
218 242
218 244
218 268
219 237
219 240
219 257
219 268
219 271
219 279
219 295
220 260
220 282
221 295
222 242
223 255
223 278
223 299
224 279
225 244
225 261
225 293
226 231
226 232
226 263
226 288
227 230
227 246
227 257
228 235
228 289
228 297
229 259
229 279
230 239
231 263
231 277
231 278
232 240
232 298
233 283
234 246
234 256
234 290
235 237
235 287
235 289
236 265
236 292
237 295
239 241
239 259
239 263
239 269
239 279
239 285
240 244
240 247
240 268
241 263
241 277
241 283
241 285
241 293
242 244
242 268
243 289
244 247
246 257
248 254
248 272
250 288
253 297
254 296
255 264
255 278
256 277
256 283
257 265
257 270
257 282
258 265
259 266
259 279
261 262
261 284
261 288
263 277
264 278
266 295
269 280
269 291
269 298
271 299
272 279
273 284
276 278
276 280
276 294
277 290
278 287
281 300
288 297
291 298
*Classes
1
1
1
1
1
1
1
1
1
1
1
1
1
1
1
1
1
1
1
1
1
1
1
1
1
1
1
1
1
1
1
1
1
1
1
1
1
1
1
1
1
1
1
1
1
1
1
1
1
1
1
1
1
1
1
1
1
1
1
1
1
1
1
1
1
1
1
1
1
1
1
1
1
1
1
1
1
1
1
1
1
1
1
1
1
1
1
1
1
1
1
1
1
1
1
1
1
1
1
1
1
1
1
1
1
1
1
1
1
1
1
1
1
1
1
1
1
1
1
1
1
1
1
1
1
1
1
1
1
1
1
1
1
1
1
1
1
1
1
1
1
1
1
1
1
1
1
1
1
1
2
2
2
2
2
2
2
2
2
2
2
2
2
2
2
2
2
2
2
2
2
2
2
2
2
2
2
2
2
2
2
2
2
2
2
2
2
2
2
2
2
2
2
2
2
2
2
2
2
2
2
2
2
2
2
2
2
2
2
2
2
2
2
2
2
2
2
2
2
2
2
2
2
2
2
2
2
2
2
2
2
2
2
2
2
2
2
2
2
2
2
2
2
2
2
2
2
2
2
2
2
2
2
2
2
2
2
2
2
2
2
2
2
2
2
2
2
2
2
2
2
2
2
2
2
2
2
2
2
2
2
2
2
2
2
2
2
2
2
2
2
2
2
2
2
2
2
2
2
2
