*Vertices 300
*Edges
1 21
1 43
1 64
1 110
1 116
1 137
1 142
1 170
1 189
1 243
1 246
1 253
1 269
1 288
1 289
2 52
2 54
2 122
2 163
2 175
2 213
2 219
3 29
3 48
3 77
3 174
3 249
3 269
3 270
3 276
3 296
4 31
4 60
4 105
4 144
4 155
4 160
4 223
4 230
4 239
5 28
5 34
5 49
5 99
5 114
5 134
5 216
5 231
5 277
6 22
6 115
6 128
6 132
6 135
6 152
7 17
7 27
7 53
7 70
7 81
7 106
7 145
7 181
7 210
7 273
7 277
8 31
8 60
8 84
8 101
8 102
8 124
8 146
9 22
9 135
9 192
9 240
9 297
10 23
10 25
10 74
10 76
10 80
10 120
10 136
10 234
10 277
11 43
11 56
11 73
11 89
11 98
11 123
11 130
11 143
11 162
11 171
11 174
11 198
11 276
11 279
11 292
13 26
13 51
13 74
13 155
14 23
14 30
14 42
14 47
14 60
14 65
14 117
14 138
14 141
14 144
14 198
14 215
14 274
14 287
14 295
15 147
15 156
15 179
15 196
15 199
15 229
15 249
15 254
15 256
15 260
16 27
16 55
16 125
16 140
16 149
16 162
16 163
16 172
16 206
16 239
16 288
17 86
17 106
17 114
18 29
18 49
18 137
18 155
18 212
18 222
18 227
18 249
18 259
19 31
19 33
19 53
19 100
19 136
19 168
19 205
19 217
19 255
19 284
19 296
20 57
20 65
20 82
20 139
20 152
20 158
20 233
20 294
21 77
21 110
21 139
21 174
21 186
21 199
21 229
21 249
21 262
21 279
22 135
22 150
22 222
23 25
23 76
23 103
23 120
23 123
23 138
23 244
24 149
24 186
24 233
24 277
25 85
25 105
25 113
25 115
25 136
25 234
25 238
25 245
26 27
26 33
26 74
26 98
26 109
26 112
26 153
26 196
26 253
26 281
26 286
27 56
27 102
27 107
27 109
27 125
27 176
27 198
27 212
27 215
27 243
27 277
27 283
28 33
28 34
28 38
28 67
28 79
28 99
28 107
28 114
28 134
28 200
28 213
28 275
28 279
28 281
29 49
29 90
29 112
29 116
29 249
29 289
29 294
30 39
30 118
30 138
30 248
30 275
30 278
31 33
31 37
31 57
31 60
31 83
31 110
31 111
31 189
31 237
31 276
31 284
32 67
32 98
32 99
32 112
32 160
32 225
32 264
33 34
33 74
33 81
33 83
33 99
33 100
33 133
33 168
33 196
34 64
34 67
34 99
34 101
34 113
34 114
34 211
34 215
35 46
35 61
35 84
35 116
35 123
35 141
35 153
35 155
35 243
36 94
36 95
36 157
36 218
37 96
37 101
37 113
37 135
37 182
37 202
37 208
37 230
37 251
37 273
38 102
38 107
38 146
38 175
38 178
38 217
38 253
38 271
38 275
38 277
38 279
38 299
39 51
39 55
39 85
39 103
39 116
39 120
39 138
39 171
39 220
39 235
39 244
39 252
40 54
40 122
40 125
40 148
40 157
40 222
40 236
40 261
40 297
41 42
41 51
41 55
41 85
41 91
41 104
41 134
41 143
41 243
41 271
41 289
41 298
42 120
42 141
42 287
43 49
43 97
43 98
43 99
43 100
43 123
43 137
43 140
43 143
43 148
43 149
43 163
43 228
43 242
43 245
43 251
43 255
43 268
43 296
44 48
44 101
44 138
44 226
44 255
44 262
44 298
44 299
45 63
45 140
45 144
45 145
45 150
45 197
46 89
46 94
46 153
46 206
46 252
46 274
46 289
47 65
47 75
47 95
47 151
47 218
47 227
47 228
48 169
48 185
48 211
48 240
48 241
48 296
49 56
49 58
49 89
49 117
49 130
49 137
49 141
49 183
49 213
49 231
49 239
49 253
49 268
49 278
50 127
50 186
50 242
50 300
51 55
51 74
51 140
51 151
51 179
51 275
52 179
52 204
52 213
52 230
52 271
53 81
53 238
54 61
54 122
55 65
55 103
55 125
55 138
55 140
55 151
55 196
55 220
55 243
55 289
56 58
56 87
56 130
56 162
56 213
56 215
56 239
56 243
56 256
57 60
57 70
57 82
57 139
57 225
57 262
58 177
58 183
58 188
58 192
58 209
58 279
58 296
59 63
59 73
59 143
59 204
59 241
60 83
60 111
60 133
60 144
60 154
60 155
60 157
60 276
61 62
61 84
61 122
61 124
61 140
61 143
61 145
61 213
61 215
61 217
61 226
61 235
62 84
62 140
62 187
62 191
62 299
63 102
63 144
63 150
63 242
63 248
64 99
64 113
64 123
64 138
64 227
64 228
64 253
64 271
64 288
64 300
65 95
65 113
65 125
65 134
65 138
65 140
65 151
65 224
66 68
66 91
66 179
66 186
66 206
66 207
66 253
66 274
66 278
67 98
67 134
67 190
67 260
67 264
68 146
68 152
68 186
68 266
69 71
69 134
69 165
69 222
70 185
70 225
70 269
70 280
70 297
71 134
71 146
71 162
71 222
71 271
71 276
72 154
72 224
72 232
72 260
72 282
73 130
73 167
73 171
74 125
74 140
74 153
74 163
74 291
75 265
75 266
76 80
76 119
76 165
76 189
76 207
76 245
76 269
76 297
77 157
77 161
77 174
77 189
77 220
77 222
77 229
77 231
77 237
77 249
77 279
78 187
78 245
78 279
78 297
79 107
79 247
79 300
80 191
80 259
80 294
81 100
81 145
81 260
81 277
82 167
82 202
82 216
83 111
83 133
84 152
85 88
85 90
85 104
85 105
85 111
85 113
85 116
85 139
85 170
85 178
85 195
85 219
85 229
85 233
85 249
86 105
86 106
86 145
86 283
87 137
87 201
87 208
87 209
87 239
87 290
87 300
88 92
88 113
88 125
88 140
88 143
88 186
88 190
88 245
89 91
89 94
89 96
89 115
89 130
89 134
89 135
89 137
89 141
89 170
89 171
89 185
89 189
89 195
89 206
89 211
89 274
90 104
90 105
90 112
90 136
90 208
90 235
91 119
91 141
91 143
91 152
91 162
91 260
92 118
92 140
92 277
93 201
93 202
93 258
93 280
94 157
94 259
95 165
95 202
95 218
95 225
95 266
96 113
96 115
96 119
96 135
96 241
96 264
97 99
97 126
97 145
97 212
97 237
97 251
97 296
98 100
98 112
98 137
98 197
98 284
98 286
99 101
99 113
99 134
99 137
99 148
99 162
99 210
99 245
99 273
99 279
99 292
100 109
100 112
100 132
100 136
100 168
100 216
100 219
100 252
100 260
100 265
101 102
101 135
101 146
101 152
101 191
101 236
102 146
102 151
102 155
102 192
102 243
102 299
103 105
103 138
103 232
103 245
103 297
104 114
104 116
104 195
104 215
105 139
105 223
105 283
105 293
106 114
106 206
106 207
106 263
106 287
106 291
107 109
107 110
107 158
107 160
107 262
107 275
107 281
108 148
108 266
108 295
108 298
108 300
109 127
109 154
109 178
109 201
109 219
109 270
109 283
110 111
110 137
110 225
110 240
110 246
110 263
111 113
111 134
111 171
111 251
111 263
111 272
111 279
111 285
112 122
112 228
113 134
113 135
113 139
113 182
113 195
113 207
113 298
114 134
114 161
114 181
114 184
114 213
114 240
114 245
114 263
114 264
114 282
114 291
115 128
115 132
115 136
115 147
115 152
115 199
116 137
116 138
116 157
116 205
116 226
116 243
116 278
117 137
117 217
117 284
118 217
118 234
119 141
119 158
119 162
119 181
119 239
119 255
120 143
120 178
120 197
120 246
120 260
120 271
120 277
120 285
121 136
121 158
121 249
121 281
122 148
122 192
122 213
123 138
123 153
123 195
123 196
123 207
123 220
123 228
123 235
123 254
123 271
124 163
124 231
125 140
125 143
125 163
125 196
125 266
126 145
126 169
126 176
126 223
126 262
126 300
127 158
127 161
129 169
129 228
129 277
129 299
130 156
130 185
130 228
130 229
130 245
130 297
131 224
131 239
132 197
132 233
133 159
133 188
133 195
133 201
133 206
133 208
133 236
133 270
133 290
134 141
134 166
134 200
134 221
134 223
134 252
134 281
134 298
135 218
135 261
135 263
136 213
136 234
136 250
136 292
137 142
137 149
137 157
137 186
137 208
137 261
137 273
137 286
138 166
138 168
138 171
138 226
138 244
138 248
138 252
138 255
139 189
139 203
139 224
140 143
140 145
140 157
140 190
140 217
140 227
141 252
142 195
142 251
143 154
143 217
143 245
143 260
143 271
143 285
143 298
144 157
144 178
144 211
144 214
144 245
144 259
144 297
145 159
145 164
145 202
145 216
145 217
145 222
145 258
145 262
146 271
146 283
147 152
147 181
147 185
147 235
147 260
147 280
148 196
148 268
148 271
148 285
148 298
149 176
149 186
149 192
149 211
149 293
151 166
151 192
151 196
151 238
152 195
152 266
153 177
153 230
153 300
154 165
154 167
154 180
154 207
154 240
154 260
154 270
155 166
155 219
155 236
155 243
155 248
155 249
155 260
155 266
155 289
156 229
156 244
156 257
156 265
156 275
157 172
157 174
157 219
157 227
157 249
157 259
157 265
157 266
157 275
157 278
157 288
158 163
158 183
158 208
158 233
158 247
158 255
158 269
159 164
159 188
159 198
159 287
160 162
160 180
160 225
161 188
162 180
162 181
163 172
163 183
163 189
163 195
163 208
163 255
163 273
163 281
163 288
163 291
163 294
164 193
164 261
165 267
166 168
166 169
166 189
166 211
166 214
166 236
166 242
166 269
167 188
167 300
168 169
168 173
168 211
168 228
168 242
168 281
168 293
169 173
169 211
169 228
169 245
169 286
170 195
170 253
170 278
170 279
170 280
170 286
171 241
171 258
171 263
172 206
172 207
172 227
172 262
172 278
174 190
174 220
174 269
174 278
174 288
175 195
175 202
175 211
175 215
175 258
176 211
176 223
176 229
176 231
176 232
176 233
176 243
176 274
177 217
177 273
178 257
178 266
179 188
179 209
179 271
180 210
180 230
180 240
180 253
180 273
180 278
180 290
181 182
181 200
181 213
182 184
182 220
182 230
182 268
182 299
183 189
183 208
183 247
183 255
183 281
183 286
183 293
184 222
184 230
185 241
186 199
186 293
188 203
188 206
188 207
188 209
188 215
188 226
188 252
188 265
188 291
189 195
189 208
189 225
189 255
189 269
189 281
190 247
190 253
190 259
190 278
191 209
191 245
191 276
192 196
193 244
193 260
193 261
193 288
194 203
194 277
194 283
194 293
195 208
195 215
195 281
196 238
196 255
197 216
197 222
197 233
198 208
198 287
198 289
201 202
201 240
201 253
201 278
201 290
202 208
202 211
202 223
202 231
202 257
203 236
203 251
203 291
204 229
204 249
205 263
205 297
206 207
206 209
206 215
206 252
207 220
207 252
207 260
207 270
208 210
208 238
208 249
208 270
208 273
208 286
209 300
210 221
210 223
210 234
210 257
210 271
210 273
211 220
211 231
211 257
213 226
214 228
215 220
215 235
215 251
215 275
215 285
216 222
216 230
216 254
217 284
219 227
219 229
219 233
219 249
219 260
219 263
219 266
220 231
220 251
220 285
220 296
220 299
221 240
223 233
223 243
223 257
223 265
223 276
224 238
224 282
225 226
225 250
225 281
226 252
226 265
226 298
228 230
228 240
228 245
228 253
228 276
228 286
228 293
229 243
229 249
229 257
229 275
230 240
230 254
230 268
231 296
232 244
232 274
233 247
233 257
233 269
234 238
235 285
236 249
236 251
236 266
236 289
237 243
237 263
237 264
238 270
240 273
240 286
240 290
242 275
242 280
242 281
242 293
243 260
244 257
244 260
245 294
245 297
246 275
246 285
248 249
248 266
248 275
248 289
248 295
249 258
249 260
249 263
249 294
249 296
251 256
251 271
251 275
251 285
252 265
253 269
253 271
253 276
253 278
253 283
253 286
253 290
253 293
255 261
255 273
255 294
256 263
256 285
256 292
257 265
257 275
258 263
258 291
259 266
259 278
260 288
260 289
261 297
262 298
263 264
263 297
266 288
266 295
269 293
270 276
271 273
271 278
271 285
271 288
273 285
273 291
275 278
275 285
275 295
276 286
279 280
281 286
281 288
283 293
286 293
288 294
289 299
294 296
*Classes
1
1
1
1
1
1
1
1
1
1
1
1
1
1
1
1
1
1
1
1
1
1
1
1
1
1
1
1
1
1
1
1
1
1
1
1
1
1
1
1
1
1
1
1
1
1
1
1
1
1
1
1
1
1
1
1
1
1
1
1
1
1
1
1
1
1
1
1
1
1
1
1
1
1
1
1
1
1
1
1
1
1
1
1
1
1
1
1
1
1
1
1
1
1
1
1
1
1
1
1
1
1
1
1
1
1
1
1
1
1
1
1
1
1
1
1
1
1
1
1
1
1
1
1
1
1
1
1
1
1
1
1
1
1
1
1
1
1
1
1
1
1
1
1
1
1
1
1
1
1
2
2
2
2
2
2
2
2
2
2
2
2
2
2
2
2
2
2
2
2
2
2
2
2
2
2
2
2
2
2
2
2
2
2
2
2
2
2
2
2
2
2
2
2
2
2
2
2
2
2
2
2
2
2
2
2
2
2
2
2
2
2
2
2
2
2
2
2
2
2
2
2
2
2
2
2
2
2
2
2
2
2
2
2
2
2
2
2
2
2
2
2
2
2
2
2
2
2
2
2
2
2
2
2
2
2
2
2
2
2
2
2
2
2
2
2
2
2
2
2
2
2
2
2
2
2
2
2
2
2
2
2
2
2
2
2
2
2
2
2
2
2
2
2
2
2
2
2
2
2
