*Vertices 300
*Edges
1 61
1 99
1 152
1 158
1 218
1 246
1 261
2 16
2 39
2 60
2 61
2 83
2 84
2 93
2 112
2 151
2 171
2 201
2 227
2 234
2 274
3 31
3 169
3 175
3 181
3 235
3 286
3 297
4 57
4 61
4 121
4 158
5 9
5 24
5 75
5 90
5 168
5 170
5 223
5 272
5 292
5 298
6 9
6 15
6 73
6 105
6 179
6 215
6 272
6 282
7 41
7 50
7 60
7 88
7 97
7 103
7 143
7 203
8 24
8 111
8 220
9 24
9 34
9 51
9 95
9 112
9 115
9 132
9 135
9 145
9 146
9 150
9 179
9 203
9 257
10 33
10 34
10 68
10 79
10 83
10 84
10 96
10 108
10 143
10 162
10 177
10 200
10 220
10 291
11 67
11 99
11 128
11 210
12 121
12 133
12 141
12 144
12 158
12 174
12 184
12 198
12 212
12 254
13 44
13 86
13 90
13 110
13 135
13 138
13 182
13 228
13 236
13 238
13 249
13 272
14 21
14 46
14 55
14 107
14 123
14 128
14 143
14 168
15 66
15 95
15 112
15 126
15 128
15 129
15 157
15 160
15 185
15 253
16 46
16 93
16 94
16 105
16 125
16 157
16 160
16 163
16 182
16 191
16 210
16 263
16 274
16 282
16 289
17 20
17 29
17 47
17 109
17 110
17 158
17 200
17 213
17 245
17 260
17 271
18 96
18 151
19 89
19 152
19 249
20 23
20 28
20 29
20 30
20 64
20 72
20 76
20 102
20 120
20 130
20 160
20 189
21 39
21 78
21 107
21 148
21 172
21 194
22 111
22 247
22 252
23 29
23 98
23 170
23 184
23 225
23 292
23 300
24 39
24 85
24 88
24 168
24 185
24 220
24 286
25 52
25 101
25 110
25 123
25 145
25 155
25 164
25 248
26 73
26 125
26 152
26 156
26 180
26 188
26 295
26 297
27 40
27 60
27 79
27 136
27 139
27 140
27 229
27 256
27 291
27 294
28 72
28 91
28 145
28 216
28 231
29 43
29 109
29 110
29 158
29 183
29 241
29 262
29 270
30 85
30 107
30 118
30 126
30 160
30 170
30 191
31 48
31 176
31 286
32 77
32 78
32 83
32 129
32 132
32 153
32 207
32 220
32 255
32 258
32 264
33 34
33 41
33 50
33 51
33 68
33 76
33 79
33 94
33 96
33 112
33 116
33 118
33 139
33 143
33 151
33 194
33 203
33 250
33 270
33 291
34 57
34 58
34 76
34 104
34 121
34 123
34 133
34 135
34 231
34 240
34 299
35 79
35 99
35 131
35 255
35 263
35 282
36 51
36 75
36 105
36 118
36 134
36 148
36 150
36 159
36 211
36 252
36 257
37 45
37 92
37 216
38 88
38 98
38 147
38 151
38 175
38 202
38 203
38 249
39 43
39 61
39 89
39 104
39 131
39 134
39 260
39 296
40 140
40 167
40 194
40 204
40 263
40 270
40 296
41 60
41 64
41 70
41 71
41 95
41 103
41 127
41 156
41 175
41 188
41 193
41 199
41 203
41 250
42 49
42 69
42 113
42 116
42 173
42 186
42 187
42 192
42 202
42 274
43 66
43 103
43 134
43 158
43 203
43 253
44 61
44 86
44 97
44 137
44 170
44 182
44 187
44 200
44 202
44 230
44 239
44 260
44 263
45 92
45 108
45 146
45 152
45 156
45 188
45 216
45 235
45 292
46 55
46 62
46 75
46 96
46 128
46 136
46 184
46 188
46 210
46 215
46 216
46 244
46 268
47 61
47 65
47 102
47 105
47 112
47 131
47 150
47 189
47 201
47 215
47 245
48 52
48 71
48 82
48 131
48 141
48 145
48 158
48 186
48 198
48 205
48 221
48 255
49 82
49 145
49 151
49 178
49 194
49 209
49 231
49 251
49 275
50 75
50 108
50 110
50 143
50 165
50 166
50 202
50 209
50 253
50 272
50 291
50 295
51 73
51 152
51 257
51 277
51 291
52 71
52 145
52 195
52 203
52 205
52 214
52 233
52 234
52 264
53 136
53 168
53 172
53 206
53 230
53 259
54 56
54 200
54 229
54 232
54 255
54 264
55 123
55 141
55 240
55 261
55 298
56 126
56 139
56 150
56 231
56 248
56 273
56 286
57 104
57 124
57 135
57 141
57 197
58 133
58 142
58 178
58 197
58 199
58 201
58 212
58 225
58 238
58 265
58 266
59 162
59 168
59 244
60 62
60 64
60 91
60 106
60 111
60 115
60 136
60 139
60 151
60 171
60 182
60 218
60 294
61 85
61 88
61 99
61 112
61 135
61 201
61 202
61 215
61 222
62 65
62 77
62 91
62 106
62 128
62 135
62 141
62 144
62 150
62 160
62 233
62 236
63 70
63 99
63 140
63 187
63 206
63 223
63 237
63 288
63 292
63 300
64 93
64 120
64 160
64 274
65 73
65 95
65 127
65 150
65 272
65 279
65 291
65 300
66 112
66 157
66 171
66 197
66 253
67 102
67 120
67 128
67 186
67 230
67 247
67 277
68 97
68 115
68 142
68 164
68 176
68 200
68 220
68 228
68 254
69 165
69 169
69 186
69 246
69 274
69 283
70 73
70 79
70 91
70 106
70 125
70 127
70 130
70 200
70 205
70 213
70 227
70 273
70 275
70 295
71 123
71 127
71 250
71 264
72 76
72 84
72 91
72 185
72 235
72 250
72 253
72 296
73 74
73 75
73 93
73 135
73 152
73 157
73 160
73 176
73 179
73 188
73 205
73 283
73 294
74 75
74 173
74 269
74 297
75 101
75 128
75 130
75 156
75 176
75 201
75 235
75 267
75 283
76 113
76 120
76 168
76 190
76 234
76 235
76 239
76 300
77 91
77 114
77 192
77 289
78 114
78 127
78 132
78 186
78 257
79 91
79 130
79 143
79 158
79 203
79 227
79 229
79 231
79 258
79 267
80 253
80 286
81 223
81 228
81 242
81 245
81 285
82 121
82 131
82 158
82 167
82 182
82 211
82 216
82 221
82 231
82 245
82 255
82 263
83 84
83 162
83 260
83 280
84 157
84 160
84 185
84 220
85 88
85 92
85 94
85 191
85 220
85 230
85 286
85 292
86 110
86 209
86 236
87 105
87 124
87 135
87 158
87 180
87 189
87 229
87 242
87 247
87 258
87 267
87 279
88 97
88 102
88 120
88 142
88 210
88 239
88 242
88 257
88 282
89 105
89 185
89 202
89 216
89 249
90 138
90 155
90 179
90 200
90 208
90 215
90 223
90 229
90 268
91 144
91 269
91 289
92 151
92 177
92 277
92 292
93 150
93 160
93 193
93 220
93 241
94 191
94 192
94 196
94 224
95 107
95 112
95 129
95 199
95 203
95 241
96 111
96 143
96 147
96 160
96 179
96 199
96 220
96 264
97 101
97 107
97 148
97 183
97 254
97 263
98 182
98 184
98 231
99 164
99 174
99 202
99 258
99 288
100 170
100 272
100 276
100 291
101 102
101 110
101 120
101 141
101 142
101 235
101 248
101 250
101 254
102 120
102 228
102 230
102 247
102 277
102 280
103 111
103 138
103 145
103 175
103 203
103 228
103 229
103 233
103 264
103 266
103 288
104 112
104 123
104 190
104 211
104 227
104 260
104 296
104 299
105 215
105 219
105 249
105 258
105 282
105 287
106 115
106 128
106 151
106 213
106 279
106 280
107 131
107 148
107 149
107 172
107 194
108 146
108 153
108 204
108 209
108 210
108 264
108 269
108 295
109 152
109 224
109 279
110 112
110 131
110 158
110 209
110 238
110 245
110 258
110 272
111 118
111 147
111 247
111 249
111 283
112 171
112 189
112 203
112 239
112 240
112 278
112 299
113 173
113 239
113 250
113 289
113 299
114 117
114 119
114 120
114 167
114 171
114 191
114 211
114 251
114 255
114 259
114 271
114 276
115 146
115 173
115 228
115 295
116 153
116 166
116 204
116 226
116 274
117 119
117 136
117 259
118 126
118 147
118 193
118 241
118 270
118 280
119 120
119 133
119 157
119 192
119 208
119 227
119 276
119 281
120 133
120 142
120 153
120 157
120 178
120 193
120 210
120 239
120 254
121 158
121 162
121 184
121 201
121 212
121 213
121 227
121 273
122 204
122 219
122 223
123 164
123 174
124 135
124 137
125 273
126 156
126 170
127 140
127 150
127 233
127 295
128 129
128 215
128 220
128 236
128 264
128 281
129 182
129 220
129 231
129 275
130 155
130 185
130 201
130 222
130 267
130 276
131 141
131 149
131 190
131 245
131 260
131 282
132 186
132 208
132 240
132 247
132 257
132 264
133 141
133 154
133 240
134 148
134 252
135 144
135 157
135 188
135 236
136 194
136 206
136 210
136 287
137 170
137 250
137 258
138 182
138 228
138 229
139 150
139 181
139 198
139 231
139 266
139 291
140 164
140 167
140 187
141 144
141 150
141 186
141 198
141 231
141 254
141 261
142 178
142 189
142 253
143 160
143 165
143 168
143 203
144 150
145 158
145 203
145 206
145 216
145 229
145 264
145 275
146 147
146 198
146 199
146 249
146 284
146 290
146 292
147 198
147 247
147 249
147 259
147 273
147 275
147 284
149 172
150 153
150 203
150 231
150 233
150 266
150 279
150 300
151 194
151 235
151 250
151 274
151 275
151 277
152 172
152 193
152 203
152 224
152 229
153 204
153 239
153 279
154 243
155 156
155 164
155 171
155 184
155 187
155 200
155 204
155 232
155 256
155 259
155 260
155 276
156 172
156 180
156 188
156 235
156 241
156 249
156 259
156 284
157 160
157 169
157 172
157 185
157 266
157 281
157 299
158 165
158 169
158 184
158 211
158 212
158 216
158 223
158 227
158 249
158 273
159 199
159 273
161 219
161 230
161 263
161 268
161 277
162 168
162 192
162 196
162 208
162 210
162 232
163 193
163 241
163 282
164 176
164 187
165 169
165 186
165 241
165 284
166 204
167 171
167 187
167 271
167 278
167 279
167 291
168 241
168 284
168 300
169 255
169 262
170 180
170 263
170 276
171 187
171 191
171 271
171 293
172 186
172 224
172 259
172 266
172 279
173 280
174 184
174 188
174 193
174 196
174 201
174 205
174 254
174 258
175 193
175 203
175 235
175 250
175 291
175 297
176 205
176 207
177 287
178 194
178 213
178 223
178 234
178 236
178 296
179 200
179 201
179 215
179 285
180 189
181 198
181 297
182 191
182 198
182 209
182 218
182 231
182 233
182 264
182 273
182 280
182 286
183 262
184 204
184 215
184 297
185 222
185 267
185 281
185 299
186 224
187 199
187 202
187 273
187 280
188 251
189 196
189 253
189 271
190 234
190 300
191 286
191 292
192 196
192 202
192 208
192 253
192 266
193 196
193 203
193 241
193 255
193 295
194 296
196 256
196 258
197 261
197 265
197 284
198 218
198 282
199 203
199 207
199 266
199 273
200 213
200 239
200 260
200 264
200 271
200 273
201 202
201 205
201 212
201 221
201 238
201 241
201 263
201 291
202 239
202 249
202 253
202 300
203 229
203 240
204 219
204 233
204 256
204 264
204 274
206 282
207 229
207 231
207 242
207 246
207 253
207 258
207 273
208 232
208 268
208 283
208 298
209 223
209 231
210 232
210 246
210 261
211 227
211 255
211 262
212 225
212 241
212 273
213 238
213 273
213 279
213 296
215 216
215 261
216 249
217 227
217 235
217 273
218 280
218 293
218 300
219 249
219 268
219 287
220 241
221 276
223 228
223 272
223 287
223 292
224 229
224 279
225 292
227 235
227 258
227 273
227 289
227 299
228 287
229 242
230 268
230 292
231 245
231 248
231 273
231 286
232 255
233 241
233 264
235 250
235 284
236 272
237 257
238 245
238 293
238 296
239 260
239 299
240 243
240 247
240 298
241 255
241 263
241 264
241 284
241 291
242 245
242 267
243 245
243 252
243 255
244 284
245 279
245 282
245 286
246 261
246 273
246 296
247 270
247 279
247 283
249 259
249 273
250 258
250 291
251 254
252 255
253 286
255 256
255 262
255 295
257 263
257 277
257 294
259 284
260 271
261 284
263 282
263 294
263 296
264 271
265 296
268 269
268 298
269 297
270 279
272 291
272 298
274 277
280 293
281 283
283 298
287 288
289 299
294 296
*Classes
1
1
1
1
1
1
1
1
1
1
1
1
1
1
1
1
1
1
1
1
1
1
1
1
1
1
1
1
1
1
1
1
1
1
1
1
1
1
1
1
1
1
1
1
1
1
1
1
1
1
1
1
1
1
1
1
1
1
1
1
1
1
1
1
1
1
1
1
1
1
1
1
1
1
1
1
1
1
1
1
1
1
1
1
1
1
1
1
1
1
1
1
1
1
1
1
1
1
1
1
1
1
1
1
1
1
1
1
1
1
1
1
1
1
1
1
1
1
1
1
1
1
1
1
1
1
1
1
1
1
1
1
1
1
1
1
1
1
1
1
1
1
1
1
1
1
1
1
1
1
2
2
2
2
2
2
2
2
2
2
2
2
2
2
2
2
2
2
2
2
2
2
2
2
2
2
2
2
2
2
2
2
2
2
2
2
2
2
2
2
2
2
2
2
2
2
2
2
2
2
2
2
2
2
2
2
2
2
2
2
2
2
2
2
2
2
2
2
2
2
2
2
2
2
2
2
2
2
2
2
2
2
2
2
2
2
2
2
2
2
2
2
2
2
2
2
2
2
2
2
2
2
2
2
2
2
2
2
2
2
2
2
2
2
2
2
2
2
2
2
2
2
2
2
2
2
2
2
2
2
2
2
2
2
2
2
2
2
2
2
2
2
2
2
2
2
2
2
2
2
