*Vertices 300
*Edges
1 37
1 181
1 186
1 215
1 238
1 265
1 269
1 283
1 287
1 296
2 4
2 5
2 34
2 35
2 40
2 88
2 90
2 106
2 112
2 124
2 128
2 164
2 175
2 180
2 192
2 248
2 286
3 21
3 56
3 78
3 119
3 140
3 142
3 147
3 180
3 204
4 215
4 248
4 265
5 36
5 37
5 55
5 56
5 71
5 88
5 109
5 113
5 141
5 168
5 255
5 283
6 11
6 15
6 181
6 260
6 292
7 153
7 168
7 212
7 219
7 272
7 282
7 289
8 16
8 19
8 35
8 39
8 51
8 61
8 88
8 94
8 103
8 160
8 174
8 177
8 190
8 191
8 234
8 249
8 282
9 10
9 14
9 19
9 25
9 30
9 82
9 91
9 118
9 121
9 131
9 134
9 143
9 146
9 158
9 185
9 224
9 279
9 288
10 12
10 19
10 61
10 79
10 85
10 114
10 138
10 163
10 257
10 279
10 289
10 299
11 15
11 131
11 171
11 228
12 19
12 177
12 243
13 23
13 39
13 55
13 59
13 60
13 89
13 93
13 98
13 126
13 129
13 141
13 156
13 166
13 289
14 25
14 37
14 44
14 72
14 89
14 214
14 262
15 90
15 115
15 139
15 143
15 181
15 238
16 103
16 138
16 151
16 170
16 179
16 198
16 217
16 227
16 234
16 235
16 239
17 47
17 129
17 150
17 230
18 300
19 74
19 87
19 90
19 134
19 150
19 158
19 160
19 171
19 207
20 28
20 81
20 108
20 165
20 175
20 205
20 219
20 235
20 247
20 271
21 80
21 91
21 94
21 101
21 103
21 106
21 111
21 151
21 153
21 155
21 177
21 180
21 182
21 207
21 231
21 236
21 250
22 55
22 98
22 107
22 113
22 132
22 133
22 239
23 34
23 77
23 93
23 106
23 139
23 166
23 170
23 187
23 201
23 212
23 270
23 282
24 45
24 108
24 154
24 179
24 233
24 237
24 283
25 44
25 89
25 134
25 143
25 184
25 185
26 37
26 83
26 96
26 109
26 184
26 210
26 224
26 259
26 265
27 138
27 210
27 256
27 285
28 35
28 49
28 69
28 101
28 126
28 130
28 141
28 165
28 175
28 179
28 226
28 276
29 31
29 106
29 121
29 131
29 166
30 64
30 78
30 86
30 118
30 119
30 126
30 134
30 173
30 251
30 288
31 82
31 118
31 131
31 151
31 166
31 173
31 178
31 189
31 206
31 234
32 133
32 194
32 219
33 195
33 251
33 280
34 53
34 71
34 73
34 83
34 98
34 106
34 127
34 131
34 148
34 149
34 194
34 224
34 259
34 285
35 48
35 49
35 69
35 91
35 94
35 99
35 101
35 103
35 112
35 144
35 175
35 191
35 228
35 230
35 232
36 41
36 55
36 113
36 146
36 153
36 186
36 200
36 226
36 294
37 44
37 71
37 88
37 94
37 113
37 117
37 165
37 208
37 260
37 265
37 277
37 287
37 291
37 300
38 73
38 76
38 78
38 117
38 127
38 140
38 170
38 179
38 183
38 227
38 263
38 266
38 289
39 59
39 61
39 96
39 159
39 185
39 229
39 240
39 247
39 259
39 282
39 287
40 140
40 165
40 207
40 215
40 248
41 43
41 53
41 62
41 80
41 81
41 97
41 106
41 134
41 146
41 194
41 223
41 235
42 75
42 169
42 176
42 233
42 271
43 184
43 276
44 78
44 80
44 101
44 105
44 135
44 142
44 174
44 205
44 206
44 216
44 230
44 244
44 278
44 284
44 285
44 287
44 292
45 53
45 60
45 98
45 108
45 123
45 124
45 137
45 139
45 174
45 213
45 222
45 225
45 258
46 77
46 122
46 181
46 188
46 204
46 240
47 179
47 227
47 237
48 84
48 92
48 137
48 154
49 53
49 77
49 158
49 181
49 192
49 209
49 211
49 213
50 72
50 87
50 124
50 215
50 233
50 254
50 256
50 276
50 286
50 299
51 61
51 88
51 110
51 155
51 160
51 203
51 243
52 110
52 133
52 137
52 154
52 212
52 267
52 273
52 294
52 295
53 81
53 124
53 198
53 209
53 213
53 225
53 238
53 279
53 290
53 296
54 76
54 128
54 261
54 262
54 276
55 56
55 74
55 89
55 90
55 98
55 107
55 129
55 140
55 141
55 146
55 156
55 218
55 232
55 290
56 62
56 71
56 109
56 110
56 140
56 147
56 173
56 176
56 204
56 245
56 281
57 73
57 145
57 155
58 100
58 125
58 173
58 201
58 228
58 281
59 113
59 247
59 259
60 68
60 100
60 126
60 281
60 291
61 96
61 114
61 138
61 157
61 185
61 190
61 194
61 198
61 249
61 254
61 259
61 268
61 283
61 296
62 84
62 92
62 116
62 134
62 173
62 181
62 190
62 221
62 224
62 225
62 274
62 291
63 146
63 147
63 193
63 220
63 236
64 81
64 163
64 195
64 288
65 153
65 194
65 214
65 231
65 266
65 280
66 67
66 99
66 126
66 159
66 174
66 295
66 297
67 92
67 126
67 161
67 175
67 232
67 246
67 266
67 291
68 89
68 106
68 143
68 233
68 249
68 276
68 291
68 298
69 72
69 77
69 112
69 181
69 193
69 196
69 258
70 72
70 77
70 110
70 120
70 149
70 154
70 261
71 143
71 145
71 173
71 215
71 224
71 235
71 246
71 263
72 77
72 87
72 108
72 110
72 154
72 184
72 254
72 265
72 286
73 81
73 106
73 127
73 145
73 166
73 172
73 183
73 192
73 255
73 266
74 90
74 118
74 150
74 171
74 230
74 249
74 276
75 140
75 145
75 161
75 166
75 168
75 176
75 223
75 242
76 157
76 253
77 87
77 107
77 109
77 158
77 181
77 188
77 192
77 201
77 265
78 95
78 117
78 119
78 126
78 132
78 173
78 174
78 185
78 206
78 228
78 284
79 129
79 157
79 163
80 81
80 90
80 98
80 99
80 106
80 114
80 131
80 142
80 207
80 228
80 237
80 266
81 99
81 105
81 106
81 108
81 114
81 124
81 127
81 134
81 139
81 195
81 238
81 244
81 250
81 293
82 118
82 166
82 213
82 263
82 296
83 154
83 180
83 213
83 235
83 239
83 259
83 262
83 297
84 92
84 96
84 118
84 137
84 187
84 209
84 264
84 274
85 114
85 116
85 238
85 242
85 275
86 279
86 288
87 128
87 132
87 150
87 184
87 239
87 240
87 242
87 249
87 276
87 283
88 168
88 174
88 192
88 221
88 286
88 295
88 297
89 98
89 140
89 145
89 146
89 172
89 189
89 201
89 206
89 209
89 228
89 262
90 106
90 139
90 152
90 196
90 207
90 213
90 242
90 276
91 101
91 102
91 131
91 143
91 144
91 175
91 228
91 231
92 96
92 116
92 118
92 134
92 137
92 177
92 181
92 211
92 226
92 246
92 256
93 116
93 121
93 133
93 139
93 148
93 166
93 225
93 289
94 101
94 103
94 151
94 191
94 236
94 243
95 173
96 111
96 153
96 180
96 184
96 201
96 224
96 259
96 297
97 171
97 194
97 203
97 267
98 99
98 107
98 130
98 137
98 148
98 149
98 168
98 253
98 258
98 259
99 144
99 174
99 232
99 238
99 266
100 102
100 125
100 142
100 143
100 158
100 163
100 177
100 208
100 258
100 291
101 111
101 142
101 155
101 228
101 287
102 143
102 144
102 180
102 216
102 258
102 265
102 300
103 151
103 236
104 162
104 163
104 250
104 252
104 278
104 289
105 144
105 199
105 216
105 292
105 293
105 300
106 108
106 114
106 142
106 187
106 207
106 237
106 281
106 285
107 118
107 141
107 150
107 171
107 201
108 116
108 124
108 126
108 139
108 141
108 148
108 168
108 175
108 224
108 253
108 286
109 166
109 184
109 187
109 192
109 218
109 246
109 257
109 262
109 265
109 279
109 290
110 136
110 147
110 155
110 165
110 203
110 216
110 267
111 153
111 182
111 229
112 124
112 128
112 149
112 151
112 162
112 191
112 207
112 216
112 224
112 250
113 254
113 275
113 284
114 116
114 138
114 171
114 194
114 201
114 232
114 234
114 242
114 264
114 266
114 267
114 279
115 143
115 208
115 249
116 120
116 139
116 202
116 224
116 226
116 238
117 165
117 185
118 146
118 236
118 246
118 249
118 283
119 132
119 169
119 184
119 202
119 294
120 139
120 149
120 154
120 180
120 192
120 263
121 130
121 140
121 148
121 161
121 164
121 179
121 223
121 254
121 286
121 288
122 205
122 206
122 232
122 244
122 266
122 269
122 271
123 203
124 127
124 222
124 223
124 240
124 254
124 256
125 158
125 163
125 177
125 284
125 296
126 175
126 216
126 219
126 224
126 228
126 287
127 140
127 158
127 199
127 201
127 223
127 240
127 244
127 250
128 149
128 210
128 217
128 276
128 277
129 212
129 213
129 214
129 266
129 271
129 273
129 289
130 148
130 153
130 179
130 199
130 200
130 230
130 234
130 235
130 242
131 142
131 189
131 194
131 206
131 223
131 228
132 169
132 179
132 187
132 276
132 294
133 136
133 137
133 184
133 237
133 248
133 282
133 294
134 194
134 271
135 142
135 177
135 183
135 205
135 226
136 165
136 166
136 178
136 222
136 241
137 148
137 258
137 274
137 282
138 198
138 257
139 152
139 226
139 237
139 260
140 145
140 179
140 196
140 248
140 262
140 266
140 275
140 287
141 169
141 183
141 237
141 300
142 156
142 158
142 177
142 210
142 250
142 291
143 172
143 216
143 249
143 263
143 283
143 290
143 292
143 298
144 154
144 175
144 179
144 186
144 196
144 199
144 231
144 237
144 255
144 296
144 300
145 179
145 192
145 224
145 235
145 263
145 275
146 212
146 218
146 236
146 292
146 295
147 163
147 191
147 230
147 245
148 153
148 168
148 179
148 234
148 254
148 275
148 286
149 170
149 245
150 158
150 230
151 166
151 234
151 236
152 163
152 173
152 181
152 237
152 252
153 184
153 200
153 201
153 229
153 231
153 282
154 169
154 237
155 180
155 192
155 198
155 205
155 265
156 187
156 202
156 258
156 290
156 295
156 297
157 163
157 173
158 207
158 263
159 199
159 200
159 233
159 247
160 173
160 236
160 271
161 168
161 192
161 232
161 268
162 206
162 239
162 289
163 173
163 181
163 209
163 212
163 245
163 252
163 285
164 175
164 181
164 182
164 186
164 273
165 175
165 207
165 213
165 214
165 248
165 259
165 263
166 178
166 179
166 222
166 223
166 259
166 265
166 269
166 287
167 179
167 210
167 233
167 276
168 173
168 212
168 227
168 282
169 179
169 183
169 237
169 238
169 294
170 179
171 228
171 230
171 264
171 266
172 183
172 194
172 229
172 262
173 207
173 212
173 245
173 252
173 271
173 281
174 207
174 238
174 244
174 248
174 256
175 186
175 192
175 196
175 205
175 228
175 255
175 263
176 233
177 213
177 226
177 250
177 256
177 282
178 234
179 196
179 208
179 222
179 227
179 231
179 237
179 239
179 276
179 282
179 296
179 300
180 192
180 207
180 239
180 263
180 272
180 275
180 279
180 281
180 284
180 291
181 182
181 285
183 194
183 229
183 255
183 267
183 272
184 201
184 203
184 210
184 246
184 248
185 206
185 239
186 215
186 226
186 256
186 263
186 264
187 202
187 259
187 262
187 271
188 258
188 261
188 277
189 194
189 209
189 238
189 243
189 252
190 195
190 221
190 286
191 207
192 279
193 196
193 203
193 220
193 267
193 271
193 286
193 287
194 223
194 228
194 235
196 220
196 233
196 250
196 263
196 276
196 282
196 287
197 278
198 213
198 226
198 268
198 296
198 300
199 217
199 230
199 233
199 253
199 274
199 285
199 286
199 300
200 201
200 216
200 224
200 265
200 272
201 228
201 234
203 233
203 267
204 214
204 240
204 273
204 300
205 265
206 212
206 239
206 271
206 284
206 286
207 238
207 244
207 248
207 256
207 263
207 281
208 222
208 275
208 291
209 243
209 246
209 249
209 252
209 264
209 272
209 274
209 275
209 290
210 270
211 256
212 271
212 282
212 286
212 287
212 295
213 214
213 226
213 248
213 259
214 226
214 251
214 266
214 276
214 300
215 243
215 248
215 296
215 299
216 224
216 230
216 285
217 230
218 247
218 257
219 226
219 256
219 263
219 289
221 271
221 273
221 286
221 291
222 243
222 259
222 271
223 241
223 250
223 265
223 282
224 265
224 279
225 258
225 260
225 277
226 234
226 256
226 294
226 296
226 300
227 237
228 230
229 240
229 287
230 253
231 257
232 266
232 268
233 243
233 256
233 276
234 235
234 237
234 246
234 282
234 296
235 246
235 271
235 286
237 238
237 247
237 282
237 287
239 284
239 296
240 254
240 287
241 267
241 282
241 294
242 259
243 248
243 259
244 253
244 258
244 269
244 277
244 294
246 252
246 257
246 290
247 282
249 283
249 290
249 292
250 276
252 254
252 275
252 290
252 291
253 258
253 277
253 286
254 268
254 275
254 287
255 272
257 280
258 261
258 277
258 286
258 297
259 271
260 277
263 289
264 266
264 272
265 269
265 272
265 287
266 268
269 278
269 285
269 294
270 298
271 286
272 281
273 295
275 291
276 281
276 291
276 298
276 300
278 285
278 300
279 290
282 287
282 294
282 296
284 291
285 300
286 288
295 297
296 300
*Classes
1
1
1
1
1
1
1
1
1
1
1
1
1
1
1
1
1
1
1
1
1
1
1
1
1
1
1
1
1
1
1
1
1
1
1
1
1
1
1
1
1
1
1
1
1
1
1
1
1
1
1
1
1
1
1
1
1
1
1
1
1
1
1
1
1
1
1
1
1
1
1
1
1
1
1
1
1
1
1
1
1
1
1
1
1
1
1
1
1
1
1
1
1
1
1
1
1
1
1
1
1
1
1
1
1
1
1
1
1
1
1
1
1
1
1
1
1
1
1
1
1
1
1
1
1
1
1
1
1
1
1
1
1
1
1
1
1
1
1
1
1
1
1
1
1
1
1
1
1
1
2
2
2
2
2
2
2
2
2
2
2
2
2
2
2
2
2
2
2
2
2
2
2
2
2
2
2
2
2
2
2
2
2
2
2
2
2
2
2
2
2
2
2
2
2
2
2
2
2
2
2
2
2
2
2
2
2
2
2
2
2
2
2
2
2
2
2
2
2
2
2
2
2
2
2
2
2
2
2
2
2
2
2
2
2
2
2
2
2
2
2
2
2
2
2
2
2
2
2
2
2
2
2
2
2
2
2
2
2
2
2
2
2
2
2
2
2
2
2
2
2
2
2
2
2
2
2
2
2
2
2
2
2
2
2
2
2
2
2
2
2
2
2
2
2
2
2
2
2
2
