*Vertices 300
*Edges
1 12
1 13
1 14
1 22
1 42
1 53
1 176
1 236
1 288
2 20
2 29
2 63
2 70
2 74
2 85
2 100
2 125
2 162
2 201
2 207
2 258
3 20
3 25
3 30
3 34
3 77
3 147
3 156
3 218
3 229
3 246
3 273
3 280
3 289
4 14
4 34
4 63
4 72
4 77
4 104
4 114
4 138
4 298
5 35
5 96
5 103
5 120
5 137
5 149
5 161
5 172
5 283
6 14
6 16
6 34
6 95
6 209
6 229
6 248
6 297
7 43
7 55
7 92
7 122
7 151
8 75
8 84
8 90
8 131
8 132
8 197
8 230
8 256
8 275
9 37
9 54
9 79
9 97
9 112
9 194
9 245
9 267
9 281
10 69
10 72
10 84
10 91
10 120
10 131
10 132
10 169
10 182
11 22
11 34
11 57
11 77
11 83
11 85
11 127
11 144
11 161
11 179
11 211
11 270
12 42
12 81
12 111
12 115
12 121
12 135
12 143
12 144
12 275
13 22
13 131
13 136
14 53
14 63
14 72
14 86
14 133
14 229
14 239
14 288
15 38
15 142
15 175
15 253
16 45
16 145
16 164
16 182
16 218
16 222
16 239
16 248
17 53
17 128
17 132
17 141
17 244
17 294
18 75
18 92
18 99
18 122
18 123
18 125
18 237
19 103
19 138
19 209
19 212
19 228
19 283
20 29
20 51
20 61
20 72
20 77
20 98
20 123
20 141
20 147
20 160
20 165
20 192
20 229
20 254
21 73
21 80
21 85
21 89
21 113
21 137
21 140
21 144
21 154
21 185
22 34
22 56
22 72
22 101
22 138
22 229
23 62
23 70
23 141
23 164
23 185
23 236
24 43
24 45
24 60
24 63
24 109
24 111
24 295
25 156
25 175
25 266
26 49
26 53
26 70
26 183
26 185
27 150
27 152
27 211
27 259
28 33
28 35
28 60
28 95
28 107
28 138
28 140
28 183
28 189
28 206
28 220
28 243
29 160
29 254
29 256
29 294
30 48
30 96
30 280
31 47
31 72
31 73
31 90
31 126
31 134
31 148
31 178
31 220
32 54
32 105
32 126
32 158
32 186
32 218
32 229
32 286
33 60
33 96
33 115
33 129
33 144
33 148
33 281
33 298
34 42
34 45
34 63
34 71
34 77
34 95
34 164
34 171
34 224
34 242
35 107
35 201
35 233
35 249
35 257
35 284
35 285
36 46
36 185
36 190
36 291
37 97
37 119
37 148
37 169
37 173
37 260
37 279
37 281
37 297
38 75
38 197
38 215
38 253
38 283
39 65
39 68
39 131
39 135
39 215
39 229
39 269
39 271
40 57
40 96
40 99
40 115
40 142
40 172
40 182
40 188
40 221
40 245
40 278
41 93
41 121
41 182
41 233
41 254
42 95
42 110
42 131
42 135
42 188
42 207
43 67
43 105
43 109
43 122
43 161
43 170
43 231
43 232
44 71
44 143
45 55
45 60
45 62
45 63
45 73
45 134
45 154
45 164
45 171
45 240
45 258
45 264
45 279
45 291
46 49
46 58
46 73
46 115
46 133
46 134
46 177
46 284
47 79
47 126
48 96
48 254
48 286
49 50
49 52
49 53
49 67
49 100
49 108
49 116
49 128
49 136
49 139
49 155
49 177
49 178
49 183
49 230
49 269
50 59
50 86
50 100
50 117
50 127
50 226
50 242
50 265
50 280
51 60
51 98
51 162
51 165
51 189
51 225
52 77
52 138
52 170
52 177
52 178
52 179
52 232
52 269
53 186
53 215
53 232
53 246
54 136
54 224
54 237
54 262
54 286
54 289
55 77
55 122
55 123
55 151
55 174
55 242
55 291
55 296
56 66
56 67
56 98
56 99
56 101
56 106
56 122
56 130
56 137
56 139
56 167
56 198
56 249
56 284
56 298
57 73
57 82
57 196
57 211
58 66
58 103
58 120
58 124
58 126
58 150
58 177
58 242
58 247
58 290
59 89
59 92
59 144
59 272
60 78
60 96
60 106
60 111
60 129
60 189
60 194
61 74
61 98
61 119
61 156
62 73
62 136
62 174
62 181
62 185
62 187
62 215
62 216
62 223
62 224
62 288
63 72
63 95
63 268
64 112
64 164
64 177
64 187
64 188
64 216
64 242
64 253
64 283
65 88
65 131
65 135
65 185
65 231
65 269
66 67
66 81
66 113
66 124
66 144
66 145
66 175
66 195
66 234
67 108
67 116
67 143
67 170
67 188
67 224
67 232
68 81
68 89
68 126
68 150
68 226
69 116
69 129
69 164
69 170
69 215
69 295
70 100
70 105
70 124
70 185
70 196
70 207
70 210
70 227
70 296
71 93
71 121
71 133
71 158
71 179
71 219
71 269
71 279
71 294
72 91
72 123
72 141
72 161
72 229
73 74
73 84
73 92
73 134
73 140
73 144
73 154
73 196
73 292
74 98
74 118
74 125
74 140
74 150
74 267
74 268
75 168
75 197
75 287
76 149
76 242
77 103
77 179
77 212
77 232
77 246
78 98
78 127
78 144
78 186
78 194
79 145
79 152
79 157
79 214
79 231
79 260
79 285
80 144
80 181
80 203
80 216
80 262
80 269
80 276
80 296
81 96
81 110
81 111
81 116
81 127
81 131
81 134
81 135
81 140
81 144
81 150
81 162
81 163
81 195
81 196
81 206
81 241
81 251
82 207
82 268
83 125
83 155
84 129
84 140
84 147
84 230
85 181
85 223
85 275
86 90
86 102
86 121
86 127
86 133
86 176
86 255
87 95
87 171
87 208
87 214
87 248
87 286
88 131
88 171
88 172
88 187
88 240
88 241
88 258
88 289
89 144
89 145
89 150
89 197
89 217
89 238
89 291
90 104
90 105
90 122
90 126
90 171
90 197
90 198
90 206
90 223
90 272
91 114
91 261
91 271
91 298
92 124
92 129
92 143
92 238
92 260
92 261
92 266
93 144
93 219
93 233
93 246
93 278
93 288
94 117
94 298
95 138
95 152
95 184
95 205
95 243
96 144
96 162
96 172
96 179
96 212
96 214
96 227
96 251
97 169
97 187
97 194
97 252
97 281
98 99
98 105
98 132
98 186
99 101
99 105
99 106
99 123
99 130
99 151
99 163
99 197
99 245
99 273
99 283
100 117
100 121
100 125
100 133
100 250
100 258
100 265
101 137
101 176
101 229
101 261
101 288
102 121
102 274
103 119
103 149
103 150
103 203
103 212
103 224
104 129
104 136
104 192
104 202
104 214
104 292
104 295
105 122
105 161
105 218
105 227
105 296
106 107
106 196
106 220
107 122
107 144
107 200
107 201
107 220
108 128
108 139
108 146
108 155
108 180
108 206
108 215
108 240
108 251
108 256
108 262
108 292
109 165
109 172
109 207
109 231
109 247
110 120
110 126
110 131
111 121
111 135
111 138
111 191
111 225
112 132
113 119
113 157
113 175
113 176
113 212
113 261
113 271
113 287
114 257
114 261
114 298
115 134
115 143
115 152
115 208
115 276
116 120
116 127
116 194
116 210
116 211
116 215
116 279
117 253
117 292
117 298
118 156
118 163
118 243
118 268
118 273
119 210
119 292
119 297
120 194
120 221
120 242
121 133
121 145
121 147
121 191
121 208
121 233
121 273
121 284
122 137
122 161
122 169
122 202
123 125
123 136
123 174
123 192
123 232
124 185
124 231
124 234
124 261
124 280
125 252
126 131
126 150
126 158
126 186
126 211
126 220
126 241
126 242
126 273
127 144
127 161
127 162
127 173
127 196
127 203
127 241
128 182
128 293
129 202
129 274
129 295
129 299
130 268
130 296
131 132
131 207
131 211
131 241
131 275
132 141
132 158
133 169
133 246
134 148
134 208
134 223
134 234
134 258
134 284
135 161
135 176
135 196
135 209
135 275
135 299
136 192
136 224
136 298
137 144
137 161
137 238
138 165
138 209
138 269
138 277
139 155
139 179
139 198
139 268
140 150
140 183
140 287
141 229
141 235
141 247
142 245
143 146
143 171
144 161
144 185
144 212
144 217
144 288
145 147
145 152
145 234
145 280
146 166
146 215
146 227
146 257
146 263
146 282
147 155
147 230
147 263
148 178
148 186
148 225
148 263
148 281
148 298
149 211
149 248
149 259
149 283
150 163
150 196
150 247
150 287
151 162
151 178
151 195
152 201
152 293
153 251
153 265
155 157
155 175
155 180
155 229
155 230
155 236
156 160
156 174
156 189
156 199
156 210
156 212
156 238
156 243
156 253
156 259
157 214
158 190
158 219
158 233
158 268
160 173
160 175
160 182
160 204
160 212
161 202
161 252
161 299
162 173
162 189
162 191
162 201
162 203
162 214
162 225
162 293
162 298
163 206
163 244
163 283
163 292
163 295
164 170
164 182
164 189
164 202
164 230
164 236
164 238
164 239
164 242
164 279
165 229
165 243
165 253
165 263
165 277
165 287
166 182
166 242
166 251
166 254
166 273
167 198
167 199
167 234
167 235
167 280
168 287
169 209
169 278
171 181
171 197
171 208
171 240
171 241
171 251
171 270
171 288
172 182
172 183
172 222
172 223
172 228
172 245
172 247
173 175
174 215
174 243
174 296
175 204
175 219
175 230
175 232
175 236
175 266
175 274
175 294
176 230
176 232
176 261
176 265
176 272
176 290
177 188
177 197
177 230
177 261
177 269
178 186
178 220
178 265
178 275
179 190
179 242
179 247
179 298
180 230
181 209
181 216
181 224
181 248
181 275
181 288
181 299
182 202
182 212
182 236
182 238
182 247
182 248
182 254
182 266
183 257
184 193
184 218
184 243
184 290
185 210
185 231
185 245
185 257
185 271
185 291
185 298
186 215
186 247
186 258
186 259
187 218
188 197
189 205
189 238
189 266
191 216
191 248
191 266
191 298
192 298
193 194
193 256
194 254
194 256
194 266
194 288
196 260
197 273
197 291
198 284
199 243
199 280
200 225
200 261
201 238
201 266
201 293
202 230
202 236
203 216
203 221
203 262
204 270
204 274
205 217
206 223
206 239
206 262
206 269
206 280
207 208
207 247
208 221
208 233
208 254
208 270
208 284
209 212
209 266
209 275
209 290
209 295
209 297
210 226
210 238
210 241
210 245
210 249
210 257
210 268
210 291
210 298
211 241
211 259
211 267
211 275
211 278
211 279
213 225
213 243
213 250
213 263
214 234
214 285
215 240
215 257
215 262
215 263
216 276
216 288
217 281
218 233
218 273
218 291
219 294
221 244
221 246
221 254
221 257
221 259
221 262
223 224
223 234
223 246
223 247
223 262
223 272
223 280
225 250
225 255
226 241
226 272
226 280
227 229
227 272
227 278
227 288
229 230
229 263
229 288
230 261
230 263
230 288
230 298
231 285
231 298
232 265
232 274
232 293
233 257
233 266
233 268
234 262
234 269
234 281
235 243
235 248
235 253
235 287
236 274
236 279
238 259
238 266
239 241
239 289
240 251
241 249
241 257
241 268
241 280
242 244
242 263
242 273
242 287
243 253
243 267
243 273
243 283
244 294
245 281
246 247
250 258
252 299
253 283
253 298
254 285
254 300
255 287
255 293
256 266
256 292
256 294
257 259
257 261
257 268
257 282
258 279
258 289
261 269
261 272
262 269
262 289
262 296
263 298
264 273
265 282
266 268
266 290
272 278
273 287
274 293
274 294
275 297
275 299
278 289
282 292
285 300
286 289
287 293
292 295
292 297
294 300
295 297
*Classes
1
1
1
1
1
1
1
1
1
1
1
1
1
1
1
1
1
1
1
1
1
1
1
1
1
1
1
1
1
1
1
1
1
1
1
1
1
1
1
1
1
1
1
1
1
1
1
1
1
1
1
1
1
1
1
1
1
1
1
1
1
1
1
1
1
1
1
1
1
1
1
1
1
1
1
1
1
1
1
1
1
1
1
1
1
1
1
1
1
1
1
1
1
1
1
1
1
1
1
1
1
1
1
1
1
1
1
1
1
1
1
1
1
1
1
1
1
1
1
1
1
1
1
1
1
1
1
1
1
1
1
1
1
1
1
1
1
1
1
1
1
1
1
1
1
1
1
1
1
1
2
2
2
2
2
2
2
2
2
2
2
2
2
2
2
2
2
2
2
2
2
2
2
2
2
2
2
2
2
2
2
2
2
2
2
2
2
2
2
2
2
2
2
2
2
2
2
2
2
2
2
2
2
2
2
2
2
2
2
2
2
2
2
2
2
2
2
2
2
2
2
2
2
2
2
2
2
2
2
2
2
2
2
2
2
2
2
2
2
2
2
2
2
2
2
2
2
2
2
2
2
2
2
2
2
2
2
2
2
2
2
2
2
2
2
2
2
2
2
2
2
2
2
2
2
2
2
2
2
2
2
2
2
2
2
2
2
2
2
2
2
2
2
2
2
2
2
2
2
2
