*Vertices 300
*Edges
1 11
1 35
1 83
1 108
1 123
1 139
1 219
1 234
1 256
1 285
1 298
2 4
2 30
2 36
2 134
2 138
2 209
2 222
2 235
3 54
3 57
3 85
3 182
3 215
3 221
3 261
3 266
4 134
4 153
4 191
5 50
5 80
5 120
5 125
5 128
5 130
5 137
5 154
5 157
5 198
5 199
5 254
5 261
5 280
6 51
6 242
7 46
7 93
7 110
7 157
7 184
8 122
8 138
8 140
8 196
8 242
9 34
9 42
9 59
9 111
9 125
9 129
9 211
9 215
9 252
10 41
10 64
10 72
10 88
10 91
10 124
10 143
10 181
10 185
10 198
10 206
10 207
10 234
10 272
10 283
10 286
11 20
11 31
11 84
11 114
11 139
11 142
11 144
11 192
12 17
12 23
12 66
12 119
12 144
12 148
12 185
12 235
12 240
13 31
13 33
13 36
13 52
13 67
13 79
13 81
13 86
13 93
13 97
13 116
13 124
13 133
13 135
13 174
13 183
13 185
13 188
13 298
14 25
14 104
14 130
14 182
14 200
14 222
14 237
14 239
14 295
14 299
15 24
15 30
15 68
15 188
15 227
15 257
16 34
16 56
16 150
16 181
17 66
17 110
17 119
17 163
17 220
18 48
18 49
18 65
18 117
18 129
18 193
19 30
19 62
19 92
19 137
19 207
19 212
19 238
19 249
19 269
20 39
20 77
20 78
20 122
20 126
20 137
20 142
20 151
21 93
21 133
21 215
21 226
22 41
22 63
22 68
22 219
22 230
23 35
23 173
23 240
23 259
23 295
24 40
24 48
24 129
24 190
24 231
24 249
24 265
24 298
25 32
25 57
25 68
25 85
25 90
25 93
25 132
25 176
25 210
25 222
25 227
25 295
26 38
26 123
26 154
26 268
27 51
27 63
27 64
27 78
27 101
27 136
27 228
28 61
28 67
28 76
28 86
28 102
28 108
28 109
28 133
28 192
28 211
28 264
28 287
29 59
29 67
29 76
29 77
29 83
29 108
29 195
29 231
29 232
29 247
29 249
29 252
29 298
30 62
30 82
30 85
30 112
30 134
30 138
30 142
30 212
30 227
31 84
31 107
31 148
31 185
31 203
31 279
32 36
32 184
32 229
33 53
33 81
33 84
33 85
33 86
33 93
33 123
33 142
33 145
33 193
33 267
33 274
34 50
34 59
34 83
34 89
34 103
34 111
34 173
34 177
34 204
34 226
34 232
34 255
34 282
35 72
35 79
35 83
35 93
35 108
35 115
35 184
35 205
35 217
36 57
36 66
36 79
36 85
36 103
36 197
36 199
36 229
36 260
36 264
37 64
37 115
37 151
37 167
37 218
37 224
38 64
38 95
38 107
38 123
38 191
38 273
38 286
39 48
39 50
39 68
39 78
39 90
39 106
39 137
39 169
39 176
39 210
39 291
40 41
40 45
40 98
40 150
40 209
40 249
40 273
41 85
41 143
41 230
41 239
41 283
42 60
42 163
42 173
42 216
42 233
42 262
43 121
43 122
43 128
43 133
43 215
43 226
43 238
43 279
43 290
44 75
44 165
44 205
44 282
45 77
45 92
45 150
45 167
45 192
45 197
45 225
45 232
45 272
46 65
46 66
46 68
46 95
46 99
46 102
46 110
46 119
46 231
47 58
47 107
47 113
47 117
47 136
47 171
47 181
47 206
47 266
48 49
48 59
48 78
48 106
48 129
48 137
48 209
48 213
49 50
49 72
49 117
49 118
49 144
50 87
50 99
50 115
50 117
50 174
50 176
50 199
50 209
50 223
50 246
50 282
50 293
51 103
51 126
51 164
51 186
51 187
51 228
52 83
52 90
52 97
52 107
52 114
53 89
53 122
53 126
53 141
53 142
53 164
53 181
53 201
53 254
54 57
54 63
54 66
54 67
54 88
54 117
54 130
54 154
54 185
55 65
55 83
55 107
55 116
55 120
55 139
55 178
55 190
56 68
56 213
57 62
57 85
57 91
57 132
57 142
57 189
57 223
58 87
58 222
59 77
59 83
59 120
59 137
59 155
59 224
60 89
60 236
60 255
61 65
61 77
61 96
61 137
61 151
61 246
61 275
61 277
62 85
62 92
62 143
62 175
62 176
62 209
63 101
63 140
63 172
63 174
63 193
63 230
63 256
63 263
64 83
64 107
64 127
64 167
64 175
64 181
64 244
65 68
65 102
65 264
65 275
66 82
66 104
66 114
66 119
66 121
66 123
66 154
66 268
67 76
67 108
67 140
67 195
67 202
67 279
67 281
68 210
68 230
69 73
69 99
70 109
70 127
71 138
71 157
71 179
72 101
72 115
72 118
72 181
72 195
72 277
73 99
73 246
74 155
74 164
75 110
75 220
75 229
76 86
76 207
76 211
76 216
76 221
76 231
76 292
76 298
76 299
77 117
77 122
77 224
77 275
78 126
79 83
79 93
79 114
79 133
79 168
79 193
79 217
79 247
79 278
80 99
80 142
80 149
80 171
80 180
80 237
80 289
80 293
81 88
81 104
81 124
81 135
81 148
81 248
82 88
82 134
82 138
82 164
82 228
83 97
83 107
83 111
83 114
83 120
83 149
83 155
83 159
83 202
83 205
84 145
84 285
84 296
85 92
85 112
85 134
85 142
85 143
85 149
85 192
86 108
86 208
86 260
87 106
87 222
87 225
87 232
87 233
87 246
87 254
87 300
88 134
88 154
88 241
88 246
88 258
88 277
89 90
89 204
89 213
89 282
90 97
90 115
90 133
90 176
90 204
90 221
90 247
91 95
91 162
91 223
91 227
91 244
91 249
92 292
93 142
93 184
93 226
94 102
94 113
94 148
94 158
94 276
94 279
95 99
95 101
95 107
95 118
95 137
95 148
95 174
95 230
95 244
96 108
96 149
96 245
96 261
96 263
96 277
97 188
97 194
98 150
98 212
98 213
99 129
99 137
99 145
99 166
99 196
99 207
99 237
99 246
100 110
100 144
100 150
100 152
100 156
100 176
100 181
100 247
100 258
100 300
101 118
101 145
102 121
102 125
102 148
102 180
102 199
102 200
102 217
102 261
103 111
103 126
103 152
103 159
103 199
103 248
103 251
104 111
104 114
104 122
104 135
104 145
104 161
104 273
104 275
104 276
104 295
104 298
105 267
106 129
106 235
106 254
107 118
107 148
107 190
107 253
107 299
108 228
108 234
108 250
109 127
109 165
109 194
109 252
110 150
110 157
110 187
110 220
111 120
111 149
111 275
111 294
112 129
112 286
113 117
113 158
113 231
114 142
114 220
114 278
115 118
115 140
115 167
115 176
115 224
116 123
116 142
116 167
116 168
116 178
116 240
117 144
117 160
117 224
117 282
117 300
118 151
118 274
119 123
120 198
120 199
121 137
121 154
121 207
121 217
121 228
121 238
121 287
121 299
122 126
122 128
122 140
122 214
122 246
122 275
123 142
123 273
124 162
124 190
124 205
124 230
124 287
124 300
125 198
125 215
125 298
126 140
126 152
126 200
126 217
126 218
126 231
126 254
128 133
128 143
128 198
128 218
128 223
128 275
129 137
129 166
129 205
129 215
129 272
129 290
130 182
132 226
133 215
133 221
133 277
133 287
134 138
134 164
134 223
134 238
135 145
136 228
137 154
137 249
137 252
137 269
137 288
138 187
138 285
139 144
139 172
139 211
140 172
140 279
140 280
140 289
141 164
141 249
142 145
142 149
142 178
142 206
142 284
143 170
143 185
143 214
143 218
143 222
144 148
144 152
144 153
144 211
144 220
145 166
146 289
147 201
147 294
148 153
148 194
148 248
148 253
148 264
148 279
149 162
149 200
149 275
149 294
150 243
151 152
151 198
151 218
151 224
151 242
151 256
151 275
151 295
152 186
152 187
152 211
152 217
152 220
152 234
152 256
152 289
153 188
153 196
153 208
153 211
153 218
153 230
153 265
153 280
154 157
154 186
154 197
154 204
154 226
154 239
154 249
154 268
154 276
155 174
155 204
155 213
155 214
155 218
155 272
155 282
155 294
156 165
156 188
156 252
156 258
157 179
157 197
157 268
158 196
158 199
158 222
158 227
158 231
158 237
158 265
158 276
158 287
159 211
159 248
159 284
160 166
160 171
160 188
160 189
160 224
160 245
160 274
161 164
161 169
161 200
161 229
161 270
161 273
161 275
161 291
162 167
162 173
162 190
162 192
162 216
162 229
162 230
162 235
162 270
162 272
162 275
163 216
163 223
164 181
165 176
165 186
165 187
165 194
165 245
165 251
165 252
165 259
165 271
166 176
166 196
166 259
166 285
166 290
166 295
166 299
167 170
167 191
167 192
167 273
168 175
168 194
168 217
168 220
168 240
168 264
168 278
169 204
169 208
169 236
169 260
169 275
169 282
169 288
169 293
170 175
170 185
170 276
170 278
171 188
171 189
171 245
171 277
172 194
172 210
172 217
172 284
173 204
173 213
173 216
173 229
173 255
173 259
173 270
173 295
174 183
174 213
174 223
174 284
175 185
175 220
175 232
175 272
175 278
176 191
176 192
176 199
176 203
176 221
176 245
176 250
176 251
176 271
176 290
176 291
176 295
177 217
177 230
177 274
177 286
178 189
179 194
180 234
180 293
181 182
181 185
181 186
181 201
181 206
181 264
181 286
182 222
182 295
182 299
184 190
184 231
184 265
184 266
184 271
185 202
185 205
185 235
185 273
185 276
185 295
185 296
185 298
186 187
186 199
186 276
187 205
187 240
187 246
187 251
187 254
187 256
187 285
187 289
188 201
188 232
188 245
188 251
188 254
188 257
188 258
188 277
188 280
188 286
189 240
189 248
189 283
189 286
189 289
190 205
190 223
190 266
190 299
191 192
191 245
191 271
191 291
193 214
193 225
193 226
193 243
193 267
193 278
193 279
193 280
194 209
194 217
194 256
194 264
195 204
195 222
195 259
195 281
196 208
196 237
196 262
197 283
197 286
198 205
198 214
198 215
198 234
198 238
198 242
198 243
198 257
198 274
198 295
199 200
199 223
199 276
200 294
201 245
201 275
202 216
202 263
203 245
204 253
204 268
204 272
204 281
204 282
204 285
205 246
205 280
205 298
205 299
207 249
207 253
207 298
208 218
208 265
209 213
209 246
210 221
210 250
210 291
211 248
214 218
214 243
214 272
215 221
215 234
215 266
215 279
216 221
216 233
216 255
216 263
216 298
217 230
218 243
218 262
219 256
221 231
221 241
221 250
221 251
221 256
221 298
222 225
222 259
222 276
223 284
225 232
225 262
225 267
225 272
225 283
225 297
226 260
226 267
226 272
227 232
227 243
227 249
227 257
227 272
227 274
227 289
228 234
228 287
229 235
229 245
229 250
229 260
229 270
229 274
229 275
229 286
229 291
230 280
230 300
231 236
231 238
231 265
231 276
232 272
232 274
232 277
232 278
233 300
234 289
236 265
237 287
238 249
238 265
239 254
239 268
239 299
240 248
240 251
240 295
241 256
243 272
243 274
243 278
243 289
244 252
244 262
244 267
245 274
246 258
246 261
246 280
246 290
246 299
247 252
247 278
248 260
248 264
248 289
249 252
249 256
249 269
249 288
250 256
250 291
250 293
251 298
252 259
252 269
253 281
254 261
254 268
254 277
254 280
254 296
256 285
256 289
256 298
257 259
257 280
260 270
260 289
260 293
261 291
261 293
261 299
262 267
262 282
262 285
264 275
267 280
268 271
268 276
269 288
272 294
274 286
274 291
275 276
277 280
279 280
282 285
283 286
283 297
290 295
290 299
291 293
292 298
298 299
*Classes
1
1
1
1
1
1
1
1
1
1
1
1
1
1
1
1
1
1
1
1
1
1
1
1
1
1
1
1
1
1
1
1
1
1
1
1
1
1
1
1
1
1
1
1
1
1
1
1
1
1
1
1
1
1
1
1
1
1
1
1
1
1
1
1
1
1
1
1
1
1
1
1
1
1
1
1
1
1
1
1
1
1
1
1
1
1
1
1
1
1
1
1
1
1
1
1
1
1
1
1
1
1
1
1
1
1
1
1
1
1
1
1
1
1
1
1
1
1
1
1
1
1
1
1
1
1
1
1
1
1
1
1
1
1
1
1
1
1
1
1
1
1
1
1
1
1
1
1
1
1
2
2
2
2
2
2
2
2
2
2
2
2
2
2
2
2
2
2
2
2
2
2
2
2
2
2
2
2
2
2
2
2
2
2
2
2
2
2
2
2
2
2
2
2
2
2
2
2
2
2
2
2
2
2
2
2
2
2
2
2
2
2
2
2
2
2
2
2
2
2
2
2
2
2
2
2
2
2
2
2
2
2
2
2
2
2
2
2
2
2
2
2
2
2
2
2
2
2
2
2
2
2
2
2
2
2
2
2
2
2
2
2
2
2
2
2
2
2
2
2
2
2
2
2
2
2
2
2
2
2
2
2
2
2
2
2
2
2
2
2
2
2
2
2
2
2
2
2
2
2
