*Vertices 300
*Edges
1 79
1 147
1 192
1 220
1 241
1 254
1 291
2 29
2 161
2 168
2 171
3 32
3 104
3 122
3 163
3 191
3 192
3 229
3 234
4 25
4 41
4 63
4 68
4 93
4 213
4 242
4 247
4 290
5 19
5 20
5 114
5 115
5 167
5 168
5 222
5 256
5 268
6 30
6 41
6 66
6 103
6 155
6 197
6 228
7 13
7 22
7 60
7 91
7 119
7 141
7 206
7 207
7 300
8 210
8 241
8 291
9 10
9 87
9 146
10 30
10 49
10 53
10 67
10 69
10 88
10 146
10 193
10 241
10 272
10 274
11 17
11 29
11 31
11 88
11 92
11 114
11 115
11 176
11 234
11 249
11 297
12 113
13 21
13 29
13 47
13 51
13 62
13 74
13 94
13 168
13 191
13 192
13 212
13 226
13 238
13 296
13 300
14 37
14 38
14 57
14 72
14 74
14 75
14 105
14 173
14 212
14 214
15 37
15 98
15 116
15 152
15 164
15 209
15 227
15 251
15 257
15 262
15 272
15 283
15 292
16 58
16 78
16 103
16 128
16 158
17 53
17 69
17 114
17 115
17 168
17 238
17 254
18 52
18 58
18 111
18 132
18 211
18 256
18 263
19 27
19 118
19 214
19 226
20 30
20 218
20 219
20 234
20 256
20 285
21 29
21 149
21 213
21 240
21 269
21 296
22 60
22 76
22 91
22 106
22 112
22 136
22 141
22 150
22 179
22 206
22 211
22 300
23 30
23 156
23 223
23 240
23 242
23 269
24 28
24 87
24 98
24 111
24 127
24 180
24 197
24 237
24 249
24 266
25 29
25 38
25 42
25 93
25 158
25 176
25 262
25 291
26 218
26 293
27 65
27 68
27 79
27 103
27 111
27 118
27 139
27 146
28 48
28 90
28 123
28 127
28 172
28 287
28 289
28 293
28 294
29 34
29 41
29 95
29 125
29 207
29 242
30 104
30 118
30 163
30 189
30 234
31 88
31 144
31 250
31 295
32 81
32 182
32 187
32 243
33 79
33 112
33 156
33 185
33 297
34 49
34 125
34 219
34 230
34 271
34 278
35 71
35 106
35 149
35 212
35 255
35 299
36 97
36 117
36 291
37 55
37 72
37 139
37 164
38 83
38 93
38 126
38 149
38 214
38 241
38 276
38 295
38 300
39 82
39 168
39 263
40 48
40 146
40 188
40 237
40 269
40 274
41 59
41 68
41 95
41 118
41 155
41 197
41 246
41 263
42 72
42 93
42 157
43 44
43 103
43 117
43 170
43 174
44 96
44 97
44 128
44 186
44 197
44 214
44 226
44 259
45 67
45 107
45 292
46 104
46 118
46 140
46 185
46 186
46 259
47 164
47 293
48 298
49 61
49 124
49 146
49 188
49 208
49 261
51 59
51 60
51 62
51 178
51 299
52 111
52 166
52 195
53 69
53 93
53 114
53 161
53 229
53 248
53 259
54 124
54 278
54 294
55 199
55 290
56 59
56 62
56 100
56 114
56 168
56 192
56 218
56 270
56 296
57 80
57 106
57 140
57 149
57 163
57 215
57 250
58 72
58 78
58 108
58 125
58 129
58 183
58 184
58 225
59 80
59 100
59 124
59 197
59 237
59 295
60 62
60 93
60 102
60 119
61 199
62 100
62 242
62 260
63 70
63 175
63 234
63 243
64 86
64 91
64 132
64 135
64 185
64 194
64 246
64 247
64 271
64 290
65 72
65 74
65 79
65 85
65 99
65 139
65 143
65 176
65 178
65 235
65 281
65 299
66 72
66 95
66 103
66 113
66 145
66 153
66 224
66 232
66 253
66 275
66 295
67 245
67 249
67 269
67 271
68 101
68 118
68 144
68 156
68 159
68 174
68 206
68 229
68 247
68 257
68 266
69 93
69 113
69 124
69 148
69 150
69 161
69 202
69 213
69 259
69 264
69 282
69 298
70 172
70 210
70 217
70 297
71 158
71 175
71 186
71 213
71 255
71 288
71 296
72 75
72 113
72 125
72 163
72 203
72 224
72 253
73 138
73 159
73 284
74 212
74 230
74 287
74 296
75 238
75 242
76 106
76 112
76 116
76 170
76 198
76 209
76 234
76 257
76 264
76 271
76 286
76 290
77 90
77 119
77 189
77 222
77 224
77 231
77 263
77 277
78 91
78 129
78 140
78 177
78 185
78 204
78 205
78 268
79 83
79 112
79 141
79 186
79 220
79 254
80 126
80 149
80 289
81 164
81 187
81 248
82 90
82 143
82 174
83 106
83 141
83 153
83 158
83 179
83 189
83 214
83 267
84 212
84 236
84 249
84 250
84 273
84 285
85 139
85 176
85 235
85 238
86 88
86 127
86 153
86 166
86 181
86 196
86 219
87 90
87 237
87 239
87 248
87 264
88 144
88 146
88 155
88 172
88 258
89 98
89 220
89 292
90 123
90 138
90 157
90 185
90 265
91 135
91 140
91 157
91 216
91 218
91 265
92 205
92 240
92 249
93 115
93 125
93 193
93 260
94 116
94 140
94 143
94 174
94 213
94 232
94 277
95 118
95 146
95 187
95 205
95 224
96 119
96 124
96 126
96 139
96 149
96 226
96 259
96 295
97 117
97 152
97 267
97 281
98 224
98 238
98 262
98 283
99 137
99 278
99 281
100 109
100 130
100 131
100 179
100 187
100 212
100 220
100 226
100 230
100 270
101 105
101 159
101 174
101 179
101 257
102 127
102 169
102 241
103 109
103 117
103 118
103 128
103 170
103 244
103 246
103 253
103 294
104 118
104 121
104 122
104 140
104 163
104 209
104 267
104 270
104 281
105 161
105 214
105 242
105 267
105 292
106 126
106 141
106 149
106 174
106 245
106 299
107 252
107 272
107 293
108 217
108 225
108 247
109 130
109 169
109 232
109 247
109 281
110 178
110 230
110 269
111 127
112 139
112 144
113 148
113 179
113 211
114 140
114 142
114 152
114 168
114 248
115 116
115 222
115 286
115 290
116 134
116 286
116 292
117 156
117 157
117 231
117 244
117 248
117 250
117 251
117 281
118 121
118 178
118 226
119 124
119 196
119 241
121 144
121 158
121 257
122 151
122 181
122 240
122 296
123 138
123 143
123 187
123 188
123 232
123 236
123 252
123 275
124 152
124 202
124 261
124 278
124 295
125 164
125 174
125 183
125 185
125 189
125 196
125 226
126 149
126 182
126 203
126 231
126 254
126 268
126 277
126 291
127 147
127 181
127 197
128 140
128 149
128 159
128 186
128 293
129 139
129 162
129 197
129 205
129 230
130 230
130 247
130 255
131 244
131 270
132 135
132 155
132 172
132 175
132 299
133 156
133 277
133 291
134 138
134 189
134 195
134 203
134 212
134 224
134 225
135 150
135 151
135 159
135 207
135 261
135 296
136 175
136 182
136 184
136 202
136 229
136 238
137 186
137 188
137 271
138 213
138 241
138 282
139 149
139 162
139 164
139 205
139 215
139 230
139 235
139 238
139 290
140 142
140 143
140 149
140 194
140 228
141 153
141 158
141 286
142 168
143 159
143 174
143 178
143 245
144 159
145 153
145 245
146 151
146 175
146 177
146 231
146 237
146 276
146 277
147 151
148 150
148 160
148 213
148 243
148 276
149 286
149 300
150 207
150 283
151 160
151 229
151 238
151 273
151 277
151 296
152 160
152 168
152 170
152 235
152 243
152 284
153 209
153 267
153 282
154 173
154 177
154 188
154 233
154 260
154 271
154 275
154 278
155 161
155 219
155 229
155 246
155 256
155 258
156 159
156 176
156 190
156 222
156 231
156 238
156 269
156 274
156 290
157 168
157 185
157 251
158 257
159 174
159 190
159 207
159 222
159 227
159 238
159 241
159 281
160 193
160 195
160 197
160 247
160 277
160 284
160 295
161 180
161 249
161 291
162 170
162 204
162 224
163 173
163 177
163 180
163 199
163 203
163 218
163 234
163 252
163 278
164 288
165 237
165 279
165 286
165 300
166 167
166 219
166 272
167 200
167 228
167 272
167 286
168 235
168 270
168 276
168 284
169 206
169 232
169 257
169 260
169 275
170 243
170 251
170 261
170 290
170 296
171 245
172 173
172 205
172 210
172 236
172 285
173 177
173 180
173 226
173 232
173 236
173 253
173 260
173 275
173 280
174 234
174 245
174 291
175 182
175 185
175 194
175 243
176 231
176 246
176 256
176 284
177 236
178 267
178 299
179 186
179 211
179 221
179 243
179 294
180 182
180 194
180 203
180 220
180 290
181 210
182 231
183 189
183 215
183 224
183 252
183 266
183 295
185 194
185 220
185 251
185 270
185 282
186 214
186 243
186 255
186 288
186 293
186 294
187 188
187 220
187 248
187 252
187 261
187 267
187 296
188 194
188 203
188 217
188 221
188 231
188 243
188 252
188 271
189 202
189 211
189 215
189 218
189 220
189 224
189 245
190 213
190 227
190 232
190 251
191 192
191 233
191 244
193 238
193 262
193 268
193 277
194 282
195 197
195 258
197 226
197 247
197 298
198 264
198 290
199 214
199 218
200 240
200 267
200 269
201 222
201 280
201 282
202 214
202 216
202 241
202 265
203 217
203 247
203 259
204 275
204 280
205 210
205 229
205 271
205 273
206 260
207 287
208 244
209 289
209 300
210 236
210 240
211 220
211 221
211 264
211 297
212 230
212 238
212 269
213 232
213 242
215 224
215 248
215 250
215 290
216 265
216 290
217 244
218 225
218 243
218 263
218 264
218 296
219 229
219 256
219 295
220 290
220 296
221 299
222 274
222 282
222 290
223 255
223 266
224 232
224 236
224 253
224 279
224 283
225 243
225 263
226 253
226 258
226 270
227 241
227 251
227 268
227 290
228 286
229 238
229 249
229 273
229 291
230 251
230 269
231 290
232 242
232 274
232 275
232 279
233 244
234 241
234 278
234 291
235 243
235 261
235 284
235 296
236 260
237 241
237 258
237 269
237 276
237 279
237 300
238 262
238 296
239 245
239 264
240 269
240 285
240 287
241 265
241 279
241 284
241 291
241 298
243 252
243 276
243 284
243 288
243 293
244 254
244 268
245 269
246 258
246 284
247 270
247 295
248 250
249 285
249 291
251 268
253 270
254 268
254 286
255 288
255 289
255 300
257 266
257 277
258 279
259 264
261 296
263 264
264 297
267 273
267 278
267 296
268 286
268 300
271 273
271 288
271 300
273 288
274 282
277 290
277 291
278 294
280 286
280 292
280 295
282 290
284 298
289 300
299 300
*Classes
1
1
1
1
1
1
1
1
1
1
1
1
1
1
1
1
1
1
1
1
1
1
1
1
1
1
1
1
1
1
1
1
1
1
1
1
1
1
1
1
1
1
1
1
1
1
1
1
1
1
1
1
1
1
1
1
1
1
1
1
1
1
1
1
1
1
1
1
1
1
1
1
1
1
1
1
1
1
1
1
1
1
1
1
1
1
1
1
1
1
1
1
1
1
1
1
1
1
1
1
1
1
1
1
1
1
1
1
1
1
1
1
1
1
1
1
1
1
1
1
1
1
1
1
1
1
1
1
1
1
1
1
1
1
1
1
1
1
1
1
1
1
1
1
1
1
1
1
1
1
2
2
2
2
2
2
2
2
2
2
2
2
2
2
2
2
2
2
2
2
2
2
2
2
2
2
2
2
2
2
2
2
2
2
2
2
2
2
2
2
2
2
2
2
2
2
2
2
2
2
2
2
2
2
2
2
2
2
2
2
2
2
2
2
2
2
2
2
2
2
2
2
2
2
2
2
2
2
2
2
2
2
2
2
2
2
2
2
2
2
2
2
2
2
2
2
2
2
2
2
2
2
2
2
2
2
2
2
2
2
2
2
2
2
2
2
2
2
2
2
2
2
2
2
2
2
2
2
2
2
2
2
2
2
2
2
2
2
2
2
2
2
2
2
2
2
2
2
2
2
