*Vertices 300
*Edges
1 6
1 19
1 34
1 155
1 173
1 207
2 67
2 75
2 118
2 135
2 136
2 173
2 212
3 37
3 97
3 194
4 12
4 88
4 94
4 121
4 123
4 157
4 188
4 221
4 274
4 285
4 292
5 25
5 27
5 28
5 68
5 82
5 85
5 123
5 126
5 235
5 271
6 10
6 56
6 57
6 58
6 61
6 124
6 125
6 138
6 180
6 224
6 241
6 253
6 291
6 297
7 9
7 42
7 78
7 110
7 145
7 231
7 289
7 296
7 299
8 22
8 74
8 81
8 113
8 128
8 135
8 176
8 202
8 209
8 260
9 23
9 32
9 40
9 76
9 98
9 116
9 131
9 135
9 278
10 58
10 61
10 76
10 83
10 121
10 125
10 277
10 291
11 15
11 18
11 28
11 71
11 82
11 99
11 100
11 164
11 166
11 182
11 211
11 222
11 255
11 263
12 17
12 27
12 43
12 88
12 96
12 106
12 110
12 120
12 231
12 253
12 278
13 22
13 23
13 38
13 61
13 64
13 67
13 86
13 127
13 133
13 176
13 187
13 209
13 216
13 223
13 230
13 234
14 99
14 146
14 202
14 210
15 18
15 41
15 58
15 70
15 81
15 82
15 106
15 108
15 116
15 193
15 226
15 252
16 17
16 25
16 47
16 134
16 136
16 230
17 43
17 96
18 23
18 48
18 57
18 70
18 114
18 245
18 268
20 122
20 176
20 177
20 197
20 225
20 261
21 48
21 112
21 140
21 167
21 285
22 114
22 126
22 202
23 38
23 57
23 101
23 135
23 156
23 159
23 189
23 203
23 232
23 256
23 290
24 58
24 104
24 144
24 209
24 210
24 216
24 221
24 226
24 246
25 34
25 200
25 299
26 47
26 63
26 117
26 147
26 163
26 239
26 253
26 265
27 120
27 126
27 138
27 164
27 165
27 189
27 225
27 298
28 60
28 82
28 99
28 104
28 118
28 126
28 140
28 149
28 168
28 169
28 271
29 38
29 43
29 111
29 123
29 136
29 153
29 155
29 166
29 186
29 230
29 242
29 292
30 32
30 40
30 124
30 145
30 174
30 175
31 45
31 67
31 72
31 134
31 146
31 207
31 210
31 213
31 234
31 245
31 280
31 290
32 35
32 40
32 73
32 110
32 145
32 152
32 200
32 256
33 95
33 188
33 254
33 298
34 91
34 121
34 125
34 146
34 170
34 173
34 174
34 183
34 206
34 299
35 46
35 54
35 63
35 65
35 110
35 111
35 112
35 113
35 123
35 153
35 185
36 112
36 214
36 270
37 43
37 60
37 246
38 49
38 61
38 67
38 72
38 139
38 156
38 222
39 61
39 133
40 110
40 124
40 145
40 198
40 232
40 249
41 49
41 106
41 115
41 122
41 252
41 275
42 65
42 271
42 296
43 60
43 77
43 99
43 111
43 155
43 294
44 63
44 76
44 111
44 179
44 277
45 57
45 65
45 80
45 106
45 138
45 225
45 234
45 296
46 63
46 111
46 133
46 191
46 206
46 215
46 260
47 78
47 185
47 265
47 273
47 280
48 123
48 156
48 225
49 106
49 111
49 118
49 222
49 279
50 89
50 94
50 100
50 138
50 154
50 155
50 160
50 188
50 208
50 213
50 216
50 218
50 221
50 275
50 287
51 64
51 96
51 101
51 157
51 162
51 183
51 190
51 210
51 237
51 272
52 77
52 200
52 290
53 64
53 106
53 113
53 179
54 61
54 132
54 214
54 231
55 134
55 139
55 175
55 197
55 233
55 237
55 280
55 288
56 66
56 125
56 144
56 149
56 201
57 65
57 97
57 106
57 135
57 192
57 203
57 260
57 271
57 291
58 75
58 81
58 119
58 215
58 297
59 89
59 100
59 229
60 137
60 140
60 230
61 64
61 86
61 133
61 178
61 182
61 231
61 234
61 242
61 245
61 258
62 102
62 172
62 192
62 251
62 277
63 69
63 111
63 117
63 135
63 147
63 215
63 224
63 244
63 255
63 267
64 93
64 102
64 106
64 133
64 160
64 183
65 66
65 112
65 113
65 137
65 159
65 166
65 204
65 263
65 271
65 285
66 144
66 192
66 231
66 240
66 271
66 280
67 72
67 122
67 136
67 137
67 300
68 76
68 85
68 161
68 178
68 269
69 73
69 92
69 112
69 132
69 213
69 280
70 76
70 134
70 164
70 170
70 179
70 218
70 247
70 279
71 82
71 87
71 156
72 129
72 137
72 147
72 161
72 239
72 263
73 132
73 225
74 93
74 146
74 195
74 202
74 208
74 225
75 109
75 117
75 158
75 173
75 266
76 134
76 135
76 154
76 248
76 252
76 277
77 206
77 276
78 104
78 264
78 296
79 179
79 203
79 235
79 275
80 108
80 118
80 225
80 273
81 91
81 114
81 116
81 119
81 208
81 209
82 87
82 99
82 102
82 139
82 156
82 160
82 227
82 259
82 266
83 248
84 94
84 108
84 122
84 124
84 142
84 197
84 222
84 225
84 247
84 265
85 95
85 131
85 169
85 202
85 218
86 127
86 155
86 162
86 172
86 195
86 246
87 153
87 186
87 282
88 90
88 94
88 106
88 110
88 119
88 121
88 131
88 157
88 179
88 204
88 235
89 100
89 281
90 96
90 193
90 223
90 247
90 248
90 267
90 285
91 114
91 194
91 243
92 112
92 219
92 233
93 135
93 139
93 146
93 209
93 212
93 219
93 225
93 228
94 100
94 118
94 123
94 135
94 149
94 213
95 169
95 188
95 202
95 229
95 238
95 257
96 110
96 139
96 188
96 204
96 207
96 267
97 154
97 181
98 116
98 124
98 162
98 243
99 105
99 146
99 198
99 294
100 203
100 232
100 255
100 287
101 109
101 135
101 144
101 148
101 212
101 226
101 256
101 272
102 151
102 160
102 165
102 178
102 205
102 216
102 248
103 141
103 160
104 114
104 140
104 169
104 210
104 230
104 255
105 119
105 139
105 190
105 203
105 208
105 220
106 278
106 289
107 143
107 276
108 211
108 215
109 117
109 128
109 147
109 167
109 221
109 223
109 246
109 256
109 290
110 119
110 139
110 177
110 204
110 227
110 261
110 283
111 118
111 139
111 156
111 157
111 159
111 188
111 224
111 240
112 168
112 239
112 280
112 285
113 119
113 120
113 131
113 135
113 139
113 146
113 153
113 158
113 179
113 188
113 202
113 246
113 295
114 202
114 207
114 218
114 245
114 252
114 275
114 289
114 294
115 125
115 200
115 272
115 276
115 292
116 119
116 131
116 158
116 162
116 230
116 257
117 123
117 189
117 256
118 135
118 149
118 167
118 210
118 223
118 224
118 225
118 287
119 204
119 244
119 275
120 129
120 131
120 158
120 246
121 174
121 259
122 142
122 175
122 196
122 219
122 233
122 240
122 281
123 136
123 153
123 156
123 242
123 292
124 162
124 224
125 138
125 175
125 207
125 298
125 299
126 140
126 151
126 174
126 181
126 184
126 201
126 219
126 225
127 133
127 209
127 223
127 236
128 147
128 154
128 195
128 279
129 131
129 147
129 151
129 193
129 195
129 246
130 177
130 193
130 229
132 214
132 289
133 157
133 206
133 266
133 293
133 299
134 154
134 164
134 168
134 218
134 252
134 255
134 280
135 139
135 149
135 170
135 188
135 295
136 137
136 230
136 259
137 139
137 156
137 184
137 188
137 203
137 245
138 188
139 151
139 156
139 188
139 197
139 261
139 278
139 297
139 299
140 174
140 226
141 177
141 193
141 207
141 245
141 249
141 278
141 296
142 179
142 196
142 282
143 164
143 200
143 276
144 210
144 251
144 272
144 286
145 167
145 199
145 225
145 289
146 163
146 197
146 199
146 234
146 241
146 286
146 290
148 195
149 204
149 237
149 298
150 168
150 196
150 239
151 165
151 193
151 197
152 200
153 185
153 186
153 199
153 242
153 292
154 160
154 168
154 169
154 181
154 196
154 208
154 212
154 238
155 160
155 162
155 166
155 167
155 188
155 259
156 164
156 199
156 241
156 247
156 266
157 183
157 188
157 206
157 217
157 240
157 285
158 229
158 260
159 189
159 192
159 197
159 249
159 271
160 165
160 196
160 218
160 225
160 227
160 238
160 249
160 266
160 271
160 272
160 274
160 280
161 199
161 262
161 263
162 184
162 249
162 272
162 280
163 181
163 243
163 247
163 269
163 285
163 293
164 170
164 200
164 211
164 247
165 248
165 278
165 298
165 299
167 204
167 209
167 221
167 223
167 230
167 257
167 259
167 284
167 285
167 287
168 172
168 203
168 218
168 239
168 281
168 297
169 218
169 257
170 171
170 246
170 255
171 210
171 232
171 246
171 255
171 286
172 203
172 208
172 220
172 238
173 212
173 219
173 266
173 278
174 184
174 191
174 285
175 211
175 220
175 240
175 252
175 298
176 200
176 209
176 215
176 218
176 219
176 241
176 262
176 265
176 295
177 215
177 261
177 295
177 296
178 207
178 288
179 221
179 235
179 246
179 275
179 284
179 286
180 190
180 202
180 203
180 210
180 241
180 297
181 222
181 229
181 251
181 285
182 222
182 264
183 236
184 190
184 210
184 225
184 229
184 256
184 272
184 285
185 239
185 265
185 284
185 292
186 282
187 214
187 216
187 227
187 255
187 269
187 275
187 293
188 214
188 221
188 246
188 297
189 219
189 244
190 209
190 210
190 219
190 225
190 255
190 283
190 290
190 298
191 193
191 195
191 226
191 285
192 197
193 214
193 249
193 285
194 209
194 233
194 290
195 290
195 293
196 225
196 271
196 274
196 293
197 199
197 207
197 245
197 279
198 211
198 221
198 234
198 246
198 252
198 284
198 296
199 262
199 263
199 265
199 279
200 209
200 240
200 256
200 265
201 225
201 239
201 281
203 213
203 297
204 221
204 227
204 284
204 293
205 258
205 275
205 276
205 292
205 293
206 232
206 240
206 285
206 286
206 287
207 210
207 245
207 288
208 216
208 221
208 238
208 282
208 294
209 218
209 219
209 221
209 230
209 233
209 251
209 284
210 255
210 276
210 298
211 240
211 252
212 219
212 225
212 238
212 256
213 235
213 280
213 289
213 297
215 253
215 261
215 279
215 295
216 221
216 231
216 281
216 282
216 294
217 287
218 219
218 223
218 230
218 233
219 221
219 251
219 275
221 223
221 246
221 257
221 274
221 284
222 225
222 264
223 230
223 248
223 267
224 241
224 270
225 283
226 294
227 244
227 263
227 267
227 274
227 279
227 293
228 271
228 287
229 238
229 243
229 265
229 285
231 240
231 281
231 294
231 299
232 287
232 300
233 249
233 280
233 281
234 242
234 296
235 280
237 261
237 280
237 288
238 243
239 281
240 252
240 294
241 295
242 252
242 266
243 269
243 273
244 254
244 267
245 291
246 269
247 267
247 269
248 277
248 285
249 272
250 260
251 277
251 280
252 289
253 279
253 291
253 292
254 289
254 294
255 286
256 280
256 291
257 284
258 269
259 285
260 291
261 297
262 265
262 274
262 293
263 271
264 272
264 277
264 296
265 283
265 292
266 299
267 279
267 285
269 273
269 274
269 293
271 274
271 296
272 280
272 287
274 275
274 293
275 284
276 292
276 298
278 289
278 296
278 299
279 295
281 294
290 293
*Classes
1
1
1
1
1
1
1
1
1
1
1
1
1
1
1
1
1
1
1
1
1
1
1
1
1
1
1
1
1
1
1
1
1
1
1
1
1
1
1
1
1
1
1
1
1
1
1
1
1
1
1
1
1
1
1
1
1
1
1
1
1
1
1
1
1
1
1
1
1
1
1
1
1
1
1
1
1
1
1
1
1
1
1
1
1
1
1
1
1
1
1
1
1
1
1
1
1
1
1
1
1
1
1
1
1
1
1
1
1
1
1
1
1
1
1
1
1
1
1
1
1
1
1
1
1
1
1
1
1
1
1
1
1
1
1
1
1
1
1
1
1
1
1
1
1
1
1
1
1
1
2
2
2
2
2
2
2
2
2
2
2
2
2
2
2
2
2
2
2
2
2
2
2
2
2
2
2
2
2
2
2
2
2
2
2
2
2
2
2
2
2
2
2
2
2
2
2
2
2
2
2
2
2
2
2
2
2
2
2
2
2
2
2
2
2
2
2
2
2
2
2
2
2
2
2
2
2
2
2
2
2
2
2
2
2
2
2
2
2
2
2
2
2
2
2
2
2
2
2
2
2
2
2
2
2
2
2
2
2
2
2
2
2
2
2
2
2
2
2
2
2
2
2
2
2
2
2
2
2
2
2
2
2
2
2
2
2
2
2
2
2
2
2
2
2
2
2
2
2
2
