*Vertices 300
*Edges
1 45
1 51
1 76
1 81
1 134
1 178
1 200
1 228
1 237
1 246
1 284
2 39
2 83
2 102
2 120
2 144
2 194
2 249
2 274
2 291
2 293
3 18
3 39
3 50
3 60
3 171
3 175
3 198
4 22
4 105
4 125
4 133
4 167
4 211
4 262
4 290
5 6
5 79
5 119
5 126
5 135
5 139
5 150
5 161
5 175
5 179
5 185
5 201
5 202
5 213
5 216
5 238
5 265
5 273
6 14
6 23
6 64
6 66
6 79
6 104
6 117
6 139
6 155
6 191
6 201
6 266
8 65
8 114
8 241
9 34
9 95
9 103
9 107
9 156
9 157
9 174
9 206
9 214
10 275
11 27
11 80
11 141
11 167
11 178
11 213
11 267
11 280
11 290
12 19
12 39
12 80
12 158
12 172
12 213
12 215
13 79
13 82
13 194
13 204
13 220
13 232
13 236
13 265
13 275
14 64
14 146
14 161
14 172
14 191
14 268
15 20
15 90
15 112
15 168
15 175
15 199
15 222
15 249
16 52
16 73
16 152
16 170
16 195
16 204
16 209
16 210
16 220
16 238
16 272
16 275
17 20
17 48
17 60
17 61
17 232
17 242
17 273
18 60
18 92
18 194
19 39
19 63
19 64
19 76
19 83
19 199
19 285
19 286
20 100
20 112
20 143
20 175
20 249
20 252
20 272
21 68
21 133
21 176
21 201
21 203
21 215
21 233
21 278
22 40
22 43
22 120
22 253
22 272
22 296
23 66
23 110
23 114
23 117
23 297
24 45
24 95
24 106
24 113
24 162
24 231
24 244
24 276
24 300
25 40
25 105
25 117
25 139
25 148
25 202
25 281
26 127
26 128
26 209
26 226
26 281
27 28
27 65
27 67
27 83
27 86
27 109
27 111
27 141
27 156
27 159
27 171
27 172
27 196
27 207
27 210
27 232
27 241
27 267
27 268
28 65
28 71
28 86
28 96
28 109
28 172
29 86
29 124
29 171
29 183
30 65
30 71
30 80
30 93
30 143
30 190
30 191
30 232
30 295
30 296
31 134
31 201
31 221
31 227
31 258
31 295
32 60
32 104
32 187
32 190
32 207
32 254
32 256
32 290
32 294
33 64
33 76
33 109
33 132
33 138
33 200
33 227
34 74
34 103
34 107
34 115
34 271
34 294
35 44
35 108
35 155
35 202
35 205
35 223
35 236
35 279
35 282
35 290
36 163
36 189
36 208
36 263
37 79
37 204
37 206
37 244
37 246
37 253
37 275
37 284
37 295
38 46
38 77
38 219
39 83
39 131
39 162
39 177
39 193
39 198
39 199
39 210
39 214
39 220
39 249
39 285
40 98
40 105
40 125
40 129
40 148
40 160
40 178
40 189
40 221
40 272
40 289
40 296
41 134
41 191
42 63
42 74
42 76
42 97
42 149
42 169
42 251
43 120
43 130
43 199
43 212
43 249
43 261
43 298
44 58
44 70
44 130
44 223
45 95
45 99
45 106
45 200
45 224
45 244
46 71
46 88
46 96
46 103
46 107
46 112
46 145
46 164
46 178
46 181
46 219
46 236
46 279
46 289
47 187
47 259
48 73
48 139
48 227
48 242
48 261
49 58
49 109
49 112
49 164
49 228
49 237
49 246
49 282
50 198
50 207
50 250
50 266
50 268
51 73
51 81
51 115
51 119
51 150
51 178
51 270
51 297
51 299
52 53
52 119
52 209
52 210
52 215
52 262
53 68
53 122
53 143
53 176
53 204
54 78
54 100
54 111
54 150
54 154
54 178
54 192
54 211
54 214
54 260
54 279
55 135
55 264
55 283
55 286
56 188
56 205
56 218
56 225
56 292
57 72
57 110
57 241
57 293
58 63
58 97
58 112
58 130
58 194
58 230
58 274
58 282
59 128
59 211
60 81
60 190
60 232
60 254
60 256
61 75
61 244
61 255
61 289
62 64
62 183
62 210
62 233
62 244
62 282
63 64
63 76
63 83
63 97
63 116
63 127
63 138
63 139
63 151
63 273
64 69
64 83
64 109
64 139
64 146
64 151
64 157
64 181
64 211
64 233
64 239
64 251
64 282
64 292
65 98
65 114
65 214
65 224
65 228
65 278
65 279
65 297
66 101
66 104
66 118
66 200
66 228
66 240
66 257
66 261
67 156
67 248
67 264
68 86
68 111
68 167
68 176
68 204
68 225
68 275
68 280
68 292
69 84
69 109
69 122
69 146
69 157
69 181
70 89
70 106
70 113
70 117
70 138
70 252
70 279
71 96
71 125
71 127
71 135
71 143
71 146
71 178
71 208
71 232
71 269
72 102
72 148
72 185
72 248
72 261
72 286
73 115
73 143
73 150
73 195
73 208
73 227
73 242
74 97
74 120
74 268
75 109
75 125
75 132
75 147
75 239
75 251
75 276
75 288
76 108
76 132
76 134
76 138
76 180
76 252
76 296
77 82
77 103
77 172
77 220
77 299
78 111
78 160
78 171
78 274
79 147
79 191
79 195
79 295
80 93
80 178
80 191
80 213
81 105
81 123
81 127
81 131
81 139
81 153
81 166
81 191
81 210
81 226
81 250
81 251
81 254
81 256
81 284
81 288
82 159
82 161
82 188
82 220
82 269
82 284
83 86
83 172
83 190
83 211
83 220
83 270
83 292
83 299
84 122
84 129
84 136
84 154
84 221
84 263
84 284
84 295
85 95
85 160
85 163
85 218
85 220
85 221
85 250
86 111
86 114
86 125
86 156
86 161
86 171
86 172
86 210
86 211
87 151
87 165
87 197
87 270
87 281
88 129
88 150
88 157
88 171
88 181
88 182
88 200
88 283
88 285
88 295
89 117
89 140
89 142
89 240
90 105
90 107
90 144
90 168
90 175
90 178
90 195
90 200
90 237
90 261
91 100
91 126
91 192
91 231
91 282
91 290
92 111
92 113
92 131
92 242
92 279
93 190
93 191
94 98
94 131
94 176
94 182
94 206
94 218
95 99
95 117
95 157
95 163
95 217
95 221
95 223
95 264
95 295
96 118
96 126
96 145
96 153
96 181
96 211
97 112
97 230
97 268
98 125
98 146
98 174
98 182
98 206
98 214
98 226
98 265
99 173
99 221
100 104
100 108
100 122
100 143
100 145
100 260
100 268
100 269
101 118
101 216
102 120
102 194
102 199
102 224
102 261
103 126
103 172
103 177
103 183
103 236
103 240
103 255
103 263
104 118
104 122
104 159
104 231
105 137
105 175
105 221
105 226
105 234
105 256
105 272
106 113
106 120
106 193
107 115
107 229
107 237
108 132
108 142
108 148
108 177
108 202
108 246
108 257
108 268
109 132
109 232
109 233
109 254
109 282
110 193
110 220
110 241
110 267
110 297
111 114
111 125
111 153
111 165
111 199
111 210
111 292
112 130
112 164
112 235
113 196
113 243
113 279
114 133
114 165
114 215
114 216
114 227
114 228
114 233
114 241
115 143
115 180
115 230
117 137
117 139
117 148
117 163
117 198
117 273
117 274
118 145
118 262
118 300
119 204
119 215
119 297
120 144
120 242
120 253
120 291
121 137
121 155
122 129
122 139
122 144
122 242
122 263
122 273
123 139
123 153
123 250
123 251
125 132
125 146
125 189
125 193
125 211
125 265
125 293
126 145
126 154
126 185
126 240
126 263
126 282
127 137
127 139
127 184
127 226
127 241
127 284
128 129
128 148
128 211
128 298
129 134
129 137
129 148
129 154
129 222
129 245
130 169
130 212
130 230
130 264
131 162
131 163
131 166
131 175
131 177
131 182
131 226
131 277
132 134
132 210
132 239
132 257
132 263
133 191
133 215
133 256
133 262
133 272
134 142
134 148
134 154
134 180
134 201
134 210
134 233
134 258
135 143
135 164
135 183
135 216
135 281
135 283
135 285
136 148
136 154
136 188
136 199
136 208
136 243
136 247
137 139
137 205
137 241
137 272
137 284
137 290
138 148
138 170
138 209
138 210
138 252
138 296
139 175
139 187
139 242
140 142
140 258
141 198
142 148
142 164
142 186
142 207
142 240
142 244
142 258
143 195
143 197
143 208
143 232
143 249
143 252
143 270
144 165
144 173
144 178
144 205
144 242
144 243
144 255
145 211
145 212
145 279
146 190
146 225
146 234
146 265
147 228
147 238
147 253
147 261
148 164
148 171
148 180
148 273
148 279
149 179
149 188
149 220
149 223
149 259
149 269
150 152
150 171
150 192
150 211
150 265
151 226
152 176
152 192
152 209
152 214
152 285
153 162
153 212
153 234
153 242
153 254
153 276
153 288
154 173
154 178
154 185
154 214
154 228
154 233
154 237
154 248
154 274
154 284
154 294
155 223
155 230
155 296
156 159
156 172
156 191
156 207
156 266
157 158
157 223
157 232
157 278
157 279
157 288
158 180
158 211
158 263
158 295
158 296
158 300
160 289
160 296
161 174
161 206
161 241
161 265
162 175
162 276
162 300
163 187
163 188
163 208
163 218
163 262
163 270
164 183
164 188
164 206
164 218
164 268
164 269
165 202
165 205
165 242
165 243
165 250
165 259
165 270
165 282
167 192
167 254
167 280
167 290
168 195
168 208
168 222
170 210
170 238
170 253
170 257
170 267
170 279
171 198
171 230
171 271
171 285
171 290
171 295
171 297
172 175
172 239
172 268
172 269
172 270
173 178
173 188
173 192
173 299
174 186
174 206
174 214
174 233
174 234
175 212
175 213
175 270
175 284
176 201
176 225
176 285
177 255
177 258
177 294
178 192
178 205
178 243
178 258
178 274
178 289
178 294
178 299
179 200
179 209
179 259
179 265
179 280
180 263
181 233
181 235
181 251
182 218
183 206
183 218
183 240
183 257
183 290
184 190
184 297
185 211
185 228
185 235
185 284
185 296
186 210
186 220
186 299
187 207
187 294
188 269
189 208
190 191
190 192
190 200
190 219
190 221
190 223
190 234
190 243
190 280
190 293
190 296
190 297
191 213
191 215
191 238
191 250
191 262
191 266
191 283
192 211
192 252
192 280
193 212
193 293
194 261
194 269
194 274
195 213
195 215
195 227
195 236
195 258
195 292
195 293
196 232
196 279
196 298
197 230
197 245
197 252
197 270
198 202
198 205
198 221
198 247
198 250
198 259
198 273
198 295
199 249
199 261
199 286
199 288
199 292
199 298
200 209
200 210
200 218
200 238
200 261
200 280
200 283
201 241
201 258
201 261
201 276
201 289
201 294
201 296
202 205
202 207
202 213
202 226
202 282
203 233
204 220
204 225
204 226
204 275
204 284
204 285
204 299
205 221
205 222
205 245
205 259
205 279
205 290
205 295
206 214
206 234
206 253
207 213
207 240
209 214
209 238
209 253
210 233
210 283
211 213
211 284
211 290
211 295
211 296
211 300
212 261
212 288
213 215
213 260
213 282
214 233
214 249
214 272
214 285
215 217
215 233
215 260
215 293
216 224
216 233
216 244
216 255
217 233
218 220
218 229
218 262
218 271
219 223
219 235
220 226
220 284
220 299
221 223
221 229
221 250
221 264
221 295
222 245
223 243
223 293
223 297
224 244
224 255
224 261
224 278
224 297
225 234
225 262
225 300
227 239
227 292
228 237
228 250
229 285
229 295
230 245
230 285
230 295
232 237
232 241
232 288
232 293
233 260
234 254
234 290
235 251
236 237
236 253
236 258
236 279
236 289
236 293
237 293
238 253
239 244
239 254
239 255
239 257
239 268
239 269
239 292
240 257
241 253
241 258
241 265
242 255
242 259
242 288
242 291
243 250
243 259
244 247
244 253
244 255
244 261
244 282
244 284
244 297
246 253
246 275
247 255
249 272
250 295
251 287
252 257
253 257
253 258
253 279
253 293
254 290
254 292
255 268
256 272
256 284
257 258
258 261
258 271
258 279
258 293
258 294
261 276
261 280
261 296
262 284
262 300
263 273
264 295
265 273
266 268
267 297
268 269
268 270
268 271
269 271
269 290
269 294
270 299
271 290
271 294
272 285
275 284
276 289
278 279
278 281
280 283
280 290
284 285
285 295
286 292
290 294
290 297
292 294
297 299
*Classes
1
1
1
1
1
1
1
1
1
1
1
1
1
1
1
1
1
1
1
1
1
1
1
1
1
1
1
1
1
1
1
1
1
1
1
1
1
1
1
1
1
1
1
1
1
1
1
1
1
1
1
1
1
1
1
1
1
1
1
1
1
1
1
1
1
1
1
1
1
1
1
1
1
1
1
1
1
1
1
1
1
1
1
1
1
1
1
1
1
1
1
1
1
1
1
1
1
1
1
1
1
1
1
1
1
1
1
1
1
1
1
1
1
1
1
1
1
1
1
1
1
1
1
1
1
1
1
1
1
1
1
1
1
1
1
1
1
1
1
1
1
1
1
1
1
1
1
1
1
1
2
2
2
2
2
2
2
2
2
2
2
2
2
2
2
2
2
2
2
2
2
2
2
2
2
2
2
2
2
2
2
2
2
2
2
2
2
2
2
2
2
2
2
2
2
2
2
2
2
2
2
2
2
2
2
2
2
2
2
2
2
2
2
2
2
2
2
2
2
2
2
2
2
2
2
2
2
2
2
2
2
2
2
2
2
2
2
2
2
2
2
2
2
2
2
2
2
2
2
2
2
2
2
2
2
2
2
2
2
2
2
2
2
2
2
2
2
2
2
2
2
2
2
2
2
2
2
2
2
2
2
2
2
2
2
2
2
2
2
2
2
2
2
2
2
2
2
2
2
2
