*Vertices 300
*Edges
1 295
2 17
2 79
2 91
2 208
2 232
2 236
3 28
3 32
3 48
3 64
3 116
3 165
3 191
3 217
3 264
4 7
4 12
4 16
4 25
4 37
4 53
4 63
4 79
4 87
4 108
4 112
4 135
4 169
4 198
4 201
4 228
4 261
5 7
5 11
5 34
5 79
5 81
5 127
5 133
5 149
5 150
5 236
5 238
5 245
5 283
6 43
6 49
6 51
6 71
6 77
6 146
6 157
6 170
6 246
6 263
6 266
7 29
7 33
7 44
7 66
7 79
7 86
7 87
7 99
7 113
7 123
7 163
7 197
7 233
8 47
8 68
8 87
8 88
8 90
8 114
8 149
8 163
8 251
8 268
9 17
9 56
9 75
9 91
9 223
9 289
10 12
10 31
10 33
10 51
10 69
10 92
10 98
10 156
10 196
10 254
10 277
10 298
11 33
11 34
11 134
11 136
11 245
11 246
11 274
12 31
12 33
12 69
12 108
12 215
12 244
13 169
13 250
13 269
14 29
14 63
14 90
14 123
14 172
14 256
15 44
15 61
15 63
15 90
15 118
15 138
15 147
15 167
15 174
15 189
15 210
15 215
15 221
15 262
15 270
15 273
16 25
16 37
16 63
16 112
16 159
16 174
16 189
16 192
16 228
16 239
16 259
16 278
17 56
17 75
17 196
17 236
17 254
18 57
18 68
18 82
18 117
18 121
18 122
18 151
19 32
19 43
19 109
19 135
19 143
19 195
19 198
19 200
19 221
20 88
20 101
20 156
20 179
20 192
20 231
20 254
20 277
21 154
21 174
21 192
21 211
21 273
21 282
22 76
22 79
22 129
22 158
22 204
22 222
22 295
22 296
23 70
23 74
23 158
23 195
23 196
23 203
23 206
23 284
24 30
24 84
24 97
24 104
24 153
24 256
24 275
25 154
25 293
26 85
26 93
26 98
26 107
26 131
26 147
26 186
27 28
27 64
27 190
27 215
27 244
27 251
28 48
28 64
28 69
28 103
28 125
28 132
28 145
28 151
28 165
28 217
28 227
28 266
29 79
29 87
29 123
29 128
29 173
29 183
29 210
29 233
29 268
30 52
30 57
30 84
30 97
30 107
30 134
30 196
30 254
30 290
31 111
31 126
31 173
31 181
31 229
32 86
32 89
32 145
32 173
32 190
32 201
32 204
32 217
32 225
32 227
32 228
32 241
33 69
33 84
33 96
33 98
33 113
33 157
33 233
33 258
33 269
33 270
33 276
34 56
34 127
34 134
34 141
34 143
34 168
35 93
35 147
35 162
35 164
35 174
35 207
35 237
35 242
35 246
35 300
36 192
36 222
36 227
36 229
36 256
36 290
37 71
37 113
37 189
37 247
38 88
39 58
39 80
39 88
39 179
39 182
39 196
40 54
40 55
40 94
40 111
40 141
40 143
40 192
40 204
40 227
40 237
41 87
41 162
41 169
41 182
41 194
41 206
41 227
42 152
42 185
42 205
42 216
43 55
43 71
43 77
43 78
43 109
43 169
43 198
43 246
43 255
43 300
44 66
44 118
44 221
44 238
45 64
45 83
45 149
45 175
45 194
45 198
45 200
45 240
45 250
45 251
45 265
45 274
46 80
46 82
46 97
46 148
46 153
46 211
46 232
46 235
46 253
46 257
46 266
46 288
47 50
47 53
47 72
47 87
47 114
47 133
47 137
47 176
47 208
47 225
47 235
47 285
47 289
48 202
49 67
49 114
49 146
49 155
49 176
49 190
49 198
49 246
49 272
49 281
49 294
50 59
50 68
50 71
50 75
50 114
50 177
50 201
50 230
50 232
50 254
50 285
51 69
51 105
51 170
51 173
51 247
51 265
51 277
51 299
52 134
52 148
52 174
52 175
52 200
52 204
52 227
52 272
52 281
52 289
53 55
53 100
53 112
53 114
53 148
53 169
53 215
53 272
53 279
54 94
54 173
55 71
55 94
55 100
55 112
55 151
55 155
55 169
55 175
55 187
55 256
55 275
56 68
56 82
56 149
56 168
56 234
57 85
57 107
57 118
57 192
57 289
58 80
58 84
58 90
58 128
58 147
58 182
58 219
59 62
59 110
59 178
59 182
59 206
59 224
59 226
59 231
59 269
59 293
59 299
60 91
60 119
60 153
60 205
60 232
60 256
60 294
61 130
61 138
61 159
61 161
61 205
61 210
61 259
61 298
62 105
62 110
62 133
62 138
62 182
62 187
62 193
62 201
62 209
62 246
62 252
62 254
62 260
62 265
62 294
62 299
63 65
63 69
63 73
63 97
63 135
63 148
63 167
63 168
63 187
64 132
64 149
64 174
64 192
64 209
64 227
64 236
64 251
64 256
64 266
64 296
64 300
65 69
65 72
65 73
65 83
65 97
65 109
65 186
65 190
65 199
66 79
66 86
66 117
66 175
66 197
66 202
66 249
66 259
66 289
67 89
67 120
67 130
67 146
67 150
67 195
67 200
67 222
67 250
67 282
68 75
68 118
68 122
68 124
68 145
68 149
68 152
68 153
68 178
68 190
68 196
68 211
68 251
68 258
68 259
68 268
68 270
68 288
69 187
69 227
69 247
69 248
69 260
69 277
69 297
70 74
70 117
70 140
70 176
70 209
70 249
70 255
70 266
70 287
71 75
71 77
71 113
71 160
71 169
71 170
71 208
71 226
71 242
71 246
71 266
71 269
72 83
72 114
72 137
72 177
72 190
72 225
72 247
72 257
72 283
72 292
73 76
73 97
73 109
73 161
73 168
73 170
73 199
74 123
74 196
74 232
74 264
74 284
75 89
75 122
75 130
75 149
75 152
75 190
75 211
75 248
76 109
76 143
76 158
76 226
76 294
77 115
77 172
77 202
77 208
77 262
78 84
78 137
78 190
78 201
78 207
78 213
78 225
78 247
78 284
79 122
79 130
79 150
79 153
79 200
79 204
79 232
79 233
79 257
80 82
80 97
80 110
80 142
80 147
80 162
80 212
80 261
80 288
81 103
81 133
81 211
81 255
81 292
81 295
82 115
82 122
82 151
82 171
82 175
82 187
82 237
82 257
82 290
82 300
83 149
83 247
84 93
84 97
84 110
84 137
84 147
84 284
84 293
85 93
85 148
85 190
85 225
86 99
86 163
87 114
87 128
87 147
87 185
87 189
87 201
87 222
87 227
87 257
87 287
87 298
88 90
88 179
88 256
89 107
89 119
89 130
89 145
89 199
89 244
90 130
90 138
90 144
90 147
90 154
90 163
90 210
90 215
90 260
90 267
90 288
91 119
91 143
91 161
91 201
91 204
91 208
91 227
91 261
91 272
91 284
91 289
91 294
91 299
92 95
92 105
92 203
92 250
92 275
92 298
93 126
93 147
93 168
93 184
93 197
93 272
93 291
94 111
94 141
94 143
94 155
94 172
94 227
94 256
94 274
94 275
95 105
95 150
95 219
95 259
95 297
96 125
96 132
96 144
96 190
96 200
96 203
96 232
96 240
96 270
96 296
97 104
97 148
97 227
97 233
97 272
97 298
98 111
98 193
98 295
99 162
99 163
99 186
99 297
100 109
100 112
100 119
100 137
100 143
100 166
100 218
100 255
101 161
101 194
101 209
101 221
101 231
101 274
101 285
102 122
102 129
102 150
103 241
103 255
104 106
104 125
104 143
104 158
104 180
105 133
105 138
105 150
105 156
105 168
105 173
105 177
105 181
105 210
106 155
106 157
106 158
106 176
106 188
106 230
106 245
106 246
106 263
106 285
107 118
107 191
107 192
107 199
107 205
107 220
107 272
107 289
107 294
108 231
108 261
108 273
109 135
109 137
109 143
109 152
109 161
109 226
109 299
110 142
110 157
110 212
110 224
110 228
110 269
110 280
110 293
111 126
111 136
111 171
111 173
111 181
111 206
111 213
111 229
111 274
112 169
112 214
112 286
112 288
112 297
113 160
113 169
113 204
113 208
113 247
113 262
114 133
114 169
114 189
114 191
114 246
115 208
115 272
115 291
116 191
116 207
116 221
116 294
116 297
117 121
117 122
117 140
117 152
117 174
117 178
117 223
117 248
117 249
117 255
117 266
117 272
117 275
118 122
118 191
118 196
118 205
118 261
118 289
119 136
119 141
119 143
119 163
119 165
119 209
119 252
119 272
120 122
120 210
120 222
120 223
121 135
121 178
121 236
122 145
122 150
122 211
122 258
122 288
123 173
123 256
124 145
124 173
124 256
125 132
125 158
125 248
126 172
126 203
126 295
127 211
127 224
127 236
128 147
128 185
128 205
128 221
128 227
128 287
129 167
129 225
130 138
130 150
130 178
130 196
130 250
130 254
130 257
131 145
131 222
132 174
132 192
132 207
132 220
132 223
132 294
133 211
133 295
134 290
135 158
135 195
135 236
136 143
136 181
136 245
137 146
137 176
137 213
137 247
138 144
138 154
138 161
138 200
138 205
138 246
138 252
138 260
139 184
139 185
139 254
140 216
140 230
140 232
140 284
140 285
140 287
141 143
141 157
141 175
141 214
141 228
141 232
141 237
141 278
141 293
141 296
142 178
142 247
142 251
142 294
142 299
143 175
143 187
143 227
143 251
143 272
143 290
143 296
144 177
144 247
145 171
145 173
145 213
145 217
145 222
145 229
145 256
145 288
146 155
146 172
146 195
146 246
147 167
147 182
147 184
147 209
147 250
148 180
148 272
148 287
148 294
149 153
149 245
150 153
150 167
150 197
151 155
151 157
151 217
152 185
152 218
152 219
152 224
152 232
152 248
152 284
153 256
154 207
154 211
154 220
154 293
155 157
155 190
155 225
155 267
156 192
156 235
156 277
156 289
157 176
157 182
157 212
157 222
157 258
157 263
157 269
157 270
157 278
158 195
159 179
159 212
159 214
159 250
159 259
159 269
159 296
160 188
160 191
160 197
160 226
160 266
161 194
161 197
161 251
162 212
162 227
162 298
162 300
163 198
163 238
163 246
164 242
164 269
165 172
165 174
165 176
165 192
165 209
165 217
166 210
166 215
166 226
167 225
167 234
167 257
167 285
168 195
168 210
168 272
168 291
169 198
169 204
169 238
170 246
170 249
170 265
171 178
171 203
171 204
171 216
171 227
171 251
171 298
171 300
172 176
172 192
172 200
172 202
172 203
172 224
172 256
172 284
173 174
173 219
173 223
173 248
173 275
173 282
174 175
174 188
174 189
174 192
174 197
174 207
174 248
174 281
175 187
175 259
175 274
175 281
175 290
176 214
176 217
176 240
176 246
176 249
176 251
176 289
176 296
177 205
177 254
178 206
178 215
178 244
178 251
178 253
178 257
179 225
179 257
179 259
179 297
180 204
181 190
181 227
181 228
181 239
181 287
182 219
182 263
183 229
183 280
184 198
184 222
184 258
184 263
186 208
187 259
187 260
188 192
188 197
188 207
189 223
189 239
189 243
189 248
189 270
189 281
190 199
190 201
190 202
190 215
190 225
190 232
190 239
190 253
190 270
190 281
191 195
191 291
191 294
192 209
192 229
192 248
192 264
193 206
193 299
194 206
194 251
194 264
194 267
194 285
194 286
195 291
196 251
196 254
198 212
198 222
198 223
198 238
198 246
198 265
198 283
198 287
198 300
199 235
199 270
199 289
200 203
200 204
200 205
200 227
200 240
200 249
200 250
200 265
201 209
201 241
201 244
201 253
201 257
201 262
201 266
202 215
202 218
202 281
202 284
202 293
203 222
203 224
203 251
203 295
204 227
204 240
204 256
204 265
204 298
205 216
205 240
206 226
206 229
206 257
206 264
206 266
207 220
207 246
207 274
207 281
209 221
209 241
209 266
210 215
210 218
210 244
210 258
210 271
210 288
210 292
211 220
211 293
212 249
212 250
212 265
212 269
212 300
213 229
213 237
213 241
214 296
214 297
215 244
215 258
215 270
215 292
216 227
216 241
216 262
217 264
218 231
218 232
218 255
218 282
218 284
218 287
218 288
218 289
218 293
219 223
219 248
219 259
219 263
220 223
222 227
222 263
222 265
222 287
222 295
223 248
224 235
224 248
224 257
224 282
224 284
225 257
225 259
225 282
225 283
226 236
226 264
226 266
226 267
227 251
227 253
227 256
227 259
227 287
227 290
227 297
227 298
227 300
228 241
228 262
229 264
229 280
230 245
230 278
230 285
231 232
231 257
231 274
232 257
232 270
232 274
232 282
232 284
232 289
234 288
235 249
235 282
235 289
236 282
236 283
237 241
238 245
238 246
238 277
238 300
239 270
239 287
240 259
240 296
240 297
241 262
242 269
242 276
243 247
243 258
243 270
244 253
244 264
246 265
246 274
246 281
246 283
246 296
247 262
247 270
249 265
249 289
250 265
250 269
250 275
250 280
251 254
251 259
251 262
251 296
254 295
255 275
255 282
255 287
256 290
257 270
257 282
258 262
258 270
259 290
259 294
259 296
259 297
261 294
262 270
262 296
265 283
267 285
267 286
268 271
269 275
269 276
269 280
270 281
271 280
271 288
272 291
272 294
273 282
276 280
278 285
283 292
284 293
286 288
294 299
297 300
*Classes
1
1
1
1
1
1
1
1
1
1
1
1
1
1
1
1
1
1
1
1
1
1
1
1
1
1
1
1
1
1
1
1
1
1
1
1
1
1
1
1
1
1
1
1
1
1
1
1
1
1
1
1
1
1
1
1
1
1
1
1
1
1
1
1
1
1
1
1
1
1
1
1
1
1
1
1
1
1
1
1
1
1
1
1
1
1
1
1
1
1
1
1
1
1
1
1
1
1
1
1
1
1
1
1
1
1
1
1
1
1
1
1
1
1
1
1
1
1
1
1
1
1
1
1
1
1
1
1
1
1
1
1
1
1
1
1
1
1
1
1
1
1
1
1
1
1
1
1
1
1
2
2
2
2
2
2
2
2
2
2
2
2
2
2
2
2
2
2
2
2
2
2
2
2
2
2
2
2
2
2
2
2
2
2
2
2
2
2
2
2
2
2
2
2
2
2
2
2
2
2
2
2
2
2
2
2
2
2
2
2
2
2
2
2
2
2
2
2
2
2
2
2
2
2
2
2
2
2
2
2
2
2
2
2
2
2
2
2
2
2
2
2
2
2
2
2
2
2
2
2
2
2
2
2
2
2
2
2
2
2
2
2
2
2
2
2
2
2
2
2
2
2
2
2
2
2
2
2
2
2
2
2
2
2
2
2
2
2
2
2
2
2
2
2
2
2
2
2
2
2
