*Vertices 300
*Edges
1 14
1 56
1 67
1 70
1 84
1 148
2 45
2 201
2 221
2 249
2 250
2 287
2 294
3 28
3 82
3 102
3 120
3 124
3 180
3 206
3 260
3 287
4 32
4 55
4 108
4 139
4 159
4 198
4 278
5 40
5 205
5 297
6 19
6 32
6 212
6 280
7 21
7 57
7 93
7 99
7 141
7 223
7 239
7 293
7 300
8 57
8 76
8 99
8 104
8 112
8 121
8 173
8 174
8 188
8 226
8 242
8 269
8 271
8 295
9 45
9 46
9 89
9 116
9 117
9 183
9 230
9 294
10 277
10 291
11 29
11 64
11 71
11 75
11 79
11 82
11 88
11 96
11 102
11 103
11 104
11 108
11 130
11 134
11 135
11 279
11 289
12 68
12 87
12 99
12 115
13 19
13 32
13 71
13 73
13 88
13 96
13 111
13 117
13 146
13 290
14 181
14 231
15 57
15 199
16 25
16 67
16 69
16 70
16 90
16 95
16 105
16 111
16 121
16 138
16 193
16 232
16 296
17 37
17 47
17 103
17 120
18 36
18 39
18 40
18 43
18 48
18 61
18 90
18 105
18 106
18 113
18 121
18 123
18 124
18 141
18 170
18 226
18 244
19 32
19 96
19 215
19 270
19 290
20 26
20 70
20 76
20 118
20 121
20 129
20 138
20 148
20 180
20 260
20 261
21 27
21 36
21 99
21 107
21 121
21 156
21 191
21 262
22 35
22 63
22 80
22 142
22 187
22 222
22 234
22 239
22 240
22 292
22 297
23 31
23 59
23 65
23 102
23 204
23 254
23 298
24 76
24 165
24 229
25 51
25 82
25 85
25 90
25 140
25 147
25 227
25 243
25 285
26 70
26 98
26 118
26 129
26 189
27 107
27 298
28 48
28 102
28 124
28 137
28 287
28 300
29 32
29 52
29 60
29 71
29 92
29 95
29 217
30 38
30 71
30 75
30 80
30 81
30 92
30 111
30 164
30 289
31 94
31 106
31 138
31 145
31 170
31 184
31 203
31 204
31 240
31 285
32 35
32 55
32 71
32 90
32 96
32 117
32 140
32 146
32 159
33 38
33 55
33 195
33 200
33 223
33 288
33 295
33 296
34 72
34 138
34 186
34 288
35 47
35 85
35 90
35 92
35 110
35 133
35 136
35 137
35 140
35 146
35 208
35 273
35 276
35 292
36 38
36 43
36 81
36 83
36 123
36 141
36 159
36 161
36 190
36 191
36 216
36 222
37 73
37 86
37 89
37 100
37 119
37 131
37 146
37 219
37 222
38 55
38 80
38 81
38 108
38 110
38 111
38 134
38 139
38 159
38 189
39 65
39 86
39 90
39 92
39 119
39 133
39 136
39 154
39 165
39 208
39 281
40 43
40 60
40 176
40 207
40 254
41 140
41 232
41 250
41 280
42 119
42 139
42 207
42 222
42 279
43 61
43 96
43 113
43 143
43 154
43 157
43 159
43 254
44 50
44 148
44 159
44 179
44 300
45 70
45 99
45 116
45 117
45 123
45 125
45 148
45 159
45 190
45 250
46 89
46 99
46 117
46 143
46 172
46 183
46 225
46 234
46 269
47 50
47 83
47 110
47 120
47 134
47 185
47 192
47 274
48 60
48 95
48 112
48 113
48 198
49 53
49 68
49 78
49 122
49 150
49 166
49 225
49 241
50 53
50 140
50 148
50 247
50 263
51 80
51 89
51 119
51 131
51 147
51 162
51 210
51 211
51 262
52 95
52 117
52 139
52 146
52 155
52 177
52 207
52 294
53 58
53 66
53 126
53 164
53 175
53 203
53 236
53 273
53 274
53 286
54 157
55 58
55 63
55 110
55 150
55 166
55 243
55 292
56 67
56 97
56 105
56 108
56 128
56 139
56 195
56 271
57 73
57 121
57 135
57 141
57 188
57 286
57 289
58 60
58 66
58 109
58 185
58 243
59 65
59 108
59 121
59 122
59 124
59 160
59 226
59 243
59 260
60 61
60 95
60 112
60 113
60 166
60 169
60 255
61 72
61 128
61 195
61 196
61 243
61 247
62 159
62 204
62 241
62 278
63 89
63 101
63 180
63 198
63 239
63 247
63 292
64 77
64 93
64 134
64 137
64 200
64 246
65 68
65 99
65 102
65 124
65 133
65 162
65 193
65 202
66 75
66 89
66 134
66 149
66 172
66 181
66 183
66 234
66 286
67 105
67 170
67 225
68 99
68 121
68 122
68 133
68 200
68 249
68 265
69 70
69 95
69 237
69 251
69 292
69 296
70 76
70 84
70 121
70 129
70 148
70 186
70 228
70 245
70 262
71 75
71 92
71 95
71 217
71 262
72 138
72 207
73 100
73 117
73 222
73 289
74 148
74 150
74 157
74 235
74 296
75 89
75 91
75 92
75 110
75 116
75 131
75 134
75 177
75 181
75 223
76 81
76 106
76 173
76 251
77 84
77 93
77 108
77 114
77 132
77 137
77 170
78 241
78 259
78 265
79 82
79 85
79 96
79 102
79 104
79 139
79 194
79 283
80 187
80 242
81 92
81 106
81 111
81 123
81 127
81 152
81 164
81 179
81 251
82 120
82 134
82 138
82 180
82 184
82 198
82 199
82 213
83 96
83 115
83 159
83 185
83 219
83 274
84 124
84 151
84 286
84 291
85 90
85 140
85 226
85 247
86 89
86 90
86 119
86 136
86 221
86 291
87 101
87 104
87 115
87 135
88 91
88 96
88 149
89 101
89 117
89 119
89 131
89 134
89 202
89 204
89 223
89 262
89 299
90 124
90 140
90 163
90 221
90 282
91 149
92 133
92 199
92 269
92 282
93 108
93 121
93 152
93 191
93 198
93 214
93 223
93 239
93 244
93 247
93 299
94 138
94 256
95 127
95 180
95 211
95 231
95 241
95 256
95 260
96 111
96 149
96 175
96 241
96 254
96 262
97 108
97 264
98 112
98 136
98 147
98 189
98 238
99 101
99 121
99 132
99 158
99 168
99 250
100 118
100 131
100 146
100 177
101 104
101 121
101 141
101 239
101 253
101 268
101 285
102 130
102 134
102 135
102 144
102 167
102 176
102 187
102 196
102 199
102 225
102 265
103 134
104 108
104 121
104 198
104 213
104 245
104 285
104 299
105 142
105 170
105 220
105 229
105 232
105 234
106 134
106 163
106 166
106 170
106 232
106 251
108 120
108 139
108 198
108 203
108 222
108 243
108 245
108 253
108 255
108 268
109 246
109 258
110 133
110 134
110 186
110 198
110 255
111 193
112 147
112 155
112 242
112 284
113 149
113 298
114 122
114 126
114 132
114 201
115 149
115 150
115 155
115 161
115 183
115 217
115 219
115 248
115 252
116 118
116 143
116 223
118 129
118 143
119 131
119 136
119 222
120 179
120 213
120 249
120 265
120 285
121 135
121 138
121 151
121 156
121 173
121 226
121 299
122 124
122 126
123 141
123 148
123 179
123 239
123 282
123 288
124 153
124 166
124 171
124 238
124 260
124 262
125 250
126 178
126 203
126 222
126 276
126 299
127 211
128 182
128 195
128 212
129 140
130 144
130 167
130 170
130 225
130 283
131 202
131 229
131 234
131 299
132 151
132 163
132 227
132 255
132 275
132 296
133 137
133 146
133 208
133 224
133 253
133 287
134 170
134 245
134 255
134 288
135 198
135 209
135 226
135 247
135 262
136 137
136 178
136 222
137 163
137 230
137 231
137 233
137 268
137 272
137 287
138 166
138 172
138 182
138 261
139 150
139 154
139 155
139 170
139 183
139 283
140 185
140 197
140 232
140 234
140 263
141 285
142 159
142 170
143 190
143 196
143 220
143 274
144 210
146 185
147 173
147 176
148 150
148 156
148 159
148 228
148 276
148 285
149 229
150 157
150 166
150 184
150 219
150 247
151 169
151 214
151 227
151 254
151 299
152 174
152 193
152 233
152 247
152 249
152 260
152 264
152 277
153 223
153 260
153 293
154 165
154 183
154 229
154 230
154 248
154 266
154 281
154 283
155 163
155 168
155 172
155 227
155 248
155 284
156 168
156 170
156 219
156 245
156 255
156 285
156 299
157 159
157 191
157 269
157 278
157 296
158 161
158 196
158 225
159 212
159 257
160 163
160 174
160 284
160 287
161 176
161 190
161 191
161 196
161 199
161 206
161 225
161 278
162 202
162 272
162 282
163 232
163 252
163 258
163 275
163 282
163 284
164 218
164 236
164 241
165 175
165 183
165 228
165 229
165 245
166 182
166 201
166 215
166 243
166 260
167 170
167 171
167 285
168 279
168 285
169 175
169 214
169 235
169 254
169 283
170 229
170 283
171 173
171 243
171 262
171 285
172 225
172 227
172 241
172 248
172 250
172 259
172 291
173 175
173 176
173 179
173 217
173 248
173 269
173 281
173 296
174 204
174 212
174 236
174 249
175 182
175 234
175 247
175 253
175 254
175 264
175 268
175 270
175 280
175 281
175 285
175 286
175 290
176 196
176 225
176 247
176 264
178 183
178 190
178 194
178 222
178 223
178 269
178 297
179 224
179 276
179 281
179 300
180 185
180 194
180 197
180 211
180 216
180 260
181 214
181 277
181 289
182 194
182 201
182 215
182 239
182 243
182 253
182 256
182 277
182 294
183 230
183 244
183 252
183 254
183 282
183 293
183 294
184 198
184 247
184 300
185 197
185 233
185 287
186 188
186 202
186 242
187 199
187 210
188 224
188 242
188 264
188 271
188 281
188 296
189 190
189 197
189 206
189 237
190 197
190 199
190 206
190 252
190 264
190 269
190 276
190 278
190 282
190 293
190 300
191 197
191 199
191 224
191 228
191 253
191 278
191 287
192 203
192 229
192 237
192 256
192 274
193 219
193 224
193 233
193 247
193 259
193 264
193 278
193 281
193 291
193 296
194 216
194 243
194 247
194 248
194 269
194 275
194 291
196 198
196 207
196 221
196 225
196 239
196 242
196 247
197 216
197 219
197 224
197 227
197 229
197 230
197 232
197 282
197 288
197 291
198 243
198 247
198 262
198 292
199 222
199 241
199 265
200 288
200 295
201 207
201 221
201 238
201 239
201 256
201 269
201 294
201 297
202 262
202 272
203 236
203 237
203 256
203 272
203 273
203 299
204 207
204 212
204 254
204 262
204 285
204 298
205 213
205 220
205 244
205 247
205 286
206 242
206 248
206 252
206 276
206 282
207 247
207 280
207 294
207 298
208 286
208 292
209 242
209 262
211 235
211 241
211 298
212 229
212 257
212 298
213 224
213 261
214 233
214 244
214 250
214 268
214 277
214 279
214 299
215 253
215 254
216 253
216 260
216 269
216 270
216 287
217 296
218 229
218 234
218 236
218 258
218 262
219 224
219 239
219 252
219 266
219 281
219 291
220 249
221 238
221 263
222 279
223 293
223 295
223 299
224 229
224 253
224 278
224 281
225 259
226 244
227 291
227 296
228 245
228 253
228 267
229 234
229 237
229 257
230 232
230 244
230 254
230 283
232 243
232 247
233 268
233 277
233 288
234 240
234 257
234 285
235 241
235 261
235 274
236 258
237 292
238 260
238 290
239 247
239 285
239 288
239 291
240 292
241 250
242 248
242 266
242 284
242 295
242 296
243 247
243 258
243 262
243 267
243 269
244 286
245 255
245 296
246 263
246 264
246 271
247 249
247 280
247 299
248 264
248 266
248 281
248 291
249 253
249 265
249 277
250 259
252 276
252 281
252 282
252 291
253 254
253 262
253 268
253 277
253 279
253 287
254 262
254 264
254 270
254 281
254 283
255 285
255 288
256 297
258 262
258 268
258 284
259 265
264 271
264 276
264 278
264 281
264 283
265 298
266 291
268 284
268 299
269 275
269 297
270 290
271 299
273 274
273 276
273 277
273 279
273 286
273 294
275 282
275 284
275 297
276 293
276 300
277 279
277 289
277 291
277 294
279 289
282 288
289 294
295 296
*Classes
1
1
1
1
1
1
1
1
1
1
1
1
1
1
1
1
1
1
1
1
1
1
1
1
1
1
1
1
1
1
1
1
1
1
1
1
1
1
1
1
1
1
1
1
1
1
1
1
1
1
1
1
1
1
1
1
1
1
1
1
1
1
1
1
1
1
1
1
1
1
1
1
1
1
1
1
1
1
1
1
1
1
1
1
1
1
1
1
1
1
1
1
1
1
1
1
1
1
1
1
1
1
1
1
1
1
1
1
1
1
1
1
1
1
1
1
1
1
1
1
1
1
1
1
1
1
1
1
1
1
1
1
1
1
1
1
1
1
1
1
1
1
1
1
1
1
1
1
1
1
2
2
2
2
2
2
2
2
2
2
2
2
2
2
2
2
2
2
2
2
2
2
2
2
2
2
2
2
2
2
2
2
2
2
2
2
2
2
2
2
2
2
2
2
2
2
2
2
2
2
2
2
2
2
2
2
2
2
2
2
2
2
2
2
2
2
2
2
2
2
2
2
2
2
2
2
2
2
2
2
2
2
2
2
2
2
2
2
2
2
2
2
2
2
2
2
2
2
2
2
2
2
2
2
2
2
2
2
2
2
2
2
2
2
2
2
2
2
2
2
2
2
2
2
2
2
2
2
2
2
2
2
2
2
2
2
2
2
2
2
2
2
2
2
2
2
2
2
2
2
