*Vertices 300
*Edges
1 31
1 37
1 94
1 125
1 140
1 151
1 227
1 292
2 86
2 88
2 93
2 157
2 168
2 200
2 212
2 258
2 284
3 34
3 56
3 275
3 277
4 28
4 66
4 86
4 88
4 101
4 121
4 122
4 243
5 50
5 53
6 40
6 60
6 67
6 71
6 98
6 171
6 235
7 52
7 58
7 65
7 103
7 121
7 146
7 221
7 291
8 9
8 15
8 60
8 61
8 171
8 191
8 264
8 299
9 15
9 22
9 61
9 82
9 88
9 125
9 135
9 254
9 269
10 20
10 32
10 57
10 59
10 70
10 127
10 223
10 253
10 265
12 68
12 86
12 210
13 17
13 21
13 89
13 111
13 127
13 144
13 300
14 43
14 44
14 58
14 106
14 140
14 163
14 190
14 227
14 244
15 61
15 69
15 270
16 121
17 26
17 46
17 66
17 87
17 114
17 202
17 212
18 26
18 42
18 108
18 123
18 144
18 161
18 200
18 237
18 256
18 257
18 284
19 21
19 32
19 40
19 49
19 64
19 65
19 66
19 87
19 88
19 174
19 261
20 57
20 88
20 134
20 140
20 163
20 189
20 200
20 244
20 253
21 59
21 66
21 125
21 127
21 165
21 182
21 204
21 214
21 228
21 265
21 272
22 88
22 162
22 185
22 196
22 260
22 292
23 40
23 68
23 79
23 84
23 87
23 212
23 216
23 220
24 51
24 101
24 105
24 130
24 218
24 251
24 264
24 270
25 32
25 232
26 35
26 77
26 87
26 116
26 150
26 153
27 71
27 73
27 80
27 113
27 131
27 237
27 244
28 89
28 95
28 129
28 148
28 153
28 204
29 68
29 104
29 182
29 199
29 202
29 224
29 255
29 272
30 41
30 81
30 105
30 126
30 169
30 240
31 92
31 250
32 66
32 72
32 102
32 140
32 159
32 193
32 265
33 163
33 183
33 194
33 198
33 274
34 39
34 78
34 105
34 111
34 133
34 260
35 67
35 77
35 134
35 164
35 229
35 267
36 62
36 69
36 78
36 102
36 147
36 183
36 214
36 228
36 296
37 105
37 134
37 145
37 148
37 181
37 243
37 250
37 255
37 267
37 280
38 49
38 51
38 55
38 81
38 113
38 138
38 149
38 202
38 289
39 61
39 85
39 96
39 133
39 220
39 282
40 89
40 156
40 174
40 191
40 216
40 235
41 58
41 65
41 105
41 108
41 143
41 176
41 192
41 203
41 240
41 253
41 271
41 279
41 285
42 107
42 108
42 237
42 247
42 261
42 288
43 82
43 91
43 120
43 130
43 186
43 208
43 234
43 291
44 76
44 227
44 236
44 244
44 278
45 51
45 110
45 147
45 174
45 221
45 249
45 258
45 266
45 290
46 68
46 86
46 98
46 212
46 217
46 260
47 64
47 124
47 175
47 205
47 227
47 256
47 276
48 155
48 215
48 230
48 251
49 64
49 81
49 109
49 233
49 260
49 265
49 283
50 53
50 74
50 75
50 115
50 118
50 121
50 139
50 192
50 197
50 204
50 209
50 240
50 251
50 286
50 293
50 294
51 66
51 116
51 144
51 149
51 156
51 176
51 200
51 202
51 249
52 54
52 103
52 117
52 258
53 74
53 79
53 118
53 130
53 134
53 145
53 172
53 190
53 195
53 220
53 251
54 66
54 85
54 117
54 120
54 124
54 126
54 131
54 134
54 144
54 166
54 170
54 185
54 196
54 236
54 252
54 269
55 56
55 112
55 124
55 191
55 230
55 237
55 246
55 260
55 273
56 104
56 123
56 169
56 182
56 190
56 198
56 230
56 242
56 244
56 250
56 274
56 275
56 277
56 293
57 115
57 129
57 133
57 134
57 173
57 204
58 65
58 93
58 108
58 124
58 140
58 148
58 158
58 162
58 163
59 77
59 102
59 110
59 112
59 124
59 127
59 140
59 239
59 247
59 274
60 119
60 125
60 127
60 207
61 96
61 154
61 179
61 246
61 269
61 275
62 102
62 185
62 188
62 279
63 88
63 100
63 105
63 126
63 178
63 216
64 72
64 79
64 92
64 98
64 109
64 137
64 194
64 198
64 222
64 251
64 260
64 266
64 270
65 68
65 108
65 112
65 121
65 173
65 174
65 180
65 215
65 233
65 235
65 246
65 271
65 285
66 87
66 88
66 122
66 131
66 144
66 156
66 204
66 226
66 248
66 252
66 261
66 290
66 299
67 94
67 162
67 171
67 187
67 230
67 237
67 261
67 267
68 86
68 94
68 101
68 123
68 216
68 255
68 290
69 73
69 87
69 143
69 274
70 165
70 171
70 186
70 214
70 265
70 285
71 151
71 263
71 287
72 102
72 251
73 77
74 106
74 111
74 178
76 109
76 185
76 265
77 100
77 111
77 112
77 127
77 140
77 150
77 281
78 107
78 133
78 154
78 179
78 197
78 296
79 103
79 128
79 137
79 190
79 200
79 216
79 223
79 237
80 136
80 244
80 261
80 294
81 174
82 125
82 143
82 227
83 117
83 125
83 149
83 224
83 254
83 269
84 216
84 256
84 271
85 89
85 90
85 113
85 133
85 134
85 142
85 144
85 148
85 152
85 171
85 201
85 237
85 271
86 93
86 101
86 221
86 222
86 235
86 258
86 288
87 99
87 143
87 154
87 259
88 126
88 189
88 200
88 203
88 299
89 148
89 170
89 235
89 291
90 113
90 136
90 159
90 205
91 97
91 130
91 160
91 297
92 98
92 164
92 171
92 198
92 249
92 268
92 270
93 113
93 167
93 228
93 230
93 235
93 265
94 105
94 123
94 162
95 143
95 194
95 234
95 239
95 299
96 104
96 151
96 181
96 250
97 99
97 101
97 219
97 229
98 223
98 270
98 286
99 114
99 219
100 103
100 105
100 112
100 126
100 129
100 144
100 150
100 215
100 226
100 240
100 263
101 153
101 276
103 117
103 126
103 223
104 289
105 123
105 126
105 152
105 193
105 203
105 243
106 175
106 187
106 198
106 227
106 289
107 151
107 184
107 277
107 288
108 140
108 163
108 200
108 221
108 244
108 265
109 111
109 160
109 203
110 126
110 158
110 163
110 169
110 201
111 127
111 281
112 140
112 215
113 130
113 133
113 134
113 159
113 244
113 271
113 275
113 289
113 297
114 202
114 258
114 291
115 119
115 144
115 178
115 240
116 149
116 181
116 223
116 274
116 280
117 148
117 190
117 211
117 254
118 134
118 142
118 238
118 240
119 128
119 134
119 167
119 173
119 232
120 126
120 186
120 256
120 289
121 142
121 175
121 177
121 183
121 225
121 230
121 241
121 263
121 284
121 286
122 158
122 223
122 256
122 294
123 161
123 169
123 170
123 239
123 245
123 286
124 127
124 233
124 274
125 127
125 143
125 149
125 179
125 190
125 224
125 227
125 269
126 144
126 169
126 201
126 278
127 149
127 175
127 215
127 256
128 146
128 210
128 287
129 204
129 206
129 242
129 280
130 284
130 295
130 300
131 144
131 215
131 285
131 288
132 184
132 193
133 201
133 207
133 238
133 271
134 142
134 174
134 181
134 210
134 220
134 253
134 260
134 279
136 156
136 166
136 169
136 191
136 205
136 235
136 251
137 177
137 179
137 190
137 216
137 237
137 274
137 277
138 192
138 245
138 281
139 162
139 164
139 197
139 292
140 149
140 151
140 163
140 193
140 236
140 287
141 159
141 241
142 183
142 198
142 238
142 263
142 279
142 297
143 252
144 177
144 237
144 259
145 195
145 250
146 189
146 264
148 170
148 230
148 254
149 151
149 269
149 286
151 152
151 236
151 252
151 263
152 178
152 189
152 237
152 243
152 249
152 255
152 267
153 155
153 191
153 289
154 179
154 190
154 219
154 224
155 185
155 215
156 235
156 248
156 273
156 299
157 158
157 191
157 212
157 263
157 275
158 162
158 189
158 212
158 262
158 267
158 294
159 181
159 196
159 219
159 225
159 235
159 265
159 266
159 268
159 275
159 287
160 297
161 237
161 290
163 190
163 198
163 238
163 253
163 266
163 284
164 185
164 198
164 236
164 260
164 272
164 287
164 292
165 214
165 285
166 195
166 215
166 254
166 269
167 173
167 178
167 232
167 235
167 240
167 243
167 251
167 268
167 288
167 298
168 190
168 225
168 227
168 253
169 174
170 196
170 214
170 242
170 280
170 286
171 186
171 261
171 299
172 190
172 232
173 205
173 215
173 240
173 251
173 275
174 198
174 206
174 211
174 236
174 239
174 253
174 261
174 262
174 265
174 271
174 273
175 178
175 186
175 215
175 221
175 289
175 294
175 296
176 225
176 228
176 271
177 180
177 190
177 198
177 212
177 235
177 291
178 240
178 243
178 296
179 190
179 198
179 234
179 258
179 291
179 299
180 215
180 230
180 235
180 252
180 275
180 289
180 298
181 225
181 275
182 205
182 217
182 254
182 257
182 259
183 195
183 226
183 239
183 262
183 273
184 220
184 281
184 284
185 246
185 260
185 293
186 193
186 243
186 256
186 285
186 288
186 294
186 296
187 188
187 247
188 214
188 243
188 247
189 210
189 255
189 262
189 267
189 288
189 298
190 195
190 198
190 200
190 211
190 226
190 237
190 274
191 212
191 246
192 281
192 286
193 243
193 265
193 287
194 198
194 202
194 231
195 203
195 223
195 226
195 239
195 262
196 250
196 271
196 280
197 206
197 230
197 251
197 296
198 273
198 280
199 236
201 249
202 207
202 216
202 262
202 268
203 214
203 223
203 233
203 236
203 242
203 244
203 257
203 280
203 284
203 296
204 205
204 248
204 290
205 206
205 211
205 254
205 256
205 276
206 211
206 252
206 276
206 280
207 232
207 268
209 232
209 293
210 227
210 255
210 266
210 276
210 290
211 226
211 237
211 253
212 235
212 275
213 232
213 282
214 217
214 221
214 244
214 291
214 296
215 226
215 235
215 240
215 249
215 269
215 275
215 291
215 296
215 298
216 225
216 262
216 297
217 227
217 233
217 242
217 257
217 265
217 266
218 296
218 298
219 224
219 275
219 283
219 296
220 286
221 244
221 258
221 265
221 291
221 300
222 242
223 236
223 239
223 245
223 272
223 273
223 274
223 280
223 286
224 255
224 257
224 260
224 278
225 241
225 253
225 284
225 287
226 237
226 238
226 275
226 284
226 288
226 291
227 266
228 241
228 277
228 285
228 296
229 256
229 266
230 242
230 246
230 251
230 282
233 235
233 242
233 265
233 287
235 252
235 268
235 289
236 252
236 253
236 272
237 256
237 273
238 257
238 271
238 281
238 284
238 291
239 247
239 265
241 243
241 277
241 288
242 285
242 293
243 249
243 288
243 289
244 277
244 278
245 257
245 272
245 281
246 260
246 285
247 256
248 252
249 264
249 268
250 255
250 277
250 280
251 260
251 282
252 280
253 271
253 272
253 279
253 284
254 276
255 277
256 266
257 260
257 272
257 284
258 272
258 288
258 291
258 298
259 284
260 278
262 265
263 276
263 285
263 293
264 298
265 272
265 283
266 268
266 276
271 281
272 280
272 288
273 280
275 288
275 290
275 298
279 293
280 286
281 284
284 300
285 293
286 293
288 298
289 298
296 298
*Classes
1
1
1
1
1
1
1
1
1
1
1
1
1
1
1
1
1
1
1
1
1
1
1
1
1
1
1
1
1
1
1
1
1
1
1
1
1
1
1
1
1
1
1
1
1
1
1
1
1
1
1
1
1
1
1
1
1
1
1
1
1
1
1
1
1
1
1
1
1
1
1
1
1
1
1
1
1
1
1
1
1
1
1
1
1
1
1
1
1
1
1
1
1
1
1
1
1
1
1
1
1
1
1
1
1
1
1
1
1
1
1
1
1
1
1
1
1
1
1
1
1
1
1
1
1
1
1
1
1
1
1
1
1
1
1
1
1
1
1
1
1
1
1
1
1
1
1
1
1
1
2
2
2
2
2
2
2
2
2
2
2
2
2
2
2
2
2
2
2
2
2
2
2
2
2
2
2
2
2
2
2
2
2
2
2
2
2
2
2
2
2
2
2
2
2
2
2
2
2
2
2
2
2
2
2
2
2
2
2
2
2
2
2
2
2
2
2
2
2
2
2
2
2
2
2
2
2
2
2
2
2
2
2
2
2
2
2
2
2
2
2
2
2
2
2
2
2
2
2
2
2
2
2
2
2
2
2
2
2
2
2
2
2
2
2
2
2
2
2
2
2
2
2
2
2
2
2
2
2
2
2
2
2
2
2
2
2
2
2
2
2
2
2
2
2
2
2
2
2
2
