*Vertices 300
*Edges
1 10
1 30
1 43
1 51
1 53
1 68
1 71
1 92
1 119
1 128
1 133
1 185
1 201
1 202
1 215
1 225
1 226
1 264
1 266
1 300
2 10
2 12
2 38
2 89
2 147
2 153
2 176
2 243
2 252
2 272
3 40
3 187
3 295
4 27
4 124
4 129
4 164
4 178
4 214
4 298
5 22
5 51
5 59
5 103
5 109
5 120
5 143
5 151
5 198
5 207
5 263
5 273
6 33
6 85
6 110
6 131
6 279
6 298
7 25
7 29
7 58
7 61
7 65
7 66
7 116
7 127
7 169
7 185
7 193
7 197
8 24
8 65
8 94
8 96
8 100
8 108
8 140
8 154
8 167
8 183
8 187
8 289
8 294
9 63
9 118
9 119
9 128
9 147
9 198
9 216
9 289
9 297
10 37
10 144
10 155
10 179
10 230
10 233
10 243
10 266
10 269
11 81
11 104
11 143
11 191
11 238
11 265
11 270
12 42
12 91
12 98
12 102
12 112
12 137
12 165
12 198
12 227
12 243
13 24
13 109
13 132
13 151
13 176
14 31
14 36
14 61
14 65
14 83
14 93
14 109
14 135
14 136
14 174
14 181
14 207
14 242
14 266
14 268
14 276
14 281
14 282
14 283
14 299
15 19
15 25
15 28
15 48
15 194
16 34
16 59
16 120
16 121
16 124
16 136
16 168
16 172
16 185
16 200
16 300
17 88
17 144
17 145
17 206
17 222
17 244
17 248
17 253
17 276
17 281
18 37
18 38
18 132
18 139
18 174
18 233
18 236
18 259
19 25
19 49
19 151
19 176
19 215
19 233
19 254
19 264
20 67
20 79
20 101
20 118
20 137
20 182
20 219
20 238
21 121
21 199
21 221
22 46
22 60
22 64
22 120
22 130
22 152
22 195
22 249
22 264
22 270
22 283
22 300
23 40
23 99
23 112
23 170
23 195
23 214
23 215
23 252
23 263
23 273
24 65
24 109
24 128
24 132
24 140
24 154
24 231
25 28
25 58
25 65
25 129
25 168
25 240
25 261
25 269
25 288
26 66
26 75
26 119
26 141
26 179
27 78
27 124
27 169
27 222
28 59
28 121
28 153
28 186
28 194
28 264
29 46
29 61
29 152
29 277
30 61
30 68
30 78
30 169
30 175
30 187
30 193
30 215
30 224
30 225
31 61
31 89
31 136
31 201
31 207
31 230
31 233
31 253
31 270
32 36
32 54
32 199
32 213
32 215
32 260
33 45
33 110
33 270
34 35
34 63
34 70
34 84
34 88
34 89
34 97
34 105
34 110
34 122
34 130
34 146
34 147
34 148
34 154
34 164
34 168
34 193
34 202
34 214
34 215
34 229
34 238
34 251
34 259
34 269
35 89
35 110
35 130
35 132
35 215
35 259
36 47
36 70
36 97
36 133
36 136
36 157
36 175
36 187
36 210
36 260
37 144
37 163
37 174
37 236
37 243
37 258
38 46
38 71
38 152
38 177
38 233
38 269
39 70
39 136
39 244
39 253
39 297
40 76
40 87
40 295
41 51
41 68
41 71
41 75
41 108
41 119
41 126
41 167
41 172
41 294
42 50
42 162
42 165
42 274
43 51
43 52
43 93
43 144
43 175
43 177
43 198
43 214
43 251
43 272
43 298
44 71
44 83
44 93
44 193
44 204
44 214
44 229
44 254
44 298
45 49
45 110
45 134
45 146
45 180
45 213
45 259
46 64
46 71
46 103
46 114
46 117
46 124
46 152
46 207
47 153
47 187
48 53
48 64
48 95
48 108
48 113
48 162
48 184
48 211
48 223
48 264
48 267
48 283
48 298
49 79
49 134
49 181
49 213
49 264
50 63
50 135
50 201
50 240
51 126
51 143
51 145
51 152
51 159
51 194
51 203
51 225
51 240
51 264
51 266
52 64
52 119
52 150
52 214
52 264
52 283
52 299
52 300
53 95
53 125
53 202
53 204
53 250
53 273
53 298
54 56
54 121
54 130
54 199
54 213
54 254
54 261
54 264
55 65
55 83
55 99
55 115
55 116
55 117
55 119
55 134
55 138
55 154
55 177
55 183
55 184
55 237
55 247
55 249
55 265
55 266
55 281
56 65
56 79
56 81
56 90
56 130
56 135
56 139
56 140
56 175
56 183
56 195
56 223
56 262
56 285
57 58
57 59
57 60
57 96
57 102
57 213
57 220
58 107
58 119
58 128
58 175
58 183
58 197
58 199
58 223
58 240
58 259
58 280
59 96
59 108
59 120
59 142
59 161
59 211
59 217
59 227
59 230
59 236
59 259
59 283
59 292
60 92
60 99
60 120
60 123
60 146
60 147
60 204
60 239
60 241
60 299
61 65
61 78
61 116
61 136
61 154
61 176
61 193
61 202
61 287
62 78
62 80
62 190
62 273
63 68
63 71
63 81
63 98
63 118
63 131
63 147
63 178
63 212
63 240
63 246
63 280
63 289
64 86
64 88
64 100
64 102
64 164
64 173
64 223
64 232
64 236
64 249
64 258
64 270
64 283
64 288
64 294
64 296
65 115
65 175
65 183
65 249
65 266
65 281
65 288
66 75
66 116
66 119
66 127
66 163
66 206
66 218
66 271
67 121
67 127
67 199
67 260
68 71
68 78
68 128
68 224
68 254
68 291
69 141
69 196
69 207
69 227
69 250
69 266
69 272
70 99
70 136
70 148
71 114
71 119
71 123
71 128
71 152
71 167
71 231
71 236
71 254
71 280
71 291
72 198
72 200
72 296
73 107
73 113
73 126
73 137
73 144
73 198
73 205
73 206
73 216
73 221
73 234
73 239
73 243
73 266
73 299
75 99
75 119
75 141
75 145
75 163
75 188
75 240
75 271
75 293
76 87
76 89
76 123
76 203
76 209
76 224
76 227
77 181
77 219
77 282
78 80
78 106
78 155
78 169
78 174
78 190
78 275
79 86
79 93
79 113
79 162
79 181
79 186
79 217
79 238
80 90
80 106
80 147
80 182
80 195
81 104
81 130
81 147
81 174
81 204
81 223
81 262
81 265
82 172
83 92
83 95
83 97
83 103
83 114
83 116
83 148
83 184
83 207
83 210
83 229
84 103
84 120
84 126
84 148
84 151
84 210
84 238
84 262
85 131
86 113
86 228
87 89
87 105
87 123
87 155
87 179
87 235
87 282
88 89
88 102
88 147
88 149
88 154
88 163
88 173
88 270
89 147
89 148
89 173
89 185
90 106
90 135
90 232
90 279
90 298
91 112
91 204
91 213
92 99
92 114
92 123
92 128
92 146
92 147
92 167
92 229
92 244
92 293
92 299
93 103
93 136
93 169
93 198
93 229
93 291
94 289
95 133
95 148
95 170
95 182
95 201
95 202
95 246
95 269
95 277
95 285
96 108
96 132
96 141
96 142
96 205
96 222
96 271
96 281
96 295
97 125
97 133
97 148
97 201
97 213
97 227
97 243
97 259
97 273
98 105
98 112
98 189
98 193
98 195
98 196
98 201
98 248
98 250
98 276
98 283
98 289
98 292
99 108
99 114
99 119
99 138
99 146
99 148
99 205
99 214
99 287
100 154
100 164
100 216
100 276
100 281
100 288
101 105
101 118
101 137
101 191
101 201
101 239
101 240
101 261
101 297
102 103
102 113
102 131
102 137
102 154
102 226
103 114
103 117
103 120
103 169
103 189
103 198
103 207
103 211
103 222
103 228
103 256
103 263
103 266
103 296
104 108
104 151
104 176
104 205
104 238
104 252
105 146
105 229
105 230
105 239
105 248
107 160
107 181
107 198
107 206
107 209
107 234
107 261
108 119
108 126
108 146
108 149
108 154
108 172
108 184
108 202
108 205
108 227
108 252
108 262
108 281
108 292
108 294
108 300
109 136
109 165
109 180
109 190
109 209
109 221
109 227
109 236
109 254
109 262
109 263
109 280
109 299
110 259
110 265
110 270
110 280
111 169
111 204
111 214
111 298
111 299
111 300
112 118
112 169
112 189
112 216
112 218
112 251
112 275
113 137
113 162
113 197
113 223
113 265
114 117
114 124
114 162
114 172
114 215
114 259
114 270
114 280
114 287
115 165
116 183
116 185
116 204
116 223
116 238
116 252
116 272
117 124
117 212
117 241
117 256
117 286
118 201
118 240
118 275
119 123
119 126
119 128
119 134
119 138
119 154
119 167
119 177
119 244
119 300
120 185
120 200
120 210
121 168
121 194
121 199
121 210
121 216
121 221
121 286
121 291
122 146
122 153
122 223
122 236
122 251
122 286
122 292
123 134
123 154
123 156
123 167
123 244
123 299
124 162
124 179
124 231
124 258
124 270
125 162
125 225
125 226
125 237
125 250
125 252
125 273
126 152
126 194
126 221
126 262
126 266
127 160
127 176
127 201
127 250
128 236
128 292
129 164
129 249
129 281
129 288
130 138
130 195
130 264
131 147
132 178
132 259
132 264
132 271
132 300
133 148
133 201
133 202
133 221
134 213
135 139
135 195
135 203
135 235
135 268
136 138
136 165
136 166
136 172
136 174
136 190
136 205
136 207
136 209
136 230
136 242
136 247
136 248
136 255
136 260
136 262
136 280
136 299
136 300
137 139
137 165
137 169
137 182
137 197
137 223
138 151
138 165
138 181
138 227
138 261
138 290
139 172
139 177
139 294
139 299
139 300
140 187
140 193
140 195
140 226
140 234
140 289
141 233
141 266
141 300
142 166
142 230
142 235
142 243
142 248
142 252
143 161
143 163
143 208
143 241
144 177
144 244
144 246
144 265
144 276
145 177
145 244
145 263
145 264
145 276
145 300
146 153
146 186
146 189
146 198
146 202
146 204
146 216
146 229
146 234
146 248
146 251
146 300
147 164
147 183
147 185
147 195
147 229
147 238
147 241
147 277
147 289
148 189
148 215
148 248
148 259
148 287
149 172
149 178
149 186
149 225
149 238
151 161
151 176
151 193
151 246
151 283
151 290
152 184
152 221
152 284
153 186
153 192
153 234
153 262
154 167
154 183
154 209
154 215
154 265
154 274
154 287
155 171
155 177
155 179
155 250
155 275
155 300
156 169
156 190
156 221
156 244
156 269
156 277
157 286
158 159
158 200
158 206
158 242
158 285
158 299
158 300
159 171
159 195
159 203
159 221
159 277
159 281
159 285
160 168
160 209
160 273
161 176
161 241
162 171
162 179
162 231
163 199
163 208
163 258
163 260
163 261
163 288
163 297
164 190
164 236
165 211
165 227
165 259
165 274
166 227
166 229
166 238
166 242
166 247
166 272
166 293
167 172
167 183
167 209
167 236
167 256
167 284
168 202
168 244
168 276
168 281
169 225
169 289
169 298
170 273
170 277
170 281
171 179
171 195
171 279
171 285
172 227
172 269
172 277
172 300
173 191
173 297
173 300
174 204
174 236
174 239
174 258
174 260
174 273
175 183
175 281
175 284
175 294
176 193
176 199
176 272
177 179
177 233
177 265
177 275
177 299
177 300
178 289
179 195
179 288
180 254
180 262
181 249
181 282
181 283
182 202
182 254
183 219
183 223
183 268
183 294
183 296
184 269
185 186
185 202
185 207
185 222
185 250
185 275
186 223
186 234
186 238
186 247
186 262
186 275
187 215
187 240
187 261
187 266
187 297
188 215
188 240
188 266
189 206
189 245
189 248
189 251
189 256
189 282
189 288
190 242
190 262
191 215
191 240
191 265
192 220
193 226
193 248
193 250
194 286
194 291
195 215
195 229
195 270
195 273
195 276
195 277
195 300
196 209
196 250
197 241
198 211
198 214
198 216
198 228
198 230
198 234
198 243
198 248
198 251
198 264
198 266
198 296
198 300
199 239
199 247
199 260
199 261
200 242
200 271
201 209
201 217
201 250
201 268
201 277
202 205
202 208
202 254
202 259
202 266
202 280
202 287
202 294
204 213
204 214
204 254
204 279
204 298
205 212
205 299
206 218
206 234
206 248
206 249
206 266
206 268
206 283
206 300
207 210
207 222
207 247
207 266
207 273
207 275
208 254
209 227
209 250
209 256
209 272
209 284
209 299
210 216
210 260
211 225
211 227
211 247
211 264
211 267
211 293
212 236
212 256
213 217
213 268
214 215
214 230
214 232
214 298
214 300
215 232
215 240
215 270
215 282
216 234
216 243
217 268
217 270
217 277
217 281
218 222
218 234
218 241
218 268
218 276
218 294
219 233
219 274
221 277
223 238
223 252
223 262
223 286
223 288
223 294
223 296
225 226
225 227
225 247
225 267
225 289
226 288
227 259
227 262
227 272
227 283
227 298
229 231
229 233
229 246
229 267
229 269
229 277
229 299
230 233
230 248
230 283
231 236
231 299
232 270
233 264
233 269
233 283
234 241
235 270
236 263
236 273
236 292
237 247
237 269
238 265
239 241
239 243
239 246
239 252
239 279
240 266
240 270
240 282
240 288
241 252
241 291
241 296
242 247
242 253
242 300
243 252
243 296
243 299
244 246
244 253
244 276
245 248
245 251
246 249
246 253
246 269
246 277
246 279
246 282
247 261
247 267
247 273
248 256
248 282
249 279
249 283
249 298
250 275
251 256
252 273
252 296
253 270
254 264
254 294
254 300
256 257
256 263
256 269
256 288
257 288
258 260
258 288
258 297
259 273
259 280
260 299
261 293
261 297
262 294
263 273
264 267
264 295
264 299
264 300
265 266
265 270
265 294
266 300
267 293
267 299
268 270
268 281
268 286
268 294
269 277
270 286
270 294
271 297
272 279
272 290
272 293
272 298
274 287
276 281
277 279
277 281
277 282
279 298
281 292
283 289
283 290
286 296
290 298
291 296
294 296
299 300
*Classes
1
1
1
1
1
1
1
1
1
1
1
1
1
1
1
1
1
1
1
1
1
1
1
1
1
1
1
1
1
1
1
1
1
1
1
1
1
1
1
1
1
1
1
1
1
1
1
1
1
1
1
1
1
1
1
1
1
1
1
1
1
1
1
1
1
1
1
1
1
1
1
1
1
1
1
1
1
1
1
1
1
1
1
1
1
1
1
1
1
1
1
1
1
1
1
1
1
1
1
1
1
1
1
1
1
1
1
1
1
1
1
1
1
1
1
1
1
1
1
1
1
1
1
1
1
1
1
1
1
1
1
1
1
1
1
1
1
1
1
1
1
1
1
1
1
1
1
1
1
1
2
2
2
2
2
2
2
2
2
2
2
2
2
2
2
2
2
2
2
2
2
2
2
2
2
2
2
2
2
2
2
2
2
2
2
2
2
2
2
2
2
2
2
2
2
2
2
2
2
2
2
2
2
2
2
2
2
2
2
2
2
2
2
2
2
2
2
2
2
2
2
2
2
2
2
2
2
2
2
2
2
2
2
2
2
2
2
2
2
2
2
2
2
2
2
2
2
2
2
2
2
2
2
2
2
2
2
2
2
2
2
2
2
2
2
2
2
2
2
2
2
2
2
2
2
2
2
2
2
2
2
2
2
2
2
2
2
2
2
2
2
2
2
2
2
2
2
2
2
2
