*Vertices 300
*Edges
1 68
1 113
1 124
1 138
1 147
2 4
2 37
2 65
2 69
2 137
2 182
2 184
2 272
2 281
3 9
3 40
3 56
3 61
3 110
3 152
3 165
3 217
3 229
3 237
3 246
3 260
4 5
4 13
4 33
4 69
4 157
4 168
4 224
4 228
5 54
5 74
5 80
5 138
5 145
5 176
5 213
5 247
5 273
5 283
6 8
6 54
6 75
6 147
6 165
6 171
6 190
7 16
7 48
7 60
7 159
7 170
7 210
7 277
8 54
8 55
8 58
8 108
8 134
8 143
8 147
8 189
8 212
8 256
8 295
9 26
9 44
9 48
9 110
9 219
9 231
9 246
9 280
10 38
10 185
10 186
10 187
10 264
10 266
10 272
11 16
11 39
11 54
11 99
11 124
11 156
11 196
12 59
12 117
12 222
12 299
13 33
13 122
13 144
13 149
13 154
13 179
14 22
14 55
14 77
14 93
14 118
14 135
14 186
14 225
14 228
14 252
15 16
15 36
15 53
15 64
15 117
15 121
15 168
15 215
15 275
15 285
16 60
16 91
16 126
16 222
16 250
17 55
17 61
17 73
17 78
17 89
17 90
17 135
17 179
17 238
18 29
18 52
18 84
18 90
18 97
18 112
18 126
18 146
19 22
19 47
19 81
19 130
19 148
19 152
19 235
19 300
20 48
20 70
20 182
20 225
20 231
20 259
20 273
20 279
20 296
21 38
21 89
21 106
21 212
21 243
21 244
22 47
22 63
22 64
22 118
22 160
22 172
22 225
22 254
22 269
23 31
23 34
23 84
23 94
23 165
23 203
23 228
23 274
24 72
24 80
24 297
25 66
25 222
25 245
26 48
26 62
26 101
26 108
26 114
26 174
26 219
26 231
27 32
27 39
27 64
27 156
27 158
27 161
27 230
27 267
28 47
28 101
28 109
28 140
28 152
28 181
28 231
28 293
28 296
29 49
29 59
29 61
29 82
29 112
29 116
29 171
29 173
29 183
29 207
29 243
29 246
29 268
30 109
30 115
30 265
30 280
30 292
31 34
31 76
31 77
31 84
31 98
31 104
31 121
31 135
31 141
31 164
31 173
32 87
32 123
32 236
32 246
32 262
32 265
33 34
33 77
33 104
33 117
33 128
33 235
33 271
33 274
33 282
34 35
34 44
34 60
34 95
34 104
34 117
34 127
34 129
34 152
34 282
35 38
35 95
35 118
35 129
35 145
35 149
35 171
35 172
36 113
36 121
36 160
36 187
36 195
36 204
36 208
36 209
36 275
36 296
37 103
37 137
37 155
37 225
37 254
38 57
38 106
38 112
38 144
38 149
38 191
38 237
38 241
38 264
38 266
39 64
39 78
39 98
39 106
39 108
39 115
39 159
39 160
39 177
39 215
39 251
39 283
39 287
40 66
40 98
40 110
40 122
40 134
40 160
40 209
40 238
40 246
40 252
40 277
40 287
41 59
41 68
41 139
41 144
41 207
41 208
41 274
41 298
42 87
42 113
42 123
42 143
42 157
42 190
42 197
42 202
42 205
42 242
42 249
42 285
43 195
43 199
43 246
43 295
44 129
44 262
44 280
44 288
45 133
45 201
45 212
45 267
46 74
46 77
46 87
46 88
46 182
46 193
46 278
46 279
47 109
47 113
47 205
47 229
47 258
48 114
48 210
48 213
48 219
48 225
48 252
48 262
48 277
48 289
49 87
49 268
50 113
50 114
50 127
50 128
50 133
50 143
50 149
50 178
50 211
50 236
50 250
51 76
51 163
51 187
52 84
52 97
52 112
52 126
52 169
52 242
53 65
53 80
53 94
53 103
53 214
54 55
54 80
54 124
54 147
54 173
54 278
54 287
55 59
55 69
55 78
55 89
55 93
55 108
55 115
55 166
55 184
55 224
56 79
56 207
56 208
56 252
57 95
57 96
57 110
57 112
57 116
57 131
57 193
57 196
57 213
57 216
57 236
57 257
57 263
58 84
58 85
58 119
58 213
58 266
58 295
59 61
59 82
59 89
59 117
59 134
59 144
59 149
59 203
60 95
60 100
60 140
60 148
60 166
60 170
60 219
60 290
61 107
61 117
61 125
61 127
61 136
61 147
61 177
61 212
61 292
62 65
62 73
62 80
62 101
62 156
62 188
62 230
62 242
62 257
63 94
63 100
63 118
63 205
63 229
63 288
64 67
64 68
64 121
64 131
64 139
64 183
64 217
64 279
65 80
65 94
65 204
66 113
66 119
66 122
66 134
66 205
66 222
66 228
66 262
66 287
67 122
67 175
67 183
67 191
67 203
67 228
68 86
68 103
68 104
68 113
68 139
68 147
68 152
68 175
68 204
68 252
69 108
69 182
69 211
69 236
70 106
70 119
70 140
70 152
70 213
70 225
71 102
71 107
71 123
71 235
71 270
72 80
72 90
72 104
72 118
72 157
72 158
72 217
72 238
72 253
73 77
73 78
73 135
73 176
73 183
73 194
73 212
73 245
73 246
73 295
74 78
74 87
74 88
74 102
74 170
74 197
74 273
75 136
75 201
75 266
75 274
75 286
76 77
76 98
76 163
76 175
77 104
77 135
77 164
77 236
77 279
78 83
78 90
78 98
78 106
78 108
78 159
78 160
79 83
79 150
79 193
79 290
80 104
80 138
80 179
80 294
81 148
81 152
81 166
81 181
81 204
81 213
81 223
82 89
82 103
82 112
82 117
82 171
82 199
82 289
83 106
83 150
83 269
83 291
84 106
84 119
84 206
85 119
85 167
85 177
86 103
86 113
86 130
86 139
86 271
87 102
87 112
87 123
87 170
87 273
88 97
88 225
89 106
89 144
89 156
89 208
89 209
89 231
89 255
89 265
89 286
90 132
90 146
90 153
90 157
90 190
90 210
90 229
90 231
90 295
91 96
91 180
91 193
91 216
91 222
91 268
92 101
92 120
92 162
92 179
92 195
92 232
92 245
92 253
92 277
92 293
94 115
94 118
94 125
94 128
94 141
94 146
94 172
94 214
94 275
95 96
95 126
95 127
95 131
95 132
95 144
95 247
96 126
96 134
96 144
96 222
96 252
96 289
96 294
97 166
98 113
98 119
98 188
98 192
98 209
98 280
99 123
99 201
99 252
99 262
100 118
100 125
100 225
100 229
101 156
101 274
102 112
102 117
102 124
103 155
103 168
103 214
103 221
104 113
104 125
104 128
104 135
104 180
104 183
104 203
104 229
104 240
104 297
105 160
105 188
105 192
105 195
105 234
106 119
106 149
106 251
107 123
107 159
107 187
107 208
107 266
107 295
108 115
108 232
108 255
109 241
110 142
110 200
110 212
110 229
110 237
110 246
110 251
111 134
111 172
112 116
112 117
112 139
112 203
113 119
113 122
113 127
113 139
113 143
113 160
113 229
114 157
114 202
114 282
115 141
115 210
115 255
116 117
116 139
116 141
116 211
116 236
117 121
117 234
117 255
118 145
118 166
118 253
119 194
119 218
119 251
119 265
119 266
119 279
119 286
120 137
120 298
121 141
121 164
121 210
121 234
121 235
121 287
122 124
122 145
122 228
122 247
122 258
122 298
123 156
123 231
124 138
124 145
124 196
124 224
124 274
124 299
125 127
125 128
125 173
125 252
126 144
126 152
127 137
127 189
128 133
128 135
128 149
128 216
128 236
128 277
128 290
129 152
129 214
130 191
130 269
130 281
131 132
131 184
131 190
131 258
131 261
131 279
132 207
132 288
133 164
133 201
133 217
133 289
134 165
134 172
135 197
135 212
136 149
136 167
136 199
136 209
136 213
136 251
137 165
137 246
137 255
138 178
138 234
138 283
138 296
139 171
139 181
139 190
139 251
139 253
139 293
140 148
140 159
140 166
140 181
140 221
140 300
141 173
141 211
142 203
142 206
142 213
143 160
143 205
143 271
144 149
144 295
145 247
145 285
145 293
146 156
146 274
147 189
147 212
148 152
148 181
148 235
148 238
148 271
148 281
149 153
149 266
150 187
150 214
150 267
151 152
151 182
151 190
151 273
151 279
152 170
152 171
152 190
152 252
152 277
152 280
152 296
153 172
153 173
153 177
153 200
153 209
153 270
154 224
154 230
154 235
154 270
154 275
154 294
155 156
155 192
155 196
155 220
155 259
156 167
156 196
156 197
156 230
156 231
157 169
157 175
157 189
157 202
157 283
158 197
158 204
158 295
159 183
159 187
159 285
159 286
161 171
161 195
161 229
161 245
161 264
162 179
162 275
163 222
163 299
164 185
165 200
165 240
166 182
166 204
166 223
166 225
166 241
166 250
166 253
166 254
166 263
166 265
166 283
167 185
167 238
167 259
167 261
167 268
167 279
168 186
168 224
168 265
168 273
168 286
169 175
169 287
170 171
170 207
170 220
170 234
170 253
171 190
171 229
172 177
172 200
172 201
172 225
172 232
172 247
172 254
172 255
172 289
173 209
174 274
174 286
175 178
175 203
175 212
175 236
176 201
176 207
176 272
176 273
177 201
177 223
177 247
177 255
177 271
178 254
178 255
179 181
179 204
179 216
180 222
181 216
182 214
182 222
182 249
182 253
182 263
182 266
182 296
183 236
184 208
184 250
184 264
185 205
185 210
185 213
185 231
185 259
185 279
186 224
186 265
187 250
187 294
188 192
188 262
189 210
189 218
189 224
189 228
189 281
190 214
190 229
190 279
190 280
190 296
191 209
191 241
191 256
191 258
191 269
191 283
192 264
193 198
193 216
193 290
194 245
194 259
194 293
195 199
195 204
195 229
195 236
195 245
196 197
196 215
196 222
196 259
196 260
196 291
196 299
197 242
197 256
197 258
197 260
198 212
198 214
198 244
198 293
199 234
199 277
199 298
200 205
200 240
200 245
200 246
200 297
201 207
201 224
201 255
201 272
201 299
202 247
202 259
202 282
202 291
203 262
204 253
204 261
204 300
205 213
205 260
205 262
207 208
207 220
207 240
207 245
207 273
207 298
208 242
208 247
208 250
208 266
208 267
208 290
208 297
209 213
209 214
209 219
209 233
209 289
211 236
211 291
212 216
212 238
212 244
212 267
213 219
213 228
213 246
213 283
213 289
214 221
214 233
214 263
214 264
214 279
214 293
215 285
215 287
216 244
218 281
219 228
219 257
221 233
221 264
221 267
222 272
222 299
223 241
223 247
223 274
223 279
223 283
224 228
224 272
224 275
224 278
225 254
225 279
226 230
226 265
226 275
226 284
228 274
229 279
230 272
230 275
230 281
231 259
232 248
232 255
233 253
233 263
233 264
233 293
234 298
235 253
235 270
235 293
236 250
236 279
236 291
237 256
237 266
237 277
239 264
240 245
240 297
240 300
241 252
241 265
241 277
241 283
242 261
242 290
242 297
243 248
243 253
243 255
244 284
244 293
245 298
245 300
246 249
246 295
247 259
247 291
248 255
249 263
249 276
249 285
249 295
250 253
250 261
251 300
252 258
252 277
252 280
253 254
253 293
254 265
256 258
256 277
258 275
258 277
259 279
259 280
259 291
259 293
260 261
260 269
260 272
260 277
260 281
260 297
260 299
261 269
261 279
261 300
263 276
265 273
265 277
265 280
265 286
265 291
266 267
266 292
267 290
269 279
270 288
271 272
271 281
271 289
272 275
272 277
272 281
272 297
272 299
273 287
274 286
275 277
275 294
276 290
277 281
279 280
279 297
280 297
281 297
282 288
283 294
286 291
*Classes
1
1
1
1
1
1
1
1
1
1
1
1
1
1
1
1
1
1
1
1
1
1
1
1
1
1
1
1
1
1
1
1
1
1
1
1
1
1
1
1
1
1
1
1
1
1
1
1
1
1
1
1
1
1
1
1
1
1
1
1
1
1
1
1
1
1
1
1
1
1
1
1
1
1
1
1
1
1
1
1
1
1
1
1
1
1
1
1
1
1
1
1
1
1
1
1
1
1
1
1
1
1
1
1
1
1
1
1
1
1
1
1
1
1
1
1
1
1
1
1
1
1
1
1
1
1
1
1
1
1
1
1
1
1
1
1
1
1
1
1
1
1
1
1
1
1
1
1
1
1
2
2
2
2
2
2
2
2
2
2
2
2
2
2
2
2
2
2
2
2
2
2
2
2
2
2
2
2
2
2
2
2
2
2
2
2
2
2
2
2
2
2
2
2
2
2
2
2
2
2
2
2
2
2
2
2
2
2
2
2
2
2
2
2
2
2
2
2
2
2
2
2
2
2
2
2
2
2
2
2
2
2
2
2
2
2
2
2
2
2
2
2
2
2
2
2
2
2
2
2
2
2
2
2
2
2
2
2
2
2
2
2
2
2
2
2
2
2
2
2
2
2
2
2
2
2
2
2
2
2
2
2
2
2
2
2
2
2
2
2
2
2
2
2
2
2
2
2
2
2
