*Vertices 300
*Edges
1 20
1 48
1 52
1 59
1 64
1 72
1 87
1 102
1 104
1 167
1 174
1 183
1 267
2 32
2 55
2 78
2 83
2 175
2 206
2 296
3 20
3 46
3 64
3 67
3 102
3 123
3 132
3 136
3 181
3 195
3 246
3 262
3 267
4 30
4 38
4 62
4 84
4 116
4 165
4 167
4 235
4 246
4 259
4 262
4 263
5 13
5 32
5 35
5 50
5 78
5 92
5 121
5 128
5 136
5 177
5 192
5 213
5 233
6 23
6 43
6 53
6 74
6 90
6 122
6 133
6 157
6 297
7 42
7 70
7 95
7 114
7 117
7 150
7 182
7 191
7 207
7 225
7 278
7 292
8 15
8 20
8 22
8 25
8 30
8 38
8 64
8 74
8 75
8 86
8 91
8 96
8 188
8 217
8 239
8 243
8 245
8 278
8 285
9 22
9 51
9 57
9 69
9 135
9 169
9 280
9 287
9 298
10 85
10 91
10 133
10 153
10 293
11 13
11 128
11 217
11 228
12 23
12 58
12 80
12 98
12 128
12 130
12 145
12 149
12 204
12 279
13 99
13 119
13 128
13 135
13 145
13 164
13 187
13 190
13 217
13 228
13 233
14 21
14 68
14 113
14 123
14 140
14 155
14 171
14 191
14 205
14 229
14 268
15 17
15 27
15 64
15 75
15 92
15 101
15 144
15 190
16 110
16 165
16 180
16 194
16 206
16 275
17 35
17 40
17 42
17 65
17 71
17 77
17 81
17 87
17 101
17 128
17 147
17 182
17 190
17 195
17 241
17 276
18 90
18 126
18 128
18 210
18 214
18 227
19 67
19 81
19 87
19 88
19 135
19 207
19 293
20 64
20 107
20 123
20 174
20 181
20 183
20 187
20 221
21 49
21 68
21 105
21 109
21 140
21 149
21 155
21 188
21 269
22 60
22 80
22 91
22 96
22 100
22 196
22 244
22 259
22 275
22 287
23 28
23 37
23 46
23 53
23 111
23 118
23 136
23 138
23 149
23 170
23 176
23 257
23 259
23 264
23 296
24 26
24 57
24 121
24 204
24 242
25 64
25 75
25 88
25 127
25 200
25 204
25 233
25 245
25 285
26 50
26 78
26 121
26 179
26 199
26 214
26 243
26 287
27 102
27 113
27 120
27 132
27 144
28 29
28 37
28 46
28 53
28 102
28 144
28 170
28 184
28 276
28 290
29 40
29 59
29 73
29 82
29 85
29 96
29 106
29 109
29 112
29 144
29 244
29 261
30 38
30 54
30 58
30 72
30 91
30 93
30 96
30 130
30 265
31 35
31 114
31 182
31 281
31 283
31 293
31 298
32 78
32 102
32 112
32 153
32 155
32 196
32 291
33 44
33 56
33 70
33 183
33 279
33 285
33 294
35 71
35 77
35 82
35 92
35 114
35 147
35 208
35 241
36 171
36 230
36 263
37 60
37 100
37 102
37 236
37 241
37 246
38 62
38 74
38 91
38 139
38 167
38 285
39 161
40 73
40 76
40 93
40 154
40 155
40 176
40 184
40 205
40 241
40 267
41 84
41 218
41 230
41 251
41 266
42 47
42 70
42 77
42 84
42 95
42 166
42 279
43 58
43 90
43 98
43 122
43 160
43 170
43 231
43 262
43 280
43 284
43 297
44 54
44 70
44 125
44 127
44 132
44 140
44 145
44 172
44 212
44 225
44 286
45 61
45 106
45 148
45 152
45 172
45 179
45 198
45 218
45 246
46 51
46 121
46 136
46 144
46 146
46 176
46 195
46 199
46 201
46 236
46 288
46 296
47 71
47 80
47 157
47 169
47 174
47 176
47 236
47 279
48 52
48 59
48 82
48 91
48 174
48 180
48 228
48 230
48 269
48 275
49 86
49 96
49 109
49 169
49 200
49 216
49 218
49 233
50 56
50 70
50 77
50 78
50 117
50 121
50 129
50 132
50 150
50 186
50 193
50 199
51 118
51 146
51 204
51 213
51 245
51 248
51 259
51 278
51 280
51 287
52 59
52 99
52 142
52 238
52 273
53 137
53 160
53 246
53 263
53 268
53 275
53 293
54 58
54 77
54 91
54 125
54 145
54 172
54 190
54 274
54 275
55 83
55 180
55 206
55 236
55 252
55 275
55 288
55 292
56 70
56 124
56 177
56 182
56 237
57 66
57 69
57 134
57 138
57 167
57 170
57 180
57 183
57 196
57 200
57 213
57 288
58 72
58 81
58 85
58 91
58 98
58 102
58 130
58 132
58 147
58 252
58 265
58 275
58 280
58 293
58 300
59 72
59 73
59 82
59 183
59 217
59 248
59 269
59 273
60 100
60 130
60 184
60 221
60 222
61 79
61 152
61 161
61 246
62 108
62 116
62 126
62 152
62 165
62 166
63 72
63 275
64 92
64 259
64 268
64 278
64 281
65 75
65 101
65 103
65 159
65 185
65 219
65 233
65 235
65 299
66 69
66 100
66 163
66 165
67 81
67 87
67 116
67 143
67 160
67 196
67 199
67 206
67 221
67 233
67 245
67 255
67 262
68 130
68 191
68 221
68 296
69 163
69 200
69 263
69 298
70 122
70 127
70 145
70 225
70 278
70 292
70 298
71 77
71 80
71 99
71 102
71 150
71 166
71 186
71 187
71 193
71 249
71 283
72 98
72 235
72 245
72 275
72 287
72 300
73 76
73 85
73 96
73 109
73 147
73 153
73 201
74 77
74 129
74 131
74 182
74 252
74 282
75 96
75 103
75 159
75 190
75 221
75 222
75 231
76 184
76 239
76 250
77 78
77 80
77 81
77 109
77 125
77 129
77 131
77 169
77 186
77 211
78 136
78 177
78 196
78 202
78 206
78 291
79 165
79 222
79 227
79 288
80 96
80 125
80 140
80 150
80 160
80 204
80 212
80 245
80 259
80 267
80 299
81 83
81 87
81 101
81 116
81 128
81 138
81 147
81 149
81 158
81 167
81 182
81 228
81 248
81 269
81 282
82 85
82 101
82 118
82 134
82 138
82 147
82 167
82 173
83 149
83 206
84 246
84 290
85 91
85 109
85 134
85 138
85 143
85 147
85 163
85 165
85 196
85 222
85 258
85 269
85 290
86 96
86 216
87 116
87 135
87 153
87 160
87 167
87 182
87 214
87 215
87 248
87 264
87 276
88 127
88 135
88 155
88 185
88 233
88 235
88 272
89 187
89 250
89 268
90 128
90 152
90 160
90 161
90 297
90 300
91 93
91 96
91 130
91 147
91 161
91 174
91 175
91 205
91 225
91 265
91 275
91 292
92 121
92 203
92 208
92 233
93 110
93 177
93 184
93 191
93 202
93 286
94 103
94 104
94 125
94 146
94 150
94 291
95 277
96 109
96 112
96 158
96 205
96 243
96 244
96 275
96 285
96 292
96 293
97 156
97 177
97 231
98 170
98 200
98 231
98 280
98 300
99 101
99 180
99 187
99 202
99 220
99 223
99 238
99 243
99 259
99 274
99 281
99 291
100 165
100 188
100 196
100 244
101 138
101 152
101 220
101 241
102 122
102 123
102 132
102 144
102 170
102 181
102 201
102 252
102 253
102 267
102 273
102 283
102 290
103 104
103 129
103 131
103 146
103 151
103 154
103 155
103 156
103 159
103 219
103 221
103 231
103 278
103 282
104 125
104 155
104 165
104 167
104 185
104 187
104 280
105 182
105 188
105 198
105 269
105 290
106 112
106 168
106 172
106 240
106 269
106 291
107 187
107 235
107 246
107 270
107 271
108 151
108 156
108 210
109 144
109 162
109 200
110 202
111 118
111 138
111 260
112 155
112 193
112 240
113 123
113 134
113 191
113 205
113 251
113 268
113 275
114 117
114 129
114 216
114 230
114 256
115 210
115 228
115 261
116 209
116 272
117 132
117 138
117 150
117 191
117 213
117 269
117 282
118 138
118 149
118 163
118 194
118 234
118 259
118 260
119 164
119 199
119 223
119 243
119 282
120 144
120 157
120 174
120 239
120 240
120 260
121 144
121 146
121 179
121 204
121 213
121 214
121 242
121 243
122 127
122 132
122 133
122 294
123 134
123 149
123 170
123 175
123 176
123 248
124 287
125 165
125 189
125 250
125 257
126 131
126 152
127 200
127 225
127 289
128 135
128 145
128 171
128 190
128 192
128 195
128 241
128 300
129 131
129 256
129 268
129 281
129 282
129 291
130 147
130 221
130 222
131 161
131 171
131 176
131 249
131 258
131 282
132 144
132 146
132 147
132 150
132 166
132 201
132 253
133 271
133 292
134 138
134 139
134 141
134 158
134 176
134 213
134 275
134 290
135 163
135 218
135 228
135 233
136 137
136 174
136 182
136 195
136 199
136 225
136 244
136 248
136 259
136 281
136 286
136 290
137 154
137 281
137 297
138 147
138 176
138 180
138 195
138 200
138 213
138 260
138 276
138 283
139 141
139 177
140 143
140 149
140 158
140 196
140 212
140 285
140 286
140 290
141 165
141 174
141 177
141 220
141 235
141 288
141 298
142 202
142 274
142 300
143 160
143 178
143 199
143 203
143 221
143 233
143 239
143 258
143 269
143 282
143 286
143 287
143 290
144 146
144 166
144 227
144 251
144 276
147 149
147 167
147 252
147 300
148 185
148 272
149 158
149 196
149 290
150 177
150 190
150 198
150 201
150 250
151 156
151 161
151 187
151 188
151 191
151 193
151 214
151 227
151 231
151 264
151 277
151 278
152 161
152 165
152 210
152 263
152 283
152 288
152 298
153 213
153 262
153 276
154 155
154 165
154 187
154 193
154 207
154 240
154 251
154 261
155 165
155 197
155 207
155 222
155 247
155 259
155 267
156 186
156 231
156 278
156 285
156 287
157 174
157 192
157 295
158 175
158 290
158 292
159 175
159 194
159 206
159 228
159 241
159 255
160 235
160 240
160 245
160 299
161 191
161 231
161 290
162 172
162 209
162 261
163 218
163 221
163 222
163 259
163 289
164 206
164 244
165 194
165 212
165 222
165 236
165 247
165 288
165 294
165 299
166 226
166 283
167 168
167 181
167 200
167 228
168 200
169 187
169 193
169 214
169 264
170 175
170 183
171 239
171 247
171 260
172 209
172 218
172 274
172 296
173 195
174 295
175 176
175 183
175 206
175 216
175 255
175 290
175 292
176 206
176 216
177 185
177 226
177 235
177 237
178 203
178 233
179 185
179 187
179 268
180 275
180 281
181 187
181 200
181 228
181 248
181 249
181 272
181 274
182 239
182 260
182 281
184 221
184 246
184 262
185 187
185 200
185 204
185 233
185 235
185 270
185 272
186 217
186 257
186 283
186 287
187 193
187 228
187 249
187 251
187 261
187 268
187 272
188 192
188 207
188 212
188 214
188 218
188 219
188 240
188 285
188 289
188 293
189 231
190 254
191 193
191 214
191 222
191 231
191 277
191 299
192 240
192 241
193 249
193 268
194 206
194 212
194 234
194 240
194 244
194 247
194 260
195 220
195 276
195 283
196 213
196 222
196 232
196 233
196 255
196 258
196 262
199 255
199 282
199 298
200 211
200 228
200 233
201 204
201 206
201 255
201 258
202 274
203 222
203 282
203 285
203 286
203 293
203 299
204 213
204 279
204 289
205 267
206 216
206 228
206 241
206 244
206 255
206 272
206 281
207 231
207 240
207 269
207 270
207 278
208 254
209 216
209 218
211 228
211 233
212 285
213 221
213 233
213 262
213 289
214 227
214 264
214 282
215 232
215 245
215 248
215 254
215 272
215 274
216 218
216 256
216 290
217 245
217 269
217 282
217 287
217 293
218 222
218 251
218 256
218 274
218 289
218 296
219 289
220 276
221 222
221 246
221 262
222 245
222 299
223 227
223 229
223 243
223 293
223 297
223 300
225 231
225 247
225 278
226 237
226 283
227 243
227 247
228 230
228 261
229 243
230 256
230 263
231 243
231 245
231 278
231 285
232 254
234 260
235 242
235 245
235 248
235 270
235 278
235 279
235 288
236 241
236 246
236 288
237 283
238 267
239 260
239 281
240 242
240 260
240 269
240 270
240 285
241 255
242 270
243 247
243 265
243 281
243 285
243 300
244 255
244 272
244 281
244 286
244 291
245 248
245 272
245 278
245 291
245 299
246 262
246 284
247 278
247 286
247 288
248 272
249 251
249 258
249 280
251 280
252 292
254 277
255 258
257 264
257 283
259 263
259 267
259 268
259 281
261 270
262 284
263 298
268 281
269 270
269 282
269 285
269 290
269 293
270 279
271 279
278 286
278 299
279 285
281 286
281 291
282 293
282 299
283 287
283 298
285 293
285 294
286 293
288 294
289 296
290 293
292 298
293 300
*Classes
1
1
1
1
1
1
1
1
1
1
1
1
1
1
1
1
1
1
1
1
1
1
1
1
1
1
1
1
1
1
1
1
1
1
1
1
1
1
1
1
1
1
1
1
1
1
1
1
1
1
1
1
1
1
1
1
1
1
1
1
1
1
1
1
1
1
1
1
1
1
1
1
1
1
1
1
1
1
1
1
1
1
1
1
1
1
1
1
1
1
1
1
1
1
1
1
1
1
1
1
1
1
1
1
1
1
1
1
1
1
1
1
1
1
1
1
1
1
1
1
1
1
1
1
1
1
1
1
1
1
1
1
1
1
1
1
1
1
1
1
1
1
1
1
1
1
1
1
1
1
2
2
2
2
2
2
2
2
2
2
2
2
2
2
2
2
2
2
2
2
2
2
2
2
2
2
2
2
2
2
2
2
2
2
2
2
2
2
2
2
2
2
2
2
2
2
2
2
2
2
2
2
2
2
2
2
2
2
2
2
2
2
2
2
2
2
2
2
2
2
2
2
2
2
2
2
2
2
2
2
2
2
2
2
2
2
2
2
2
2
2
2
2
2
2
2
2
2
2
2
2
2
2
2
2
2
2
2
2
2
2
2
2
2
2
2
2
2
2
2
2
2
2
2
2
2
2
2
2
2
2
2
2
2
2
2
2
2
2
2
2
2
2
2
2
2
2
2
2
2
