*Vertices 300
*Edges
1 138
1 158
1 169
1 179
1 248
1 264
2 35
2 52
2 58
2 71
2 79
2 93
2 157
2 196
3 45
3 54
3 62
3 110
3 144
3 199
3 234
4 11
4 27
4 50
4 94
4 124
4 129
4 189
4 211
4 287
5 33
5 52
5 72
5 75
5 140
5 245
5 268
6 25
6 26
6 27
6 58
6 67
6 92
6 110
6 190
6 223
6 239
6 271
6 281
7 29
7 49
7 97
7 114
7 134
7 212
7 217
7 293
8 22
8 35
8 52
8 55
8 61
8 93
8 138
8 141
8 203
8 248
8 281
9 29
9 203
9 208
9 245
9 251
10 42
10 108
10 118
10 135
10 153
10 213
10 274
11 177
11 237
11 257
11 287
12 21
12 36
12 41
12 63
12 85
12 124
12 146
12 168
12 284
13 44
13 56
13 161
13 190
13 245
13 278
13 285
14 36
14 58
14 77
14 92
14 98
14 110
14 116
14 130
14 144
14 146
14 206
14 246
14 275
14 298
15 29
15 50
15 66
15 68
15 74
15 75
15 106
15 123
15 131
15 132
15 158
15 166
15 189
15 191
15 232
16 17
16 120
16 173
16 200
16 222
16 255
17 114
17 175
17 222
18 24
18 81
18 83
18 130
18 284
19 42
19 73
19 86
19 98
19 105
19 190
19 227
19 250
20 40
20 52
20 59
20 66
20 74
20 75
20 106
20 119
20 122
20 129
20 142
20 160
20 217
20 260
20 265
21 35
21 36
21 46
21 115
21 117
21 123
21 131
21 132
21 139
21 192
21 204
21 207
21 210
22 27
22 61
22 71
22 85
22 90
22 94
22 97
22 98
22 114
22 115
22 160
22 268
23 60
23 111
23 266
24 81
24 83
24 108
24 130
24 133
24 147
24 185
24 233
25 36
25 67
25 80
25 92
25 136
25 161
25 225
25 271
25 287
26 92
26 183
26 205
27 56
27 80
27 90
27 94
27 98
27 172
27 206
27 247
28 63
28 80
28 96
28 133
28 171
29 31
29 49
29 123
29 251
29 269
30 34
30 68
30 73
30 132
30 159
30 163
31 33
31 48
31 52
31 62
31 74
31 75
31 90
31 138
31 140
31 251
31 299
32 65
32 144
32 157
32 177
32 240
33 35
33 48
33 62
33 90
33 96
33 105
33 115
33 118
33 138
33 140
33 167
33 209
33 212
33 230
34 114
34 132
34 209
35 48
35 52
35 55
35 75
35 85
35 93
35 123
36 43
36 46
36 108
36 115
36 123
36 132
36 136
36 139
36 146
36 160
36 168
36 181
36 226
36 233
37 38
37 39
37 58
37 85
37 100
37 254
37 287
38 39
38 85
39 82
39 113
39 241
40 75
40 85
40 287
40 288
41 80
41 85
41 111
41 118
41 124
41 168
41 206
41 236
41 261
42 49
42 70
42 77
42 78
42 79
42 100
42 107
42 134
42 190
42 274
43 74
43 77
43 86
43 98
43 128
43 183
43 185
43 207
43 215
43 234
43 249
44 161
45 56
45 70
45 77
45 108
45 141
45 203
45 239
45 269
45 270
46 139
46 141
46 163
46 199
46 270
47 73
47 91
47 162
47 167
47 190
48 88
48 90
48 107
48 140
48 195
48 249
48 268
48 278
49 114
49 134
49 139
49 162
49 223
49 285
50 128
50 183
50 189
50 262
51 62
51 64
51 68
51 70
51 72
51 76
51 87
51 94
51 122
51 139
51 140
51 160
51 177
51 190
52 55
52 75
52 79
52 93
52 109
52 172
52 221
52 254
52 285
52 290
52 297
53 115
53 131
53 158
53 221
53 223
53 241
53 294
54 99
54 144
54 269
54 279
55 79
55 84
55 93
55 94
55 105
55 167
55 172
55 214
55 228
55 252
55 254
55 290
55 291
56 80
56 90
56 94
56 103
56 126
56 193
56 223
56 245
56 281
57 111
57 134
58 63
58 71
58 90
58 93
58 98
58 110
58 144
58 159
58 236
58 281
59 119
59 141
59 153
59 239
59 280
59 291
60 86
60 98
60 111
60 143
60 161
60 168
60 271
61 71
61 104
61 129
61 152
61 179
61 211
62 74
62 87
62 101
62 125
62 138
62 144
62 176
62 235
63 72
63 80
63 96
63 107
63 133
63 140
63 160
63 201
63 236
63 261
63 263
63 271
63 276
63 284
64 70
64 72
64 233
65 204
65 214
66 73
66 75
66 135
66 136
66 214
66 241
66 251
66 266
66 276
66 287
66 293
67 173
67 241
68 84
68 88
68 109
68 122
68 128
68 140
69 70
69 80
69 97
69 104
69 109
69 182
69 200
69 270
70 148
70 190
71 88
71 138
71 144
71 154
71 210
71 248
71 266
72 107
72 111
72 126
72 133
72 251
72 268
72 280
73 95
73 105
73 162
73 266
74 87
74 100
74 106
74 123
74 127
74 132
74 144
74 153
74 166
74 177
74 268
74 296
75 106
75 122
75 245
75 285
75 289
75 294
76 87
76 101
76 154
76 155
76 269
76 280
77 79
77 93
77 98
77 100
77 105
77 107
77 132
77 143
77 179
78 107
78 118
78 128
78 153
78 232
78 280
79 98
79 100
79 109
79 189
79 195
80 90
80 97
80 115
80 130
80 133
80 136
80 207
80 261
81 147
81 150
81 208
81 219
81 242
81 245
82 84
82 113
82 150
82 208
82 218
82 234
82 241
82 250
82 258
82 289
82 298
83 85
83 130
83 133
83 149
83 152
83 205
83 284
84 95
84 122
84 167
84 184
84 201
84 218
84 225
84 240
85 93
85 118
85 192
85 266
85 268
86 98
86 125
86 168
87 94
87 98
87 101
87 151
87 177
88 125
88 127
88 128
88 141
88 195
88 205
88 210
88 219
88 265
88 272
88 273
88 281
88 294
88 300
89 133
89 140
89 188
89 252
89 284
89 287
90 115
90 118
90 186
90 216
90 250
90 259
90 273
90 274
90 281
90 285
91 120
91 199
91 294
92 110
92 190
92 256
92 273
92 293
92 295
93 149
93 213
94 139
94 295
95 97
95 105
95 204
95 215
95 270
95 282
96 150
96 212
96 249
96 278
97 114
97 115
97 116
97 170
97 171
97 260
97 270
98 100
98 101
98 115
98 143
98 151
98 267
98 295
98 298
99 134
99 158
99 188
99 202
99 234
99 286
100 173
100 214
100 262
101 116
101 135
101 143
101 231
102 145
102 211
102 229
103 108
103 193
103 233
103 293
104 149
104 152
104 204
104 212
104 235
104 255
105 164
105 166
105 167
105 179
106 108
106 122
106 129
106 211
106 225
106 260
106 273
107 133
107 184
107 216
107 268
107 274
107 279
108 165
108 166
108 179
108 188
108 203
108 213
108 225
108 233
108 249
108 280
109 122
109 173
109 270
109 273
110 198
112 129
112 193
112 211
112 283
112 289
113 114
113 160
113 165
113 276
113 290
113 295
113 296
114 269
114 276
115 140
115 153
115 169
115 184
115 204
115 234
116 130
116 151
116 210
116 217
116 221
116 264
117 123
117 139
117 146
117 186
118 135
118 153
118 221
118 298
119 121
119 142
119 226
120 186
120 297
121 122
121 165
121 283
122 133
122 139
122 140
122 167
122 170
122 184
122 191
122 214
122 254
123 131
123 158
124 126
124 153
125 129
125 151
125 217
125 243
126 133
126 245
126 280
127 128
127 166
127 188
127 203
127 300
128 143
128 160
128 207
128 232
128 244
129 206
129 211
129 229
129 254
129 282
130 137
130 152
130 177
130 205
130 207
130 281
131 158
131 256
132 153
133 140
133 153
133 157
133 229
133 262
133 281
134 158
134 187
134 194
134 241
134 267
134 274
135 173
135 251
135 272
135 296
136 146
136 221
136 234
136 263
136 267
136 287
136 299
137 141
137 205
137 209
137 212
137 236
137 242
138 201
138 221
138 248
138 255
138 288
138 299
139 160
139 214
139 220
139 222
140 143
140 188
140 209
140 278
141 212
141 272
141 291
142 246
143 151
143 188
143 232
143 242
143 299
144 148
144 185
145 200
146 170
146 208
146 226
147 150
147 218
147 289
148 157
148 190
148 199
148 226
149 235
149 236
150 289
151 156
151 188
151 227
151 232
151 247
151 276
153 156
153 169
153 183
153 184
153 234
155 224
155 240
156 183
156 184
156 197
156 220
156 227
156 234
156 262
157 177
157 190
157 209
157 213
157 245
159 163
159 200
159 215
159 229
159 236
159 287
160 173
160 187
160 209
160 234
160 243
160 253
160 263
160 269
160 288
160 295
161 184
161 210
161 225
161 236
161 298
162 223
162 249
162 256
163 186
163 199
163 200
163 215
163 218
163 244
163 270
163 276
163 287
164 166
164 181
164 255
165 185
165 202
165 228
165 230
165 280
166 177
166 201
166 213
166 254
166 268
167 173
167 174
167 197
167 206
167 238
167 247
167 256
167 291
168 200
168 212
168 214
169 175
169 213
169 238
169 247
169 255
169 259
169 280
170 245
171 260
171 283
172 206
172 221
172 269
173 184
173 189
173 253
173 257
173 262
173 279
174 197
174 198
174 212
174 277
175 213
175 217
175 238
175 244
175 251
175 293
176 194
176 215
176 235
176 239
176 244
176 265
176 271
176 276
176 286
176 290
177 245
177 281
177 287
178 229
178 261
179 216
179 253
179 264
179 280
179 288
180 217
180 231
180 236
180 265
181 255
181 266
181 294
182 254
182 289
183 220
183 234
183 245
183 249
184 189
184 254
184 257
184 270
185 215
185 234
186 199
186 218
186 259
187 234
187 243
187 267
188 232
188 242
189 211
189 254
190 192
190 204
190 260
190 273
190 296
191 210
192 202
192 204
192 255
192 261
193 216
194 228
194 239
194 265
194 269
195 202
195 233
195 241
195 273
195 281
195 294
196 235
196 297
197 227
197 254
197 287
198 239
198 265
198 277
199 202
199 204
199 234
199 294
200 255
200 276
201 240
201 254
201 268
201 276
201 285
201 287
202 217
202 228
202 230
202 231
202 234
202 261
202 273
203 225
203 232
203 248
203 263
204 234
204 260
205 211
205 297
206 247
207 267
207 287
207 299
208 242
208 258
209 240
209 242
209 265
209 269
209 295
210 215
210 221
210 239
210 254
210 266
210 287
210 298
211 282
211 283
211 297
212 217
214 222
214 286
214 293
215 227
215 237
215 244
215 271
215 282
215 286
215 298
217 228
217 231
217 265
217 285
218 231
218 234
218 237
218 244
218 256
218 285
219 227
219 247
219 250
219 256
219 300
220 262
222 286
223 231
223 249
223 253
223 256
223 259
223 279
224 240
225 240
225 248
226 297
227 234
227 247
227 254
227 276
228 230
229 261
229 262
229 281
231 256
231 285
231 292
232 244
232 263
232 299
233 241
234 250
234 253
234 273
235 255
235 265
235 280
235 299
237 244
238 247
238 249
238 293
239 254
239 256
239 260
239 262
239 265
239 287
239 292
240 242
240 257
240 278
240 295
241 257
242 265
242 269
242 278
242 295
244 251
245 285
246 255
246 264
246 266
246 294
247 256
247 259
248 281
249 277
249 278
249 279
250 274
251 296
252 287
253 264
253 279
253 288
254 285
254 287
255 261
255 264
255 280
255 292
255 294
255 299
256 259
256 262
256 265
256 287
256 292
258 268
259 273
259 280
259 281
259 295
260 283
260 296
261 292
261 299
263 276
263 280
264 294
266 268
266 294
267 287
269 276
273 274
274 285
274 292
276 290
277 278
279 288
280 291
286 290
287 288
289 290
291 294
293 295
*Classes
1
1
1
1
1
1
1
1
1
1
1
1
1
1
1
1
1
1
1
1
1
1
1
1
1
1
1
1
1
1
1
1
1
1
1
1
1
1
1
1
1
1
1
1
1
1
1
1
1
1
1
1
1
1
1
1
1
1
1
1
1
1
1
1
1
1
1
1
1
1
1
1
1
1
1
1
1
1
1
1
1
1
1
1
1
1
1
1
1
1
1
1
1
1
1
1
1
1
1
1
1
1
1
1
1
1
1
1
1
1
1
1
1
1
1
1
1
1
1
1
1
1
1
1
1
1
1
1
1
1
1
1
1
1
1
1
1
1
1
1
1
1
1
1
1
1
1
1
1
1
2
2
2
2
2
2
2
2
2
2
2
2
2
2
2
2
2
2
2
2
2
2
2
2
2
2
2
2
2
2
2
2
2
2
2
2
2
2
2
2
2
2
2
2
2
2
2
2
2
2
2
2
2
2
2
2
2
2
2
2
2
2
2
2
2
2
2
2
2
2
2
2
2
2
2
2
2
2
2
2
2
2
2
2
2
2
2
2
2
2
2
2
2
2
2
2
2
2
2
2
2
2
2
2
2
2
2
2
2
2
2
2
2
2
2
2
2
2
2
2
2
2
2
2
2
2
2
2
2
2
2
2
2
2
2
2
2
2
2
2
2
2
2
2
2
2
2
2
2
2
