*Vertices 300
*Edges
1 24
1 58
1 59
1 82
1 92
1 112
1 116
1 134
1 168
1 187
1 196
1 227
1 241
1 285
1 296
2 21
2 32
2 37
2 57
2 204
2 243
2 269
2 281
3 27
3 56
3 82
3 144
3 148
3 187
3 209
3 231
3 242
3 281
4 18
4 34
4 41
4 54
4 66
4 79
4 117
4 141
4 222
4 223
4 229
4 254
4 257
4 262
4 276
5 14
5 30
5 42
5 44
5 83
5 105
5 123
5 131
5 149
5 154
5 190
5 195
5 198
5 262
5 269
6 14
6 21
6 28
6 60
6 63
6 70
6 113
6 138
6 141
6 163
6 167
6 179
6 190
6 210
6 259
6 298
7 24
7 55
7 114
7 158
7 183
7 224
7 294
7 299
8 19
8 31
8 49
8 60
8 110
8 119
8 121
8 166
8 202
8 220
8 252
9 30
9 35
9 59
9 81
9 89
9 110
9 134
9 146
9 150
9 165
9 174
9 251
9 253
9 256
10 202
10 229
10 251
10 266
10 277
10 299
11 42
11 70
11 124
11 162
11 174
11 218
11 263
11 281
12 27
12 106
12 125
12 144
12 192
12 233
12 296
13 39
13 148
13 160
13 182
13 195
13 242
13 255
13 269
13 273
13 286
14 19
14 27
14 42
14 119
14 133
14 189
14 197
14 298
15 25
15 32
15 42
15 44
15 50
15 74
15 99
15 106
15 112
15 123
15 133
15 178
15 223
15 259
15 260
15 274
16 56
16 66
16 148
16 174
16 180
16 211
16 227
16 254
17 26
17 133
17 192
17 223
17 225
17 299
17 300
18 20
18 22
18 33
18 80
18 81
18 111
18 135
18 199
18 229
18 239
18 256
18 260
18 261
18 272
18 276
19 27
19 93
19 118
19 119
19 123
19 197
19 218
19 236
20 22
20 28
20 49
20 57
20 71
20 75
20 85
20 159
20 164
20 182
20 185
20 207
20 219
20 235
20 254
20 258
20 262
20 270
20 271
20 275
20 280
20 287
21 37
21 61
21 94
21 97
21 130
21 149
21 168
21 170
21 221
21 243
21 259
21 281
22 57
22 71
22 80
22 85
22 135
22 143
22 205
22 219
22 278
23 62
23 73
23 85
23 142
23 146
23 208
23 222
23 238
23 240
23 266
23 289
24 27
24 43
24 45
24 55
24 62
24 67
24 70
24 111
24 113
24 132
24 137
24 144
24 214
24 223
24 227
24 265
24 280
25 29
25 39
25 49
25 50
25 56
25 58
25 63
25 79
25 86
25 96
25 97
25 99
25 126
25 147
25 153
25 158
25 188
25 205
25 223
25 247
25 254
25 286
25 290
26 29
26 74
26 227
26 286
27 36
27 43
27 76
27 82
27 144
27 195
27 238
27 287
27 292
28 33
28 41
28 49
28 57
28 58
28 63
28 70
28 71
28 75
28 99
28 113
28 146
28 182
28 236
28 253
28 275
28 280
29 38
29 97
29 98
29 128
29 132
29 133
29 161
29 169
29 227
29 295
30 57
30 81
30 83
30 89
30 95
30 103
30 110
30 131
30 174
30 177
30 195
30 273
31 44
31 131
31 142
31 146
31 147
31 165
31 211
31 243
31 252
31 296
32 108
32 126
32 136
32 167
32 178
32 180
32 185
32 262
32 264
32 276
33 44
33 56
33 59
33 75
33 81
33 92
33 99
33 122
33 130
33 256
33 284
33 285
34 66
34 79
34 89
34 120
34 162
34 163
34 180
34 189
34 257
34 271
34 278
35 100
35 150
35 186
35 199
36 83
36 101
36 126
36 233
36 238
36 261
37 57
37 121
37 195
37 283
38 67
38 106
38 132
38 171
38 245
39 54
39 86
39 158
39 220
39 246
40 105
40 151
40 171
40 202
40 215
40 228
40 248
40 265
41 51
41 57
41 71
41 79
41 82
41 87
41 91
41 94
41 101
41 125
41 127
42 51
42 56
42 70
42 83
42 133
42 139
42 141
42 150
42 174
42 216
42 257
42 269
43 44
43 68
43 86
43 91
43 115
43 144
43 196
43 198
43 292
44 69
44 81
44 83
44 86
44 88
44 92
44 95
44 106
44 111
44 130
44 131
44 151
44 156
44 204
44 211
44 225
44 235
44 281
45 70
45 163
45 196
45 204
45 206
45 211
45 264
45 273
45 290
45 292
45 294
46 70
46 94
46 132
46 142
46 147
46 169
46 187
46 292
47 52
47 60
47 159
47 170
47 174
47 207
47 210
47 228
47 280
48 179
48 192
49 60
49 70
49 97
49 113
49 202
49 210
49 239
50 120
50 127
50 154
50 208
50 223
51 87
51 105
51 141
51 182
51 215
52 62
52 107
52 113
52 140
52 167
52 221
52 230
52 249
52 265
52 280
52 285
53 87
53 169
53 188
53 214
53 274
54 185
54 215
54 257
55 73
55 114
55 127
55 149
55 158
55 175
55 181
55 228
55 236
55 246
55 265
55 283
55 291
55 293
55 294
56 85
56 86
56 96
56 99
56 126
56 131
56 148
56 163
56 216
56 247
56 252
56 254
57 79
57 81
57 111
57 135
57 143
57 278
57 288
58 92
58 97
58 113
58 122
58 158
58 176
58 220
58 222
58 261
58 300
59 63
59 94
59 112
59 124
59 149
59 150
59 202
59 209
59 266
59 277
59 285
60 122
60 141
60 143
60 188
60 209
60 226
60 228
60 239
60 248
60 288
61 67
61 69
61 90
61 95
61 98
61 152
61 196
61 210
61 274
61 293
61 296
62 71
62 80
62 87
62 214
62 235
62 280
62 289
63 86
63 88
63 94
63 141
63 153
63 164
63 186
63 259
64 110
64 121
64 124
64 224
64 261
64 272
64 279
65 102
65 133
65 207
65 245
65 251
65 258
65 269
65 276
66 130
66 194
66 211
66 223
66 285
67 88
67 132
67 147
67 152
67 189
67 293
68 86
68 136
68 138
68 166
68 188
68 196
68 286
69 75
69 90
69 91
69 93
69 95
69 96
69 98
69 104
69 105
69 107
69 128
69 132
69 174
69 179
69 181
69 185
69 254
69 260
69 267
69 272
70 73
70 79
70 94
70 113
70 174
70 183
70 196
70 201
70 226
70 246
70 253
70 265
70 283
70 292
71 87
71 90
71 126
71 262
71 288
72 182
72 193
73 115
73 142
73 175
73 216
73 232
73 233
73 239
73 252
73 283
74 176
74 217
74 223
74 237
74 268
74 286
75 98
75 113
75 122
75 132
75 139
75 179
75 186
75 236
75 254
76 122
76 140
76 165
76 295
77 226
78 81
78 168
78 171
78 205
78 280
78 282
79 125
79 188
79 201
79 257
79 286
79 297
80 120
80 143
80 162
80 177
80 185
80 236
80 271
80 282
81 111
81 166
81 174
81 177
82 125
82 170
82 175
82 187
82 192
82 204
82 229
82 242
83 89
83 93
83 100
83 101
83 126
83 131
83 150
83 159
83 195
83 228
83 236
83 244
83 251
83 284
83 294
83 298
84 127
84 134
84 183
84 212
84 256
84 288
84 296
85 88
85 126
85 142
85 185
85 221
85 261
85 271
85 287
86 95
86 147
86 188
86 223
86 238
86 281
86 290
86 300
87 91
87 131
87 160
87 188
87 214
87 229
88 106
88 132
88 147
88 153
88 176
88 187
88 204
88 207
88 221
88 223
88 233
88 236
88 245
88 261
88 271
88 281
89 103
89 113
89 125
89 138
89 222
89 235
89 240
90 91
90 93
90 95
90 96
90 107
90 128
90 156
90 161
90 174
90 179
90 185
90 191
90 227
90 241
90 288
90 291
90 299
91 115
91 144
91 181
91 225
91 242
91 267
92 95
92 113
92 130
92 244
92 261
92 280
92 300
93 95
93 111
93 137
93 156
93 161
93 204
93 225
93 236
93 242
94 101
94 127
94 142
94 149
94 154
94 169
94 190
94 207
94 225
94 228
94 244
94 277
95 156
95 179
95 194
95 226
95 247
95 269
96 97
96 161
96 228
96 247
96 277
96 288
97 130
97 150
97 153
97 170
97 184
97 205
97 210
97 228
97 239
97 243
98 105
98 128
98 240
98 267
99 106
99 112
99 122
99 131
99 148
99 165
99 169
100 138
100 144
100 150
100 213
100 231
100 251
101 126
101 261
102 133
102 258
102 276
102 293
103 109
103 190
104 207
104 210
104 212
104 245
104 250
104 254
104 279
104 296
105 108
105 133
105 136
105 144
105 179
105 183
105 195
105 215
105 246
105 262
105 267
105 292
106 119
106 125
106 132
106 218
106 219
107 128
107 201
107 265
107 279
107 291
107 299
108 136
108 194
108 253
110 115
110 119
110 121
110 134
110 165
110 202
110 204
110 251
110 252
110 253
110 272
110 283
111 114
111 137
111 162
111 166
111 181
111 226
111 239
111 250
111 261
111 262
111 279
112 157
112 204
112 272
113 125
113 138
113 141
113 201
113 210
113 221
113 222
113 259
113 280
114 133
114 217
114 245
114 260
114 262
114 295
115 121
115 147
115 149
115 181
115 198
115 278
115 290
115 292
116 186
116 189
116 227
116 230
117 174
117 186
117 214
117 230
117 232
117 257
117 294
118 140
118 258
119 123
119 213
119 215
119 218
119 232
119 239
119 259
119 283
120 127
120 135
120 147
120 149
120 159
120 162
120 164
120 169
120 174
120 188
120 199
120 214
120 227
120 238
120 273
120 278
121 124
121 131
121 134
121 195
121 251
121 269
121 273
121 283
122 140
122 141
122 148
122 158
122 162
122 186
122 216
122 239
122 243
122 252
123 149
123 154
123 181
123 218
123 259
123 283
124 151
124 185
124 202
124 285
124 299
125 132
125 164
125 175
125 192
125 198
125 211
125 221
125 232
125 296
126 133
126 163
126 180
126 190
126 207
126 268
126 271
126 276
127 135
127 154
127 205
127 212
127 214
127 227
127 278
127 291
127 294
128 176
128 191
128 237
128 240
128 253
128 268
128 279
128 295
129 137
129 194
129 209
129 216
129 252
129 281
130 150
130 244
130 285
131 148
131 160
131 162
131 190
131 252
131 255
132 136
132 138
132 147
132 170
132 179
132 267
133 161
133 179
133 180
133 184
133 192
133 199
133 236
133 245
133 251
133 260
133 262
133 299
134 172
134 193
134 207
134 237
134 296
135 161
135 219
135 242
135 266
135 278
136 238
136 293
136 297
137 224
137 265
137 279
138 144
138 166
138 180
138 222
138 226
139 141
139 150
139 165
139 167
139 300
140 265
141 150
141 151
141 162
141 165
141 167
141 187
141 239
141 241
141 243
141 248
141 250
141 257
141 259
142 243
143 156
143 199
143 204
143 272
143 288
144 150
144 213
144 223
144 231
144 266
144 287
144 290
144 292
145 170
145 300
146 148
146 222
146 252
146 256
147 181
147 278
148 169
148 182
148 203
148 259
149 150
149 158
149 169
149 181
149 227
149 235
149 244
149 298
150 206
150 239
150 241
150 243
150 255
151 176
151 185
151 196
151 202
151 241
151 262
151 296
152 182
152 185
152 208
152 209
152 242
152 244
152 271
152 284
153 159
153 164
153 176
153 184
153 236
153 282
154 157
154 275
155 232
155 246
156 200
156 225
156 235
156 281
156 288
156 298
157 162
157 204
157 249
157 252
157 253
157 272
157 275
157 281
157 291
159 174
159 207
159 244
159 245
159 282
160 173
160 255
161 233
161 236
161 242
161 260
162 166
162 186
162 190
162 204
162 232
162 249
162 281
163 206
163 255
163 273
164 185
164 188
164 192
164 240
164 271
164 283
165 167
165 171
165 245
165 260
166 247
166 250
166 269
166 274
167 175
167 199
167 223
167 239
168 171
168 187
168 234
168 245
168 250
170 243
170 254
170 268
170 280
171 245
171 260
171 282
172 180
172 187
172 191
172 207
172 211
172 250
174 198
174 226
174 273
175 186
175 199
175 216
175 218
175 232
175 252
176 223
176 281
176 296
177 185
177 195
177 202
177 271
177 299
178 205
178 258
179 192
179 259
179 267
180 187
180 188
180 199
180 207
180 211
180 216
180 226
180 272
180 276
181 226
182 195
182 198
182 233
182 242
182 259
182 264
182 273
182 295
183 188
183 195
183 214
183 215
183 246
183 300
184 248
184 260
185 227
185 241
185 271
185 288
186 214
186 230
186 232
186 272
186 291
186 295
187 191
187 204
187 227
187 236
187 239
187 250
187 271
187 281
188 214
188 226
188 294
188 297
188 300
189 197
189 278
190 207
190 232
190 281
190 298
192 227
192 271
193 237
194 206
194 215
194 216
194 219
194 252
194 262
195 226
195 269
195 287
196 210
196 269
196 286
196 296
198 221
198 273
199 232
199 239
199 278
200 247
201 202
201 205
201 208
201 213
201 215
201 253
201 258
201 268
201 274
201 286
201 292
201 299
202 215
202 253
202 262
202 266
202 295
202 296
202 299
204 208
204 228
204 232
204 236
204 253
204 255
204 267
204 271
204 272
204 276
204 281
204 287
204 296
205 219
205 258
205 294
206 208
206 216
206 218
206 219
206 229
206 255
206 264
206 275
207 245
207 275
208 223
208 229
208 238
208 254
208 255
208 274
208 276
208 284
208 286
209 281
210 211
210 222
210 239
210 296
211 281
211 296
213 215
213 239
213 252
213 258
214 294
214 297
215 262
215 266
215 290
215 294
216 239
216 246
216 252
216 287
217 223
217 237
217 268
217 299
218 219
218 232
218 263
218 276
219 255
219 264
219 299
220 300
221 238
221 243
221 254
221 273
221 280
222 289
223 245
223 254
223 285
223 299
224 279
224 294
225 242
225 300
226 276
228 236
228 247
228 265
228 277
228 291
229 255
229 261
229 299
230 239
231 281
232 246
232 262
232 267
232 272
232 295
233 259
233 261
233 283
233 291
234 278
235 240
235 244
235 264
235 266
235 285
235 289
236 255
236 271
236 284
237 268
238 276
238 280
238 286
238 297
239 252
239 261
239 276
240 244
240 264
240 266
240 283
240 285
240 287
240 298
242 247
242 264
242 275
242 295
244 284
244 298
245 264
245 269
245 275
246 283
247 269
247 275
249 252
250 274
251 272
251 277
251 291
252 266
252 299
253 258
253 268
253 275
254 262
254 271
254 280
254 285
256 261
256 274
256 288
257 278
258 272
258 294
259 283
262 264
262 295
265 279
265 280
266 290
266 299
267 272
267 276
269 275
269 286
270 287
271 284
271 299
272 276
272 287
274 286
277 284
278 293
279 291
281 287
281 296
283 287
284 285
285 287
289 293
290 292
290 294
291 293
291 295
291 299
293 297
*Classes
1
1
1
1
1
1
1
1
1
1
1
1
1
1
1
1
1
1
1
1
1
1
1
1
1
1
1
1
1
1
1
1
1
1
1
1
1
1
1
1
1
1
1
1
1
1
1
1
1
1
1
1
1
1
1
1
1
1
1
1
1
1
1
1
1
1
1
1
1
1
1
1
1
1
1
1
1
1
1
1
1
1
1
1
1
1
1
1
1
1
1
1
1
1
1
1
1
1
1
1
1
1
1
1
1
1
1
1
1
1
1
1
1
1
1
1
1
1
1
1
1
1
1
1
1
1
1
1
1
1
1
1
1
1
1
1
1
1
1
1
1
1
1
1
1
1
1
1
1
1
2
2
2
2
2
2
2
2
2
2
2
2
2
2
2
2
2
2
2
2
2
2
2
2
2
2
2
2
2
2
2
2
2
2
2
2
2
2
2
2
2
2
2
2
2
2
2
2
2
2
2
2
2
2
2
2
2
2
2
2
2
2
2
2
2
2
2
2
2
2
2
2
2
2
2
2
2
2
2
2
2
2
2
2
2
2
2
2
2
2
2
2
2
2
2
2
2
2
2
2
2
2
2
2
2
2
2
2
2
2
2
2
2
2
2
2
2
2
2
2
2
2
2
2
2
2
2
2
2
2
2
2
2
2
2
2
2
2
2
2
2
2
2
2
2
2
2
2
2
2
