*Vertices 300
*Edges
1 65
1 91
1 95
1 132
1 154
1 155
1 184
1 237
1 248
2 42
2 79
2 83
2 103
2 142
2 152
2 192
2 231
2 246
2 253
2 268
2 288
3 15
3 28
3 57
3 117
3 124
3 162
3 194
3 219
3 233
3 289
3 297
4 106
4 243
5 38
5 52
5 68
5 78
5 86
5 100
5 101
5 173
5 282
6 119
6 143
6 176
6 205
6 224
6 231
7 11
7 12
7 29
7 49
7 74
7 76
7 87
7 88
7 113
7 119
7 143
7 191
7 202
7 215
7 224
7 258
8 24
8 104
8 139
8 183
8 276
8 283
9 15
9 30
9 32
9 57
9 60
9 80
9 117
9 136
9 160
9 161
9 194
9 232
9 235
9 249
9 271
10 43
10 52
10 53
10 78
10 89
10 116
10 124
10 205
10 223
10 241
10 245
10 249
10 293
11 12
11 55
11 81
11 156
11 252
11 265
12 49
12 55
12 87
12 92
12 106
12 140
12 218
12 257
12 300
13 40
13 48
13 63
13 71
13 110
13 148
13 215
13 242
13 247
14 94
14 102
14 127
14 235
14 270
14 300
15 80
15 92
15 117
15 168
15 205
15 251
15 266
15 289
16 85
16 91
16 103
16 114
16 127
16 146
16 169
16 172
16 184
16 211
16 226
16 240
16 289
17 56
17 226
17 227
17 251
18 47
18 71
18 135
18 160
18 294
19 77
19 132
19 179
19 214
19 234
19 277
20 41
20 60
20 64
20 67
20 109
20 165
20 177
20 183
20 185
20 194
20 201
20 227
20 256
21 102
21 123
21 138
21 151
21 185
22 49
22 56
22 61
22 115
22 125
22 131
22 142
22 177
22 189
22 194
22 236
23 31
23 38
23 41
23 50
23 164
23 174
23 241
24 104
24 110
24 167
24 180
25 78
25 182
25 203
25 249
25 288
26 29
26 87
26 154
26 233
26 243
27 41
27 43
27 51
27 70
27 154
27 159
27 197
27 213
27 221
28 39
28 41
28 57
28 66
28 124
28 127
28 198
28 214
28 270
28 290
29 69
29 87
29 167
29 177
29 181
29 201
29 213
29 239
30 32
30 80
30 89
30 183
30 206
30 217
30 236
30 274
31 38
31 52
31 100
31 166
31 171
31 220
31 245
31 273
32 45
32 50
32 57
32 60
32 65
32 66
32 86
32 110
32 147
32 159
32 168
32 173
32 214
32 223
33 136
33 152
33 175
33 176
33 205
33 224
33 246
33 248
33 254
34 209
34 298
35 39
35 85
35 109
35 113
35 120
35 132
35 175
35 224
36 40
36 71
36 117
36 148
36 191
36 248
37 58
37 59
37 99
37 118
37 143
37 202
37 206
37 207
37 220
37 268
38 41
38 101
38 111
38 139
38 174
38 177
38 222
38 252
38 287
39 72
39 87
39 124
39 136
39 179
39 187
40 47
40 48
40 71
40 75
40 110
40 117
40 148
40 176
40 198
40 236
40 247
40 248
40 272
41 43
41 45
41 50
41 59
41 62
41 108
41 109
41 112
41 124
41 128
41 193
41 203
41 221
41 254
42 45
42 62
42 67
42 77
42 114
42 124
42 276
43 53
43 89
43 220
43 241
43 287
44 83
44 103
44 208
45 85
45 109
45 110
45 132
45 183
45 185
45 210
47 50
47 71
47 75
47 128
47 135
47 166
47 233
47 243
47 274
48 65
48 71
48 198
48 226
49 55
49 61
49 82
49 92
49 97
49 104
49 200
49 247
49 258
49 300
50 57
50 109
50 128
50 147
50 203
50 206
50 246
50 287
51 55
51 58
51 69
51 70
51 98
51 121
51 131
51 230
51 238
51 252
51 264
51 274
52 69
52 70
52 90
52 100
52 132
52 145
52 195
52 270
53 95
53 155
53 175
53 195
53 216
53 217
53 225
53 265
54 65
54 86
54 185
54 200
54 300
55 61
55 91
55 92
55 106
55 122
55 131
55 133
55 139
55 163
55 167
55 192
55 197
56 57
56 194
56 217
56 251
57 66
57 110
57 130
57 134
57 147
57 164
57 169
57 170
57 189
57 193
57 198
57 219
57 223
57 229
57 270
58 59
58 121
58 130
58 131
58 134
58 160
58 169
58 176
58 202
58 228
58 274
58 290
59 108
59 119
59 168
59 207
59 226
60 93
60 129
60 145
60 165
60 192
60 234
60 241
60 271
60 296
61 82
61 97
61 106
61 131
61 166
61 200
61 223
61 246
61 269
61 276
61 294
61 297
62 66
62 72
62 77
62 88
62 91
62 94
62 114
62 124
62 292
63 199
63 215
63 218
63 249
63 251
63 269
63 273
63 291
64 97
64 109
64 113
64 266
64 281
65 71
65 86
65 95
65 113
65 117
65 120
65 147
65 168
65 185
65 241
65 245
66 72
66 88
66 91
66 94
66 131
66 147
66 178
67 77
67 87
67 103
67 111
67 113
67 114
67 136
67 156
67 180
67 227
68 78
68 86
68 251
68 280
69 70
69 87
69 90
69 100
69 175
69 192
69 226
69 258
70 209
70 213
70 286
70 300
71 120
71 169
71 185
71 198
71 207
71 226
71 273
72 87
72 88
72 94
72 124
72 178
72 220
72 266
72 267
73 110
73 136
73 164
73 223
74 105
74 191
74 260
75 136
75 161
75 165
75 166
75 236
76 88
76 123
76 134
76 173
76 191
76 215
76 234
76 266
77 226
77 270
77 286
78 89
78 182
78 245
79 152
79 154
79 252
79 297
80 117
80 200
80 217
80 249
80 284
81 219
81 233
81 243
82 92
82 99
82 117
82 140
82 172
82 230
82 235
82 255
82 281
82 300
83 103
83 146
83 179
83 194
83 195
83 219
83 253
83 254
85 123
85 128
85 132
85 157
85 172
85 210
86 90
86 95
86 132
86 225
86 238
86 288
86 289
86 294
87 113
87 120
87 124
87 125
87 165
87 187
87 201
87 258
88 91
88 115
88 153
88 173
88 180
88 210
88 215
88 249
88 258
88 291
88 293
89 116
89 177
89 183
89 184
90 132
90 145
90 270
90 286
90 298
91 115
91 131
91 132
91 172
91 184
91 208
91 226
91 256
92 96
92 161
92 182
92 196
92 208
92 218
92 224
92 257
92 282
92 292
92 299
93 205
94 127
94 164
94 178
95 190
95 195
95 265
95 280
96 108
96 114
96 116
96 124
96 127
96 196
96 198
96 208
96 233
96 243
96 248
96 269
96 290
97 99
97 102
97 109
97 223
97 225
97 243
97 269
98 133
98 200
98 230
98 266
98 297
99 117
99 126
99 143
99 164
99 236
99 241
99 253
99 258
100 166
101 139
101 173
101 247
101 265
101 285
102 123
102 167
102 171
102 237
102 300
103 113
103 127
103 146
103 194
103 197
103 219
103 222
103 251
103 268
103 291
104 180
104 269
104 276
105 169
105 170
105 191
105 267
106 154
106 211
106 294
107 150
107 192
107 211
107 231
107 255
107 278
107 290
108 109
108 133
108 166
108 198
108 204
108 217
109 112
109 113
109 156
109 165
109 183
109 194
109 227
109 256
110 149
110 167
110 169
110 173
110 178
110 180
110 183
110 198
110 223
111 181
111 198
111 222
112 113
112 155
112 166
112 183
112 185
112 250
112 265
112 266
113 120
113 122
113 136
113 156
113 179
113 187
113 224
113 230
114 127
115 131
115 142
115 194
115 226
115 267
115 277
115 291
116 124
116 157
116 178
116 185
116 205
116 214
116 217
116 218
116 246
116 250
116 251
116 269
117 126
117 136
117 140
117 172
117 194
117 266
117 267
118 126
118 141
118 143
118 175
118 190
118 228
118 234
118 242
118 278
118 293
119 143
119 283
120 148
120 205
120 222
121 230
121 252
122 131
122 133
122 139
122 192
122 224
122 283
123 266
123 269
124 136
124 148
124 193
124 198
124 248
124 249
124 290
125 157
125 184
125 194
126 143
126 146
126 253
126 268
127 155
127 227
127 241
127 250
127 253
128 135
128 264
128 272
129 141
129 176
129 178
129 219
129 231
129 242
129 253
129 271
130 134
130 195
130 202
131 132
131 133
131 267
131 277
131 295
132 172
132 184
132 234
132 288
132 294
132 298
133 140
133 166
133 198
133 200
133 202
133 227
133 244
133 260
134 208
134 215
134 256
134 266
135 179
135 201
135 276
136 194
136 207
136 254
136 257
136 276
137 177
137 222
138 144
138 163
138 240
138 268
138 277
139 144
139 252
139 268
139 283
139 288
140 217
140 255
140 286
140 300
141 144
141 219
141 242
142 147
142 152
142 155
142 190
142 192
142 206
142 217
142 235
142 274
142 288
143 190
144 178
144 198
144 268
145 194
145 207
145 282
145 296
146 163
146 188
146 194
146 287
147 234
148 174
148 191
148 223
148 249
148 266
148 267
148 273
148 293
149 170
149 178
150 218
150 278
150 291
151 157
151 207
151 211
151 214
151 276
151 277
152 175
152 231
152 246
152 253
152 258
152 270
153 203
153 239
153 258
153 263
153 269
153 295
154 155
154 248
154 294
155 192
155 195
155 204
155 215
155 217
155 250
155 292
156 259
156 284
157 214
157 225
158 159
158 167
158 197
158 277
158 295
159 167
159 179
159 189
159 197
159 215
159 246
159 269
160 174
160 194
160 206
160 207
160 288
161 208
162 173
162 233
162 243
162 252
162 279
162 282
162 287
162 297
163 191
164 168
164 174
164 189
164 229
164 270
165 194
165 201
165 234
165 263
165 286
165 296
165 298
166 208
166 247
166 256
167 187
167 197
167 198
167 213
167 214
167 229
167 291
168 174
168 203
168 206
168 228
168 283
168 288
168 289
169 170
169 176
169 178
169 189
169 197
169 198
169 223
169 250
170 189
170 210
170 267
170 268
171 202
171 236
171 237
171 264
171 299
172 211
172 225
172 255
172 289
172 300
173 191
173 218
173 297
174 207
174 241
174 264
174 267
174 276
175 183
175 190
175 206
175 226
176 231
176 248
176 259
176 271
176 283
177 181
177 208
177 230
177 254
177 256
177 264
177 282
177 287
178 198
178 274
178 277
179 215
179 224
179 232
179 278
181 198
181 264
183 185
183 206
183 283
184 206
185 246
185 261
186 209
186 219
186 244
186 289
187 225
187 229
188 196
188 205
188 241
189 197
189 200
189 210
189 223
189 224
189 227
189 246
189 268
190 218
190 237
190 266
190 291
191 218
191 251
191 271
192 240
192 273
194 296
195 219
195 261
195 270
195 272
195 295
196 223
196 252
196 293
196 297
197 198
197 223
197 229
197 264
197 268
197 272
197 287
198 208
198 214
200 201
200 207
200 215
200 246
200 276
201 207
201 208
201 256
201 276
202 211
202 212
202 220
202 223
202 224
202 264
202 267
202 272
202 295
202 296
203 263
204 217
205 224
205 241
206 283
206 288
207 211
207 226
207 276
208 256
208 293
208 298
208 300
209 219
209 241
209 254
209 256
209 286
209 296
210 218
210 260
210 268
210 293
211 240
211 267
212 239
212 251
212 264
212 280
212 293
213 291
214 223
214 238
214 277
214 282
214 295
215 224
215 232
215 269
215 276
215 292
217 222
217 226
217 244
217 251
217 273
217 300
218 251
218 260
218 289
218 291
219 270
219 286
220 225
220 244
220 266
220 267
220 287
221 275
222 251
222 299
223 234
223 243
223 264
223 266
223 282
223 287
223 293
224 227
224 278
225 238
225 244
225 252
225 300
226 235
226 251
226 270
228 283
228 288
228 295
230 246
230 264
230 270
230 272
231 248
231 253
231 255
231 261
231 272
231 287
232 242
232 277
232 293
233 243
233 274
233 279
233 282
233 287
233 297
234 291
234 293
235 245
235 270
235 274
236 237
236 241
236 272
237 266
238 277
239 242
239 259
239 269
240 277
241 254
242 269
242 277
242 293
243 266
243 293
244 253
244 289
245 257
246 261
246 287
248 283
248 288
249 266
251 260
251 269
251 270
251 280
252 297
253 258
253 289
254 256
255 280
256 282
257 277
258 300
259 284
260 289
260 292
261 272
261 295
262 269
262 290
263 270
263 296
263 298
264 267
264 272
264 287
264 295
264 298
266 267
266 281
266 296
267 277
267 295
267 296
268 283
269 272
269 273
269 287
269 290
269 295
272 287
274 287
277 292
277 295
279 297
283 288
286 296
287 290
288 295
298 300
*Classes
1
1
1
1
1
1
1
1
1
1
1
1
1
1
1
1
1
1
1
1
1
1
1
1
1
1
1
1
1
1
1
1
1
1
1
1
1
1
1
1
1
1
1
1
1
1
1
1
1
1
1
1
1
1
1
1
1
1
1
1
1
1
1
1
1
1
1
1
1
1
1
1
1
1
1
1
1
1
1
1
1
1
1
1
1
1
1
1
1
1
1
1
1
1
1
1
1
1
1
1
1
1
1
1
1
1
1
1
1
1
1
1
1
1
1
1
1
1
1
1
1
1
1
1
1
1
1
1
1
1
1
1
1
1
1
1
1
1
1
1
1
1
1
1
1
1
1
1
1
1
2
2
2
2
2
2
2
2
2
2
2
2
2
2
2
2
2
2
2
2
2
2
2
2
2
2
2
2
2
2
2
2
2
2
2
2
2
2
2
2
2
2
2
2
2
2
2
2
2
2
2
2
2
2
2
2
2
2
2
2
2
2
2
2
2
2
2
2
2
2
2
2
2
2
2
2
2
2
2
2
2
2
2
2
2
2
2
2
2
2
2
2
2
2
2
2
2
2
2
2
2
2
2
2
2
2
2
2
2
2
2
2
2
2
2
2
2
2
2
2
2
2
2
2
2
2
2
2
2
2
2
2
2
2
2
2
2
2
2
2
2
2
2
2
2
2
2
2
2
2
