*Vertices 300
*Edges
1 29
1 52
1 61
1 66
1 85
1 87
1 121
1 139
1 236
2 4
2 15
2 60
2 94
3 85
3 144
3 235
4 15
4 73
4 133
4 156
4 164
4 297
5 30
5 38
5 48
5 54
5 66
5 90
5 98
5 111
5 112
5 121
5 151
5 198
5 204
5 216
5 256
6 13
6 61
6 68
6 99
6 106
6 118
6 170
6 201
6 244
6 246
6 272
7 83
7 111
7 116
7 128
7 174
7 214
8 76
8 152
8 225
8 256
8 278
8 279
9 61
9 77
9 98
9 118
9 184
9 248
9 277
10 123
10 155
10 156
10 166
10 256
10 292
11 12
11 71
11 88
11 92
11 115
11 117
11 118
11 127
11 273
11 297
12 43
12 44
12 60
12 61
12 71
12 83
12 93
12 94
12 118
12 127
12 179
12 181
12 204
12 210
12 221
13 272
13 286
14 32
14 64
14 68
14 73
14 77
14 93
14 107
14 146
14 272
15 26
15 55
15 63
15 69
15 215
15 290
16 107
16 213
16 298
17 56
17 75
17 110
17 141
17 164
17 193
17 223
17 287
18 28
18 82
18 202
18 264
19 43
19 79
19 97
19 195
19 250
19 280
20 119
20 164
20 275
20 282
21 79
21 278
22 31
22 64
22 100
22 106
22 130
22 146
22 161
22 175
22 187
22 190
22 191
22 201
22 209
22 219
22 222
22 251
22 266
22 278
23 61
23 100
23 165
23 170
23 215
23 216
23 234
23 244
23 249
23 254
23 262
23 273
24 143
24 169
24 176
24 213
24 277
24 278
25 28
25 57
25 82
25 100
25 148
25 213
25 215
25 253
25 288
26 69
26 77
26 81
26 95
26 112
26 223
26 226
26 250
26 253
27 125
27 186
27 221
28 32
28 82
28 84
28 111
28 136
28 219
28 255
29 46
29 51
29 105
29 110
29 121
29 172
29 209
29 269
30 78
30 82
30 112
30 121
30 241
31 33
31 98
31 100
31 103
31 106
31 111
31 130
31 186
31 190
31 203
31 205
31 230
31 237
31 238
31 254
31 271
31 273
31 274
31 279
31 286
32 56
32 84
32 107
32 174
32 187
32 254
33 49
33 86
33 100
33 105
33 119
33 123
33 124
33 163
33 169
33 190
33 211
33 248
33 276
33 292
34 149
34 156
34 206
34 284
34 291
35 60
35 66
35 81
35 88
35 126
35 137
35 154
35 227
35 251
36 100
36 104
36 273
37 65
37 99
37 123
37 146
37 153
37 163
37 170
37 185
37 192
37 213
37 215
37 272
37 286
37 288
37 290
37 293
37 300
38 77
38 88
38 144
38 179
38 197
38 208
38 283
39 54
39 72
39 128
39 144
39 210
39 248
40 76
40 105
40 109
40 123
40 139
40 178
40 184
40 191
40 210
40 257
40 271
40 297
41 150
41 166
41 179
41 180
41 192
42 112
42 130
42 224
43 79
43 93
43 159
43 178
43 240
43 251
44 55
44 61
44 88
44 93
44 167
44 170
44 193
44 202
44 240
44 282
44 295
45 184
45 189
46 51
46 81
46 95
46 138
46 155
46 178
46 180
47 55
47 94
47 108
47 110
47 167
47 170
47 181
47 202
47 211
47 218
47 229
47 296
48 63
48 71
48 90
48 97
48 109
48 125
48 136
48 175
48 200
48 205
49 98
49 100
49 124
49 173
49 245
50 63
50 78
50 92
50 109
50 115
50 205
51 61
51 77
51 83
51 89
51 116
51 144
51 180
51 256
51 278
51 280
52 61
52 66
52 77
52 82
52 85
52 90
52 106
52 139
52 171
52 179
52 267
53 77
53 89
53 180
53 195
53 239
53 243
53 262
53 300
54 83
54 111
54 128
54 174
54 181
54 187
54 188
54 245
55 63
55 68
55 90
55 93
55 132
55 210
55 216
55 291
56 61
56 67
56 68
56 84
56 237
56 247
57 75
57 99
57 175
58 79
58 91
58 98
58 124
58 214
58 265
58 277
59 66
59 108
59 118
59 231
59 245
59 273
59 285
60 77
60 88
60 90
60 94
60 186
60 254
61 66
61 68
61 77
61 89
61 93
61 103
61 106
61 113
61 144
61 176
61 197
61 205
61 232
61 254
61 275
62 92
62 102
62 127
62 140
62 161
62 169
62 185
62 233
62 284
63 90
63 92
63 107
63 129
63 181
63 216
63 242
64 73
64 110
64 146
64 232
64 239
64 262
64 283
65 67
65 68
65 73
65 104
65 153
65 175
65 213
65 230
65 268
66 90
66 118
66 188
66 221
67 68
67 84
67 122
67 198
67 215
67 285
68 73
68 93
68 118
68 126
68 272
69 95
69 112
69 139
69 147
69 154
69 242
70 112
70 170
71 83
71 136
72 126
72 148
72 171
72 176
72 191
72 207
72 237
72 254
73 77
73 104
73 107
73 156
73 163
73 184
73 215
74 84
74 223
74 291
75 85
75 99
75 110
75 119
75 144
75 156
75 159
75 173
75 186
75 208
75 244
75 282
76 102
76 109
76 252
76 269
77 85
77 88
77 89
77 104
77 113
77 117
77 123
77 139
77 144
77 176
77 215
77 253
77 256
78 82
78 92
78 111
78 128
78 143
78 179
78 196
78 228
78 300
79 91
79 124
79 212
79 240
79 251
80 210
80 231
81 88
81 95
81 112
81 156
81 170
81 257
82 92
82 104
82 105
82 111
82 153
82 178
82 180
82 250
82 255
82 293
83 98
83 111
83 128
83 171
83 179
83 221
83 280
84 136
84 173
84 186
85 144
85 145
86 100
86 239
86 264
86 265
86 268
87 127
87 130
87 135
87 138
87 139
87 140
87 149
87 186
87 209
87 235
88 90
88 115
88 117
88 118
88 119
88 183
88 218
88 220
88 227
89 123
89 135
89 168
89 209
89 222
89 238
90 92
90 97
90 109
90 129
90 160
90 177
90 188
90 198
90 203
90 221
91 181
91 197
91 225
91 244
91 295
92 96
92 115
92 129
92 284
93 103
93 118
93 132
93 181
93 197
94 181
94 211
95 98
95 111
95 112
95 121
95 183
95 250
95 252
95 296
96 128
96 129
96 185
96 299
97 102
97 108
97 132
97 163
98 111
98 124
98 154
98 182
98 197
98 208
98 254
98 270
99 106
99 146
99 166
99 180
99 185
100 148
100 159
100 193
100 211
100 273
101 114
101 120
101 150
101 189
101 297
102 108
102 132
102 284
103 191
103 205
103 218
103 232
103 256
103 272
103 288
104 105
104 237
104 284
104 294
105 121
105 154
105 184
105 196
105 253
105 267
106 145
106 152
106 210
106 285
107 210
107 213
108 118
108 132
108 152
108 181
108 193
108 205
108 207
108 263
110 146
110 164
110 209
110 211
111 245
111 253
112 252
113 249
114 159
114 175
114 178
114 181
114 213
114 273
114 284
115 159
115 198
116 177
116 214
117 183
117 212
117 217
117 278
117 290
118 164
118 221
118 277
119 123
119 161
119 290
120 150
120 176
120 231
120 243
120 260
120 270
120 287
121 213
121 269
121 273
122 181
122 219
122 236
122 246
122 267
123 129
123 153
123 170
123 227
123 256
123 273
124 141
124 148
124 214
124 222
124 261
124 262
125 248
126 183
126 198
126 209
126 219
126 255
126 275
127 135
127 140
127 161
127 168
127 202
127 206
127 261
127 274
128 196
128 256
128 290
129 166
130 138
130 146
130 186
130 194
130 214
130 235
131 230
131 244
132 136
132 142
132 186
132 205
132 266
132 285
133 161
133 167
134 176
134 216
134 278
135 223
135 248
136 142
136 204
137 286
138 199
138 218
138 242
138 294
139 154
139 214
139 233
139 238
139 253
139 271
139 297
140 194
140 208
141 223
141 275
141 290
142 176
142 211
142 260
142 266
142 275
143 230
143 290
144 145
144 248
144 292
145 254
146 269
146 278
146 291
146 293
146 297
147 294
148 161
148 166
148 171
148 191
148 202
148 256
148 258
148 287
148 294
148 299
149 151
149 187
149 269
149 274
149 294
150 156
150 199
151 174
151 198
151 233
151 271
151 273
151 274
152 201
152 277
152 279
153 163
153 192
153 231
153 292
153 293
153 300
154 159
154 198
154 210
154 234
154 291
154 297
155 170
155 184
155 219
155 257
156 242
156 244
157 162
157 193
157 225
157 231
157 237
157 256
157 263
157 277
157 289
158 164
158 183
158 207
159 172
159 197
159 198
159 208
159 244
159 257
159 285
160 164
160 170
160 171
160 177
160 223
160 228
160 265
160 278
160 300
161 215
161 232
161 260
162 258
162 263
163 203
163 276
163 287
164 174
164 177
164 298
164 299
165 181
165 248
165 267
165 281
165 285
167 203
168 170
168 202
168 225
169 185
169 213
169 239
169 257
169 260
170 202
170 216
170 218
170 219
170 238
170 241
170 245
170 265
170 267
171 177
171 180
171 181
171 204
171 296
173 186
174 187
174 207
174 273
174 292
175 195
175 205
175 220
175 222
176 182
176 234
176 246
176 260
176 262
176 278
177 181
177 228
177 246
177 275
177 278
177 300
178 191
178 202
178 210
178 231
178 250
178 257
178 295
178 296
179 189
179 261
179 291
179 292
180 181
180 267
180 268
180 283
180 294
181 188
181 232
181 242
181 267
181 291
181 294
181 295
181 296
181 297
182 224
182 229
182 232
182 234
183 203
183 207
183 230
183 241
183 275
183 293
184 276
185 260
186 192
186 200
186 233
187 254
187 266
187 270
187 272
187 273
188 221
188 242
188 290
188 295
188 296
189 218
189 254
189 266
190 245
190 293
191 235
191 237
191 251
191 255
191 294
192 200
192 209
192 255
193 243
193 263
193 286
193 287
194 225
194 270
194 277
194 293
195 220
195 222
196 253
196 256
196 275
197 208
197 210
197 257
198 244
198 285
200 228
200 298
200 299
201 279
202 223
202 265
202 296
203 287
204 258
205 237
205 243
205 249
205 254
205 256
205 279
206 211
206 217
206 230
206 245
206 263
206 265
206 274
206 279
208 248
208 261
209 230
209 235
209 248
209 255
209 293
210 234
210 239
210 257
210 291
211 234
211 249
211 263
211 296
213 227
213 230
213 265
213 273
214 216
214 233
214 245
214 259
214 285
215 216
215 260
215 278
216 218
216 233
216 265
217 265
218 254
218 290
219 238
219 279
219 283
221 242
222 297
222 300
223 228
223 248
223 261
224 233
224 234
224 246
224 271
224 275
224 294
225 237
225 256
225 277
225 280
225 281
225 285
225 286
227 273
228 298
230 261
230 265
230 293
231 232
231 257
231 263
231 295
231 300
232 260
232 295
233 246
233 273
233 274
233 285
234 249
234 278
234 291
234 294
235 237
235 250
235 255
236 259
236 285
237 254
237 289
237 292
237 294
238 253
238 283
239 257
239 262
239 277
241 252
241 265
241 293
242 259
242 267
242 290
242 295
243 270
243 293
243 300
245 265
245 285
246 271
246 275
246 278
248 261
248 267
248 276
249 278
252 281
253 275
253 292
253 300
254 270
254 272
255 271
255 280
256 279
259 281
259 285
260 262
260 295
261 292
261 294
261 300
262 265
262 277
265 274
266 281
266 285
267 281
269 298
271 280
272 288
273 292
273 300
274 279
274 281
274 285
275 282
277 279
277 280
277 293
279 283
281 285
281 286
291 297
292 293
292 294
292 300
293 300
294 297
298 299
*Classes
1
1
1
1
1
1
1
1
1
1
1
1
1
1
1
1
1
1
1
1
1
1
1
1
1
1
1
1
1
1
1
1
1
1
1
1
1
1
1
1
1
1
1
1
1
1
1
1
1
1
1
1
1
1
1
1
1
1
1
1
1
1
1
1
1
1
1
1
1
1
1
1
1
1
1
1
1
1
1
1
1
1
1
1
1
1
1
1
1
1
1
1
1
1
1
1
1
1
1
1
1
1
1
1
1
1
1
1
1
1
1
1
1
1
1
1
1
1
1
1
1
1
1
1
1
1
1
1
1
1
1
1
1
1
1
1
1
1
1
1
1
1
1
1
1
1
1
1
1
1
2
2
2
2
2
2
2
2
2
2
2
2
2
2
2
2
2
2
2
2
2
2
2
2
2
2
2
2
2
2
2
2
2
2
2
2
2
2
2
2
2
2
2
2
2
2
2
2
2
2
2
2
2
2
2
2
2
2
2
2
2
2
2
2
2
2
2
2
2
2
2
2
2
2
2
2
2
2
2
2
2
2
2
2
2
2
2
2
2
2
2
2
2
2
2
2
2
2
2
2
2
2
2
2
2
2
2
2
2
2
2
2
2
2
2
2
2
2
2
2
2
2
2
2
2
2
2
2
2
2
2
2
2
2
2
2
2
2
2
2
2
2
2
2
2
2
2
2
2
2
