*Vertices 300
*Edges
1 10
1 36
1 77
1 84
1 116
1 163
1 282
2 26
2 42
2 43
2 61
2 69
2 107
2 111
2 122
2 128
2 157
2 173
2 186
2 228
2 242
2 246
2 263
2 287
3 23
3 27
3 33
3 39
3 86
3 110
3 124
3 127
3 134
3 137
3 223
3 254
4 32
4 44
4 90
4 161
4 208
5 47
5 56
5 198
5 220
5 241
5 273
5 291
6 46
6 56
6 67
6 71
6 127
6 138
6 142
6 176
6 189
6 194
6 237
6 250
7 26
7 53
7 118
7 202
7 206
7 231
7 274
7 294
8 17
8 73
8 114
8 120
8 230
8 289
9 54
9 57
9 59
9 129
9 150
9 180
9 181
9 245
9 249
9 252
10 13
10 38
10 45
10 49
10 50
10 53
10 60
10 76
10 87
10 108
10 112
10 122
10 123
10 162
10 176
10 180
10 185
10 202
10 245
10 252
11 149
11 243
12 169
12 182
12 293
13 30
13 45
13 76
13 83
13 89
13 95
13 141
13 158
13 205
14 45
14 57
14 230
15 37
15 49
15 76
15 96
15 142
15 163
15 180
15 198
15 199
15 251
16 18
16 106
16 129
16 141
16 150
16 202
16 231
16 296
17 73
17 203
18 129
18 134
18 244
18 262
18 279
19 35
19 40
19 60
19 91
19 106
19 114
19 128
19 135
19 144
19 152
19 254
19 298
20 30
20 80
20 151
20 175
20 199
20 210
20 218
20 251
21 22
21 35
21 79
21 82
21 111
21 117
21 127
21 143
21 152
21 163
21 227
21 264
21 281
22 29
22 36
22 70
22 72
22 127
22 232
23 69
23 110
23 119
23 144
23 214
23 255
24 87
24 93
24 125
24 204
24 209
24 215
24 232
25 40
25 43
25 44
25 104
26 42
26 53
26 63
26 66
26 77
26 94
26 118
26 149
26 163
26 220
26 231
26 261
27 124
27 137
27 278
28 138
28 183
28 198
28 203
28 222
28 259
28 266
28 273
28 274
29 36
29 49
29 134
30 160
30 172
30 178
30 199
30 218
31 66
31 228
31 281
32 44
32 77
32 100
33 72
33 81
33 87
33 93
33 106
33 131
33 134
33 145
33 196
33 211
33 254
33 270
33 298
34 68
34 113
34 169
34 208
34 284
35 84
35 91
35 105
35 118
35 152
35 238
35 261
36 49
36 51
36 60
36 96
36 116
36 129
36 134
36 239
36 248
37 68
37 73
37 85
37 103
37 132
37 165
37 189
37 251
37 253
38 112
38 122
38 267
39 89
39 95
39 137
39 287
40 44
40 104
40 114
40 156
40 179
40 268
40 293
41 54
41 106
41 110
41 111
41 119
41 122
41 137
41 193
41 240
41 263
42 55
42 78
42 79
42 109
42 128
42 155
42 163
42 206
42 220
42 252
42 257
42 261
42 262
42 271
43 104
43 212
43 227
43 263
43 295
43 299
43 300
44 63
44 77
44 90
44 101
44 121
44 170
44 173
44 195
44 197
44 216
44 265
44 277
44 292
44 294
45 50
45 60
45 76
46 60
46 67
46 78
46 119
46 138
46 172
46 176
46 183
46 188
46 189
46 247
46 250
46 252
46 253
46 292
47 53
47 57
47 108
47 166
47 181
47 251
48 101
48 123
48 128
48 129
48 172
48 208
49 60
49 76
49 117
49 121
49 131
49 137
49 156
49 176
50 104
50 105
50 142
50 166
50 185
50 194
50 203
50 225
50 252
50 255
50 295
51 59
51 74
51 108
51 119
51 134
51 160
51 167
51 217
51 239
52 85
52 90
52 103
52 134
52 156
52 199
52 224
52 268
53 66
53 94
53 108
53 163
53 299
54 62
54 97
54 119
54 137
54 180
54 197
54 226
54 245
55 61
55 82
55 107
55 128
55 143
55 149
55 170
55 204
55 227
55 252
55 264
55 291
56 57
56 63
56 66
56 67
56 76
56 84
56 127
56 131
56 241
56 246
56 262
56 288
57 58
57 94
57 110
57 141
57 151
57 178
57 181
57 280
58 66
58 75
58 80
58 106
58 114
58 124
58 129
58 150
58 159
58 160
58 178
58 238
58 249
58 259
58 277
59 74
59 106
59 107
59 108
59 150
59 160
59 245
59 250
60 67
60 117
60 121
60 141
60 152
60 172
60 176
60 217
60 248
61 67
61 69
61 75
61 108
61 120
61 143
61 149
61 166
61 191
61 196
61 204
61 262
61 273
62 67
62 84
62 226
62 285
63 66
63 91
63 107
63 127
63 197
63 250
63 262
63 272
63 279
64 77
64 87
64 210
64 254
65 66
65 70
65 114
65 167
65 225
65 280
66 103
66 114
66 186
66 228
66 250
66 279
67 69
67 84
67 108
67 116
67 120
67 149
67 168
67 234
68 85
68 96
68 102
68 113
68 146
68 149
68 174
68 196
68 211
68 258
68 265
68 271
68 286
68 297
69 75
69 100
69 190
69 196
70 72
70 76
70 91
70 124
70 128
70 131
70 167
70 248
71 79
71 90
71 109
71 143
71 199
71 206
71 298
72 76
72 103
72 131
72 159
73 115
73 136
73 190
73 203
73 215
73 268
74 107
74 199
74 222
75 111
75 113
75 118
75 155
75 191
75 273
76 101
76 108
76 122
76 128
76 131
76 157
76 172
76 180
76 191
76 217
76 251
77 87
77 90
77 100
77 147
77 163
77 184
77 250
77 264
77 269
78 91
78 128
78 175
78 221
78 259
78 269
79 86
79 105
79 206
79 225
79 227
79 263
79 295
80 117
80 160
80 169
80 210
80 259
80 266
80 278
80 295
81 90
81 103
81 199
81 249
81 269
81 273
82 111
82 113
82 162
82 264
82 277
83 84
83 88
83 130
83 133
83 158
83 173
83 185
83 189
83 217
83 288
83 291
84 87
84 105
84 116
84 155
84 160
84 165
84 235
84 285
85 102
85 103
85 113
85 120
85 165
85 189
85 254
86 90
86 97
86 101
86 125
86 127
86 173
86 197
86 227
86 284
87 93
87 96
87 100
87 116
87 122
87 131
87 135
87 184
87 192
87 196
87 197
87 200
87 230
87 267
87 281
87 297
88 158
89 91
89 95
89 99
89 132
89 248
89 261
89 269
89 272
89 296
90 101
90 103
90 121
90 155
90 173
90 186
90 199
90 224
91 128
91 135
91 212
91 250
91 261
91 296
92 152
93 96
93 116
93 197
93 229
94 110
94 119
94 163
94 178
95 132
95 223
95 253
95 287
96 116
96 150
96 180
96 182
96 184
96 229
96 265
97 125
97 127
97 133
97 151
97 197
97 245
98 112
98 163
98 201
98 237
98 252
98 298
99 127
99 162
99 168
99 191
99 197
99 211
99 242
99 269
100 182
100 237
100 257
101 129
101 131
101 266
102 196
102 214
102 237
102 272
103 114
103 120
103 134
103 189
103 199
103 238
103 251
103 254
104 142
104 155
104 282
105 175
105 207
105 226
105 281
105 295
106 107
106 108
106 110
106 119
106 129
106 150
106 219
106 220
106 241
106 250
106 254
106 279
106 280
107 119
107 127
107 129
107 160
107 188
107 242
107 254
107 266
107 286
108 109
108 119
108 120
108 154
108 217
108 234
108 274
109 148
109 190
109 206
109 255
110 119
110 140
110 241
111 122
111 124
111 185
111 190
111 287
111 300
112 121
112 122
112 149
112 166
112 170
112 210
112 218
112 220
112 221
112 261
112 283
112 298
113 121
113 149
113 261
113 264
113 281
114 120
114 167
115 136
115 230
115 259
115 271
116 129
116 147
116 166
116 184
116 187
116 228
116 278
116 288
117 176
117 188
118 139
118 182
118 183
118 186
118 189
118 231
118 238
118 244
119 122
119 157
119 201
119 219
119 239
119 241
119 279
120 198
120 231
121 149
121 155
121 281
122 124
123 128
123 169
123 174
123 176
123 180
123 271
124 131
124 154
124 229
124 277
125 157
125 209
125 300
126 171
127 142
127 197
128 172
128 176
128 214
129 150
129 159
129 162
129 221
129 249
130 142
130 151
130 155
130 163
130 165
130 168
130 210
131 235
131 288
131 292
132 141
132 253
133 141
133 143
133 144
133 166
133 173
133 187
133 222
133 282
134 152
134 180
134 185
134 197
134 224
134 239
134 298
134 299
135 184
135 300
136 151
136 208
136 259
136 268
137 156
137 200
137 215
137 223
137 263
137 268
138 183
138 211
138 263
139 140
139 182
139 212
139 223
139 227
139 246
139 260
140 293
141 178
141 217
141 253
141 291
142 163
142 174
142 197
142 198
142 200
142 203
142 285
142 296
143 152
143 193
143 199
143 206
143 222
143 225
143 227
144 152
144 163
144 168
144 187
144 208
144 214
144 281
145 210
145 211
145 237
147 154
147 166
147 250
148 196
148 210
148 255
148 282
149 166
149 200
149 202
149 261
149 262
149 281
150 252
150 281
151 157
151 168
151 280
152 161
152 163
152 164
152 220
152 227
152 249
152 256
152 277
152 281
152 298
153 171
153 174
153 180
153 199
153 251
153 265
154 204
154 229
154 230
154 289
154 294
155 165
155 168
155 173
155 225
155 226
155 257
155 282
155 288
156 172
156 204
156 226
156 243
156 259
156 268
156 299
157 160
157 168
157 212
157 239
157 263
157 300
158 205
158 210
158 266
158 291
159 249
159 258
159 284
159 287
160 169
160 178
160 212
160 235
160 239
160 247
160 274
160 293
161 163
161 189
161 232
161 264
161 265
161 282
161 294
162 180
162 221
162 252
162 264
163 220
163 256
163 264
163 282
163 285
163 287
164 170
164 193
164 211
164 216
164 277
164 281
164 297
165 260
165 282
166 167
166 172
166 183
166 187
166 190
166 192
166 217
166 222
166 225
166 228
166 232
166 249
166 251
166 269
166 277
166 286
166 298
166 299
167 225
167 228
167 248
168 196
168 210
168 211
168 224
168 229
168 242
168 255
168 280
168 282
169 178
169 182
169 235
170 187
170 210
170 211
170 216
170 218
170 221
170 232
170 264
170 276
170 277
170 291
171 192
171 209
171 223
171 232
171 268
172 176
172 191
172 208
172 228
172 249
172 286
172 299
173 186
173 193
173 204
173 211
173 217
173 240
173 251
173 256
173 272
173 273
173 287
174 175
174 178
174 180
174 189
174 200
174 222
174 237
174 248
174 265
174 294
174 295
175 205
175 207
175 210
175 266
175 295
176 247
176 249
176 258
176 271
176 299
177 212
177 222
177 283
178 190
178 223
178 228
178 235
179 253
180 184
180 245
180 252
180 265
180 275
180 297
180 298
181 267
182 186
182 229
182 265
183 216
183 238
183 277
184 192
184 223
184 230
184 235
184 242
184 267
184 275
184 293
185 225
185 291
185 300
186 189
186 273
186 294
187 190
187 204
187 216
187 225
187 228
187 232
187 239
187 279
187 289
187 299
188 237
188 253
188 266
189 199
189 217
189 220
189 222
189 236
189 246
189 294
190 251
191 221
191 251
192 235
192 237
192 268
192 269
192 270
192 278
192 285
192 293
193 211
193 216
193 222
193 240
193 256
193 277
193 281
194 221
195 238
195 260
195 284
196 242
196 255
196 282
197 212
197 216
197 239
197 262
197 269
197 272
197 279
198 220
198 222
198 291
199 203
199 204
199 218
199 222
199 246
199 251
199 294
200 203
200 215
200 236
200 261
201 211
201 215
201 219
201 245
201 263
202 206
202 235
202 261
202 271
202 280
202 296
204 215
204 222
204 230
204 248
204 289
205 227
206 227
206 257
206 280
207 241
207 269
208 249
209 223
209 228
209 230
209 280
210 213
210 218
210 219
210 266
211 237
211 255
211 286
211 291
212 223
212 227
212 239
212 260
212 283
212 295
212 299
213 219
214 255
214 281
215 236
215 245
215 271
216 239
216 240
216 276
216 277
216 292
217 251
218 221
219 241
220 230
220 235
220 246
220 254
220 278
220 283
220 298
221 249
221 259
222 229
222 248
222 265
222 269
222 277
222 286
222 294
223 228
223 280
224 282
225 263
225 298
226 237
226 243
226 257
226 266
226 268
226 299
227 239
227 244
227 260
227 276
228 263
228 298
230 271
230 278
230 280
230 289
232 234
232 268
232 279
232 296
233 247
233 292
233 295
234 279
235 247
235 261
235 278
235 293
236 246
236 276
237 253
237 257
237 265
237 271
237 285
237 298
238 251
238 260
240 263
240 276
240 277
241 269
241 291
241 298
242 269
242 286
242 287
243 245
243 257
243 258
243 266
244 276
245 258
245 271
245 298
246 254
246 297
247 261
247 292
248 269
248 296
249 269
250 254
251 256
251 265
251 273
252 281
253 265
255 282
255 286
256 287
258 265
258 271
260 283
261 296
262 275
262 292
262 297
264 277
264 291
264 292
265 268
265 275
265 294
265 298
267 278
268 270
268 285
268 294
268 299
269 272
269 285
270 285
272 296
274 294
275 297
276 299
277 286
277 299
278 285
280 296
281 297
283 298
288 291
289 294
292 297
*Classes
1
1
1
1
1
1
1
1
1
1
1
1
1
1
1
1
1
1
1
1
1
1
1
1
1
1
1
1
1
1
1
1
1
1
1
1
1
1
1
1
1
1
1
1
1
1
1
1
1
1
1
1
1
1
1
1
1
1
1
1
1
1
1
1
1
1
1
1
1
1
1
1
1
1
1
1
1
1
1
1
1
1
1
1
1
1
1
1
1
1
1
1
1
1
1
1
1
1
1
1
1
1
1
1
1
1
1
1
1
1
1
1
1
1
1
1
1
1
1
1
1
1
1
1
1
1
1
1
1
1
1
1
1
1
1
1
1
1
1
1
1
1
1
1
1
1
1
1
1
1
2
2
2
2
2
2
2
2
2
2
2
2
2
2
2
2
2
2
2
2
2
2
2
2
2
2
2
2
2
2
2
2
2
2
2
2
2
2
2
2
2
2
2
2
2
2
2
2
2
2
2
2
2
2
2
2
2
2
2
2
2
2
2
2
2
2
2
2
2
2
2
2
2
2
2
2
2
2
2
2
2
2
2
2
2
2
2
2
2
2
2
2
2
2
2
2
2
2
2
2
2
2
2
2
2
2
2
2
2
2
2
2
2
2
2
2
2
2
2
2
2
2
2
2
2
2
2
2
2
2
2
2
2
2
2
2
2
2
2
2
2
2
2
2
2
2
2
2
2
2
