*Vertices 300
*Edges
1 21
1 39
1 217
1 246
1 249
1 258
2 63
2 74
2 79
2 88
2 111
2 119
2 127
2 143
2 191
2 216
2 247
2 267
3 24
3 29
3 35
3 43
3 45
3 56
3 74
3 129
3 132
3 139
3 213
3 215
3 227
3 242
3 252
4 18
4 89
4 90
4 112
4 135
4 159
4 219
4 226
4 261
4 276
5 34
5 76
5 109
5 184
5 252
5 295
6 34
6 57
6 68
6 76
6 122
6 213
6 219
6 258
6 274
7 37
7 41
7 50
7 63
7 82
7 121
7 133
7 136
7 142
7 291
9 11
9 25
9 117
9 126
9 164
9 185
9 194
9 227
9 233
9 236
9 291
10 17
10 20
10 37
10 66
10 75
10 128
10 136
10 156
10 169
10 178
10 256
10 264
10 283
11 16
11 28
11 51
11 88
11 125
11 134
11 184
11 209
11 216
11 265
11 293
12 18
12 39
12 58
12 109
12 137
12 146
12 151
12 164
12 194
12 238
12 245
13 83
13 96
13 113
13 127
13 132
13 167
13 215
13 259
14 17
14 26
14 46
14 63
14 67
14 77
14 129
14 130
14 135
14 186
14 204
14 235
14 251
14 261
14 284
15 22
15 23
15 60
15 89
15 142
15 149
15 188
15 210
15 256
15 276
15 277
15 279
15 281
15 285
15 298
16 17
16 41
16 45
16 49
16 58
16 122
16 129
16 169
16 197
16 216
16 279
17 20
17 43
17 74
17 83
17 98
17 118
17 129
17 232
17 247
17 256
17 267
17 289
18 20
18 28
18 51
18 88
18 108
18 139
18 160
18 175
18 188
18 194
18 202
18 211
18 224
18 229
18 242
18 261
18 276
18 292
19 39
19 104
19 134
19 242
19 245
19 253
19 255
20 28
20 51
20 118
20 139
20 160
20 178
20 197
20 267
21 27
21 41
21 82
21 105
21 121
21 143
21 192
21 258
21 261
21 282
22 23
22 31
22 111
22 123
22 150
22 210
22 214
22 227
22 234
22 238
22 243
22 254
22 257
22 288
22 289
23 57
23 91
23 107
23 111
23 119
23 153
23 205
23 210
23 214
23 276
23 281
24 39
24 131
24 165
24 193
24 216
24 222
24 240
24 263
24 296
25 35
25 64
25 125
25 128
25 144
25 233
25 268
25 287
26 56
26 60
26 73
26 111
26 153
26 181
26 204
26 269
26 295
27 178
27 241
27 256
27 258
28 37
28 48
28 82
28 118
28 159
28 175
28 196
28 207
28 211
29 30
29 35
29 76
29 161
29 252
30 293
31 37
31 75
31 116
31 136
31 156
31 200
31 201
31 267
31 297
32 81
32 83
32 137
32 144
32 161
32 162
32 219
32 262
32 267
33 41
33 64
33 83
33 134
33 209
33 229
33 234
33 262
33 269
33 284
34 57
34 95
34 182
34 258
34 287
34 295
35 94
35 106
35 150
35 186
35 198
35 233
35 242
35 283
36 52
36 118
36 139
36 240
36 248
36 260
36 265
36 282
37 91
37 105
37 106
37 121
37 136
37 141
37 142
37 174
37 175
37 229
37 250
37 277
38 49
38 95
38 99
38 127
38 135
38 156
38 196
38 247
38 268
38 297
39 78
39 94
39 98
39 119
39 137
39 141
39 165
39 177
39 178
39 205
39 212
39 249
40 83
40 107
40 110
40 132
40 151
40 178
40 179
40 223
40 229
40 288
41 43
41 56
41 82
41 117
41 127
41 134
41 139
41 153
41 169
41 228
41 235
41 259
41 269
41 270
41 288
42 83
42 114
42 130
42 133
42 139
42 150
42 167
42 193
42 214
42 291
43 66
43 90
43 123
43 131
43 167
43 182
43 216
43 235
43 236
44 64
44 105
44 196
44 207
44 294
45 114
45 122
45 133
45 215
45 258
45 279
46 48
46 59
46 83
46 181
46 220
46 229
46 261
46 262
48 64
48 92
48 138
48 162
48 175
48 242
49 99
49 132
49 140
49 173
49 188
49 203
49 224
49 259
49 279
50 107
50 111
50 121
50 132
50 152
50 180
50 198
51 229
52 237
52 238
52 248
52 265
53 60
53 68
53 180
53 198
53 206
54 91
54 94
54 103
54 142
54 147
54 153
54 269
55 67
55 81
55 85
55 90
55 99
55 118
55 281
56 85
56 88
56 111
56 120
56 131
56 169
56 235
56 257
57 81
57 120
57 128
57 275
57 276
58 109
58 197
59 66
59 181
59 258
60 77
60 79
60 149
60 173
60 206
60 295
61 137
61 158
61 198
61 249
62 67
62 68
62 84
62 130
62 227
62 242
62 251
62 257
62 285
63 88
63 112
63 130
63 148
63 152
63 165
63 175
63 198
63 290
64 172
64 196
64 268
65 70
65 78
65 111
65 168
65 174
66 71
66 77
66 109
66 119
66 128
66 178
66 181
66 182
66 197
66 205
66 278
66 293
67 68
67 83
67 90
67 171
68 70
68 81
68 100
68 122
68 198
68 242
68 257
68 283
69 107
69 128
69 134
69 172
69 285
70 145
70 191
70 214
70 227
70 234
70 288
70 290
70 298
71 74
71 80
71 99
71 107
71 152
71 154
71 190
71 197
71 255
71 272
72 76
72 114
72 120
72 235
72 267
73 103
73 157
73 173
73 174
73 209
73 252
73 269
73 279
73 286
73 287
74 97
74 99
74 115
74 129
74 130
74 136
74 140
74 144
74 163
74 184
74 227
74 231
74 247
74 271
75 85
75 93
75 103
75 109
75 148
75 178
75 195
75 252
75 256
75 266
75 292
76 131
76 139
76 143
76 163
76 184
76 197
76 241
76 274
77 108
78 118
78 133
78 134
78 144
78 162
78 163
78 213
78 244
78 275
79 102
79 107
79 173
79 233
79 279
79 281
80 86
80 212
80 233
80 279
80 293
80 300
81 90
81 100
81 104
81 112
81 115
81 120
81 162
81 190
81 236
81 241
81 269
81 299
82 118
82 142
82 284
83 90
83 96
83 129
83 132
83 140
83 209
83 229
83 262
83 299
84 202
84 276
85 99
85 111
85 166
85 276
86 137
86 212
86 222
86 233
86 239
86 240
86 272
86 283
87 91
87 112
87 153
87 168
87 291
88 134
88 160
88 186
88 203
88 206
88 207
88 244
88 247
88 255
88 257
88 276
88 284
88 294
89 101
89 116
89 172
89 280
90 112
90 127
90 130
90 131
91 94
91 105
91 136
91 146
91 156
91 177
91 192
91 205
91 231
91 236
91 267
91 281
91 282
93 148
93 154
93 160
93 165
93 177
93 266
94 233
95 109
95 135
95 136
95 154
95 251
95 254
95 267
95 295
96 113
96 131
96 136
96 153
96 210
96 214
96 216
96 236
96 262
97 99
97 111
97 122
97 130
97 140
97 242
97 271
98 119
98 141
98 172
98 212
98 226
98 289
99 135
99 136
99 138
99 162
99 224
99 235
100 122
100 124
100 194
100 264
100 271
100 288
101 116
101 147
101 180
101 225
101 254
101 280
101 296
102 107
102 176
102 247
102 298
103 195
103 269
103 292
104 119
104 126
104 134
104 269
105 112
105 114
105 177
105 192
105 257
105 294
106 107
106 111
106 120
106 145
106 152
106 159
106 178
106 210
106 239
106 254
106 271
106 278
106 279
107 111
107 126
107 145
107 152
107 176
107 278
107 298
108 113
108 146
108 160
108 166
108 177
108 202
108 209
108 282
108 291
108 300
109 184
109 214
109 238
109 251
109 252
110 151
110 205
110 220
110 223
110 272
111 113
111 143
111 207
111 210
111 267
111 281
112 148
112 157
112 238
112 241
112 244
113 140
113 176
113 200
113 282
114 120
114 156
114 165
114 173
114 244
114 262
114 298
115 126
115 161
115 190
115 283
116 140
116 161
116 242
117 151
117 154
117 167
117 185
117 186
117 214
117 269
117 278
117 288
117 291
118 128
118 163
118 197
118 244
118 281
119 178
119 191
119 205
119 226
119 235
119 272
119 276
120 133
120 162
120 210
121 148
122 155
122 197
123 127
123 191
123 281
123 290
124 140
124 214
124 234
124 264
124 271
125 152
125 209
125 238
125 287
125 289
126 164
126 189
126 283
127 131
127 132
127 135
127 191
127 215
127 216
127 235
127 286
128 134
128 182
128 233
129 139
129 183
129 208
129 213
129 214
129 222
129 223
129 227
129 242
129 259
129 292
130 150
130 242
131 158
131 216
131 270
132 140
132 198
132 229
132 242
132 243
133 146
133 169
133 177
133 215
133 244
133 257
133 291
134 136
134 141
134 275
134 293
135 140
135 191
135 261
135 275
136 141
136 174
136 183
136 191
136 200
136 214
136 231
136 267
136 273
136 298
137 151
137 161
137 178
137 187
137 219
137 220
137 222
137 288
138 147
138 162
138 240
139 153
139 183
139 208
139 235
139 240
139 242
139 292
140 198
140 200
140 264
141 214
141 273
141 300
142 170
142 176
142 192
142 198
142 199
142 209
142 283
142 292
142 298
142 300
143 175
143 216
143 241
143 261
143 272
144 162
144 180
144 287
144 296
145 176
145 199
145 250
145 271
145 275
145 290
145 298
146 177
146 202
146 209
146 254
147 152
147 158
147 204
147 216
147 240
148 189
148 236
149 225
149 231
149 246
150 198
150 223
151 182
151 187
151 214
151 263
151 288
152 204
152 237
152 242
152 245
152 287
153 161
153 183
153 191
153 209
153 210
153 270
154 160
154 164
154 251
154 288
155 186
155 249
156 190
156 195
156 199
156 200
156 201
156 231
156 239
156 261
156 264
156 290
156 298
157 167
157 195
157 238
157 245
157 271
158 216
159 219
159 259
160 164
160 194
160 253
160 280
160 294
161 162
161 210
161 225
161 242
161 245
161 267
162 179
162 213
162 219
162 225
162 253
163 182
163 184
164 194
164 201
165 177
165 199
165 208
165 225
165 246
165 247
165 268
165 272
165 273
165 290
165 298
166 209
166 211
166 238
166 248
166 258
166 272
166 276
167 208
167 209
167 245
167 288
167 291
167 297
168 174
168 221
168 228
168 248
169 178
169 182
169 226
169 228
169 255
170 199
170 273
171 187
171 211
171 235
171 283
171 285
172 212
172 236
172 273
172 291
172 298
173 279
173 290
174 240
174 260
174 269
174 296
175 235
175 242
177 209
178 229
178 239
178 293
179 243
179 244
179 257
179 285
180 225
180 296
181 253
181 257
181 258
181 278
181 280
181 294
181 297
182 197
182 228
182 237
182 258
182 263
183 191
183 213
183 226
183 256
183 267
183 274
184 265
185 212
185 246
185 270
186 242
186 278
186 284
186 297
188 224
188 279
189 190
189 211
189 241
189 263
190 211
190 219
190 227
190 236
190 239
190 255
190 291
191 197
191 267
191 277
191 286
192 229
192 298
193 214
193 227
193 242
193 289
194 201
194 202
194 240
195 196
195 271
196 207
196 228
196 295
197 223
197 242
197 272
197 286
198 199
198 249
198 290
198 292
199 290
199 296
200 226
200 235
200 253
200 278
200 289
201 213
201 219
201 231
201 240
203 206
204 207
204 245
205 211
205 219
205 272
205 284
206 217
206 233
206 253
206 255
206 266
207 257
207 290
207 294
208 231
208 268
209 218
209 238
209 252
209 264
209 283
209 291
209 300
210 239
210 244
210 247
210 254
210 277
211 251
211 255
211 276
211 284
212 270
212 289
213 219
214 227
214 249
214 271
214 273
214 275
214 288
214 289
214 299
215 226
215 259
216 248
216 285
217 243
217 253
217 293
218 255
218 300
220 248
221 293
222 223
222 240
222 283
222 300
224 278
224 279
224 284
225 246
226 235
226 255
226 274
226 281
227 236
227 248
227 249
227 264
227 275
228 242
228 248
228 295
230 251
231 236
231 244
231 258
231 268
231 274
231 297
232 244
232 267
232 273
232 283
233 242
233 279
234 243
235 255
235 267
236 242
236 264
236 291
238 265
238 289
238 292
239 247
239 283
240 248
240 257
240 258
240 260
240 276
240 281
240 296
241 256
241 272
242 245
242 272
242 278
242 283
242 289
242 298
243 247
243 250
243 285
244 257
244 274
244 277
244 298
246 270
246 276
247 256
247 285
247 289
247 298
248 249
248 258
248 282
248 291
249 270
249 272
250 275
252 292
253 255
253 278
254 279
256 267
256 274
257 272
257 276
257 289
257 294
257 298
258 274
258 281
258 291
258 298
258 299
260 281
262 298
264 299
265 292
266 299
268 297
268 298
269 296
270 295
271 299
272 276
272 298
273 291
273 298
274 288
276 277
276 281
276 300
278 280
281 290
281 299
283 298
284 286
285 298
288 297
292 300
*Classes
1
1
1
1
1
1
1
1
1
1
1
1
1
1
1
1
1
1
1
1
1
1
1
1
1
1
1
1
1
1
1
1
1
1
1
1
1
1
1
1
1
1
1
1
1
1
1
1
1
1
1
1
1
1
1
1
1
1
1
1
1
1
1
1
1
1
1
1
1
1
1
1
1
1
1
1
1
1
1
1
1
1
1
1
1
1
1
1
1
1
1
1
1
1
1
1
1
1
1
1
1
1
1
1
1
1
1
1
1
1
1
1
1
1
1
1
1
1
1
1
1
1
1
1
1
1
1
1
1
1
1
1
1
1
1
1
1
1
1
1
1
1
1
1
1
1
1
1
1
1
2
2
2
2
2
2
2
2
2
2
2
2
2
2
2
2
2
2
2
2
2
2
2
2
2
2
2
2
2
2
2
2
2
2
2
2
2
2
2
2
2
2
2
2
2
2
2
2
2
2
2
2
2
2
2
2
2
2
2
2
2
2
2
2
2
2
2
2
2
2
2
2
2
2
2
2
2
2
2
2
2
2
2
2
2
2
2
2
2
2
2
2
2
2
2
2
2
2
2
2
2
2
2
2
2
2
2
2
2
2
2
2
2
2
2
2
2
2
2
2
2
2
2
2
2
2
2
2
2
2
2
2
2
2
2
2
2
2
2
2
2
2
2
2
2
2
2
2
2
2
