*Vertices 300
*Edges
1 10
1 14
1 53
1 54
1 74
1 102
1 113
1 122
1 123
1 126
1 127
1 194
1 197
1 204
1 254
1 258
1 271
2 14
2 30
2 73
2 92
2 105
2 108
2 116
2 118
2 120
2 125
2 190
2 220
2 240
2 277
2 292
3 34
3 35
3 50
3 54
3 64
3 96
3 106
3 115
3 127
3 133
3 135
3 223
3 230
3 262
3 291
4 10
4 24
4 52
4 99
4 117
4 125
4 149
4 153
4 170
4 180
5 12
5 13
5 19
5 26
5 53
5 59
5 66
5 104
5 126
5 156
5 231
5 243
5 270
5 280
6 31
6 40
6 77
6 81
6 94
6 114
6 130
6 201
6 206
6 216
6 230
7 20
7 33
7 51
7 52
7 128
7 147
7 182
7 212
7 235
7 242
7 284
8 54
8 57
8 179
8 208
8 257
8 264
8 282
9 83
9 118
9 267
10 15
10 16
10 20
10 32
10 36
10 42
10 55
10 57
10 67
10 82
10 84
10 99
10 106
10 115
10 116
10 117
10 121
10 123
10 134
10 156
10 160
10 175
10 195
10 197
10 236
11 50
11 74
11 80
11 97
11 99
11 111
11 117
11 216
11 235
12 59
12 128
12 135
12 267
13 35
13 43
13 54
13 59
13 63
13 66
13 69
13 71
13 88
13 93
13 95
13 98
13 107
13 109
13 112
13 114
13 136
13 137
13 141
13 179
13 181
13 189
13 203
13 223
13 240
13 256
13 264
14 123
14 156
14 216
14 235
15 20
15 36
15 43
15 68
15 76
15 82
15 84
15 106
15 123
15 126
15 160
15 217
16 19
16 26
16 56
16 82
16 146
16 147
16 282
17 58
17 65
17 87
17 191
18 27
18 80
18 82
18 134
18 168
18 228
18 236
18 269
18 270
18 278
19 21
19 26
19 59
19 63
19 78
19 267
20 128
20 145
20 146
20 163
20 198
20 242
20 247
20 274
21 25
21 28
21 31
21 90
21 125
21 163
21 187
21 267
22 28
22 54
22 59
22 64
22 76
22 84
22 126
22 133
22 135
22 276
22 297
23 40
23 42
23 46
23 154
23 220
24 52
24 90
24 129
24 144
24 149
24 210
24 243
25 91
25 192
25 204
25 207
25 237
25 258
26 56
26 59
26 86
26 134
26 135
26 146
26 147
27 43
27 55
27 57
27 151
27 193
27 228
27 239
27 270
28 37
28 43
28 52
28 54
28 74
28 90
28 114
28 122
28 125
28 133
28 271
29 58
29 140
29 215
29 252
29 266
30 35
30 73
30 105
30 118
30 123
30 125
30 170
30 189
30 199
30 203
30 210
30 213
30 277
31 90
31 120
31 137
31 206
31 241
32 154
32 156
32 187
32 215
33 34
33 56
33 77
33 98
33 137
33 194
33 261
34 39
34 43
34 48
34 52
34 65
34 77
34 85
34 96
34 112
34 119
34 175
34 276
35 50
35 127
35 136
35 213
35 260
36 49
36 57
36 82
36 83
36 88
36 139
36 159
36 178
36 205
36 211
36 213
37 38
37 74
37 84
37 135
37 146
37 193
38 84
38 92
38 132
38 146
38 167
38 188
38 206
38 231
38 237
39 65
39 72
39 101
39 112
39 123
39 150
39 164
39 254
39 264
40 42
40 46
40 69
40 73
40 81
40 87
40 97
40 131
40 134
40 141
40 146
40 154
40 162
40 171
40 194
41 74
41 113
41 117
41 149
41 210
41 225
41 231
41 245
41 251
41 281
41 282
42 46
42 87
42 134
42 245
42 254
43 54
43 57
43 67
43 68
43 70
43 73
43 90
43 96
43 100
43 125
43 137
43 168
43 171
43 208
43 228
43 229
43 233
43 265
43 280
44 47
44 60
44 68
44 76
44 111
44 160
44 172
44 188
44 214
44 221
45 108
45 229
45 280
45 285
46 54
46 72
46 103
46 108
46 114
46 118
46 124
46 134
46 136
46 183
46 245
47 161
47 214
47 253
48 77
48 84
48 85
48 95
48 112
48 127
48 128
48 136
48 177
48 178
48 218
48 256
49 93
49 210
50 74
50 91
50 97
50 122
50 126
50 140
50 142
50 297
50 299
51 166
51 169
51 186
51 243
52 58
52 68
52 85
52 90
52 105
52 141
52 180
52 228
52 235
52 237
53 102
53 126
53 184
53 197
53 214
53 274
54 57
54 64
54 67
54 81
54 100
54 103
54 106
54 109
54 114
54 115
54 135
54 136
54 184
54 189
54 191
54 194
54 232
55 84
55 119
55 132
55 134
55 138
55 150
55 236
55 247
55 299
56 100
56 137
56 144
56 269
57 139
57 151
57 244
57 259
58 141
58 152
58 176
58 191
58 224
58 253
58 279
59 71
59 78
59 104
59 126
60 68
60 71
60 109
60 139
60 147
60 169
60 178
60 249
60 284
61 238
62 68
62 88
62 101
62 181
62 227
62 248
63 98
63 141
63 176
63 177
63 180
63 189
63 191
64 106
64 109
64 115
64 135
64 140
64 255
65 71
65 87
65 95
65 98
65 119
65 123
65 157
65 158
65 181
65 191
65 204
65 219
65 231
66 189
66 237
67 70
67 96
67 115
67 120
67 134
67 158
67 182
67 195
67 209
67 228
67 254
67 278
67 288
68 80
68 89
68 90
68 99
68 101
68 125
68 132
68 147
68 161
68 169
68 218
68 221
68 288
68 289
69 106
69 133
69 136
69 138
69 144
69 171
69 192
70 73
70 90
70 96
70 121
70 146
70 163
70 168
70 171
70 211
70 279
71 85
71 98
71 119
71 128
71 150
71 169
71 253
71 268
71 274
72 112
72 119
72 124
72 150
72 197
72 254
73 115
73 118
73 130
73 134
73 137
73 230
74 91
74 97
74 102
74 111
74 114
74 122
74 149
74 151
74 153
74 210
74 259
75 82
76 82
76 126
76 132
76 172
76 184
76 214
76 239
76 291
77 95
77 255
77 261
78 85
78 99
78 117
78 126
78 128
78 227
79 145
79 202
79 211
79 221
79 251
80 90
80 97
80 101
80 121
80 159
80 161
80 218
80 236
80 272
81 104
81 114
81 181
81 204
81 213
81 238
82 84
82 101
82 132
82 158
82 278
83 118
83 139
83 159
83 211
84 88
84 105
84 106
84 117
84 132
84 169
84 172
84 178
84 206
84 284
85 98
85 128
85 135
85 141
86 96
86 123
86 214
86 296
87 93
87 184
87 197
87 204
88 107
88 144
88 154
88 178
88 195
88 214
88 236
88 246
88 261
88 271
89 109
89 160
89 194
89 218
89 232
89 262
90 99
90 125
90 130
90 133
90 163
90 169
90 192
90 195
91 120
91 137
91 142
91 149
91 192
92 96
92 111
92 121
92 124
92 176
92 277
92 286
93 104
93 107
93 216
94 201
94 205
95 109
95 127
95 174
95 181
95 194
95 257
95 291
96 106
96 176
96 211
96 264
96 280
97 116
97 140
97 141
97 163
97 181
97 225
97 273
97 286
98 137
98 169
98 204
99 117
100 130
100 137
100 163
100 182
100 184
100 185
101 103
101 117
101 132
101 152
101 164
101 169
101 170
101 201
102 213
103 124
103 132
103 135
103 142
103 183
103 295
104 166
104 170
104 174
104 205
104 211
104 222
104 238
104 273
104 277
105 113
105 141
105 184
105 203
105 206
106 121
106 123
106 130
106 133
106 136
106 169
106 189
106 249
106 277
107 160
107 179
107 203
107 205
107 216
107 264
108 139
108 220
108 245
108 273
108 292
109 127
109 136
109 178
109 206
109 232
109 244
109 273
110 164
112 125
112 171
112 178
112 228
112 264
112 271
112 273
112 276
112 284
113 127
114 136
114 191
114 263
114 265
115 116
115 134
115 146
115 211
116 118
116 130
116 134
116 163
116 265
117 167
117 180
117 201
117 232
117 237
118 124
118 135
118 139
118 184
118 253
118 274
119 150
119 158
119 175
119 186
119 208
119 275
119 295
120 125
120 137
120 163
120 288
120 291
121 148
121 159
121 169
121 176
121 265
121 283
122 142
122 226
123 156
123 197
123 235
123 254
123 258
124 139
124 152
124 177
124 198
124 275
125 187
125 200
125 219
125 220
126 222
127 241
127 248
127 288
127 291
128 135
128 199
128 219
129 149
129 157
129 208
129 225
129 250
129 264
129 298
130 163
130 166
130 189
130 230
130 268
131 141
131 145
131 194
131 202
131 251
131 257
131 261
131 293
132 288
133 136
133 222
133 239
133 262
133 274
133 287
134 146
134 180
134 236
134 265
134 289
135 142
135 146
135 196
135 241
135 255
135 260
135 274
135 292
136 141
136 144
136 177
136 256
137 144
138 144
138 146
138 161
138 202
138 299
139 147
139 201
139 211
139 245
139 259
140 215
140 255
140 270
141 194
141 267
141 294
142 163
142 192
142 259
142 260
142 292
143 149
143 284
144 149
144 166
144 183
144 267
145 155
145 202
145 207
145 278
146 147
146 161
146 163
146 180
146 191
146 220
146 225
146 242
147 166
147 169
147 210
147 212
148 171
148 229
149 153
149 188
149 190
149 211
149 217
149 262
149 284
152 159
152 161
152 162
152 231
152 250
153 172
153 210
153 237
153 246
153 276
153 286
154 162
154 178
154 187
155 188
155 189
155 199
155 209
155 217
155 232
155 243
155 256
155 259
155 284
155 294
156 171
156 194
156 197
156 215
156 254
156 265
156 271
156 281
157 177
157 198
157 216
157 249
157 250
158 161
158 167
158 175
158 200
158 208
158 249
158 295
159 162
159 231
159 247
159 283
160 205
160 218
160 256
160 257
160 258
160 264
161 162
161 175
161 189
161 200
161 201
161 207
161 225
161 234
161 250
161 280
161 289
161 299
162 175
162 178
162 189
163 195
163 201
163 244
163 253
165 171
165 185
165 187
165 217
165 246
165 255
165 271
166 174
166 182
166 189
166 190
166 245
166 272
166 284
167 176
167 188
167 196
167 208
167 231
167 232
167 280
168 183
168 228
168 256
168 271
168 289
169 175
169 176
169 216
169 248
169 265
169 300
170 171
170 174
170 210
170 246
170 260
170 271
171 178
171 198
171 203
171 211
171 254
171 255
171 260
171 271
172 184
172 235
172 239
172 246
172 300
173 183
173 263
173 289
174 194
174 197
174 205
174 234
174 254
174 273
175 204
175 234
175 258
175 295
176 180
176 208
176 224
176 226
176 240
176 261
176 264
177 198
177 212
177 229
177 250
177 256
178 208
178 218
178 245
178 264
178 284
179 186
179 264
180 208
180 226
181 191
181 226
181 230
181 260
181 264
181 286
181 292
181 296
182 194
182 248
182 254
182 281
183 209
183 246
183 289
184 195
184 197
184 215
184 268
185 254
186 243
186 247
186 282
187 195
187 224
187 243
187 271
187 279
187 291
188 217
188 232
188 259
188 298
189 199
189 233
189 235
189 248
189 268
189 277
190 198
190 203
190 272
191 224
191 265
191 296
192 195
192 287
193 214
193 228
193 246
194 197
194 206
194 254
195 197
195 249
195 261
195 271
195 278
196 205
196 223
196 232
196 258
196 273
197 212
197 249
197 271
198 203
198 225
198 250
198 255
198 289
199 235
199 243
199 268
199 277
200 202
200 298
200 299
201 207
201 242
201 244
202 221
202 251
202 255
202 278
202 293
202 298
203 223
203 224
203 240
203 256
203 259
203 272
204 213
204 225
204 232
204 237
204 241
204 298
205 211
205 218
205 256
205 257
205 258
205 262
205 288
206 216
206 220
206 244
206 252
206 262
206 300
207 244
207 280
208 218
208 239
208 240
208 249
208 264
208 265
208 280
208 290
209 243
209 259
209 284
209 294
210 271
210 283
210 291
210 292
211 264
211 284
212 235
212 242
212 249
212 256
213 216
213 220
213 221
213 237
213 241
213 291
213 300
214 231
214 246
214 270
216 220
216 221
216 249
216 250
216 275
216 300
217 255
217 259
218 239
218 262
218 288
220 245
220 249
220 273
220 291
220 300
221 300
222 238
222 262
223 224
223 273
223 291
223 298
224 256
224 259
224 291
225 241
226 260
227 279
228 283
229 256
229 277
229 298
230 260
230 262
230 296
231 247
231 290
232 238
232 244
232 258
232 259
232 298
233 235
233 265
234 258
235 246
235 268
236 280
236 285
237 241
240 256
240 261
240 292
240 296
241 291
243 259
243 270
243 271
244 252
244 253
244 259
244 260
244 280
245 273
245 284
245 300
246 270
246 271
246 276
246 289
247 282
248 281
248 300
249 275
253 260
253 274
253 296
256 259
256 271
257 282
258 262
259 283
259 292
259 294
260 267
260 271
260 279
261 288
262 287
263 287
264 290
265 274
265 280
265 281
267 279
268 277
271 279
273 290
276 297
280 285
283 291
290 291
290 297
291 297
291 298
292 296
*Classes
1
1
1
1
1
1
1
1
1
1
1
1
1
1
1
1
1
1
1
1
1
1
1
1
1
1
1
1
1
1
1
1
1
1
1
1
1
1
1
1
1
1
1
1
1
1
1
1
1
1
1
1
1
1
1
1
1
1
1
1
1
1
1
1
1
1
1
1
1
1
1
1
1
1
1
1
1
1
1
1
1
1
1
1
1
1
1
1
1
1
1
1
1
1
1
1
1
1
1
1
1
1
1
1
1
1
1
1
1
1
1
1
1
1
1
1
1
1
1
1
1
1
1
1
1
1
1
1
1
1
1
1
1
1
1
1
1
1
1
1
1
1
1
1
1
1
1
1
1
1
2
2
2
2
2
2
2
2
2
2
2
2
2
2
2
2
2
2
2
2
2
2
2
2
2
2
2
2
2
2
2
2
2
2
2
2
2
2
2
2
2
2
2
2
2
2
2
2
2
2
2
2
2
2
2
2
2
2
2
2
2
2
2
2
2
2
2
2
2
2
2
2
2
2
2
2
2
2
2
2
2
2
2
2
2
2
2
2
2
2
2
2
2
2
2
2
2
2
2
2
2
2
2
2
2
2
2
2
2
2
2
2
2
2
2
2
2
2
2
2
2
2
2
2
2
2
2
2
2
2
2
2
2
2
2
2
2
2
2
2
2
2
2
2
2
2
2
2
2
2
