*Vertices 300
*Edges
1 5
1 27
1 41
1 82
1 116
1 295
2 150
2 153
2 170
3 57
3 74
3 112
3 156
3 195
3 262
3 278
3 298
4 25
4 26
4 40
4 49
4 56
4 72
4 81
4 96
4 102
4 105
4 108
4 122
4 158
4 169
4 196
4 248
4 250
4 265
4 274
4 290
4 295
5 25
5 30
5 41
5 46
5 131
5 184
5 199
5 201
5 257
5 280
5 288
5 293
6 10
6 11
6 43
6 46
6 47
6 51
6 68
6 272
7 111
7 135
7 138
7 159
7 176
7 232
7 234
7 268
7 274
7 289
8 51
8 66
8 83
8 147
8 149
8 176
9 14
9 28
9 33
9 63
9 77
9 111
9 147
9 189
9 224
9 255
9 267
9 287
10 43
10 47
10 89
10 97
10 98
10 140
10 144
10 179
10 264
10 279
11 38
11 75
11 152
11 158
11 179
11 195
11 250
12 65
12 74
12 103
12 158
12 252
13 34
13 72
13 113
13 118
13 155
13 181
13 199
13 208
13 274
13 287
14 109
14 159
14 227
14 267
14 276
15 106
15 127
15 218
15 244
16 116
16 121
16 125
16 160
16 227
16 255
16 275
16 282
17 47
17 58
17 104
17 189
17 258
18 32
18 86
18 94
18 122
18 124
18 171
18 185
18 272
18 275
19 29
19 34
19 37
19 46
19 64
19 87
19 95
19 104
19 185
19 189
19 269
19 283
19 296
20 72
20 104
20 172
20 208
20 252
20 280
21 43
21 47
21 95
21 127
21 158
21 174
21 178
21 247
21 293
22 29
22 36
22 41
22 185
22 195
22 219
22 262
23 49
23 101
23 151
23 207
23 234
23 235
23 254
24 48
24 50
24 60
24 73
24 83
24 117
24 136
24 158
24 203
24 217
24 249
24 298
25 56
25 68
25 69
25 71
25 81
25 97
25 101
25 108
25 126
25 184
25 222
25 230
25 290
26 200
26 248
26 264
26 265
26 274
26 292
27 94
27 151
27 201
27 216
28 63
28 88
28 134
28 211
28 250
29 37
29 54
29 163
29 185
30 43
30 122
30 184
30 212
30 242
30 280
31 106
31 122
31 191
31 194
31 246
32 93
32 98
32 171
33 88
33 101
33 103
33 147
33 181
33 204
33 218
33 233
33 267
33 297
34 82
34 94
34 104
34 105
34 118
34 148
34 152
34 166
34 175
35 43
35 53
35 155
35 199
35 257
35 293
36 41
36 143
36 150
36 162
36 184
36 230
36 235
36 251
37 38
37 46
37 47
37 49
37 54
37 73
37 81
37 114
37 121
37 138
37 164
37 181
37 230
37 260
38 49
38 95
38 149
38 169
38 255
39 62
39 142
40 41
40 63
40 81
40 91
40 169
40 184
40 290
41 103
41 204
41 265
41 268
42 58
42 63
42 90
42 110
43 45
43 50
43 65
43 71
43 83
43 89
43 122
43 186
43 257
43 276
43 293
44 49
44 50
44 57
44 117
44 122
44 125
44 144
44 150
44 180
44 181
44 189
44 196
44 200
44 211
44 265
44 274
44 280
44 288
45 92
45 99
45 172
45 205
45 236
45 287
46 47
46 105
46 118
46 147
46 177
46 193
46 199
46 206
46 209
46 226
46 241
46 244
46 277
46 300
47 95
47 97
47 142
47 145
47 147
47 185
47 207
47 272
48 83
48 95
48 104
48 132
48 189
48 252
48 257
48 258
48 289
49 56
49 95
49 114
49 140
49 149
49 157
49 164
49 180
49 202
49 203
49 204
49 205
49 248
49 250
50 81
50 136
50 150
50 170
50 183
51 60
51 68
51 84
51 98
51 127
51 134
51 144
51 147
51 166
51 229
51 235
51 267
51 293
52 70
52 78
52 88
52 105
52 107
52 173
52 207
52 258
52 261
52 298
53 69
53 157
53 195
54 86
54 151
54 177
54 244
54 253
55 68
55 88
55 104
55 175
55 189
55 240
56 57
56 69
56 81
56 102
56 126
56 256
57 156
57 168
57 184
57 196
57 206
57 230
57 246
57 247
57 256
57 279
57 284
58 73
58 118
58 234
59 68
59 148
59 157
59 199
59 250
59 284
60 66
60 80
60 165
60 166
60 237
60 239
60 289
61 169
61 170
61 188
61 249
61 258
61 290
62 221
63 90
63 147
63 181
63 200
63 206
64 125
64 203
64 265
64 285
65 74
65 103
65 114
65 116
65 158
66 68
66 108
66 113
66 187
66 197
66 198
67 92
67 93
67 108
67 146
67 249
67 268
68 108
68 132
68 186
68 240
68 250
68 284
70 96
70 119
70 154
70 215
70 252
70 257
71 186
71 278
72 94
72 98
72 102
72 113
72 189
72 244
72 273
72 274
72 280
73 92
73 117
73 132
73 159
73 167
73 215
73 217
73 234
73 263
73 273
73 289
74 78
74 79
74 90
74 112
74 129
74 169
74 189
74 209
74 210
74 221
75 79
75 86
75 142
75 147
75 213
75 229
75 260
76 86
76 137
76 142
76 168
76 231
76 237
77 157
77 204
77 265
77 287
78 100
78 128
78 129
78 132
78 225
78 258
78 270
78 298
79 129
79 160
79 217
79 227
80 83
80 89
80 100
80 121
80 173
80 192
80 196
80 200
80 237
80 239
80 264
81 138
81 164
81 181
81 205
81 276
81 295
82 171
82 265
83 100
83 154
83 167
83 198
83 258
83 268
83 276
83 298
84 96
84 98
84 165
84 225
84 228
84 272
84 273
85 211
85 272
86 103
86 114
86 137
86 151
86 166
86 201
86 213
87 97
87 114
87 143
87 167
87 207
87 244
87 263
87 264
87 269
87 283
87 287
88 133
88 245
89 121
89 140
89 223
90 206
90 216
90 262
90 278
91 114
91 133
91 274
92 108
92 294
93 110
93 155
94 103
94 131
94 137
94 148
94 162
94 166
94 175
94 185
94 201
94 249
94 273
94 275
95 105
95 127
95 177
95 179
95 180
95 202
95 221
95 273
95 284
95 298
96 169
96 175
96 225
96 300
97 98
97 110
97 137
97 144
97 161
97 164
97 167
97 171
97 195
97 207
97 230
97 277
98 161
98 189
98 226
98 258
98 295
99 100
99 145
99 150
99 151
99 177
99 205
99 238
99 243
99 244
100 151
100 187
100 198
100 225
101 151
101 196
101 204
101 211
101 225
101 230
101 252
101 272
103 137
103 150
103 204
103 211
103 243
103 252
103 265
103 273
103 276
103 297
104 152
104 189
104 258
104 262
104 283
105 124
105 173
105 177
105 193
105 290
106 127
106 152
106 205
107 136
107 169
107 240
107 248
107 252
107 282
108 157
108 180
108 199
108 267
108 287
109 149
109 165
109 176
109 224
109 276
109 277
109 286
110 155
110 189
110 220
110 226
110 234
110 292
111 121
111 147
111 242
112 125
112 129
112 150
112 151
112 154
112 163
112 165
112 195
112 209
112 221
112 226
112 238
112 251
112 266
112 273
112 283
112 286
112 289
113 162
113 197
114 244
114 259
114 283
115 117
115 137
115 168
115 193
115 218
115 248
115 279
116 121
116 149
116 234
116 239
116 245
116 275
116 276
116 278
116 295
117 167
117 196
117 289
118 176
118 181
118 183
118 202
118 212
118 221
118 226
118 260
119 215
119 238
120 219
121 141
121 213
121 234
121 258
122 140
122 151
122 196
122 205
122 230
122 275
123 140
123 196
123 222
123 276
123 282
124 171
124 206
125 149
125 150
125 158
125 176
125 180
125 203
125 208
125 243
125 275
125 283
125 289
125 296
126 129
126 141
126 161
126 163
126 172
126 173
126 222
127 166
127 235
127 262
127 278
128 179
128 195
128 238
128 239
128 258
128 268
128 289
129 163
129 187
129 189
129 210
129 219
129 244
129 262
129 263
129 280
130 172
130 219
130 280
131 154
131 166
131 175
131 189
131 293
131 298
132 152
132 155
132 167
132 176
132 192
132 258
132 260
132 271
132 284
133 160
133 250
133 258
133 277
134 137
134 203
134 224
134 280
134 284
134 285
136 168
136 175
136 181
136 208
136 240
136 249
136 257
136 290
136 293
137 142
137 193
137 207
137 222
137 237
137 280
140 149
140 179
140 229
140 275
141 151
141 213
141 284
142 144
142 213
142 214
143 191
143 201
143 220
143 243
143 278
144 150
144 179
144 200
146 157
146 227
146 243
147 194
147 229
147 237
147 248
147 262
148 291
149 161
149 176
149 186
149 226
149 234
149 244
149 255
149 276
149 277
150 165
150 170
150 177
150 211
150 238
150 243
150 283
150 288
151 187
151 196
151 201
151 211
151 254
151 258
151 278
151 284
152 155
152 167
152 189
152 205
152 207
152 258
152 265
152 271
152 274
153 221
153 262
153 273
154 236
154 252
154 266
154 268
155 157
155 167
155 180
155 185
155 186
155 199
156 191
157 163
157 171
157 180
157 189
157 195
157 199
157 254
158 178
158 208
158 217
158 249
158 250
158 257
159 177
159 234
159 276
160 168
160 227
160 265
160 284
161 195
161 228
162 201
162 235
162 251
163 165
163 172
163 254
164 172
164 208
164 260
165 178
165 228
165 237
165 251
165 287
165 289
166 249
166 273
167 190
167 210
167 215
167 234
167 246
167 263
167 269
167 271
167 284
167 292
167 294
168 193
168 206
168 233
168 235
168 265
168 283
169 181
169 228
169 283
170 225
170 236
170 252
171 195
172 219
172 268
172 280
173 211
173 239
173 257
173 258
173 286
174 198
174 244
174 247
174 281
174 284
175 189
175 227
175 228
175 241
175 257
175 295
176 183
176 199
176 232
176 260
176 279
177 199
177 240
177 244
177 284
178 237
178 246
179 195
179 211
179 230
179 239
179 257
179 264
180 186
180 189
180 195
180 198
180 199
180 201
180 258
180 260
180 293
180 296
181 200
181 208
181 210
181 266
181 283
181 297
183 260
183 263
183 293
184 196
184 230
184 279
185 241
185 246
185 247
185 269
185 275
186 199
186 234
186 240
186 293
187 206
187 271
188 242
189 210
189 226
189 240
189 258
189 262
189 267
189 276
189 295
190 240
190 246
191 218
191 246
191 286
191 297
192 264
193 218
193 226
193 246
193 247
193 274
193 277
194 245
194 292
194 294
195 226
195 257
195 286
196 230
196 241
196 258
196 277
197 225
197 249
197 290
198 260
198 293
199 214
199 257
199 279
199 284
200 266
200 292
201 219
201 229
201 262
201 273
201 278
201 293
202 237
202 294
203 205
203 212
203 285
204 265
205 241
205 244
206 270
207 213
207 235
207 258
207 261
207 273
207 298
208 225
208 252
209 248
209 286
210 266
210 276
210 295
211 253
211 258
211 272
211 276
211 286
212 232
212 245
212 247
212 279
213 264
213 273
214 241
215 216
215 234
215 257
215 286
216 231
217 253
217 258
218 222
218 233
218 286
219 248
219 280
219 288
220 251
220 253
220 268
220 274
220 278
220 281
221 284
221 298
222 227
222 276
223 240
223 251
223 278
224 227
224 255
224 276
225 228
225 252
225 298
226 277
226 286
227 255
227 257
228 257
228 272
229 264
230 232
230 239
230 258
232 245
233 239
233 253
233 265
233 269
233 276
233 285
234 295
235 271
235 278
236 252
236 282
236 296
237 248
238 267
238 268
238 298
239 285
239 295
240 244
240 249
240 269
240 282
240 293
241 244
241 294
242 267
243 271
243 292
243 300
244 245
244 246
244 251
244 253
244 263
244 269
244 281
244 296
245 246
246 247
246 280
247 284
248 256
248 259
248 271
248 274
248 280
249 290
250 257
250 290
251 262
251 278
252 282
253 268
253 269
253 276
256 268
256 271
257 258
257 266
257 282
257 286
258 270
258 277
259 283
262 278
263 282
263 291
263 293
264 278
264 290
265 274
267 293
267 298
268 271
270 288
270 298
273 298
275 289
276 295
281 296
282 293
283 295
287 288
293 300
*Classes
1
1
1
1
1
1
1
1
1
1
1
1
1
1
1
1
1
1
1
1
1
1
1
1
1
1
1
1
1
1
1
1
1
1
1
1
1
1
1
1
1
1
1
1
1
1
1
1
1
1
1
1
1
1
1
1
1
1
1
1
1
1
1
1
1
1
1
1
1
1
1
1
1
1
1
1
1
1
1
1
1
1
1
1
1
1
1
1
1
1
1
1
1
1
1
1
1
1
1
1
1
1
1
1
1
1
1
1
1
1
1
1
1
1
1
1
1
1
1
1
1
1
1
1
1
1
1
1
1
1
1
1
1
1
1
1
1
1
1
1
1
1
1
1
1
1
1
1
1
1
2
2
2
2
2
2
2
2
2
2
2
2
2
2
2
2
2
2
2
2
2
2
2
2
2
2
2
2
2
2
2
2
2
2
2
2
2
2
2
2
2
2
2
2
2
2
2
2
2
2
2
2
2
2
2
2
2
2
2
2
2
2
2
2
2
2
2
2
2
2
2
2
2
2
2
2
2
2
2
2
2
2
2
2
2
2
2
2
2
2
2
2
2
2
2
2
2
2
2
2
2
2
2
2
2
2
2
2
2
2
2
2
2
2
2
2
2
2
2
2
2
2
2
2
2
2
2
2
2
2
2
2
2
2
2
2
2
2
2
2
2
2
2
2
2
2
2
2
2
2
