*Vertices 300
*Edges
1 10
1 13
1 15
1 28
1 38
1 61
1 63
1 159
1 169
1 176
1 183
1 191
1 201
3 37
3 57
3 59
3 189
3 230
3 246
3 286
3 295
4 5
4 34
4 67
4 71
4 86
4 156
4 167
4 173
4 262
4 276
4 294
5 34
5 53
5 66
5 84
5 153
5 192
5 201
5 260
5 263
5 271
5 284
6 18
6 26
6 64
6 113
6 131
6 167
6 224
6 227
6 229
6 251
7 17
7 24
7 37
7 62
7 73
7 79
7 100
7 132
7 159
7 191
7 248
7 273
7 296
8 122
8 123
8 152
8 155
8 200
8 213
9 51
9 74
9 88
9 89
9 90
9 175
9 184
9 191
9 237
9 280
9 282
10 23
10 51
10 62
10 73
10 81
10 91
10 112
10 122
10 130
10 157
10 164
10 183
10 214
10 224
10 282
11 20
11 67
11 115
11 129
11 153
11 157
11 158
11 168
11 237
11 246
11 256
11 270
12 25
12 64
12 97
12 121
12 249
12 258
13 15
13 18
13 41
13 48
13 63
13 94
13 119
13 168
13 218
13 223
13 251
14 37
14 64
14 66
14 74
14 89
14 106
14 109
14 135
14 221
14 276
15 18
15 29
15 44
15 63
15 70
15 94
15 147
15 201
15 245
15 287
16 18
16 48
16 59
16 63
16 81
16 188
16 271
17 59
17 62
17 116
17 118
17 128
17 131
17 161
17 222
17 264
17 272
18 131
18 139
18 227
19 26
19 29
19 182
19 203
19 207
20 53
20 67
20 122
20 140
20 196
20 208
20 225
20 245
20 247
20 256
21 52
21 118
21 137
21 157
21 167
21 183
21 200
21 219
21 225
21 243
21 266
21 300
22 90
22 93
22 96
22 115
22 132
22 238
22 273
23 34
23 51
23 112
23 285
24 36
24 37
24 44
24 78
24 79
24 106
24 111
24 128
24 135
24 137
24 139
24 142
24 145
24 149
24 190
24 193
24 203
24 227
24 232
24 248
24 249
24 254
24 257
24 281
24 299
25 38
25 69
25 76
25 86
25 97
25 104
25 106
25 121
25 125
25 171
25 190
26 104
26 163
26 197
26 224
26 238
26 285
27 28
27 202
27 242
27 277
27 287
28 68
28 80
28 132
28 159
28 177
28 189
28 193
28 241
29 201
29 216
29 234
30 33
30 36
30 49
30 78
30 127
30 130
30 145
30 155
30 180
30 204
30 207
30 235
30 249
30 250
30 258
30 261
30 265
31 39
31 82
31 134
31 140
31 146
31 244
31 255
32 132
32 151
32 172
32 180
32 214
32 260
33 204
34 53
34 67
34 77
34 108
34 134
34 137
34 165
34 173
34 205
34 242
35 37
35 41
35 64
35 81
35 87
35 104
35 106
35 112
35 167
35 170
36 43
36 116
36 132
36 134
36 142
36 145
36 155
36 156
36 205
36 239
37 39
37 57
37 64
37 66
37 77
37 92
37 106
37 132
37 134
37 135
37 170
38 86
38 90
38 104
38 123
38 175
38 198
38 208
39 56
39 82
39 104
39 117
39 132
39 156
39 204
39 215
39 282
40 46
40 187
40 249
41 48
41 55
41 63
41 79
41 84
41 86
41 118
41 167
41 242
41 244
41 274
41 299
42 233
43 143
43 144
43 174
43 190
43 205
43 212
43 256
44 51
44 79
44 98
44 129
44 135
44 137
44 167
44 190
44 245
45 58
45 69
45 217
45 222
45 264
45 288
45 293
46 80
46 153
46 155
46 249
46 272
47 87
47 95
47 103
47 126
47 140
47 146
47 147
47 165
47 219
47 240
47 256
47 289
47 290
48 56
48 59
48 63
48 119
48 148
48 165
48 167
48 168
48 218
48 278
48 295
49 73
49 78
49 91
49 96
49 130
49 144
49 147
49 203
49 235
49 281
50 65
50 140
50 210
51 54
51 68
51 73
51 83
51 122
51 167
51 200
51 214
51 269
51 284
51 299
52 87
52 90
52 92
52 96
52 112
52 128
52 157
52 195
52 210
52 294
53 67
53 71
53 112
53 121
53 171
53 199
53 214
53 277
53 285
54 68
54 69
54 83
54 95
54 105
54 151
55 79
55 86
55 118
55 244
56 63
56 84
56 103
56 113
56 132
56 151
56 197
56 234
56 247
56 259
57 59
57 63
57 64
57 66
57 77
57 92
57 108
57 189
57 227
57 252
58 65
58 69
58 138
58 213
59 63
59 77
59 93
59 109
59 132
59 135
59 151
59 160
59 164
59 169
59 173
59 187
59 202
59 255
59 264
59 286
60 105
60 159
60 224
61 80
61 84
61 92
61 98
61 107
61 112
61 113
61 121
61 130
61 139
61 183
61 193
61 201
61 213
61 262
61 275
61 287
62 79
62 105
62 116
62 135
62 162
62 209
62 217
62 291
63 70
63 81
63 113
63 119
63 135
63 162
63 173
63 202
63 259
63 268
64 88
64 132
64 152
64 163
64 200
64 218
64 226
64 238
64 248
64 263
65 75
65 138
65 181
65 213
65 233
66 99
66 153
66 160
66 206
66 221
66 225
66 251
66 270
66 283
67 115
67 128
67 137
67 154
67 160
67 166
67 171
67 184
67 187
67 221
67 224
67 225
67 230
67 237
67 247
67 256
67 275
68 69
68 74
68 80
68 174
68 245
68 247
68 287
69 70
69 111
69 118
69 172
69 290
70 111
70 150
70 250
70 278
71 72
71 86
71 146
71 150
71 211
71 253
71 258
71 291
72 96
72 227
72 228
72 252
72 253
72 290
73 79
73 85
73 91
73 105
73 116
73 184
73 275
74 89
74 122
74 126
74 146
74 198
74 220
74 221
74 247
75 83
75 87
75 97
75 138
75 153
76 106
76 134
76 169
76 241
76 265
76 281
77 108
77 111
77 119
77 121
77 123
77 189
77 240
77 242
78 96
78 101
78 172
78 203
79 91
79 106
79 110
79 134
79 139
79 140
79 212
79 231
79 240
79 248
79 299
80 95
80 110
80 120
80 151
80 161
80 164
80 171
80 187
80 193
80 202
80 264
80 289
81 100
81 112
81 163
81 164
81 175
81 191
81 204
81 212
81 225
81 257
81 275
81 294
82 86
82 107
82 146
82 206
82 214
82 225
82 249
82 283
82 295
83 87
83 105
83 111
83 112
83 140
83 147
83 164
83 250
83 294
84 86
84 98
84 107
84 113
84 158
84 170
84 183
84 256
84 268
84 275
84 292
85 123
85 139
86 90
86 94
86 123
86 146
86 193
86 211
86 229
86 253
86 268
87 90
87 95
87 112
87 128
87 138
87 140
87 153
87 174
87 184
87 221
87 273
87 289
88 96
88 101
88 259
89 113
89 140
89 184
89 191
89 198
89 220
89 273
89 276
89 280
89 290
90 128
90 130
90 132
90 138
90 172
90 179
90 184
90 221
90 223
90 238
90 281
90 294
91 125
91 144
91 147
91 183
91 191
91 193
92 98
92 136
92 157
92 177
92 192
92 277
92 289
93 96
93 102
93 132
93 160
94 107
94 185
94 217
94 222
94 235
95 137
95 147
95 151
95 164
95 187
95 240
95 245
96 101
96 147
96 172
96 180
96 190
96 203
96 210
96 228
96 244
96 254
96 289
97 123
97 138
97 222
97 239
98 136
98 193
98 201
98 209
98 213
98 219
98 221
98 277
98 300
99 111
99 128
99 172
99 206
100 149
100 172
100 191
100 247
100 256
100 275
101 228
101 259
101 289
102 156
102 157
102 192
102 196
102 289
103 219
103 247
104 136
104 141
104 142
104 146
104 156
104 158
104 197
104 208
104 239
104 259
104 265
104 271
105 116
105 147
105 159
105 168
105 258
106 203
106 261
106 270
106 271
107 170
107 187
107 193
107 207
107 248
107 256
107 262
107 268
107 275
107 292
107 293
108 123
108 240
109 124
109 135
109 178
110 123
110 159
110 162
110 228
110 231
111 118
111 119
111 140
111 141
111 209
111 241
111 281
112 121
112 174
112 191
113 151
113 183
113 201
113 217
113 263
113 264
113 284
114 133
114 202
115 121
115 130
115 132
115 144
115 190
115 270
116 162
116 222
116 258
116 288
117 132
117 155
117 156
117 204
117 224
117 259
117 280
118 131
118 151
118 157
118 167
118 172
118 190
118 209
119 121
120 161
120 177
120 270
121 130
121 155
121 174
121 249
121 277
122 146
122 169
122 188
122 196
122 213
122 221
122 227
122 268
122 271
123 138
123 144
123 152
123 160
123 162
123 173
123 222
123 225
123 283
124 135
124 196
124 236
124 244
124 291
125 144
125 148
125 219
125 255
125 272
125 298
126 146
126 190
126 216
126 229
126 290
127 155
127 197
127 216
128 137
128 161
128 178
129 143
129 168
129 263
130 144
130 164
130 195
130 226
130 281
130 294
131 151
131 162
131 202
131 209
131 296
132 134
132 154
132 185
132 202
132 214
132 239
132 244
132 248
132 273
133 148
134 140
134 178
134 181
134 205
134 214
134 236
134 239
134 244
134 259
135 207
135 209
135 236
135 258
135 276
135 292
136 194
136 221
137 139
137 160
137 161
137 187
137 221
137 225
137 247
137 254
138 221
139 142
139 155
139 213
139 227
139 236
139 271
139 282
139 286
140 147
140 178
140 205
140 209
140 241
140 245
140 273
141 146
141 241
141 250
142 145
142 208
142 220
142 293
143 167
143 174
143 191
143 247
143 264
144 152
144 185
144 193
144 203
144 205
144 226
144 288
145 149
145 156
145 198
145 203
145 208
146 247
146 268
147 154
147 183
147 208
147 210
147 228
147 245
147 294
148 156
148 165
148 188
148 297
149 193
150 202
150 268
150 278
151 161
151 175
151 180
151 187
151 197
151 199
151 214
151 264
151 283
151 288
151 296
152 160
152 180
152 185
152 200
152 202
152 213
152 253
152 276
152 283
153 201
153 240
154 171
154 185
154 205
154 210
154 269
155 223
155 261
155 280
156 158
156 259
156 271
156 294
157 183
157 212
157 226
157 269
157 283
157 286
158 245
158 246
158 265
158 270
158 287
159 173
159 178
159 184
159 210
159 228
159 242
159 244
159 258
159 296
160 177
160 187
160 221
160 254
160 265
160 299
161 177
162 202
162 228
162 243
162 246
162 268
162 277
162 292
162 297
163 181
163 186
163 195
163 231
163 238
163 263
163 284
164 183
164 191
164 257
164 289
165 199
165 219
165 264
165 269
165 283
165 295
166 171
166 189
166 243
166 264
166 275
166 282
167 232
167 253
167 274
167 276
168 214
168 251
168 269
168 276
169 188
169 264
169 265
169 271
169 282
169 293
169 299
170 187
170 256
170 300
171 180
171 190
171 193
171 205
171 224
171 251
171 258
171 269
171 277
171 280
172 180
172 190
172 242
172 254
172 276
172 283
173 192
173 196
173 214
173 225
173 244
173 255
173 263
173 272
173 289
173 296
173 299
174 248
175 177
175 184
175 191
175 197
175 237
175 287
175 299
176 189
176 201
177 178
177 241
177 269
177 284
177 299
178 181
178 203
178 234
178 241
178 244
178 247
178 259
179 223
179 235
180 190
180 199
180 223
180 235
180 242
180 250
180 251
180 276
181 183
181 194
181 211
181 236
181 263
181 270
181 271
181 273
182 203
182 213
182 226
182 240
182 253
182 260
183 212
183 213
183 282
184 228
184 237
184 251
184 256
184 257
184 264
184 275
184 278
184 281
184 296
185 200
185 211
186 238
186 263
187 202
187 241
187 300
188 192
188 195
188 239
188 271
188 294
189 191
189 243
189 275
190 229
190 235
190 242
191 218
191 224
191 230
191 247
191 273
191 275
192 236
192 239
192 244
192 271
192 289
193 200
193 201
193 202
193 214
193 251
193 262
193 294
194 212
194 264
194 282
195 204
195 215
195 218
195 227
195 238
195 244
195 251
195 281
195 294
196 210
196 222
196 242
196 289
197 199
197 216
197 264
197 285
197 287
197 288
197 294
197 299
198 225
198 239
198 240
199 225
199 235
199 264
199 269
199 277
199 283
200 202
200 218
200 230
200 276
201 207
201 216
201 275
202 214
202 278
203 213
203 221
203 232
203 247
203 253
203 276
204 212
204 218
204 225
204 258
204 288
204 293
204 294
204 299
206 219
206 225
206 235
206 237
207 249
207 275
207 292
208 264
208 271
208 293
208 294
208 299
209 221
209 300
210 222
210 242
210 272
210 289
211 236
211 270
212 293
213 226
213 244
213 289
214 249
214 258
214 263
214 295
215 227
215 252
215 257
215 268
215 295
216 227
216 229
216 262
216 295
217 222
217 266
217 288
218 230
218 236
218 251
218 288
218 294
219 221
219 222
219 223
219 243
219 264
219 272
220 225
220 239
221 230
221 232
221 276
221 300
222 266
222 272
222 288
222 294
223 235
223 240
223 261
223 264
224 234
224 237
224 247
224 285
225 235
225 239
225 240
225 260
226 248
226 279
227 252
227 262
227 268
227 279
227 281
227 294
228 254
228 275
228 289
229 251
229 295
230 236
230 246
230 260
230 280
230 300
231 258
231 263
231 269
231 283
232 247
232 276
233 242
234 247
235 283
236 251
236 258
236 271
237 282
238 244
238 258
238 263
238 274
238 289
239 240
239 252
239 271
239 273
239 279
240 243
240 248
240 260
240 273
241 247
241 300
242 283
243 260
243 275
243 292
244 258
244 264
244 267
244 274
244 289
244 291
245 253
245 287
246 260
247 259
247 264
248 256
248 279
249 257
249 265
250 276
251 258
251 269
251 276
251 294
252 253
252 279
253 258
253 262
253 276
254 284
255 263
255 272
257 261
257 278
257 295
258 263
258 271
258 280
258 293
259 264
259 282
259 294
259 296
260 273
260 280
260 292
260 300
261 264
261 295
262 287
263 283
263 284
263 296
264 282
264 289
264 293
264 296
265 299
266 281
266 294
267 291
269 276
269 283
269 284
269 294
270 273
271 289
272 297
273 290
273 294
273 300
275 282
277 292
281 294
282 293
284 299
288 294
288 299
289 299
292 297
293 296
294 299
296 299
*Classes
1
1
1
1
1
1
1
1
1
1
1
1
1
1
1
1
1
1
1
1
1
1
1
1
1
1
1
1
1
1
1
1
1
1
1
1
1
1
1
1
1
1
1
1
1
1
1
1
1
1
1
1
1
1
1
1
1
1
1
1
1
1
1
1
1
1
1
1
1
1
1
1
1
1
1
1
1
1
1
1
1
1
1
1
1
1
1
1
1
1
1
1
1
1
1
1
1
1
1
1
1
1
1
1
1
1
1
1
1
1
1
1
1
1
1
1
1
1
1
1
1
1
1
1
1
1
1
1
1
1
1
1
1
1
1
1
1
1
1
1
1
1
1
1
1
1
1
1
1
1
2
2
2
2
2
2
2
2
2
2
2
2
2
2
2
2
2
2
2
2
2
2
2
2
2
2
2
2
2
2
2
2
2
2
2
2
2
2
2
2
2
2
2
2
2
2
2
2
2
2
2
2
2
2
2
2
2
2
2
2
2
2
2
2
2
2
2
2
2
2
2
2
2
2
2
2
2
2
2
2
2
2
2
2
2
2
2
2
2
2
2
2
2
2
2
2
2
2
2
2
2
2
2
2
2
2
2
2
2
2
2
2
2
2
2
2
2
2
2
2
2
2
2
2
2
2
2
2
2
2
2
2
2
2
2
2
2
2
2
2
2
2
2
2
2
2
2
2
2
2
