*Vertices 300
*Edges
1 18
1 22
1 47
1 79
1 103
1 158
1 221
1 231
1 253
1 279
1 282
2 18
2 68
2 181
2 188
2 220
2 263
2 284
3 18
3 20
3 39
3 56
3 74
3 84
3 85
3 96
3 101
3 129
3 145
3 158
3 166
3 192
3 226
3 238
3 248
3 277
4 9
4 16
4 26
4 159
4 165
4 221
4 224
4 266
4 283
5 10
5 264
6 23
6 84
6 110
6 153
6 164
6 178
6 180
6 184
6 190
6 193
6 198
6 236
6 257
7 22
7 42
7 106
7 122
7 130
7 133
7 139
7 202
7 234
7 244
7 277
7 285
8 215
8 235
9 16
9 50
9 74
9 93
9 103
9 112
9 121
9 122
9 134
9 142
9 229
9 276
9 280
10 31
10 48
10 72
10 98
10 106
10 123
10 140
10 168
10 173
10 182
10 209
10 217
10 249
10 264
10 282
11 15
11 37
11 58
11 62
11 115
11 146
11 149
11 173
11 185
11 205
11 215
11 249
11 266
12 83
12 90
12 152
12 174
12 205
12 209
12 232
12 240
12 263
12 270
13 40
13 69
13 99
13 131
13 156
13 206
13 231
13 262
14 66
14 89
14 96
14 115
14 122
14 227
14 270
15 50
15 58
15 88
15 109
15 133
15 142
15 164
15 176
15 182
15 292
15 295
16 56
16 74
16 99
16 124
16 198
16 266
16 280
17 62
17 104
17 118
17 121
17 188
17 189
17 199
17 237
17 239
17 241
17 271
17 284
18 22
18 50
18 56
18 68
18 75
18 95
18 161
18 169
18 183
19 23
19 40
19 96
19 122
19 266
19 271
20 36
20 44
20 59
20 88
20 95
20 169
20 175
20 192
20 198
20 212
20 214
20 228
20 248
20 257
20 263
20 287
20 298
21 44
21 93
21 99
22 29
22 50
22 54
22 88
22 95
22 115
22 139
22 169
22 221
22 241
22 277
22 284
23 100
23 136
23 153
23 185
23 212
23 213
23 266
23 272
24 52
24 53
24 80
24 119
24 131
24 197
24 212
24 236
24 294
24 298
25 66
25 145
25 176
25 202
25 236
25 274
26 95
26 101
26 103
26 122
26 141
26 142
26 165
27 60
27 183
27 193
27 198
27 232
27 254
27 291
28 30
28 110
28 136
28 210
28 228
29 32
29 56
29 160
29 225
29 277
30 32
30 90
30 110
30 112
30 125
30 131
30 136
30 162
30 173
30 251
30 264
30 280
30 289
31 58
31 148
31 168
31 171
31 174
32 110
32 170
32 195
32 201
33 65
33 92
33 95
33 97
33 98
33 113
33 123
33 130
33 136
33 139
33 164
33 174
33 181
33 196
33 212
33 217
33 230
33 268
33 271
33 282
33 285
34 49
34 51
34 76
34 110
34 116
34 144
34 283
34 295
35 81
35 147
35 154
35 197
35 201
35 230
35 236
35 244
35 256
35 257
35 293
35 294
36 59
36 114
36 161
36 178
36 198
36 209
36 228
36 250
36 264
36 280
36 287
36 290
36 293
37 41
37 93
37 105
37 115
37 121
37 137
37 146
37 167
37 193
37 222
37 236
37 286
37 300
38 120
38 171
38 260
38 276
39 46
39 62
39 67
39 74
39 126
39 129
39 134
39 158
39 192
39 227
39 248
39 271
39 285
40 49
40 116
40 149
40 193
40 206
41 44
41 47
41 69
41 76
41 78
41 84
41 93
41 100
41 136
41 168
41 181
41 251
41 271
41 279
41 283
42 74
42 106
42 130
42 182
42 202
42 296
43 59
43 101
43 123
43 162
43 231
43 233
43 285
43 296
44 66
44 93
44 99
44 151
44 156
44 189
44 212
44 253
44 289
44 290
44 300
45 113
45 166
45 194
45 228
45 240
45 252
45 281
45 299
46 61
46 67
46 80
46 96
46 148
46 177
46 194
46 201
46 213
46 214
46 294
47 55
47 79
47 127
47 138
47 142
47 158
47 207
47 245
47 251
47 286
48 66
48 72
48 86
48 137
48 181
48 264
48 268
48 285
49 116
49 123
49 135
49 156
49 223
49 266
49 272
50 58
50 115
50 138
50 193
50 236
50 276
51 60
51 69
51 105
51 139
51 144
51 164
51 175
51 185
51 216
51 238
51 243
51 259
51 265
51 267
51 278
52 63
52 131
52 153
52 287
52 298
53 54
53 88
53 92
53 109
53 119
53 124
53 164
53 176
53 212
53 255
53 256
53 273
54 95
54 212
55 67
55 166
55 237
55 246
55 268
55 298
56 80
56 135
56 226
56 262
57 68
57 82
57 106
57 151
57 167
57 177
57 204
57 218
57 253
58 78
58 79
58 133
58 173
58 179
58 182
58 193
58 233
58 236
58 246
58 249
58 264
58 276
58 291
58 292
59 89
59 90
59 98
59 109
59 119
59 123
59 131
59 155
59 183
59 213
59 228
59 250
60 84
60 198
60 225
60 238
60 262
60 276
60 280
61 214
61 292
62 68
62 104
62 131
62 153
62 177
62 179
62 200
62 215
62 220
62 228
62 247
62 249
62 271
62 299
63 114
63 229
63 283
64 95
64 101
64 120
64 131
64 197
64 230
65 97
65 168
65 200
65 254
66 83
66 95
66 99
66 101
66 123
66 131
66 137
66 202
66 215
66 227
66 240
66 247
66 257
66 270
66 289
67 80
67 90
67 119
67 142
67 147
67 205
67 256
67 271
67 284
67 285
67 298
68 105
68 106
68 160
68 177
68 182
68 199
68 218
68 234
69 133
69 136
69 190
69 216
69 262
69 286
70 86
70 185
70 267
71 80
71 119
71 160
71 161
71 168
71 223
71 254
71 255
72 98
72 106
72 217
72 233
72 268
72 285
73 84
73 102
73 135
73 150
73 178
74 112
74 114
74 121
74 142
74 175
74 196
74 295
75 96
75 136
75 145
75 177
75 183
75 202
75 220
75 259
75 279
76 150
76 153
76 175
76 219
76 235
76 269
76 279
77 85
77 148
77 150
77 179
77 185
77 226
77 266
78 79
78 81
78 150
78 168
78 181
78 222
78 266
78 278
79 81
79 90
79 92
79 114
79 138
79 148
79 154
79 164
79 179
79 191
79 214
79 218
79 236
79 244
79 253
79 262
79 266
80 83
80 92
80 110
80 119
80 136
80 145
80 148
80 153
80 161
80 201
81 96
81 126
81 184
81 222
81 294
82 89
82 92
82 94
82 106
82 117
82 143
82 158
82 203
82 217
82 264
82 268
83 90
83 137
83 148
83 159
83 170
83 192
83 204
83 215
83 257
83 263
83 270
83 273
83 290
84 85
84 94
84 95
84 101
84 102
84 105
84 122
84 181
84 186
84 190
84 206
84 235
84 238
84 257
84 266
84 267
84 275
84 296
85 145
85 248
85 291
86 194
86 256
87 128
87 129
88 120
88 124
88 165
88 166
88 192
88 194
88 212
88 240
88 288
88 292
88 295
89 90
89 93
89 94
89 100
89 109
89 115
89 128
89 131
89 231
90 104
90 119
90 179
90 200
90 257
90 278
90 280
91 92
91 134
91 182
91 230
91 267
91 280
91 289
91 294
92 106
92 125
92 130
92 148
92 164
92 217
92 258
93 103
93 105
93 122
93 193
94 108
94 196
94 275
95 99
95 101
95 142
95 174
95 175
95 212
95 213
95 217
95 227
95 230
95 240
95 270
95 281
96 122
96 129
96 194
96 240
96 271
96 277
96 294
97 131
97 168
97 180
97 231
98 123
98 139
98 166
98 213
98 233
98 282
98 286
99 124
99 156
99 161
99 179
99 270
99 296
99 300
100 128
100 136
100 157
100 212
100 217
100 251
100 299
101 142
101 217
102 114
102 135
102 183
102 241
102 254
102 257
103 112
103 122
103 141
104 119
104 189
104 269
104 284
105 115
105 146
105 160
105 212
105 216
105 237
105 267
105 274
106 108
106 125
106 138
106 142
106 143
106 170
106 176
106 182
106 205
106 234
107 233
108 179
108 182
108 225
109 153
109 164
109 224
109 267
110 136
110 170
110 187
110 207
110 228
110 257
110 283
112 113
112 192
112 299
113 120
113 123
113 171
113 186
113 187
113 240
113 266
113 281
113 299
114 138
114 153
114 175
114 224
114 228
114 249
114 275
115 131
115 137
115 149
115 300
116 156
116 262
117 120
117 194
117 202
117 234
117 245
117 252
117 268
117 282
118 138
118 241
119 131
119 142
119 179
119 219
119 274
120 131
120 171
120 183
120 231
120 268
121 137
121 193
121 233
122 257
123 135
123 155
123 162
123 186
123 188
123 213
123 231
123 233
123 257
123 267
123 274
123 282
124 179
124 226
124 233
124 285
124 288
125 132
125 164
125 166
125 208
125 247
125 251
126 129
126 142
126 151
126 203
126 254
126 294
127 138
127 228
128 143
128 150
128 175
128 233
128 244
129 182
129 190
129 227
129 240
130 133
130 166
130 168
130 194
130 243
130 271
131 168
131 169
131 171
131 215
131 231
131 262
131 280
132 179
132 214
132 263
133 202
133 208
133 216
133 295
134 142
134 165
134 182
134 190
134 213
134 217
134 227
134 245
134 269
134 281
135 138
135 167
135 186
135 213
135 236
135 241
135 262
135 274
136 145
136 153
136 184
136 190
136 201
136 202
136 214
136 271
136 284
137 233
137 270
137 289
138 142
138 193
138 207
138 214
138 237
138 241
138 245
138 276
138 290
139 164
139 166
139 175
139 189
139 214
139 241
140 251
141 191
141 215
141 253
142 176
142 295
143 158
143 197
143 208
144 216
144 270
145 183
145 202
145 271
146 180
146 203
146 207
146 222
146 236
146 249
146 294
147 233
147 235
147 285
147 293
148 150
149 152
149 167
149 177
149 194
149 206
149 221
149 229
149 241
149 248
149 252
149 287
150 183
150 224
150 233
150 235
150 254
151 253
151 254
152 163
152 195
152 209
152 215
152 221
152 225
152 229
152 255
152 259
152 275
152 296
152 299
153 155
153 164
153 174
153 177
153 180
153 181
153 184
153 205
153 214
153 220
153 228
153 238
153 255
153 279
154 168
154 181
154 199
154 221
154 244
154 259
154 285
155 171
155 174
155 181
155 184
156 161
156 186
156 261
156 272
156 296
156 297
156 299
157 183
157 200
157 209
157 254
157 299
158 163
158 271
158 297
159 207
159 213
159 290
160 225
160 255
160 289
160 290
161 171
161 183
161 228
161 254
161 259
161 279
162 172
162 218
162 239
162 245
162 250
162 251
162 284
163 174
163 195
163 201
163 218
163 275
163 297
164 184
164 224
164 247
164 251
164 258
164 268
165 219
165 245
165 285
166 168
166 192
166 194
166 212
166 241
166 247
166 252
166 270
166 277
166 282
166 286
167 177
167 179
167 204
167 265
167 286
168 181
168 278
169 186
169 227
170 205
170 207
170 273
171 174
171 183
171 186
171 209
171 216
171 218
172 200
172 218
172 225
172 229
173 193
173 203
173 264
174 175
174 203
174 209
174 217
174 247
174 254
175 195
176 202
176 288
176 295
177 208
177 220
177 228
177 283
177 295
178 198
178 292
179 182
179 185
179 186
179 204
179 218
179 225
179 262
180 184
180 203
180 216
180 236
180 278
181 188
181 196
181 221
181 230
181 233
181 238
181 264
181 274
181 285
182 190
182 267
183 193
183 200
183 216
183 254
183 259
183 279
185 266
185 267
186 218
186 227
186 296
187 200
187 222
187 246
187 299
188 233
188 284
189 214
190 193
190 196
190 198
190 203
190 214
190 233
190 245
190 264
190 271
191 193
191 233
192 238
192 248
192 290
192 298
193 233
193 254
194 252
195 229
195 240
195 255
196 209
196 264
196 268
196 271
197 208
197 230
197 287
197 295
197 298
198 292
199 220
199 263
199 269
200 216
200 228
200 229
200 272
200 299
201 215
201 221
201 266
201 269
201 273
201 296
202 246
202 273
202 300
203 207
203 217
203 236
203 252
203 259
203 264
203 278
203 286
203 290
204 233
204 253
204 265
205 215
205 220
205 232
205 256
206 253
206 257
207 243
207 249
207 286
207 290
208 268
208 295
208 298
209 247
209 254
209 264
209 293
209 299
212 214
212 217
212 255
212 286
213 217
213 237
213 267
214 224
214 263
214 292
215 221
216 236
216 254
216 259
216 274
216 278
216 294
217 288
218 225
218 227
218 251
218 266
219 238
219 300
220 247
220 249
220 252
220 263
220 290
221 229
221 259
221 266
221 269
221 279
221 296
222 236
222 246
222 299
223 242
223 254
223 273
223 296
224 228
224 258
224 283
225 235
225 238
225 266
227 236
227 271
227 281
227 294
227 296
228 229
228 240
228 299
229 280
230 268
230 271
230 287
231 232
231 241
231 248
231 257
231 265
231 269
231 282
232 282
233 265
233 285
234 244
234 269
234 282
235 238
235 255
235 276
235 279
235 291
236 274
236 285
236 294
237 241
237 246
237 267
238 262
238 290
239 284
239 286
240 255
240 288
241 248
241 267
241 282
244 266
245 250
245 264
245 286
246 260
246 276
247 263
247 270
247 299
248 290
249 252
249 263
249 287
249 290
249 293
250 259
251 280
251 289
252 264
252 287
253 254
255 289
256 273
257 266
257 289
257 294
259 274
259 278
259 279
260 294
263 269
263 270
266 299
268 284
268 295
268 298
269 273
269 282
269 295
271 294
272 299
273 296
274 278
276 280
276 291
277 294
280 293
282 284
284 298
286 290
287 290
289 290
292 295
297 299
*Classes
1
1
1
1
1
1
1
1
1
1
1
1
1
1
1
1
1
1
1
1
1
1
1
1
1
1
1
1
1
1
1
1
1
1
1
1
1
1
1
1
1
1
1
1
1
1
1
1
1
1
1
1
1
1
1
1
1
1
1
1
1
1
1
1
1
1
1
1
1
1
1
1
1
1
1
1
1
1
1
1
1
1
1
1
1
1
1
1
1
1
1
1
1
1
1
1
1
1
1
1
1
1
1
1
1
1
1
1
1
1
1
1
1
1
1
1
1
1
1
1
1
1
1
1
1
1
1
1
1
1
1
1
1
1
1
1
1
1
1
1
1
1
1
1
1
1
1
1
1
1
2
2
2
2
2
2
2
2
2
2
2
2
2
2
2
2
2
2
2
2
2
2
2
2
2
2
2
2
2
2
2
2
2
2
2
2
2
2
2
2
2
2
2
2
2
2
2
2
2
2
2
2
2
2
2
2
2
2
2
2
2
2
2
2
2
2
2
2
2
2
2
2
2
2
2
2
2
2
2
2
2
2
2
2
2
2
2
2
2
2
2
2
2
2
2
2
2
2
2
2
2
2
2
2
2
2
2
2
2
2
2
2
2
2
2
2
2
2
2
2
2
2
2
2
2
2
2
2
2
2
2
2
2
2
2
2
2
2
2
2
2
2
2
2
2
2
2
2
2
2
