*Vertices 300
*Edges
1 27
1 59
1 71
1 119
1 174
1 194
1 220
1 252
2 6
2 62
2 69
2 76
2 118
2 119
2 120
2 124
2 125
2 126
2 134
2 150
2 164
2 228
2 253
2 262
3 92
3 213
4 57
4 59
4 73
4 92
4 114
4 126
4 135
4 228
4 298
5 93
5 94
5 106
5 176
5 186
5 212
5 249
5 258
6 8
6 10
6 41
6 124
6 161
6 187
6 202
7 13
7 14
7 41
7 82
7 83
7 97
7 102
7 108
7 119
7 142
7 146
7 179
7 195
7 229
7 253
8 33
8 36
8 41
8 60
8 64
8 95
8 101
8 151
8 189
8 248
9 24
9 54
9 55
9 57
9 76
9 106
9 129
9 145
9 157
9 169
9 184
9 230
10 41
10 49
10 62
10 63
10 73
10 76
10 83
10 141
10 147
10 149
10 166
10 176
10 220
10 257
11 73
11 108
11 163
12 23
12 24
12 42
12 81
12 203
12 216
12 234
12 266
12 282
13 26
13 97
13 194
13 270
14 115
14 124
14 179
14 213
16 40
16 76
16 101
16 138
16 191
16 239
16 265
16 273
17 43
17 46
17 51
17 127
17 145
17 260
18 82
18 84
18 96
18 108
18 216
18 256
19 43
19 82
19 95
19 101
19 173
19 274
19 279
20 34
20 41
20 47
20 60
20 75
20 76
20 230
20 272
20 292
20 294
21 51
21 58
21 104
21 144
21 250
21 268
22 75
22 78
22 281
23 26
23 30
23 42
23 111
23 115
23 119
23 134
23 161
23 215
23 231
23 234
23 262
23 282
24 27
24 28
24 41
24 42
24 47
24 104
24 110
24 129
24 174
24 222
24 254
24 259
24 285
25 32
25 83
25 127
25 131
25 142
25 146
25 193
25 220
25 268
25 271
26 30
26 36
26 144
26 234
26 235
26 256
27 89
27 132
27 254
27 287
28 79
28 86
28 121
28 129
28 133
28 141
28 144
28 198
28 239
28 285
29 47
29 94
29 123
29 131
29 132
29 135
29 143
29 228
29 258
29 275
30 31
30 60
30 90
30 116
30 154
30 189
31 63
31 82
31 196
32 47
32 59
32 81
32 142
32 147
32 180
32 237
33 34
33 41
33 42
33 81
33 101
33 187
33 220
34 60
34 81
34 89
34 102
34 116
34 149
34 192
34 203
34 255
35 89
35 287
35 289
35 292
36 62
36 64
36 106
36 136
36 186
36 217
37 68
37 70
37 85
37 118
37 134
37 244
37 248
38 87
38 148
38 289
39 45
39 91
39 92
40 46
40 71
40 82
40 120
40 123
40 250
40 271
40 283
41 52
41 67
41 72
41 97
41 115
41 124
41 147
41 232
41 284
41 293
42 147
42 187
42 288
43 137
43 145
43 170
43 193
43 196
43 209
43 210
43 238
44 61
44 64
44 80
44 91
44 138
44 165
44 240
45 50
45 92
45 136
45 159
45 244
45 258
45 284
46 48
46 49
46 67
46 75
46 82
46 101
46 125
46 135
46 175
46 181
46 234
46 260
46 283
46 284
47 76
47 81
47 87
47 88
47 91
47 128
47 143
47 259
47 266
48 181
48 193
48 196
48 212
49 50
49 96
49 97
49 136
49 166
49 183
49 266
49 283
49 298
50 54
50 69
50 92
50 96
50 110
50 136
50 145
50 182
50 260
50 266
50 268
51 84
51 99
51 110
51 145
51 249
51 256
51 290
51 292
52 54
52 72
52 78
52 83
52 112
52 124
52 132
52 135
52 136
52 241
52 262
52 295
53 64
53 86
53 138
53 210
53 236
54 145
54 156
54 161
54 212
54 224
54 272
54 280
54 295
55 57
55 65
55 86
55 106
55 163
55 243
56 66
56 73
56 178
56 258
56 282
56 291
57 65
57 111
57 121
57 139
57 140
57 156
57 158
57 160
57 166
57 270
57 275
57 279
57 298
58 76
58 184
58 205
58 206
58 293
59 71
59 128
59 129
59 130
59 134
59 227
59 231
59 232
59 280
59 284
60 70
60 89
60 116
60 149
60 189
60 268
60 282
61 121
61 125
61 133
61 281
62 67
62 166
62 201
62 228
63 82
63 161
63 220
63 283
63 288
64 129
64 143
64 165
64 279
65 67
65 80
65 199
65 231
65 246
65 272
66 240
66 275
66 282
66 289
67 130
67 166
67 284
68 93
68 226
68 231
69 77
69 81
69 85
69 112
69 190
69 230
69 268
70 95
70 118
70 152
70 252
70 260
70 268
71 120
71 123
71 135
71 174
71 181
71 252
72 124
72 136
72 150
73 76
73 88
73 115
73 120
73 126
73 150
73 187
73 245
73 260
73 267
74 123
74 164
75 76
75 83
75 259
75 277
76 101
76 126
76 147
76 149
76 150
76 157
76 272
76 273
76 293
77 104
77 112
77 176
77 230
77 285
78 90
78 138
78 150
78 167
78 194
78 209
78 222
78 277
79 129
79 131
79 149
79 282
80 85
80 91
80 130
80 164
80 285
81 87
81 90
81 91
81 115
81 141
81 174
81 253
82 96
82 108
82 130
82 246
82 279
83 92
83 97
83 204
83 220
83 235
83 239
83 262
84 117
84 122
84 179
84 256
85 91
85 112
85 127
85 131
85 144
85 175
85 216
85 248
85 268
86 96
86 106
86 128
86 141
86 237
86 239
86 273
87 129
87 130
87 131
87 145
87 147
87 148
87 174
87 214
87 219
87 238
87 239
87 249
87 282
87 295
88 117
88 143
88 150
89 116
89 118
89 248
89 287
90 115
90 116
90 124
90 137
90 151
90 176
90 205
90 265
91 120
91 180
91 282
92 114
92 204
92 238
92 239
93 97
93 231
93 258
93 276
94 104
94 120
94 192
94 234
95 101
95 145
95 193
95 242
95 267
96 226
97 136
97 201
97 227
97 233
98 125
98 131
98 281
98 293
99 122
99 133
99 137
99 153
99 208
99 292
100 112
100 123
100 268
101 121
101 125
101 145
101 189
101 247
101 274
102 122
102 132
102 178
102 213
102 229
102 233
102 242
102 255
102 257
103 113
103 184
103 275
103 285
104 117
104 118
104 234
104 277
104 278
104 285
105 111
105 192
105 204
105 222
105 250
106 114
106 186
106 188
106 278
107 165
107 231
108 130
108 158
108 195
108 288
109 111
109 115
109 120
109 185
109 201
109 215
110 145
110 174
110 243
111 124
111 125
111 139
111 179
111 193
112 268
113 243
113 275
114 236
115 119
115 124
115 150
115 176
115 293
115 295
116 151
116 287
117 143
117 157
117 214
117 278
118 134
118 150
118 178
118 198
118 287
119 146
119 187
119 215
119 262
120 140
120 187
120 247
120 261
121 122
121 133
121 134
121 138
121 141
121 145
121 162
121 186
121 191
121 240
121 275
121 281
121 295
122 128
122 138
122 160
122 206
122 229
122 267
122 292
123 131
123 139
123 247
123 250
124 125
124 169
124 172
124 224
124 272
124 295
125 131
125 145
125 168
125 169
125 187
125 218
125 219
125 225
125 274
125 281
126 228
126 298
127 131
127 162
127 251
127 260
128 132
128 135
128 138
128 184
128 190
128 217
128 247
129 143
129 211
129 217
129 221
129 230
129 282
129 284
130 148
130 238
130 284
130 285
131 249
131 281
131 282
132 190
132 213
132 270
132 275
133 137
134 147
134 149
134 179
134 184
134 221
134 231
134 275
134 285
134 293
135 136
135 162
135 255
135 270
135 283
136 142
136 175
136 186
136 223
136 244
136 294
136 297
137 157
137 218
138 222
138 269
138 273
139 140
139 233
139 237
139 249
139 250
139 267
139 273
140 162
140 179
140 183
140 203
140 271
140 298
141 144
141 147
141 239
141 253
141 283
142 144
142 146
142 147
142 175
143 181
143 234
143 239
143 280
143 283
144 175
144 219
144 234
144 250
144 260
144 269
145 238
146 180
147 149
147 178
147 187
147 212
147 253
147 267
147 295
148 295
149 173
149 187
149 223
150 201
150 248
150 278
151 155
151 172
151 193
151 205
151 220
151 242
151 245
151 256
152 260
153 194
153 209
153 210
154 166
154 172
154 199
154 221
154 231
154 252
154 260
155 178
155 203
155 214
155 220
155 228
156 195
156 212
156 224
156 272
156 285
156 287
157 184
157 193
157 195
157 200
157 275
157 292
158 167
158 175
158 206
158 298
159 164
159 175
159 191
159 222
159 244
159 258
159 263
159 300
160 166
160 250
160 279
161 173
161 221
161 233
161 258
161 266
161 282
162 172
162 179
162 211
162 222
162 227
162 247
162 255
162 281
163 205
164 185
164 243
164 244
164 285
165 171
165 172
165 185
165 203
165 215
165 231
165 236
165 264
165 291
166 228
166 231
166 284
166 289
166 290
167 175
168 225
168 237
168 272
168 281
169 221
169 233
169 245
169 274
170 178
170 205
170 250
170 278
170 292
170 299
171 177
171 201
171 209
171 215
171 216
171 228
171 268
172 211
172 219
172 272
172 281
172 295
173 178
173 240
173 266
173 267
173 271
173 297
174 186
174 220
174 243
174 246
174 258
174 284
175 186
175 195
175 263
175 283
175 294
176 188
176 212
176 220
176 236
176 251
177 178
177 209
177 216
177 224
177 227
177 253
177 259
178 212
178 223
178 228
178 253
178 258
178 267
178 299
179 221
179 230
179 244
180 188
180 278
181 183
181 199
181 277
182 245
182 247
182 260
182 278
182 298
183 185
183 222
183 232
183 277
184 217
184 243
184 252
184 268
184 275
184 293
185 203
185 243
186 294
187 247
187 281
187 288
188 217
188 278
189 190
189 214
189 247
189 248
189 254
189 281
189 291
190 214
190 254
190 265
190 275
191 203
191 273
191 275
191 283
191 300
192 210
192 255
192 277
193 227
193 245
194 239
195 276
196 212
196 216
196 259
197 200
198 236
198 240
198 291
199 211
199 223
199 231
200 262
200 270
201 216
201 278
203 236
203 273
203 290
203 291
204 245
204 260
204 265
204 267
205 226
205 256
205 290
206 240
206 294
207 225
208 236
208 269
209 210
209 227
211 220
211 223
211 272
212 249
212 251
212 254
212 258
213 227
213 233
213 263
214 228
214 278
215 216
215 279
216 229
216 268
216 290
217 243
217 247
217 254
217 276
217 278
217 284
218 246
218 274
219 249
219 260
219 272
219 274
219 295
220 242
220 243
220 268
221 231
221 233
221 275
222 227
222 232
222 244
222 259
222 261
222 269
222 277
223 244
223 253
223 254
223 285
224 259
224 280
224 295
225 275
226 296
227 241
227 246
227 253
227 260
227 263
227 265
227 267
227 271
227 284
229 266
229 267
229 268
230 292
231 232
231 272
231 282
231 290
232 244
234 235
234 283
236 251
236 273
236 289
236 291
237 272
237 273
237 297
238 255
238 273
239 283
240 275
240 282
240 294
241 263
241 289
242 255
243 245
243 275
243 293
244 261
245 260
247 250
247 281
247 299
249 256
249 281
250 267
250 279
250 299
251 260
251 289
251 290
252 260
252 292
253 262
253 267
253 279
253 293
254 276
256 290
258 277
258 284
260 267
260 278
260 283
263 265
263 300
264 291
266 267
266 283
267 271
268 275
268 290
270 283
270 292
271 297
272 286
272 295
274 279
275 278
275 282
275 286
277 285
278 292
279 299
282 296
284 285
285 287
285 288
286 289
289 290
289 292
294 297
*Classes
1
1
1
1
1
1
1
1
1
1
1
1
1
1
1
1
1
1
1
1
1
1
1
1
1
1
1
1
1
1
1
1
1
1
1
1
1
1
1
1
1
1
1
1
1
1
1
1
1
1
1
1
1
1
1
1
1
1
1
1
1
1
1
1
1
1
1
1
1
1
1
1
1
1
1
1
1
1
1
1
1
1
1
1
1
1
1
1
1
1
1
1
1
1
1
1
1
1
1
1
1
1
1
1
1
1
1
1
1
1
1
1
1
1
1
1
1
1
1
1
1
1
1
1
1
1
1
1
1
1
1
1
1
1
1
1
1
1
1
1
1
1
1
1
1
1
1
1
1
1
2
2
2
2
2
2
2
2
2
2
2
2
2
2
2
2
2
2
2
2
2
2
2
2
2
2
2
2
2
2
2
2
2
2
2
2
2
2
2
2
2
2
2
2
2
2
2
2
2
2
2
2
2
2
2
2
2
2
2
2
2
2
2
2
2
2
2
2
2
2
2
2
2
2
2
2
2
2
2
2
2
2
2
2
2
2
2
2
2
2
2
2
2
2
2
2
2
2
2
2
2
2
2
2
2
2
2
2
2
2
2
2
2
2
2
2
2
2
2
2
2
2
2
2
2
2
2
2
2
2
2
2
2
2
2
2
2
2
2
2
2
2
2
2
2
2
2
2
2
2
