*Vertices 300
*Edges
1 73
1 86
1 168
1 187
1 206
1 212
1 253
1 258
2 18
2 34
2 93
2 148
2 155
2 200
2 250
2 269
2 277
3 37
3 63
3 179
3 194
3 222
4 72
4 136
4 149
4 150
5 121
5 134
5 176
5 219
6 32
6 44
6 48
6 65
6 95
6 104
6 202
6 208
6 280
7 144
7 173
7 209
7 222
7 230
7 285
8 39
8 58
8 76
8 130
8 155
8 161
8 193
8 194
8 226
8 277
8 282
9 19
9 102
9 138
9 179
9 213
9 269
10 126
10 133
10 176
10 201
10 212
10 214
10 231
10 241
10 248
10 267
11 18
11 29
11 67
11 90
11 96
11 106
11 193
11 217
12 86
12 115
12 123
12 142
12 170
12 206
12 220
12 232
12 239
12 245
12 254
14 129
14 180
14 191
14 240
14 256
14 265
14 278
15 20
15 47
15 59
15 94
15 99
15 122
15 123
15 130
15 139
15 157
15 163
15 187
15 222
15 228
15 239
15 273
15 286
15 295
16 28
16 40
16 44
16 61
16 105
16 134
16 166
16 189
16 217
16 246
16 247
16 263
16 272
17 18
17 28
17 47
17 58
17 87
17 166
17 200
17 291
18 19
18 28
18 43
18 46
18 47
18 159
18 161
18 165
18 193
18 200
18 227
18 264
18 280
19 127
19 132
19 179
19 197
19 250
20 46
20 74
20 94
20 171
21 27
21 47
21 55
21 74
21 145
21 254
21 300
22 38
22 110
22 157
22 293
23 34
23 108
23 154
23 159
23 256
23 290
24 30
24 33
24 76
24 124
24 139
24 140
24 148
24 159
25 111
25 164
25 189
25 249
26 42
26 99
26 113
26 224
26 247
27 43
27 54
27 65
27 203
27 214
27 254
27 258
28 87
28 158
28 166
28 169
28 291
29 84
29 158
29 165
29 190
29 241
29 269
30 33
30 56
30 156
30 158
30 211
31 52
31 80
31 82
31 95
31 115
31 135
31 151
31 159
31 206
31 207
31 241
31 245
31 249
31 258
31 284
32 83
32 112
32 123
32 172
32 196
32 223
32 226
32 236
32 239
32 241
32 251
33 76
33 77
33 78
33 80
33 120
33 146
33 150
33 187
33 227
33 231
33 259
33 292
33 296
34 108
34 154
34 159
34 204
34 250
34 252
34 256
34 290
35 48
35 65
35 88
35 119
35 164
35 169
35 213
35 251
35 265
35 270
35 276
36 42
36 80
36 84
36 108
36 142
36 149
36 153
36 212
36 290
37 127
37 194
38 143
38 205
38 260
38 265
38 293
39 52
39 89
39 101
39 130
39 182
39 210
39 240
39 288
40 44
40 61
40 71
40 128
40 149
40 170
40 179
40 205
40 232
40 263
40 300
41 71
41 188
41 201
41 218
41 240
41 261
42 99
42 126
42 169
42 212
42 252
42 253
42 256
42 293
43 159
43 223
43 280
43 289
44 61
44 66
44 71
44 95
44 105
44 128
44 143
44 179
44 207
44 240
44 243
44 285
44 300
46 93
47 49
47 80
47 139
47 145
47 146
47 184
47 189
47 194
47 206
47 222
47 229
47 256
47 264
47 272
48 65
48 128
48 155
48 198
48 280
49 70
49 80
49 228
50 77
50 115
50 123
50 126
50 158
50 209
50 218
51 87
51 184
51 198
52 69
52 82
52 101
52 108
52 141
52 146
52 159
52 210
52 243
52 283
53 54
53 59
53 73
53 79
53 94
53 182
53 194
53 201
53 217
53 233
53 245
53 268
53 281
53 282
54 65
54 73
54 77
54 134
54 172
54 182
54 194
54 204
54 214
54 256
55 91
55 115
55 116
55 134
55 254
56 89
56 188
56 198
56 228
56 233
56 248
56 267
56 275
56 291
57 63
57 86
57 142
57 198
57 231
57 233
57 259
58 62
58 93
58 130
58 161
58 193
58 260
58 263
59 84
59 91
59 94
59 131
59 136
60 79
60 82
60 83
60 94
60 118
60 130
60 177
60 211
60 239
60 252
60 263
61 112
61 119
61 134
61 204
61 217
61 280
61 293
62 83
62 94
62 112
62 225
62 266
62 277
62 282
62 297
63 125
64 74
64 84
64 95
64 114
64 186
64 208
64 218
65 128
66 121
66 128
66 191
66 212
66 253
67 90
67 96
67 205
67 217
68 87
68 96
68 163
68 178
68 179
68 198
68 218
68 233
68 276
68 293
69 101
69 104
69 118
69 131
69 139
69 155
69 161
69 284
70 80
70 116
70 134
71 101
71 143
71 197
71 206
71 215
71 225
71 240
71 241
72 126
72 176
72 177
72 219
72 248
72 250
72 261
72 273
72 285
73 77
73 86
73 134
73 162
73 255
73 277
74 95
74 104
74 108
74 165
74 171
74 236
75 81
75 82
75 147
75 162
75 166
75 176
75 236
75 252
75 263
75 275
76 93
76 102
76 122
76 124
76 198
76 200
76 216
77 80
77 114
77 140
77 209
77 247
77 291
77 298
78 120
78 169
78 174
78 193
78 197
78 206
78 217
78 218
78 236
78 245
78 289
79 137
79 245
80 82
80 104
80 114
80 140
80 141
80 178
80 211
81 93
81 102
81 131
81 200
82 94
82 120
82 141
82 146
82 156
82 176
82 232
82 238
82 257
83 94
83 100
83 190
83 225
83 266
83 271
84 108
84 131
84 142
84 155
84 158
84 212
84 261
84 269
85 97
85 115
85 190
85 251
86 87
86 142
86 168
86 170
86 258
87 107
87 141
87 150
87 198
87 212
87 245
88 100
88 109
88 112
88 121
88 148
88 202
88 209
88 236
88 244
88 265
88 276
88 294
89 95
89 208
89 249
89 278
89 281
90 214
90 263
90 284
91 94
91 104
91 123
91 129
91 133
91 136
92 114
92 176
92 178
92 202
92 237
92 258
92 264
92 288
92 297
93 132
93 148
93 155
93 200
93 260
93 263
93 284
94 118
94 146
94 187
94 266
94 281
94 286
95 150
95 200
95 203
95 208
95 241
95 258
95 281
96 169
96 223
96 256
96 281
97 115
97 155
98 104
98 108
98 242
98 288
98 297
99 126
99 183
99 229
99 230
99 247
99 265
101 118
101 156
101 197
102 122
102 131
102 138
102 178
102 185
102 205
102 213
102 217
102 224
104 108
104 114
104 123
104 136
104 162
104 201
104 206
104 219
105 134
105 153
105 176
105 204
105 212
105 217
105 223
105 259
105 300
106 119
106 182
106 207
106 227
106 231
106 266
106 284
107 141
107 153
107 262
107 285
107 291
108 162
108 265
109 112
109 121
109 126
109 130
109 154
109 168
109 202
109 224
109 227
109 237
109 248
109 261
109 271
109 273
109 280
110 141
110 153
110 157
110 171
110 193
110 220
110 256
111 120
111 168
111 189
111 204
111 229
111 294
112 121
112 168
112 202
112 224
112 236
112 248
112 265
112 269
112 273
112 276
112 294
113 124
113 184
113 215
114 140
114 176
114 177
114 186
114 198
114 211
114 214
114 235
114 239
114 258
115 127
115 151
115 170
115 185
115 223
115 224
115 239
115 249
115 254
115 288
116 134
116 162
116 190
116 192
116 213
116 245
116 296
117 278
118 130
118 184
118 249
119 152
119 178
119 191
119 270
119 293
120 142
120 175
120 180
120 182
120 187
120 196
120 212
120 229
120 241
120 257
120 283
120 292
121 128
121 134
121 153
121 176
121 219
121 227
121 231
122 130
122 138
122 211
122 224
122 278
123 126
123 132
123 135
123 152
123 206
123 213
123 232
123 239
123 244
123 292
124 139
124 148
124 159
124 200
124 219
124 253
124 256
125 163
125 174
126 135
126 206
126 210
126 248
126 267
126 297
127 200
127 249
127 254
127 291
127 300
128 155
128 198
128 205
128 242
128 261
128 283
128 284
129 133
129 274
130 155
130 168
130 182
130 210
130 211
130 226
130 240
131 139
131 151
132 135
132 203
132 208
132 221
132 243
132 270
133 166
133 212
133 241
133 249
133 274
133 288
134 204
134 208
135 155
135 159
135 186
135 258
135 284
135 298
136 140
136 143
136 145
136 149
136 178
136 197
136 253
136 300
137 184
137 190
137 192
137 226
138 205
138 236
138 296
139 146
139 151
139 179
139 222
139 264
140 143
140 159
140 192
140 201
141 147
141 181
142 168
142 175
142 184
142 187
142 207
142 216
142 243
143 189
143 204
143 243
143 285
143 293
144 194
144 235
144 273
145 151
145 181
145 185
145 206
145 231
145 239
145 300
146 147
146 155
146 156
146 176
146 177
146 190
146 214
146 222
146 283
147 155
147 181
147 224
147 236
147 243
147 258
147 261
148 155
148 256
149 216
149 233
149 239
150 162
150 180
150 208
150 225
150 296
151 211
151 213
151 220
151 222
151 231
151 239
151 260
151 269
151 280
151 298
152 157
152 185
152 267
152 293
153 172
153 285
153 290
154 168
155 261
155 284
156 166
156 177
156 183
156 198
156 209
156 212
156 249
156 273
156 285
157 160
157 192
157 193
157 205
157 217
157 228
157 236
157 265
157 295
158 169
158 190
160 161
161 175
161 179
161 198
161 200
161 226
161 227
161 276
162 180
162 197
163 169
163 189
163 198
163 200
163 226
163 227
163 262
163 265
163 273
164 249
166 247
166 249
166 272
166 298
167 258
168 171
168 184
168 204
169 256
169 295
170 209
170 220
170 222
171 184
171 229
171 262
172 182
172 197
172 239
173 229
173 285
174 206
174 224
174 245
174 254
175 216
175 292
176 177
176 191
176 232
177 180
177 191
177 209
177 247
178 179
178 197
179 204
179 222
179 229
180 191
180 287
181 210
181 227
181 231
181 246
181 247
181 259
181 266
181 279
181 300
182 196
182 284
182 288
183 198
183 265
184 206
185 267
186 190
186 198
186 216
186 230
186 233
186 260
186 293
186 298
187 283
188 241
188 285
188 297
189 264
190 192
190 224
190 254
190 293
191 227
191 262
192 201
192 220
192 231
192 255
192 289
192 295
192 300
193 255
194 256
194 276
196 216
196 225
196 226
196 251
196 266
196 288
197 228
197 233
197 250
197 298
198 200
198 209
198 212
198 232
198 233
198 234
198 250
198 260
198 270
198 285
198 289
198 291
199 213
199 269
200 227
200 269
201 261
202 237
203 208
204 222
204 252
205 206
205 217
205 221
205 236
205 241
205 242
205 263
205 265
206 218
206 221
206 224
206 232
206 241
206 245
206 250
206 272
207 243
208 218
208 270
209 210
209 211
209 222
209 231
209 239
209 244
210 222
210 231
211 223
211 231
211 235
211 239
211 280
211 298
212 214
212 234
212 241
212 253
212 277
212 282
212 285
212 288
213 239
213 244
213 269
213 292
214 216
214 254
214 258
214 263
214 281
216 233
216 260
217 236
217 242
217 254
217 268
218 270
218 276
219 253
220 231
220 279
220 300
221 236
222 229
222 239
222 244
222 247
223 239
223 245
223 267
223 289
223 291
223 296
224 228
224 254
224 258
225 264
225 266
226 251
226 262
226 273
227 231
227 256
227 259
227 262
227 271
228 267
229 261
230 260
230 261
231 259
231 266
232 238
232 250
232 263
232 272
232 289
233 238
233 257
233 268
233 298
234 271
234 284
235 257
236 283
237 264
238 288
238 298
239 245
239 247
239 280
240 256
241 245
241 282
241 297
242 256
243 287
244 269
244 292
245 296
246 247
246 279
247 267
247 272
247 298
248 261
248 267
248 297
250 256
250 269
250 273
252 263
252 279
252 293
255 277
255 295
256 262
256 273
257 298
258 281
260 269
261 270
261 285
263 279
264 266
265 273
265 274
266 284
267 293
269 277
270 271
270 283
270 285
270 293
270 294
272 289
277 282
278 286
283 291
283 293
284 288
286 287
288 297
289 295
293 294
294 297
*Classes
1
1
1
1
1
1
1
1
1
1
1
1
1
1
1
1
1
1
1
1
1
1
1
1
1
1
1
1
1
1
1
1
1
1
1
1
1
1
1
1
1
1
1
1
1
1
1
1
1
1
1
1
1
1
1
1
1
1
1
1
1
1
1
1
1
1
1
1
1
1
1
1
1
1
1
1
1
1
1
1
1
1
1
1
1
1
1
1
1
1
1
1
1
1
1
1
1
1
1
1
1
1
1
1
1
1
1
1
1
1
1
1
1
1
1
1
1
1
1
1
1
1
1
1
1
1
1
1
1
1
1
1
1
1
1
1
1
1
1
1
1
1
1
1
1
1
1
1
1
1
2
2
2
2
2
2
2
2
2
2
2
2
2
2
2
2
2
2
2
2
2
2
2
2
2
2
2
2
2
2
2
2
2
2
2
2
2
2
2
2
2
2
2
2
2
2
2
2
2
2
2
2
2
2
2
2
2
2
2
2
2
2
2
2
2
2
2
2
2
2
2
2
2
2
2
2
2
2
2
2
2
2
2
2
2
2
2
2
2
2
2
2
2
2
2
2
2
2
2
2
2
2
2
2
2
2
2
2
2
2
2
2
2
2
2
2
2
2
2
2
2
2
2
2
2
2
2
2
2
2
2
2
2
2
2
2
2
2
2
2
2
2
2
2
2
2
2
2
2
2
