*Vertices 300
*Edges
1 38
1 145
2 20
2 44
2 45
2 53
2 72
2 121
2 195
2 226
2 230
2 244
3 136
3 171
3 226
3 300
4 97
4 122
4 162
4 264
4 285
5 7
5 54
5 93
5 103
5 119
5 156
6 23
6 24
6 91
6 105
6 127
6 137
6 169
6 185
6 255
6 263
6 270
7 11
7 86
7 89
7 131
7 135
7 144
7 156
7 213
7 225
7 261
7 265
8 64
8 102
8 105
8 122
8 198
8 250
9 155
9 265
10 44
10 55
10 87
10 90
10 113
10 128
10 178
10 187
10 247
10 252
11 89
11 108
11 144
11 173
11 183
11 206
11 233
11 236
11 260
11 262
11 286
11 289
12 30
12 63
12 74
12 103
12 117
12 137
12 153
12 204
12 234
12 285
12 294
12 297
13 21
13 54
13 55
13 152
13 181
13 186
13 221
13 283
13 298
14 62
14 64
14 244
14 269
14 274
14 278
14 284
14 286
15 31
15 133
15 226
15 259
16 36
16 64
16 252
17 35
17 63
17 71
17 76
17 140
17 245
18 43
18 102
18 107
18 146
18 217
18 218
18 245
19 25
19 57
19 85
19 114
19 131
19 144
19 177
19 180
19 227
19 230
20 37
20 48
20 56
20 116
20 121
20 180
20 198
20 232
20 244
21 31
21 93
21 158
21 166
21 182
21 193
21 196
22 76
22 155
22 165
22 192
22 235
23 32
23 49
23 68
23 94
23 105
23 134
23 141
23 152
23 189
23 215
23 245
23 266
23 298
24 35
24 46
24 108
24 115
24 154
24 215
24 249
25 85
25 88
25 114
25 134
25 180
25 195
25 227
26 53
26 54
26 79
26 104
26 179
27 61
27 66
27 104
27 106
27 136
27 147
27 270
28 39
28 59
28 71
28 77
28 120
28 146
28 165
28 180
28 188
28 280
28 292
29 48
29 69
29 86
29 140
30 89
30 113
30 125
30 127
30 234
30 246
30 266
30 287
30 294
30 297
31 80
31 137
31 182
32 105
32 169
32 189
32 201
32 208
33 110
33 216
33 242
33 263
33 288
34 54
34 58
34 88
34 102
34 135
34 145
34 149
34 223
35 46
35 56
35 59
35 71
35 73
35 87
35 139
35 226
35 233
35 235
36 62
36 64
36 76
36 85
36 101
36 129
36 136
36 224
36 230
37 72
37 78
37 106
37 116
37 160
37 208
37 224
37 283
38 92
38 94
38 109
38 127
38 130
38 143
38 204
38 237
38 298
39 44
39 46
39 57
39 72
39 115
39 120
39 144
39 164
40 120
40 144
40 166
40 284
40 291
41 58
41 73
41 149
41 178
41 193
42 78
42 101
42 102
42 108
42 141
42 150
42 156
42 233
43 144
43 279
44 55
44 72
44 95
44 113
44 137
44 182
44 230
44 250
44 260
44 273
45 55
45 57
45 117
45 200
46 87
46 95
46 106
46 108
46 238
46 249
46 258
47 82
47 123
47 160
47 191
47 272
48 51
48 86
48 93
48 116
48 135
48 145
48 164
48 201
48 220
48 265
48 279
49 55
49 94
49 128
49 209
49 215
49 286
49 297
50 107
50 142
50 230
50 231
51 145
51 149
51 154
51 236
52 65
52 73
52 294
53 86
53 115
53 148
53 159
53 167
53 189
53 254
54 55
54 66
54 79
54 88
54 93
54 195
54 220
55 59
55 65
55 94
55 204
56 73
56 76
56 94
56 97
56 170
56 203
56 229
56 233
56 244
57 99
57 144
57 177
57 209
57 212
57 249
57 287
58 82
58 135
58 139
58 149
58 201
58 266
59 71
59 77
59 98
59 115
59 165
59 261
59 278
60 83
60 191
60 215
60 232
60 247
60 248
61 80
61 81
61 99
61 136
61 162
61 169
61 206
62 64
62 85
62 96
62 167
62 284
63 71
63 74
63 104
63 115
63 124
63 128
63 137
63 186
63 200
63 235
64 85
64 96
64 191
64 277
65 71
65 115
65 132
65 152
65 163
65 220
65 236
65 297
66 88
66 202
66 221
66 270
66 290
66 295
67 100
67 109
67 119
67 124
67 143
67 193
68 140
68 183
68 196
68 242
68 244
68 255
68 260
69 83
69 111
69 140
69 221
69 292
69 294
70 197
70 236
71 74
71 98
71 106
71 115
72 180
72 182
72 230
72 260
73 77
73 94
73 119
73 192
73 244
73 267
73 288
74 89
74 244
75 93
75 122
75 130
75 141
75 191
75 197
75 218
75 285
76 129
76 154
77 94
77 99
77 233
77 297
78 108
78 128
78 183
78 263
79 93
79 104
79 123
79 124
79 162
79 256
79 257
79 264
79 293
80 81
80 153
80 159
80 202
81 169
81 194
82 84
82 123
82 222
83 92
83 127
83 159
83 191
83 193
83 251
83 266
84 87
84 123
84 150
84 152
84 156
84 183
84 263
85 86
85 92
86 125
86 148
86 165
86 220
86 225
86 263
87 128
87 191
87 247
88 94
88 112
88 134
88 195
88 203
88 214
88 216
88 219
88 220
88 227
88 267
89 149
89 236
89 244
90 118
90 128
90 154
90 171
90 213
90 253
91 165
91 206
91 237
91 277
91 289
92 101
92 117
92 127
92 136
92 151
92 183
92 204
92 214
92 231
92 237
92 248
93 103
93 122
93 145
93 184
93 201
93 222
94 97
94 98
94 105
94 128
94 143
94 204
94 211
94 214
95 106
95 209
95 230
95 249
95 264
95 295
96 124
96 297
97 105
97 124
97 166
97 168
97 183
97 261
97 276
97 299
98 105
98 106
98 164
98 238
98 250
98 258
98 294
98 296
99 162
99 248
100 109
100 200
101 136
101 214
101 233
102 107
102 108
102 131
102 145
102 163
102 180
102 246
103 111
103 117
103 153
103 190
103 204
103 216
104 123
104 124
104 126
104 133
104 189
104 271
105 122
105 270
106 124
106 136
106 144
106 160
106 248
106 266
106 268
106 276
107 134
107 168
107 179
108 150
108 181
108 228
108 246
108 272
109 119
109 143
109 206
109 279
110 120
110 145
110 146
110 166
110 173
110 210
110 220
110 236
110 245
110 295
111 137
111 199
111 208
112 168
112 179
112 214
112 256
113 210
113 219
114 188
114 197
114 237
115 148
115 153
115 156
115 160
115 170
115 192
115 227
116 121
116 145
116 208
117 127
117 137
117 147
117 172
117 205
117 224
117 264
118 178
118 226
118 242
118 271
119 143
120 144
120 146
120 155
120 185
120 205
120 218
120 283
121 143
121 164
121 249
121 266
122 162
122 181
122 298
123 133
124 126
124 133
124 136
124 144
124 149
124 166
124 195
124 200
124 267
125 229
125 286
126 176
126 181
126 228
126 245
126 292
127 137
127 149
127 159
127 163
127 170
127 243
127 283
127 292
128 213
128 250
128 255
129 139
129 209
129 225
129 242
130 189
130 238
131 145
132 161
132 200
132 214
132 219
132 270
133 152
133 250
133 283
133 297
134 141
134 161
134 205
134 249
134 276
134 300
135 156
135 228
135 243
135 265
136 144
136 174
136 177
136 195
136 203
136 226
136 270
136 282
136 300
137 169
137 208
137 223
137 243
138 213
139 221
139 281
141 159
143 156
143 233
143 249
144 149
144 230
144 257
144 287
145 149
145 166
145 173
145 244
146 188
146 257
146 298
147 224
149 186
149 198
149 222
149 236
149 263
149 267
150 243
150 285
150 290
151 248
151 254
152 202
152 214
152 235
152 245
152 270
152 281
152 283
153 163
153 167
153 174
153 201
153 202
153 217
153 221
153 239
153 285
153 298
154 225
154 238
155 179
155 235
155 241
155 269
155 273
155 286
155 288
156 183
156 189
156 203
156 213
156 231
156 240
157 226
157 239
158 196
158 215
158 258
158 285
158 297
159 166
159 167
159 191
159 194
159 196
159 236
159 254
159 291
160 170
160 173
160 179
160 260
160 263
160 269
161 173
161 253
161 256
161 260
161 296
162 189
162 233
162 261
162 284
163 201
163 277
163 296
164 190
164 209
164 214
165 203
165 219
165 229
165 287
166 179
166 181
166 192
166 196
166 212
166 266
167 171
167 187
167 194
167 201
167 227
167 254
167 277
168 179
168 222
168 236
168 261
168 281
168 288
168 295
169 210
169 275
169 299
170 171
170 173
170 282
171 194
171 213
171 224
171 282
171 291
172 175
172 191
172 206
172 214
172 221
172 223
172 224
172 234
172 258
172 268
172 291
173 258
173 260
173 269
174 177
174 217
174 221
174 256
175 264
175 274
176 229
176 276
177 202
177 217
177 290
177 297
177 298
178 226
178 252
178 256
178 264
178 271
179 196
179 215
179 269
180 212
180 241
180 255
181 196
181 268
182 191
182 218
182 223
182 234
182 272
183 212
183 298
184 202
184 274
184 297
185 193
185 216
185 222
185 241
185 296
186 211
187 219
187 227
187 247
187 257
187 269
188 193
188 239
188 240
188 271
188 277
188 296
189 231
189 233
189 259
189 261
189 288
190 196
190 222
190 232
190 241
190 244
190 255
191 206
191 218
191 234
191 258
191 294
192 217
192 229
192 265
192 266
192 272
192 276
193 220
193 241
193 251
193 253
193 277
193 280
193 296
194 234
194 235
195 214
195 224
195 235
195 241
196 212
196 255
196 258
196 291
197 213
197 215
197 247
198 240
200 237
200 270
200 291
201 217
201 228
201 229
201 254
201 279
202 290
202 297
202 298
203 240
203 244
203 281
203 287
204 254
205 229
205 276
206 209
206 214
206 264
206 274
206 295
207 219
207 226
207 245
207 288
208 280
211 250
211 264
213 246
214 219
214 237
214 281
215 243
215 247
215 295
215 297
216 255
217 221
217 228
217 239
217 266
217 294
218 227
218 247
218 294
218 300
219 245
219 257
219 282
220 223
221 270
222 232
222 266
222 269
222 272
222 276
222 288
223 224
223 267
223 273
223 288
224 230
226 239
226 259
226 288
227 254
227 294
228 294
229 233
229 253
229 276
229 287
230 231
230 250
231 250
231 273
231 288
232 259
232 273
232 276
232 290
233 261
234 242
235 283
235 292
236 241
236 286
236 291
237 241
237 255
237 270
238 246
238 268
239 240
239 243
239 285
241 255
241 271
241 286
242 263
243 264
243 270
243 271
243 285
243 295
247 274
248 253
248 283
248 293
248 296
249 275
250 267
250 299
252 256
252 278
252 279
253 296
254 264
255 263
255 281
258 260
259 261
262 282
262 289
263 275
263 278
263 279
263 290
264 271
264 274
264 295
265 282
265 298
266 272
270 283
270 295
271 274
271 286
271 296
272 279
273 276
273 284
273 288
275 278
275 297
276 299
276 300
277 296
278 281
278 290
281 290
282 298
284 295
289 300
294 296
*Classes
1
1
1
1
1
1
1
1
1
1
1
1
1
1
1
1
1
1
1
1
1
1
1
1
1
1
1
1
1
1
1
1
1
1
1
1
1
1
1
1
1
1
1
1
1
1
1
1
1
1
1
1
1
1
1
1
1
1
1
1
1
1
1
1
1
1
1
1
1
1
1
1
1
1
1
1
1
1
1
1
1
1
1
1
1
1
1
1
1
1
1
1
1
1
1
1
1
1
1
1
1
1
1
1
1
1
1
1
1
1
1
1
1
1
1
1
1
1
1
1
1
1
1
1
1
1
1
1
1
1
1
1
1
1
1
1
1
1
1
1
1
1
1
1
1
1
1
1
1
1
2
2
2
2
2
2
2
2
2
2
2
2
2
2
2
2
2
2
2
2
2
2
2
2
2
2
2
2
2
2
2
2
2
2
2
2
2
2
2
2
2
2
2
2
2
2
2
2
2
2
2
2
2
2
2
2
2
2
2
2
2
2
2
2
2
2
2
2
2
2
2
2
2
2
2
2
2
2
2
2
2
2
2
2
2
2
2
2
2
2
2
2
2
2
2
2
2
2
2
2
2
2
2
2
2
2
2
2
2
2
2
2
2
2
2
2
2
2
2
2
2
2
2
2
2
2
2
2
2
2
2
2
2
2
2
2
2
2
2
2
2
2
2
2
2
2
2
2
2
2
