*Vertices 300
*Edges
1 5
1 51
1 63
1 81
1 150
1 153
1 252
1 278
2 34
2 47
2 61
2 122
2 126
2 144
2 175
2 218
2 233
2 260
2 291
3 21
3 33
3 65
3 86
3 158
3 241
3 263
3 280
4 6
4 214
4 217
4 254
5 47
5 66
5 127
5 143
5 144
5 156
5 252
6 30
6 78
6 80
6 164
6 217
6 257
7 10
7 32
7 33
7 76
7 102
7 297
8 66
8 115
8 149
8 257
9 12
9 264
10 33
10 38
10 69
10 81
10 120
10 145
10 150
11 36
11 40
11 60
11 105
11 144
11 166
11 278
12 13
12 99
12 211
12 266
12 274
13 16
13 25
13 48
13 49
13 61
13 93
13 99
13 136
13 147
13 150
13 278
13 299
14 68
14 112
14 172
14 186
15 16
15 64
15 108
15 291
16 48
16 53
16 64
16 69
16 87
16 99
16 101
16 108
16 112
16 128
16 154
16 178
16 203
16 236
17 30
17 55
17 67
17 89
17 92
17 95
17 133
17 138
17 141
17 151
17 244
17 257
18 27
18 40
18 60
18 61
18 102
18 104
18 117
18 166
18 184
18 219
18 223
18 274
19 21
19 22
19 25
19 26
19 27
19 34
19 77
19 135
19 173
19 240
20 110
20 142
20 201
21 25
21 30
21 33
21 78
21 86
21 155
21 165
22 25
22 93
22 133
23 42
23 47
23 116
23 159
23 206
23 237
24 30
24 38
24 101
24 150
24 182
24 228
24 277
24 296
25 46
25 90
25 137
25 237
25 278
25 279
25 290
25 298
26 47
26 61
26 111
26 135
27 47
27 127
27 135
27 166
27 256
27 284
27 285
28 48
28 56
28 59
28 78
28 84
28 99
28 127
28 214
28 226
28 246
28 289
28 298
29 83
29 118
29 293
30 38
30 77
30 78
30 135
30 176
30 244
30 272
30 296
31 70
31 89
31 137
31 182
32 33
32 50
32 76
32 102
32 202
32 297
32 300
33 55
33 56
33 69
33 71
33 107
33 114
33 133
33 140
33 150
33 219
34 77
34 103
34 135
34 140
34 161
34 231
34 260
35 51
35 63
35 85
35 115
35 118
35 153
35 157
35 244
36 65
36 86
36 93
36 125
36 144
36 153
36 167
36 194
36 267
37 66
37 79
37 100
37 229
37 275
37 279
38 69
38 77
38 135
38 212
38 229
38 277
38 294
39 42
39 119
39 155
40 45
40 64
40 105
40 106
40 139
40 141
40 150
40 188
40 223
40 231
41 60
41 83
41 117
41 144
41 234
41 258
41 275
41 288
41 294
42 116
42 155
43 51
43 57
43 74
43 115
43 120
43 121
43 133
43 255
44 59
44 98
44 99
44 120
44 142
44 189
44 276
45 46
45 64
45 119
45 121
45 269
46 133
46 189
46 192
46 196
46 232
46 298
47 54
47 61
47 66
47 125
47 131
47 137
47 159
47 185
47 280
47 284
48 50
48 64
48 67
48 70
48 93
48 125
48 128
48 168
48 210
48 264
49 93
49 106
49 203
50 83
50 102
50 119
50 168
50 210
50 300
51 96
51 115
51 152
51 202
51 298
52 181
53 54
53 108
53 120
53 135
53 159
53 228
53 229
53 241
54 59
54 64
54 120
54 125
54 127
54 136
54 149
54 153
54 170
54 189
54 240
54 258
55 89
55 92
55 133
55 223
55 263
55 266
56 59
56 66
56 67
56 78
56 83
56 84
56 87
56 91
56 123
56 219
57 69
57 87
57 115
57 120
57 169
57 179
57 229
58 90
58 209
58 211
59 69
59 74
59 120
59 124
59 138
59 146
59 171
59 192
59 289
60 117
60 144
60 163
60 196
60 236
61 99
61 111
61 127
61 131
61 157
61 180
61 230
62 84
62 158
62 195
62 288
63 70
63 104
63 115
63 253
64 98
64 99
64 106
64 108
64 112
64 119
64 221
64 234
64 258
64 275
65 85
65 86
65 198
65 281
66 79
66 101
66 144
66 175
66 219
66 254
67 70
67 91
67 108
67 113
67 143
67 151
67 176
67 187
67 203
67 217
67 219
67 221
67 258
67 287
68 92
68 106
68 112
68 125
68 144
68 224
68 247
68 295
69 120
69 141
69 145
69 148
69 150
69 152
69 178
69 206
70 88
70 93
70 114
70 200
70 287
71 77
71 105
71 117
71 122
71 126
71 140
71 196
71 237
71 240
71 290
72 129
72 268
72 271
73 158
73 220
74 120
74 124
74 288
75 120
75 181
75 188
76 102
76 146
76 193
76 202
77 103
77 105
77 117
77 121
77 135
77 150
77 160
77 250
77 251
78 80
78 83
78 133
78 152
78 176
78 248
79 100
79 127
79 180
79 221
79 267
80 133
80 220
81 115
81 127
81 150
81 171
81 232
82 99
82 100
82 117
82 127
82 162
82 174
82 272
83 91
83 168
83 186
83 252
83 274
83 293
84 137
84 158
84 163
84 168
84 228
84 246
84 266
84 272
84 277
84 287
84 300
85 115
85 123
85 158
85 193
85 299
86 146
86 234
86 243
86 259
86 267
87 99
87 121
87 280
88 90
88 114
88 144
88 224
88 269
89 95
89 125
89 137
89 141
89 144
89 151
89 154
89 157
89 170
89 185
89 186
89 252
89 300
91 92
91 109
91 123
91 195
91 203
92 106
92 123
92 124
92 125
92 249
93 123
93 147
93 153
93 182
93 209
93 290
94 107
94 118
94 145
94 281
94 283
94 300
95 99
95 122
95 123
96 115
96 146
96 267
96 299
97 177
97 216
97 293
97 295
98 112
98 171
98 266
99 121
99 122
99 126
99 127
99 150
99 180
99 189
99 258
99 299
100 121
100 213
101 113
101 138
101 178
101 209
101 225
101 269
102 150
102 166
102 205
102 261
102 262
103 120
103 135
103 138
103 166
103 225
103 228
103 264
104 132
104 154
104 160
104 204
104 223
104 230
105 122
105 126
105 127
105 140
105 150
105 178
105 194
105 276
105 290
105 297
106 108
106 180
106 184
106 207
106 264
106 265
107 118
107 145
107 219
108 113
108 120
108 181
108 198
108 261
108 265
109 203
110 124
110 142
110 200
110 201
110 271
111 112
111 157
111 274
111 297
112 157
112 298
112 300
113 121
113 138
113 146
113 183
113 213
113 215
113 235
114 200
114 210
114 219
114 280
115 120
115 145
115 150
115 264
115 269
116 123
116 209
116 237
117 127
117 136
117 167
117 265
117 295
118 145
118 153
118 294
119 194
119 212
119 239
119 243
120 135
120 138
120 145
120 153
120 183
120 188
120 264
120 283
121 188
121 213
121 218
121 296
122 123
122 126
122 127
122 150
122 178
122 221
122 232
122 289
122 296
122 297
123 168
123 209
123 281
124 125
124 138
124 178
124 195
124 200
124 215
124 225
124 227
125 137
125 194
125 199
125 211
125 230
125 264
126 244
126 265
126 291
127 143
127 150
127 248
127 252
127 258
127 263
127 269
128 217
128 267
129 163
129 194
130 172
130 244
132 139
132 160
132 199
132 201
132 243
133 167
133 196
133 271
133 286
134 290
136 146
136 170
136 278
136 295
137 190
137 237
137 274
137 287
138 146
138 151
138 177
138 283
139 141
139 144
139 219
139 250
139 277
139 280
140 231
141 144
141 229
141 239
142 154
142 228
143 144
143 151
143 194
143 202
143 267
144 165
144 247
144 260
145 255
145 264
145 268
145 281
146 202
146 241
146 255
146 267
146 295
148 178
148 222
148 227
148 297
149 240
149 245
149 298
150 158
150 192
150 228
150 253
150 258
150 261
150 299
151 162
151 176
151 177
151 195
151 222
151 247
151 257
151 283
151 285
152 264
152 272
154 178
154 231
154 251
154 261
155 282
156 163
156 193
156 196
156 293
156 298
157 180
157 185
157 219
157 222
157 254
158 201
158 253
158 265
158 280
158 288
158 296
159 162
159 164
159 194
159 206
159 228
159 246
159 261
159 267
159 269
159 281
159 284
159 286
160 226
160 250
160 260
160 294
161 165
161 182
161 185
161 231
161 243
162 222
162 247
162 269
163 193
163 196
163 226
163 293
163 298
164 209
164 213
164 226
164 253
164 257
164 261
164 275
164 284
164 293
165 231
165 243
165 261
166 219
166 223
166 246
166 273
166 274
166 281
166 287
166 295
167 210
168 193
168 203
168 231
168 245
168 261
168 263
168 270
168 272
168 274
169 179
169 182
169 185
169 190
169 212
169 229
169 250
169 252
169 264
169 288
169 292
170 181
170 205
170 206
170 253
171 197
171 203
171 226
171 232
171 277
171 289
171 298
172 208
173 234
174 198
174 218
175 233
175 260
176 189
176 195
176 204
176 221
176 238
176 257
176 272
176 285
176 296
177 194
177 210
177 212
177 235
177 295
178 187
178 199
178 227
178 296
179 184
179 188
179 195
179 214
179 220
179 239
179 247
179 264
179 290
179 292
180 184
180 190
180 202
180 221
180 264
180 267
180 293
181 253
181 297
182 185
182 221
182 228
182 238
183 215
183 276
183 291
184 225
184 228
184 264
185 284
186 190
186 192
186 252
187 192
187 217
187 252
187 277
187 291
188 218
188 220
188 227
188 231
188 274
189 204
189 232
189 238
189 269
189 276
189 297
190 202
190 225
190 250
190 252
190 292
190 300
192 231
192 252
192 261
192 300
193 199
193 202
193 245
193 299
194 213
194 219
194 257
194 261
194 267
194 269
194 276
194 292
194 295
195 246
195 248
195 288
196 216
196 290
197 232
197 240
197 249
197 291
198 218
198 224
198 256
198 288
198 299
199 200
199 211
199 243
199 264
199 299
200 204
201 209
201 238
201 243
201 249
201 253
201 261
201 279
201 293
202 293
203 236
203 263
203 275
203 289
203 290
204 238
204 244
204 273
204 276
205 206
205 211
205 230
205 274
206 261
206 269
207 211
207 236
207 266
207 277
207 280
208 273
209 225
209 227
209 231
209 241
209 250
209 261
209 284
210 212
210 240
210 280
210 298
211 274
211 280
212 235
213 235
213 253
213 261
213 264
213 292
213 293
214 226
214 239
214 245
214 277
214 291
214 293
217 289
218 256
218 283
219 254
219 258
219 267
219 292
220 290
221 238
221 269
221 289
222 247
222 248
222 282
224 269
224 287
224 288
225 228
225 241
225 250
225 264
226 236
226 240
226 254
226 258
226 260
226 277
226 291
226 293
226 298
227 233
227 240
228 233
228 240
228 241
228 253
228 258
228 259
228 264
228 298
229 239
229 256
229 283
229 296
231 252
231 261
231 272
231 300
232 240
232 291
232 298
233 240
234 268
234 288
234 298
235 242
235 282
236 247
236 266
236 290
236 293
237 278
237 286
238 244
238 269
238 273
238 279
238 295
238 297
239 249
239 250
240 298
241 250
241 266
242 263
242 269
242 282
243 258
243 271
243 300
244 257
244 265
244 269
245 272
245 277
246 248
246 256
246 272
246 273
246 281
246 286
247 290
247 295
248 256
248 263
248 281
249 282
249 293
250 266
250 277
250 290
252 261
252 300
253 292
253 296
253 297
254 260
254 262
255 276
256 281
256 283
256 284
258 269
258 294
258 298
260 294
261 262
261 286
262 266
262 277
264 272
264 274
264 290
264 292
265 279
266 277
266 291
266 293
266 295
267 292
268 271
268 298
269 297
272 287
273 279
273 281
273 287
273 295
275 293
276 291
277 289
277 291
277 295
277 298
278 295
279 290
279 298
280 296
284 285
284 294
287 300
288 299
290 293
295 299
*Classes
1
1
1
1
1
1
1
1
1
1
1
1
1
1
1
1
1
1
1
1
1
1
1
1
1
1
1
1
1
1
1
1
1
1
1
1
1
1
1
1
1
1
1
1
1
1
1
1
1
1
1
1
1
1
1
1
1
1
1
1
1
1
1
1
1
1
1
1
1
1
1
1
1
1
1
1
1
1
1
1
1
1
1
1
1
1
1
1
1
1
1
1
1
1
1
1
1
1
1
1
1
1
1
1
1
1
1
1
1
1
1
1
1
1
1
1
1
1
1
1
1
1
1
1
1
1
1
1
1
1
1
1
1
1
1
1
1
1
1
1
1
1
1
1
1
1
1
1
1
1
2
2
2
2
2
2
2
2
2
2
2
2
2
2
2
2
2
2
2
2
2
2
2
2
2
2
2
2
2
2
2
2
2
2
2
2
2
2
2
2
2
2
2
2
2
2
2
2
2
2
2
2
2
2
2
2
2
2
2
2
2
2
2
2
2
2
2
2
2
2
2
2
2
2
2
2
2
2
2
2
2
2
2
2
2
2
2
2
2
2
2
2
2
2
2
2
2
2
2
2
2
2
2
2
2
2
2
2
2
2
2
2
2
2
2
2
2
2
2
2
2
2
2
2
2
2
2
2
2
2
2
2
2
2
2
2
2
2
2
2
2
2
2
2
2
2
2
2
2
2
