*Vertices 300
*Edges
1 36
1 59
1 69
1 85
1 116
1 133
1 221
1 276
2 38
2 41
2 56
2 67
2 79
2 92
2 133
2 148
2 175
2 255
2 268
2 283
3 23
3 76
3 126
3 206
3 236
3 272
4 86
4 97
4 100
4 135
4 180
5 32
5 58
5 100
5 110
5 122
5 128
5 132
5 133
5 135
5 149
5 173
5 186
5 270
5 290
6 19
6 55
6 86
6 117
7 72
7 80
7 124
7 133
7 137
7 170
7 178
7 192
7 258
7 271
8 54
8 63
8 129
8 136
8 145
8 255
8 273
9 41
9 70
9 83
9 134
9 144
9 194
9 251
10 25
10 29
10 33
10 40
10 98
10 126
10 127
10 143
10 174
10 175
10 176
10 184
10 190
10 208
10 222
10 247
10 295
11 30
11 37
11 51
11 68
11 70
11 77
11 81
11 145
11 240
11 298
12 48
12 98
12 101
12 150
12 161
12 235
13 50
13 107
13 126
13 183
13 210
13 245
13 284
14 61
14 187
14 263
15 46
15 116
15 121
15 139
15 142
15 162
15 174
15 281
16 32
16 94
16 99
16 110
16 111
16 115
16 137
16 190
16 194
16 274
16 289
17 57
17 96
17 109
17 136
17 178
17 212
17 219
17 231
17 238
17 288
17 294
18 19
18 30
18 36
18 56
18 69
18 119
18 140
18 243
19 37
19 55
19 64
19 68
19 120
19 243
19 254
20 21
20 33
20 65
20 96
20 128
20 135
20 193
20 201
20 238
20 242
20 297
21 113
21 174
21 202
21 213
22 30
22 40
22 53
22 59
22 78
22 79
22 89
22 108
22 131
23 26
23 59
23 63
23 76
23 94
23 122
23 129
23 130
23 145
23 174
23 202
23 228
24 38
24 39
24 65
24 83
24 259
25 47
25 61
25 67
25 133
25 176
25 177
25 220
25 284
26 98
26 120
26 122
26 129
26 135
26 163
26 281
26 294
27 41
27 48
27 52
27 63
27 73
27 94
27 105
27 147
27 252
27 256
27 274
28 123
28 141
28 270
28 287
29 53
29 70
29 74
29 77
29 127
29 144
29 184
29 263
30 33
30 66
30 69
30 82
30 91
30 119
30 131
30 132
30 149
30 179
30 196
30 198
30 201
30 240
30 252
30 284
31 36
31 98
31 101
31 109
31 111
31 178
31 193
31 204
32 110
32 164
32 220
32 276
33 40
33 66
33 80
33 92
33 101
33 297
33 300
34 42
34 51
34 57
34 59
34 76
34 96
34 122
34 128
34 189
34 242
34 278
34 287
35 62
35 141
35 151
35 182
35 189
35 195
36 69
36 72
36 105
36 140
36 200
36 299
37 64
37 96
37 111
37 115
37 145
37 181
37 219
38 55
38 83
38 92
39 45
39 46
39 65
39 69
39 96
39 119
39 121
39 150
39 157
39 180
39 213
39 237
39 277
40 59
40 130
40 143
40 260
41 52
41 79
41 117
41 128
41 135
41 178
41 194
41 207
41 249
41 271
42 51
42 54
42 60
42 76
42 100
42 220
42 274
43 54
43 60
43 68
43 96
43 100
43 112
43 114
43 120
43 136
43 200
43 217
43 250
44 57
44 228
45 58
45 65
45 96
45 119
45 163
45 166
45 224
46 47
46 61
46 62
46 116
46 121
46 139
46 195
46 203
46 293
47 53
47 61
47 67
47 69
47 73
47 114
47 121
47 144
47 239
48 50
48 71
48 73
48 95
48 123
48 147
48 152
48 154
48 161
49 59
49 63
49 70
49 109
49 115
49 134
49 144
49 145
49 189
49 205
49 272
50 56
50 120
50 144
50 284
50 292
50 300
51 57
51 198
51 240
52 68
52 69
52 82
52 116
52 119
52 132
52 150
52 186
52 196
52 213
52 232
52 259
53 60
53 70
53 99
53 108
53 202
54 55
54 83
54 100
54 101
54 136
54 139
54 223
54 269
55 58
55 68
55 83
55 124
55 148
55 158
55 291
56 89
56 120
56 140
56 144
56 151
56 154
56 255
56 293
57 127
57 148
57 165
57 294
58 71
58 93
58 100
58 147
58 184
58 199
58 245
58 273
58 297
59 85
59 86
59 128
59 130
59 133
59 134
59 205
59 283
59 286
59 287
60 96
60 116
60 134
60 220
60 247
60 292
61 134
62 123
62 195
62 217
62 288
63 94
63 115
63 129
63 220
63 274
64 115
64 194
65 69
65 148
65 201
65 234
65 259
66 74
66 91
66 112
66 125
66 176
66 186
66 277
67 79
67 131
67 133
67 175
67 197
67 246
67 259
67 290
68 96
68 120
68 124
68 196
68 291
68 298
69 104
69 132
69 135
69 211
69 235
69 239
70 74
70 77
70 87
70 114
70 134
70 143
70 144
70 203
70 216
70 230
71 107
71 130
71 132
71 217
71 226
72 104
72 105
72 107
72 122
72 124
72 137
72 183
72 198
72 218
72 232
72 244
73 92
73 114
73 131
73 135
73 144
73 147
73 159
73 185
73 196
73 215
74 228
74 230
75 83
75 279
75 299
76 78
76 84
76 119
76 131
76 169
76 177
76 258
76 264
77 143
77 235
77 278
78 79
78 89
78 108
78 111
78 119
78 124
78 131
78 143
78 150
78 200
78 210
78 258
78 275
78 282
79 111
79 128
79 143
79 224
79 230
79 298
80 116
80 147
80 225
80 236
80 240
80 251
80 271
81 84
81 102
81 120
81 298
82 129
82 150
82 186
82 215
82 229
82 252
83 92
83 97
83 127
83 154
83 207
83 208
83 277
83 279
83 294
84 102
84 111
84 115
84 131
84 138
84 140
84 167
84 176
84 183
84 187
84 218
84 225
84 284
85 126
85 130
85 133
85 176
85 213
86 103
86 105
86 117
86 120
86 128
86 135
86 163
86 186
87 91
87 108
87 134
87 195
87 289
88 103
88 111
88 112
88 183
88 298
89 142
89 144
89 209
90 91
90 108
90 139
90 149
90 162
90 173
90 256
90 285
90 292
91 109
91 132
91 167
91 193
91 204
91 213
91 239
92 297
93 199
93 249
94 110
94 129
94 131
94 147
94 168
94 169
94 182
94 273
95 133
95 147
95 229
95 279
96 98
96 116
96 122
96 127
96 130
96 135
96 219
96 247
96 277
97 154
97 187
98 122
98 163
98 246
99 108
99 110
99 122
99 133
99 137
99 146
99 188
99 272
100 101
100 135
100 136
100 257
100 274
101 113
101 137
101 161
101 178
101 190
101 300
102 120
102 144
102 158
102 161
102 202
102 232
102 254
103 120
103 126
103 135
103 200
104 132
105 128
105 166
105 173
106 248
106 267
107 137
107 226
107 232
108 110
108 148
108 195
108 202
109 197
109 204
109 244
109 257
110 133
110 135
110 137
110 147
110 148
110 282
111 115
111 124
111 125
111 183
111 193
111 205
111 221
111 264
112 247
112 291
112 298
113 161
113 222
114 190
114 217
114 239
115 125
115 150
115 212
116 131
116 134
116 139
116 147
116 148
116 196
117 154
117 177
118 232
118 259
118 275
119 149
119 150
119 200
119 217
120 128
120 163
120 240
120 291
121 145
121 180
121 289
122 188
122 244
122 270
122 277
123 159
123 280
124 125
124 156
124 170
124 281
126 127
127 160
127 168
127 176
127 202
127 230
127 277
128 134
128 135
128 179
128 186
128 207
128 238
129 140
129 145
129 163
129 232
130 134
130 137
130 217
130 219
130 265
130 291
131 147
131 285
132 135
132 222
132 238
133 135
133 146
133 229
133 264
133 294
134 195
134 233
135 145
135 163
135 169
135 196
135 265
135 289
136 139
136 172
136 226
137 184
137 241
137 265
137 266
138 166
138 187
139 189
140 183
140 185
140 187
140 228
141 199
141 270
142 144
142 215
143 192
143 196
143 298
143 299
144 172
145 148
145 151
145 250
145 285
145 289
146 249
146 286
147 181
148 151
148 158
148 175
148 196
148 206
148 257
148 294
149 173
149 264
150 161
150 290
150 291
151 179
151 183
151 190
151 192
151 250
151 255
152 161
152 162
152 207
152 245
152 254
152 255
153 220
153 227
154 209
154 241
154 277
154 294
155 171
155 173
155 178
155 192
155 210
155 269
156 167
156 214
156 224
157 184
157 232
157 237
157 270
157 295
158 198
158 212
158 218
158 224
158 231
158 232
158 234
158 254
159 196
159 245
160 165
160 186
160 221
160 256
160 262
161 172
161 178
161 262
161 279
161 290
161 291
162 174
162 254
162 256
163 179
163 224
163 243
163 263
163 271
164 197
164 220
164 227
164 271
165 184
165 201
165 221
165 252
165 256
165 270
166 168
166 169
166 172
166 173
166 197
166 200
166 216
166 222
167 198
167 224
168 177
168 191
168 216
168 228
168 242
168 273
168 274
168 275
168 281
169 172
169 279
170 211
170 227
171 182
171 197
171 228
171 252
171 259
172 176
172 214
172 279
173 180
173 186
173 192
173 290
173 292
174 175
174 184
174 199
174 210
175 197
175 222
175 290
176 186
176 223
176 226
176 228
176 229
176 273
176 279
176 284
176 295
177 191
177 238
177 275
178 187
178 192
178 204
178 217
178 218
178 224
178 228
178 256
178 288
179 268
180 213
180 295
181 205
181 225
181 229
181 243
181 274
181 290
182 199
182 206
182 228
183 198
183 232
184 202
184 227
184 270
184 273
184 287
185 283
185 298
186 192
186 213
186 232
186 243
186 252
186 259
186 260
186 262
186 271
187 218
187 231
187 256
187 278
188 190
188 191
189 195
189 267
190 192
190 215
190 222
190 227
190 263
190 299
191 216
191 288
192 243
192 260
192 263
192 299
193 201
193 205
193 239
193 253
194 265
194 272
194 288
194 300
195 293
196 201
196 223
196 230
196 236
196 244
196 255
196 261
196 284
196 287
196 294
196 299
197 214
197 246
197 290
198 224
198 264
198 281
198 289
199 202
199 203
199 206
199 210
199 250
199 253
199 273
200 209
200 216
200 272
200 275
200 276
200 283
200 285
200 294
200 298
200 299
200 300
201 215
201 223
201 226
201 233
201 241
201 252
201 268
201 275
201 286
202 206
202 236
202 269
202 270
202 284
202 287
202 294
203 216
203 230
203 253
203 293
204 228
204 244
204 251
205 221
205 230
205 247
205 264
205 274
205 290
206 228
206 253
207 235
207 245
207 254
207 277
208 247
208 278
209 216
209 241
209 248
209 292
209 296
210 248
210 250
210 269
210 275
210 284
211 222
211 227
211 241
211 263
211 267
211 296
212 219
212 234
213 225
213 228
213 230
215 241
215 286
216 294
217 226
217 239
218 231
218 261
218 280
219 237
219 258
219 282
220 276
221 273
222 267
222 291
223 226
223 244
224 239
224 275
224 299
224 300
225 230
225 290
226 284
227 243
227 263
228 230
228 273
229 252
229 264
229 290
231 288
232 275
233 244
233 255
233 286
233 295
233 297
235 278
236 284
236 287
237 282
238 282
238 297
238 300
239 297
239 300
241 259
241 264
241 268
241 292
241 296
242 264
242 274
242 281
242 294
243 260
243 263
243 280
243 290
244 255
244 257
244 261
244 297
245 284
245 297
247 277
248 250
248 300
249 298
250 285
250 289
251 271
251 293
251 294
252 276
252 287
254 255
254 266
254 279
254 280
255 268
255 279
255 283
256 262
256 288
256 292
258 282
261 285
263 268
264 281
264 292
264 294
265 300
268 281
270 276
270 287
270 292
272 298
273 284
274 294
275 286
275 299
279 284
279 291
279 299
281 297
281 300
283 285
283 298
285 289
285 298
286 295
292 300
293 294
296 299
297 300
298 300
*Classes
1
1
1
1
1
1
1
1
1
1
1
1
1
1
1
1
1
1
1
1
1
1
1
1
1
1
1
1
1
1
1
1
1
1
1
1
1
1
1
1
1
1
1
1
1
1
1
1
1
1
1
1
1
1
1
1
1
1
1
1
1
1
1
1
1
1
1
1
1
1
1
1
1
1
1
1
1
1
1
1
1
1
1
1
1
1
1
1
1
1
1
1
1
1
1
1
1
1
1
1
1
1
1
1
1
1
1
1
1
1
1
1
1
1
1
1
1
1
1
1
1
1
1
1
1
1
1
1
1
1
1
1
1
1
1
1
1
1
1
1
1
1
1
1
1
1
1
1
1
1
2
2
2
2
2
2
2
2
2
2
2
2
2
2
2
2
2
2
2
2
2
2
2
2
2
2
2
2
2
2
2
2
2
2
2
2
2
2
2
2
2
2
2
2
2
2
2
2
2
2
2
2
2
2
2
2
2
2
2
2
2
2
2
2
2
2
2
2
2
2
2
2
2
2
2
2
2
2
2
2
2
2
2
2
2
2
2
2
2
2
2
2
2
2
2
2
2
2
2
2
2
2
2
2
2
2
2
2
2
2
2
2
2
2
2
2
2
2
2
2
2
2
2
2
2
2
2
2
2
2
2
2
2
2
2
2
2
2
2
2
2
2
2
2
2
2
2
2
2
2
