*Vertices 300
*Edges
1 3
1 71
1 90
1 97
1 163
1 273
2 7
2 35
2 113
2 146
2 151
2 157
2 167
2 196
2 219
2 281
3 25
3 40
3 47
3 61
3 244
3 279
4 5
4 14
4 46
4 189
4 213
4 218
4 242
5 7
5 43
5 46
5 52
5 81
5 100
5 147
5 200
5 216
5 265
6 48
6 51
6 63
6 67
6 111
6 134
6 135
6 138
6 180
6 288
7 33
7 60
7 68
7 81
7 100
7 113
7 145
7 182
7 236
7 278
8 37
8 115
8 141
8 214
8 226
8 286
8 295
9 49
9 55
9 160
10 86
10 92
10 95
10 97
10 176
11 14
11 50
11 219
11 247
12 18
12 26
12 148
12 206
12 212
12 226
13 40
13 47
13 61
13 68
13 69
13 77
13 85
13 94
13 113
13 123
13 131
13 269
13 295
13 300
14 50
14 66
14 123
14 163
14 213
14 239
14 241
14 261
14 281
15 180
15 230
16 25
16 93
16 125
16 149
16 204
16 222
16 268
17 53
17 57
17 100
17 105
17 140
17 167
17 257
18 26
18 106
18 129
18 197
18 267
19 22
19 84
19 93
19 156
19 197
19 281
19 300
20 40
20 54
20 68
20 76
20 187
20 197
20 227
20 245
21 101
21 148
21 224
21 251
21 278
22 37
22 99
22 103
22 107
22 152
22 171
22 183
22 200
22 217
22 288
23 30
23 49
23 111
23 143
23 288
24 38
24 186
24 217
24 268
25 61
25 106
25 137
25 149
25 199
25 202
25 290
26 83
26 250
26 263
26 273
27 35
27 74
27 87
27 110
27 121
27 279
28 77
28 104
28 165
28 179
28 216
28 239
29 154
29 164
30 45
30 46
30 78
30 121
30 128
30 221
30 259
31 35
31 42
31 76
31 289
32 63
32 92
32 164
32 235
32 298
33 47
33 53
33 60
33 90
33 107
33 108
33 112
33 117
33 274
34 73
34 89
34 104
34 145
34 210
35 43
35 48
35 55
35 58
35 69
35 95
35 97
35 121
35 146
35 203
35 242
36 37
36 66
36 107
36 188
36 191
36 242
36 284
36 291
36 295
37 107
37 109
37 141
37 149
37 218
37 234
37 291
38 138
38 187
38 198
38 217
38 220
39 58
39 62
39 73
39 84
39 111
39 123
39 150
39 170
39 173
40 69
40 151
40 172
40 186
40 192
40 196
40 244
40 294
41 55
41 151
41 212
42 47
42 107
42 113
42 214
42 221
42 234
42 263
42 283
43 54
43 95
43 110
43 112
43 114
43 124
43 175
43 196
43 218
43 226
43 251
43 282
44 65
44 92
44 119
44 206
44 211
44 228
44 287
44 289
45 100
45 110
45 121
45 132
45 136
45 183
45 209
45 219
45 258
46 81
46 147
47 61
47 107
47 113
47 117
47 119
47 211
48 59
48 115
48 151
48 160
48 170
48 210
48 216
48 278
49 53
49 143
49 260
49 283
50 90
50 106
50 132
50 164
50 172
50 200
50 228
50 247
51 54
51 94
51 183
51 227
51 234
51 237
51 238
52 63
52 216
52 220
52 224
52 225
52 233
52 239
53 100
53 112
53 283
53 297
54 95
54 238
55 205
55 211
55 232
55 241
55 296
56 224
56 236
56 270
57 85
57 138
57 150
57 197
57 224
57 242
57 264
57 265
58 62
58 84
58 95
58 138
58 150
58 181
59 84
59 103
59 161
59 222
59 226
59 243
59 256
59 295
60 84
60 103
60 108
60 112
61 68
61 98
61 119
61 137
61 190
61 255
61 257
62 92
62 95
62 133
62 164
62 193
62 241
63 92
63 138
63 163
63 188
63 243
63 271
64 75
64 118
64 252
64 282
65 223
65 277
66 94
66 110
66 123
66 136
66 177
66 257
67 91
67 111
67 134
67 192
67 240
67 241
67 243
67 293
68 73
68 85
68 113
68 115
68 151
68 234
69 78
69 99
69 103
69 121
69 144
69 262
69 297
70 103
70 214
70 239
70 297
71 170
72 77
72 174
72 243
72 291
72 295
73 115
73 232
73 294
74 116
74 130
74 132
74 168
74 170
74 269
75 80
75 173
75 201
76 172
76 188
76 191
76 194
76 196
76 245
76 291
77 94
77 104
77 220
77 228
78 155
78 192
78 266
79 175
80 155
80 192
81 100
81 148
81 170
81 238
81 264
81 266
81 286
81 287
81 291
82 83
82 102
82 161
82 179
82 237
82 265
83 273
83 284
83 298
84 85
84 93
84 103
84 131
84 141
84 241
84 256
84 263
85 131
85 242
86 97
86 121
86 135
86 163
86 241
86 251
86 254
87 110
87 119
87 132
87 217
88 118
88 134
88 135
88 152
88 225
88 265
89 230
89 253
90 112
90 163
90 172
90 188
90 246
90 256
90 259
90 264
91 111
91 114
91 160
91 178
92 201
93 94
93 125
93 188
93 203
94 123
94 131
94 135
94 167
94 246
94 251
94 255
94 275
94 298
95 97
95 114
95 173
95 197
95 202
95 226
96 136
96 256
96 296
97 98
97 279
97 297
98 119
98 143
98 207
98 276
98 288
99 106
99 107
99 116
99 144
99 147
99 163
99 251
99 272
99 295
100 105
100 123
100 140
100 156
100 229
100 231
100 239
100 258
101 104
101 187
101 223
101 240
101 277
102 161
102 239
102 250
103 107
103 141
103 161
103 214
103 297
104 147
104 212
105 106
105 125
105 135
105 139
105 204
105 241
105 252
105 278
106 129
106 132
106 139
106 147
106 159
106 170
106 193
106 212
106 219
106 227
106 288
107 108
107 263
107 280
107 300
108 109
108 110
108 112
108 124
108 146
108 164
108 213
108 224
108 232
109 137
109 165
109 210
109 224
110 114
110 121
110 124
110 136
110 143
110 146
110 176
110 213
110 217
110 228
110 258
110 272
111 114
111 143
111 166
111 180
112 133
112 174
112 177
112 195
112 215
112 236
112 283
113 220
113 256
113 296
114 127
114 175
115 165
116 132
116 151
116 176
116 202
116 212
116 267
117 161
117 189
117 231
118 171
118 187
118 189
118 209
118 210
119 143
119 188
119 244
119 288
120 147
120 256
121 159
121 163
121 166
121 168
121 199
121 203
121 274
122 210
122 222
123 135
123 170
123 228
123 245
123 281
124 146
124 216
124 234
125 269
126 152
126 168
126 173
126 224
126 233
126 267
126 279
127 184
127 228
127 292
128 145
128 194
129 201
129 221
129 260
129 282
129 283
130 172
130 182
130 222
130 281
130 295
131 135
131 221
131 250
131 285
132 139
132 161
132 196
132 204
132 227
132 270
132 288
133 198
133 215
133 296
134 135
134 212
135 138
135 218
135 288
136 204
137 144
137 238
137 246
138 150
138 166
139 147
139 170
139 251
139 256
139 258
140 178
140 189
141 149
141 180
141 229
141 231
141 237
141 242
141 280
142 155
142 159
142 282
143 189
143 255
143 258
143 293
144 227
144 255
145 169
145 264
145 293
146 150
146 227
146 228
146 273
146 291
146 296
147 157
147 166
147 213
147 222
147 265
148 178
148 194
148 204
148 211
148 275
148 285
149 189
149 297
150 202
150 234
150 249
150 291
151 206
151 212
151 263
152 161
152 195
152 219
152 243
152 250
152 264
152 272
152 289
153 160
153 231
153 235
153 243
153 248
153 249
153 257
153 292
154 193
154 201
154 222
154 260
154 291
154 297
155 161
155 163
155 261
155 282
155 284
155 295
156 204
156 220
156 231
156 258
156 297
157 159
157 173
157 193
157 194
157 196
157 208
157 253
157 288
157 300
158 182
159 165
159 177
159 201
159 219
159 234
160 178
160 210
160 224
160 233
160 246
160 248
160 257
160 258
160 264
160 272
160 285
160 293
160 297
161 190
161 250
161 261
161 267
161 295
162 165
162 215
162 231
162 241
163 180
163 246
163 261
163 288
163 291
164 205
164 267
164 290
165 179
165 201
165 206
166 191
166 286
166 288
166 291
167 254
167 262
168 200
168 204
168 211
168 219
168 276
168 294
169 177
169 179
170 216
170 223
171 188
171 191
171 210
171 270
171 298
172 182
173 219
173 222
173 288
174 203
174 207
174 214
174 222
174 258
174 260
174 272
174 288
174 295
176 222
176 225
176 287
177 214
177 234
177 288
177 290
177 291
178 198
178 248
178 262
178 279
178 285
179 180
179 190
180 190
180 237
180 254
180 266
180 288
180 289
180 291
181 285
181 286
181 293
182 238
183 206
183 222
183 258
184 197
184 251
184 268
185 269
185 279
186 192
186 198
186 202
186 222
186 233
186 244
186 246
186 271
186 274
186 285
187 215
187 236
187 238
187 239
187 277
188 222
188 256
188 291
188 298
189 202
189 277
190 194
190 206
190 265
190 267
191 226
191 241
191 270
191 286
192 227
192 264
193 196
193 201
193 208
193 230
193 297
193 300
194 205
194 253
194 267
194 280
195 218
195 219
195 229
195 263
195 264
196 216
196 293
197 265
197 268
198 209
198 213
198 217
198 254
198 280
198 285
200 205
200 267
200 294
201 206
201 253
202 218
202 246
202 282
203 295
204 297
204 299
205 218
205 241
205 267
205 272
205 300
206 263
207 282
207 284
207 288
208 230
210 252
211 244
211 276
211 294
212 221
212 263
212 266
213 241
213 244
213 255
213 276
213 280
214 267
214 290
214 295
215 236
215 241
215 277
216 253
216 275
216 283
217 243
217 300
218 219
218 234
218 244
218 254
218 269
218 276
218 282
218 300
219 240
219 276
219 300
220 228
220 293
220 297
221 257
221 266
221 275
222 256
222 258
222 271
222 274
222 287
222 291
223 271
223 275
223 278
224 233
224 254
225 231
225 262
225 285
226 232
226 270
227 239
229 290
229 292
231 239
231 254
231 258
231 262
231 275
231 288
231 290
231 297
232 255
233 246
233 254
234 273
234 282
235 257
237 288
238 239
239 297
240 276
241 286
243 245
243 249
243 254
243 272
243 280
244 246
244 276
244 281
244 284
245 249
246 275
248 281
248 285
249 253
249 281
249 283
249 290
249 295
253 283
254 258
254 272
254 280
254 282
254 288
256 257
256 258
256 260
256 270
256 280
256 292
256 295
256 296
256 297
257 266
257 292
258 260
258 261
258 267
258 270
258 272
258 280
258 288
258 291
258 293
258 297
261 282
261 286
261 297
262 279
264 281
264 289
264 293
266 275
266 289
267 270
267 272
267 290
268 292
269 289
269 300
270 280
271 274
271 275
272 288
274 275
274 286
274 297
275 283
275 290
279 285
280 282
280 285
280 292
280 296
281 293
281 295
282 284
283 290
285 293
285 294
286 293
286 297
288 291
289 300
292 296
*Classes
1
1
1
1
1
1
1
1
1
1
1
1
1
1
1
1
1
1
1
1
1
1
1
1
1
1
1
1
1
1
1
1
1
1
1
1
1
1
1
1
1
1
1
1
1
1
1
1
1
1
1
1
1
1
1
1
1
1
1
1
1
1
1
1
1
1
1
1
1
1
1
1
1
1
1
1
1
1
1
1
1
1
1
1
1
1
1
1
1
1
1
1
1
1
1
1
1
1
1
1
1
1
1
1
1
1
1
1
1
1
1
1
1
1
1
1
1
1
1
1
1
1
1
1
1
1
1
1
1
1
1
1
1
1
1
1
1
1
1
1
1
1
1
1
1
1
1
1
1
1
2
2
2
2
2
2
2
2
2
2
2
2
2
2
2
2
2
2
2
2
2
2
2
2
2
2
2
2
2
2
2
2
2
2
2
2
2
2
2
2
2
2
2
2
2
2
2
2
2
2
2
2
2
2
2
2
2
2
2
2
2
2
2
2
2
2
2
2
2
2
2
2
2
2
2
2
2
2
2
2
2
2
2
2
2
2
2
2
2
2
2
2
2
2
2
2
2
2
2
2
2
2
2
2
2
2
2
2
2
2
2
2
2
2
2
2
2
2
2
2
2
2
2
2
2
2
2
2
2
2
2
2
2
2
2
2
2
2
2
2
2
2
2
2
2
2
2
2
2
2
