*Vertices 300
*Edges
1 33
1 42
1 109
1 111
1 149
1 217
1 291
2 28
2 159
2 201
2 259
3 11
3 30
3 143
3 158
3 181
3 263
3 281
3 299
4 21
4 59
4 69
4 77
4 116
4 163
4 165
4 225
4 227
5 12
5 63
5 98
5 113
5 128
5 185
5 189
5 200
5 204
5 264
5 276
6 46
6 62
6 66
6 79
6 90
6 120
6 242
7 53
7 68
8 9
8 27
8 28
8 62
8 90
8 98
8 104
8 120
8 175
8 247
8 253
8 300
9 12
9 73
9 91
9 157
9 274
10 33
10 58
10 76
10 145
10 158
10 228
10 240
10 266
10 287
11 16
11 113
11 143
11 150
11 231
12 19
12 25
12 70
12 72
12 86
12 94
12 99
12 128
12 148
12 162
12 274
13 27
13 49
13 61
13 72
13 107
13 114
13 117
13 129
13 132
13 154
13 170
14 69
14 119
14 194
14 201
14 203
14 235
15 43
15 72
15 74
15 104
15 109
15 118
15 156
16 97
16 125
16 183
16 260
17 80
17 95
17 114
17 115
17 122
17 132
17 196
17 253
17 268
17 274
18 35
18 60
18 114
18 196
18 213
18 225
18 283
19 39
19 59
19 175
19 209
19 248
19 274
19 298
20 26
20 87
20 114
20 220
20 224
20 247
20 277
20 293
21 31
21 227
21 279
22 44
22 58
22 91
22 93
22 94
22 135
22 138
22 143
22 147
22 149
22 202
22 237
22 268
23 31
23 62
23 64
23 71
23 120
23 124
23 132
23 145
23 178
23 215
23 275
23 295
24 32
24 35
24 51
24 63
24 126
24 162
24 220
24 231
24 278
25 37
25 41
25 82
25 117
25 129
25 162
25 166
25 186
25 199
25 224
25 251
26 27
26 43
26 57
26 96
26 98
26 114
26 123
26 149
26 160
26 206
26 222
26 238
26 267
27 98
27 107
27 120
27 238
27 290
28 33
28 52
28 62
28 89
28 93
28 206
28 259
29 109
29 272
29 291
30 40
30 81
30 84
30 97
30 104
30 108
30 116
30 141
30 244
30 299
31 64
31 120
31 125
31 132
31 192
31 252
32 49
32 51
32 55
32 58
32 61
32 109
32 149
32 278
32 284
33 35
33 36
33 42
33 45
33 63
33 89
33 93
33 98
33 184
33 192
33 228
34 44
34 70
34 74
34 93
34 104
34 110
34 133
34 186
34 251
34 256
35 79
35 102
35 136
35 162
35 222
36 42
36 47
36 49
36 67
36 105
36 128
36 132
36 156
36 293
37 50
37 53
37 82
37 136
37 166
37 207
37 224
37 230
37 251
37 262
38 47
38 48
38 107
38 151
38 177
38 192
38 249
39 40
39 44
39 88
39 89
39 105
39 113
39 115
39 133
39 170
39 194
39 203
39 248
39 269
39 296
40 68
40 89
40 113
40 167
40 242
40 244
41 45
41 56
41 199
41 248
42 45
42 47
42 85
42 127
42 128
42 158
43 54
43 56
43 88
43 118
43 127
43 145
43 171
43 178
43 205
43 206
43 213
43 290
44 53
44 74
44 91
44 133
44 139
45 85
45 107
45 174
45 199
45 252
46 56
46 90
46 128
46 135
46 172
46 174
46 255
46 260
47 48
47 54
47 62
47 103
47 127
47 166
48 124
48 240
48 247
49 61
49 101
49 132
49 169
49 195
49 203
49 215
49 229
49 279
49 294
50 53
50 84
50 87
50 108
50 176
50 204
51 63
51 64
51 94
51 97
51 122
51 126
51 149
51 220
51 233
51 292
51 293
52 101
52 121
52 215
53 91
53 133
53 192
53 243
54 56
54 62
54 120
54 135
54 209
54 213
54 221
54 223
54 258
54 259
55 67
55 101
55 104
55 117
55 173
55 175
55 266
55 284
56 59
56 100
56 135
56 160
56 223
56 230
56 262
57 65
57 150
57 177
57 272
57 289
58 145
58 149
58 195
59 77
59 83
59 119
59 209
59 220
59 223
59 277
59 285
60 63
60 190
60 196
60 296
61 103
61 106
61 109
61 116
61 128
61 141
61 177
61 218
61 236
62 120
62 244
62 254
62 266
63 81
63 84
63 98
63 114
63 122
63 128
63 134
63 196
63 212
63 220
63 239
63 282
64 88
64 94
64 101
64 113
64 120
64 130
64 222
64 280
65 113
65 272
66 68
66 117
66 126
66 133
66 138
66 145
66 173
66 180
66 183
66 247
66 298
67 140
67 151
67 156
67 160
67 259
67 266
68 75
68 92
68 126
68 133
68 138
68 223
68 244
68 292
69 90
69 134
69 178
69 191
69 221
69 227
69 249
69 277
69 300
70 72
70 84
70 94
70 116
70 125
70 144
70 145
70 182
70 270
71 72
71 124
71 130
71 204
71 244
71 290
72 125
72 130
72 145
73 132
73 233
73 294
74 84
74 118
74 149
74 196
74 213
74 238
75 126
75 133
75 154
75 218
76 184
76 205
77 128
77 297
78 111
78 186
79 102
79 114
79 136
79 142
79 295
80 137
80 150
80 215
80 243
80 250
80 261
81 91
81 99
81 116
82 123
82 156
82 157
82 186
82 207
82 279
83 277
83 283
84 102
84 108
84 125
84 148
84 209
84 212
84 213
84 232
84 271
85 103
85 113
85 136
85 234
85 237
86 99
86 147
86 148
87 139
87 140
87 147
87 288
87 299
88 96
88 110
88 175
88 205
88 211
88 231
88 265
88 290
88 293
89 93
89 194
89 203
89 206
89 285
90 111
90 116
90 208
90 220
90 242
90 249
90 253
90 268
91 99
91 121
91 135
91 137
91 148
91 179
91 294
92 133
92 213
92 216
93 104
93 110
93 118
93 161
93 206
93 207
93 262
93 271
93 285
94 101
94 105
94 110
94 130
94 143
94 148
94 162
94 252
94 284
95 115
95 140
95 202
95 243
95 269
96 128
96 134
96 140
96 142
96 175
96 209
96 211
96 249
96 265
97 100
97 104
97 140
97 169
97 230
97 244
97 296
98 253
99 121
99 135
99 147
99 155
99 157
99 171
99 179
99 184
99 237
100 102
100 103
100 108
100 136
100 140
100 158
100 176
100 243
100 279
100 295
101 110
101 131
101 132
101 142
101 143
101 156
101 169
101 173
101 206
101 215
101 219
102 114
102 212
102 232
102 240
102 243
102 271
103 127
103 128
103 141
103 206
104 156
104 175
104 179
104 208
104 245
104 251
104 262
105 129
105 162
105 275
106 236
106 257
106 276
106 300
107 129
107 149
107 151
107 212
108 113
108 136
108 164
108 245
109 134
109 141
109 144
109 244
109 291
110 178
110 236
110 249
111 186
111 240
111 271
111 281
112 121
113 130
113 136
113 143
113 153
113 175
113 185
113 234
113 272
114 129
114 134
114 142
114 225
114 253
114 280
115 181
115 194
115 263
115 289
115 298
116 125
116 141
116 218
116 244
116 271
116 283
117 129
117 145
117 221
117 288
118 177
118 248
119 197
119 209
120 219
120 289
120 295
120 300
121 133
121 139
121 141
121 207
121 221
121 261
121 262
122 127
122 132
122 141
123 214
123 231
123 238
123 250
123 254
123 279
124 132
124 179
124 281
125 135
125 148
125 152
125 183
125 300
126 142
126 296
127 132
127 141
127 142
127 145
127 186
127 231
127 272
128 142
128 174
128 181
128 242
128 278
128 286
129 142
129 150
129 275
129 280
129 288
130 251
131 143
131 206
131 286
132 158
132 176
132 203
132 233
132 297
133 139
133 207
133 273
134 161
134 193
134 220
134 221
134 291
135 163
135 197
135 258
136 165
136 195
136 255
137 150
137 152
137 164
137 199
137 264
138 210
138 212
138 298
139 200
140 160
140 170
140 198
140 201
140 241
140 249
140 261
140 274
140 279
140 295
141 142
141 221
141 247
141 270
142 204
142 206
143 153
143 182
143 195
143 202
143 220
143 288
144 217
144 249
144 270
145 171
145 231
146 226
146 238
146 240
146 267
146 288
147 202
147 223
147 291
149 158
149 238
150 158
150 194
150 201
150 231
151 156
151 177
151 191
151 221
151 227
151 247
151 281
151 285
152 158
152 183
152 267
153 175
153 182
153 204
153 217
153 234
153 245
153 285
154 196
154 222
154 243
155 169
156 162
156 175
156 186
156 207
156 251
156 267
157 207
157 231
157 249
158 176
158 182
158 189
158 197
158 203
158 274
159 186
159 208
159 259
159 267
159 273
159 292
160 208
160 213
160 219
160 220
160 238
160 259
160 262
160 269
160 271
162 186
162 213
162 237
162 278
162 279
162 292
163 165
163 173
163 174
163 197
164 168
164 186
164 199
164 212
164 234
164 235
164 245
164 246
164 264
164 270
165 174
165 188
165 275
167 172
167 184
167 196
167 212
167 213
167 217
167 230
167 234
167 271
168 235
168 275
168 289
169 219
169 230
169 232
169 253
169 279
170 198
170 240
170 274
171 183
171 237
171 300
172 208
172 214
172 220
172 223
172 238
172 243
172 248
172 255
173 174
173 175
173 206
173 247
173 266
174 177
174 228
174 244
175 195
175 209
175 225
175 282
176 194
176 203
176 209
176 248
176 272
177 198
177 227
178 191
178 195
178 205
178 215
178 221
178 244
178 256
178 290
179 183
179 219
179 235
179 240
179 269
179 275
179 290
180 183
180 192
180 244
180 280
180 282
180 287
180 298
181 201
181 248
181 273
181 278
181 294
181 296
181 297
182 233
182 270
182 274
182 277
182 278
182 285
182 290
183 219
183 267
183 280
183 282
183 300
184 192
184 196
184 220
184 228
184 238
184 283
185 191
185 207
185 225
185 247
185 268
185 276
185 283
186 251
186 259
186 270
187 192
187 243
188 261
188 274
188 276
189 225
191 198
191 209
191 241
191 244
191 247
191 254
191 291
192 218
192 230
192 243
192 249
192 252
192 286
193 255
194 248
194 263
194 273
194 298
195 207
195 209
195 212
195 256
195 279
196 212
196 213
196 223
196 228
196 234
196 240
196 243
197 203
197 250
197 275
198 225
198 227
198 233
198 241
198 247
198 251
198 254
198 293
199 211
199 270
200 242
200 256
200 264
200 299
201 221
201 231
201 249
201 288
201 294
201 295
202 237
202 263
203 248
204 220
204 222
204 246
204 290
204 291
204 294
205 231
205 249
205 279
205 296
205 298
206 222
206 290
207 209
207 230
207 236
207 260
207 262
207 289
208 223
208 236
208 259
208 281
209 212
209 221
209 225
209 256
209 262
209 272
209 279
210 241
210 244
210 258
210 278
211 249
212 220
212 234
212 261
212 272
212 284
212 288
212 297
214 231
214 250
215 261
216 257
217 226
217 234
217 242
217 245
218 236
218 247
218 254
218 263
218 283
219 235
219 246
219 256
219 269
220 224
220 238
220 244
220 249
220 283
220 288
220 291
220 292
221 247
221 252
221 277
222 238
223 243
223 262
223 281
224 245
224 250
224 291
225 247
225 253
225 268
226 240
226 246
227 247
227 251
227 279
227 285
228 240
228 249
228 266
228 268
228 283
228 291
230 277
230 286
231 288
232 252
232 257
232 279
233 274
233 294
233 297
234 289
235 246
235 256
235 270
236 261
237 292
238 240
238 271
239 298
240 243
240 249
240 268
241 244
241 249
241 258
241 261
241 278
241 281
241 290
242 299
243 250
244 252
244 291
245 251
245 260
245 291
246 294
247 254
247 276
247 293
248 272
248 273
249 289
249 291
250 254
250 261
250 291
251 262
251 267
252 288
254 266
254 274
254 277
254 283
256 292
256 299
257 279
257 284
257 288
258 261
258 290
259 267
259 292
259 295
260 289
263 289
263 297
265 290
266 268
266 277
268 283
271 281
271 283
271 285
274 276
274 277
276 293
277 283
277 299
278 290
278 292
279 292
280 282
280 287
280 288
281 285
283 291
283 298
284 288
285 295
288 294
288 297
*Classes
1
1
1
1
1
1
1
1
1
1
1
1
1
1
1
1
1
1
1
1
1
1
1
1
1
1
1
1
1
1
1
1
1
1
1
1
1
1
1
1
1
1
1
1
1
1
1
1
1
1
1
1
1
1
1
1
1
1
1
1
1
1
1
1
1
1
1
1
1
1
1
1
1
1
1
1
1
1
1
1
1
1
1
1
1
1
1
1
1
1
1
1
1
1
1
1
1
1
1
1
1
1
1
1
1
1
1
1
1
1
1
1
1
1
1
1
1
1
1
1
1
1
1
1
1
1
1
1
1
1
1
1
1
1
1
1
1
1
1
1
1
1
1
1
1
1
1
1
1
1
2
2
2
2
2
2
2
2
2
2
2
2
2
2
2
2
2
2
2
2
2
2
2
2
2
2
2
2
2
2
2
2
2
2
2
2
2
2
2
2
2
2
2
2
2
2
2
2
2
2
2
2
2
2
2
2
2
2
2
2
2
2
2
2
2
2
2
2
2
2
2
2
2
2
2
2
2
2
2
2
2
2
2
2
2
2
2
2
2
2
2
2
2
2
2
2
2
2
2
2
2
2
2
2
2
2
2
2
2
2
2
2
2
2
2
2
2
2
2
2
2
2
2
2
2
2
2
2
2
2
2
2
2
2
2
2
2
2
2
2
2
2
2
2
2
2
2
2
2
2
