*Vertices 300
*Edges
1 110
1 145
1 285
1 293
2 39
2 48
2 104
2 113
2 131
2 150
2 152
2 231
2 249
3 14
3 15
3 32
3 44
3 58
3 64
3 72
3 93
3 130
4 51
4 55
4 88
4 104
4 144
4 256
4 273
5 22
5 37
5 65
5 68
5 82
5 89
5 103
5 120
5 126
5 128
5 131
5 138
5 145
5 213
5 222
6 59
6 78
6 85
6 107
6 135
6 144
6 197
6 255
6 275
6 297
7 50
7 99
7 105
7 157
7 278
8 44
8 56
8 77
8 178
9 10
9 57
9 89
9 93
9 101
9 105
9 150
9 198
9 264
9 281
9 284
10 14
10 38
10 58
10 69
10 76
10 88
10 93
10 104
10 150
10 158
10 159
10 290
11 14
11 37
11 149
11 226
12 50
12 69
12 74
12 106
12 166
12 211
12 297
13 28
13 32
13 56
13 60
13 75
13 106
13 112
13 234
13 252
14 22
14 37
14 72
14 93
14 108
14 128
14 193
14 206
14 236
14 256
14 288
15 30
15 78
15 85
15 115
15 133
15 135
15 147
15 161
15 270
16 31
16 46
16 74
16 92
16 108
16 161
16 162
16 171
16 288
16 291
16 296
17 20
17 78
17 80
17 85
17 119
17 138
17 150
17 151
17 179
18 59
18 151
18 192
18 221
18 231
18 255
19 58
19 76
19 89
19 96
19 98
19 125
19 135
19 157
19 214
19 240
19 286
20 23
20 106
20 181
20 261
21 26
21 59
21 89
21 111
21 126
21 128
21 192
21 255
21 287
21 297
21 299
22 61
22 90
22 93
22 114
22 128
22 244
22 281
22 297
23 60
23 75
23 117
23 149
23 165
23 174
23 186
23 252
23 262
23 271
24 29
24 33
24 113
24 146
24 190
24 202
24 238
24 280
25 42
25 169
25 175
25 220
25 277
25 283
26 109
26 111
26 273
26 282
27 31
27 79
27 90
27 114
27 147
27 173
27 203
27 241
28 53
28 60
28 101
28 149
28 192
28 228
28 237
28 266
28 279
29 33
29 70
29 75
29 102
29 113
29 115
29 131
29 199
29 213
30 97
30 135
31 92
31 241
32 56
32 60
32 78
32 132
32 261
33 113
33 214
33 225
33 240
34 35
34 61
34 98
34 125
34 134
34 232
34 278
35 62
35 63
35 134
35 144
35 214
35 269
35 279
36 46
36 51
36 59
36 116
36 156
36 184
36 245
36 247
36 253
36 261
36 266
37 82
37 93
37 133
37 149
37 155
37 202
37 257
37 279
38 58
38 69
38 74
38 76
38 91
38 103
38 153
38 203
38 259
38 262
38 285
39 43
39 147
39 152
39 159
40 58
40 62
40 71
40 102
40 122
40 152
40 162
40 168
40 228
40 251
40 257
40 277
41 64
41 111
41 118
41 218
41 251
41 285
42 46
42 54
42 63
42 91
42 236
42 257
43 49
43 58
43 70
43 76
43 87
43 90
43 97
43 147
43 150
43 195
43 277
43 284
44 46
44 56
44 58
44 127
44 128
44 130
44 140
44 164
44 272
45 55
45 75
45 118
45 119
45 148
45 150
45 217
46 62
46 63
46 74
46 102
46 109
46 130
46 164
46 181
46 206
46 296
47 78
47 93
47 95
47 106
47 121
47 165
47 184
48 87
48 107
48 117
48 123
48 142
48 147
48 218
49 97
49 109
49 142
49 179
49 213
49 237
50 86
50 113
50 189
50 251
50 272
51 178
51 199
51 245
51 289
52 59
52 65
52 69
52 113
52 128
52 167
52 199
52 243
53 60
53 84
53 272
53 294
54 80
54 109
54 142
54 155
54 188
54 190
54 201
54 257
54 260
54 282
55 104
55 118
56 77
56 78
56 106
56 132
57 101
57 209
57 212
57 274
57 280
58 74
58 76
58 96
58 128
58 219
58 236
58 297
59 65
59 111
59 247
59 251
60 63
60 94
60 114
60 132
60 218
60 255
60 258
60 296
61 99
61 128
61 134
61 184
61 217
62 144
62 181
62 219
62 278
63 94
63 114
63 137
63 243
63 293
64 67
64 75
64 90
64 114
64 130
64 247
64 270
65 103
65 121
65 152
65 295
66 77
66 95
66 112
66 127
67 121
67 247
67 261
67 272
68 131
68 164
68 198
68 215
68 237
69 77
69 86
69 89
69 112
69 130
69 144
69 158
69 212
69 262
69 266
69 297
70 87
70 94
70 114
70 115
70 150
70 168
70 173
70 202
71 81
71 122
71 133
71 176
71 193
71 202
71 209
71 226
72 81
72 86
72 108
72 120
72 223
73 187
73 212
73 265
73 286
74 138
74 180
74 181
74 297
75 106
75 117
75 131
75 149
75 190
75 261
75 294
76 84
76 90
76 96
76 97
76 164
76 228
76 248
77 78
77 85
77 92
77 95
77 108
77 110
77 112
77 120
77 141
77 180
77 237
77 242
78 106
78 253
78 275
78 299
79 148
79 200
79 229
79 255
79 265
79 277
79 281
80 117
80 201
80 226
81 86
81 122
82 128
82 151
82 203
82 255
83 144
83 170
83 211
83 233
83 282
84 94
84 142
84 254
84 266
85 110
85 118
85 135
85 137
85 144
85 179
85 183
85 205
85 257
87 141
87 218
87 268
88 93
88 239
89 101
89 112
89 169
89 213
89 226
90 114
90 147
90 153
90 158
90 186
90 193
90 268
91 96
91 103
91 119
91 123
92 119
92 148
92 160
92 195
92 202
92 237
92 249
92 287
93 150
93 243
93 267
94 114
94 223
94 292
95 121
95 126
95 127
95 169
95 178
95 182
95 194
96 137
97 155
97 180
98 101
98 125
98 153
99 105
99 136
99 142
99 286
100 271
101 125
101 173
101 281
102 130
102 174
102 186
103 120
103 121
103 190
103 281
103 283
103 285
104 113
104 158
104 203
104 210
104 221
104 288
105 133
105 136
105 142
105 150
105 210
105 230
105 284
106 119
106 136
106 271
107 126
107 147
107 197
107 289
108 192
108 205
108 291
109 130
109 142
109 146
109 231
109 273
110 145
110 252
111 158
111 277
111 286
112 125
112 207
112 234
112 278
112 288
112 300
113 189
113 199
113 272
114 197
114 206
114 221
114 248
114 298
115 131
115 245
115 284
115 297
116 170
116 226
117 123
117 149
117 165
117 201
117 251
117 278
118 135
118 165
118 188
118 257
118 295
119 136
119 143
119 150
119 172
119 204
119 246
119 287
119 294
120 226
120 246
121 126
121 140
121 181
121 263
121 272
121 282
121 290
121 299
122 189
122 198
122 260
123 147
123 168
123 221
123 246
123 278
123 287
125 138
125 154
125 193
125 221
125 278
126 156
126 199
126 299
127 140
127 167
127 276
128 134
128 271
130 140
130 235
130 245
131 136
131 152
131 163
131 212
133 171
133 193
133 233
133 252
134 137
135 137
135 147
135 176
135 232
136 137
136 185
136 194
136 300
137 207
137 247
137 249
137 256
137 258
137 287
137 300
138 181
139 145
139 157
139 171
139 197
140 159
140 208
140 253
141 145
141 155
141 242
141 287
142 162
143 235
143 246
143 271
144 211
144 233
144 238
144 249
144 256
144 282
145 221
146 179
146 193
146 200
146 211
146 238
147 170
147 225
147 253
147 272
147 294
148 208
148 246
148 277
149 205
149 266
150 159
150 180
150 195
150 251
151 202
151 207
151 233
151 253
152 229
152 281
152 299
153 167
153 228
153 259
153 299
154 168
154 195
154 212
154 218
154 223
154 273
154 286
154 287
154 296
155 174
155 218
155 242
155 296
156 186
156 232
156 261
156 282
157 158
157 174
157 177
157 203
157 245
157 285
158 164
158 174
158 175
158 186
158 198
158 207
158 239
158 247
158 299
159 180
159 204
159 251
159 256
159 262
160 179
160 231
160 235
160 255
161 169
161 176
161 206
161 225
161 246
162 182
162 186
162 197
162 237
162 278
162 288
163 173
163 202
163 206
163 282
163 293
164 174
164 237
164 289
164 292
165 166
166 211
167 220
167 228
167 236
167 256
167 296
168 206
168 246
168 253
168 287
169 186
169 202
169 209
169 221
169 235
169 246
169 282
169 283
169 285
170 172
170 193
170 209
170 244
170 294
171 199
171 209
171 233
171 241
171 258
171 292
172 200
172 227
172 244
172 245
172 291
172 300
173 175
173 206
173 222
173 282
175 189
175 202
175 212
175 220
175 282
175 299
176 198
176 219
176 225
176 226
176 253
176 291
178 197
178 223
178 239
178 253
178 271
178 287
178 288
178 299
178 300
179 255
180 237
181 290
182 204
182 264
182 283
183 241
183 271
184 293
184 294
185 199
185 239
185 241
185 242
185 249
185 264
186 278
186 279
186 282
186 285
187 189
188 193
188 263
188 278
189 228
190 201
190 202
190 221
190 274
191 201
191 221
191 233
191 277
192 237
192 287
193 204
193 218
193 242
193 258
193 264
193 283
194 232
194 298
194 300
195 210
195 276
195 296
196 217
196 224
196 228
197 214
197 225
197 234
197 239
197 257
197 267
197 275
197 278
197 289
197 290
197 299
198 201
198 207
198 261
198 266
198 291
199 242
199 286
200 220
200 281
200 300
201 221
201 224
201 242
201 266
201 273
201 274
202 249
202 282
202 287
203 207
204 246
204 264
205 216
205 263
206 282
206 283
206 287
206 288
207 226
207 233
207 247
207 249
207 266
208 244
209 218
209 235
209 244
209 245
209 256
209 296
210 276
211 215
211 229
211 292
212 266
213 225
213 241
213 250
213 258
213 263
213 265
213 269
213 275
213 281
214 250
214 267
214 279
215 228
215 237
215 261
215 292
216 224
216 263
217 224
217 228
218 220
218 247
218 258
218 269
218 287
218 296
219 222
219 226
219 240
219 255
219 278
219 300
220 264
220 281
220 287
220 296
221 274
221 283
222 226
222 286
222 300
223 256
223 258
223 273
223 287
224 273
225 239
225 253
225 258
225 265
225 291
226 233
226 255
226 257
226 300
228 299
229 230
229 240
229 277
229 281
230 240
233 252
233 253
233 295
234 267
235 236
235 244
235 245
235 282
235 297
236 256
238 264
239 249
239 252
239 255
239 299
240 255
241 253
241 258
241 271
241 278
241 280
241 287
242 249
242 264
242 300
245 248
245 285
246 267
246 283
247 269
247 299
249 300
250 261
250 263
250 295
251 254
251 257
251 284
251 295
253 258
253 287
255 265
255 292
255 300
256 258
256 275
256 300
257 278
257 295
258 269
258 273
258 275
259 285
261 295
264 279
264 281
264 283
265 268
265 269
265 275
266 273
268 275
269 286
269 287
269 294
270 284
272 294
273 286
274 277
274 278
274 280
274 295
277 295
278 280
278 290
278 300
279 290
282 287
284 295
287 299
*Classes
1
1
1
1
1
1
1
1
1
1
1
1
1
1
1
1
1
1
1
1
1
1
1
1
1
1
1
1
1
1
1
1
1
1
1
1
1
1
1
1
1
1
1
1
1
1
1
1
1
1
1
1
1
1
1
1
1
1
1
1
1
1
1
1
1
1
1
1
1
1
1
1
1
1
1
1
1
1
1
1
1
1
1
1
1
1
1
1
1
1
1
1
1
1
1
1
1
1
1
1
1
1
1
1
1
1
1
1
1
1
1
1
1
1
1
1
1
1
1
1
1
1
1
1
1
1
1
1
1
1
1
1
1
1
1
1
1
1
1
1
1
1
1
1
1
1
1
1
1
1
2
2
2
2
2
2
2
2
2
2
2
2
2
2
2
2
2
2
2
2
2
2
2
2
2
2
2
2
2
2
2
2
2
2
2
2
2
2
2
2
2
2
2
2
2
2
2
2
2
2
2
2
2
2
2
2
2
2
2
2
2
2
2
2
2
2
2
2
2
2
2
2
2
2
2
2
2
2
2
2
2
2
2
2
2
2
2
2
2
2
2
2
2
2
2
2
2
2
2
2
2
2
2
2
2
2
2
2
2
2
2
2
2
2
2
2
2
2
2
2
2
2
2
2
2
2
2
2
2
2
2
2
2
2
2
2
2
2
2
2
2
2
2
2
2
2
2
2
2
2
