*Vertices 300
*Edges
1 38
1 82
1 90
1 96
1 114
1 115
1 116
1 239
2 19
2 28
2 29
2 49
2 69
2 70
2 73
2 79
2 100
2 138
2 150
2 181
2 251
2 274
2 279
2 282
3 120
3 128
3 141
3 201
3 229
3 233
3 271
4 19
4 27
4 44
4 54
4 60
4 102
4 105
4 126
4 140
4 212
4 284
5 20
5 92
5 226
5 229
6 21
6 27
6 31
6 45
6 58
6 70
6 87
6 123
6 149
6 208
7 53
7 60
7 86
7 116
7 131
7 139
7 147
7 149
7 150
7 151
7 157
7 180
7 266
8 17
8 30
8 69
8 78
8 93
8 105
8 108
8 115
8 136
8 151
8 290
9 21
9 76
9 109
9 151
9 156
9 220
9 243
9 258
9 288
9 292
10 12
10 26
10 28
10 43
10 73
10 93
10 94
10 99
10 120
10 122
10 128
10 176
10 199
11 152
11 170
11 209
11 263
11 266
11 270
12 28
12 138
12 221
13 43
13 50
13 179
13 257
14 108
14 116
14 122
14 126
14 127
14 131
14 143
14 236
15 67
15 123
15 171
15 226
16 81
16 103
16 109
16 111
16 133
16 203
16 280
17 115
17 222
17 252
17 292
18 29
18 46
18 49
18 82
18 114
18 127
19 32
19 37
19 44
19 54
19 60
19 67
19 79
19 82
19 87
19 99
19 105
19 113
19 126
19 130
19 135
19 145
19 255
19 264
20 143
20 159
20 237
21 37
21 49
21 87
21 109
21 138
21 209
21 243
21 274
21 288
22 34
22 37
22 46
22 87
22 92
22 110
22 180
22 253
23 38
23 116
23 152
23 171
23 177
23 193
23 290
24 39
24 51
24 80
24 99
24 105
24 211
24 263
24 271
24 294
25 30
25 48
25 55
25 78
25 86
25 99
25 118
25 150
25 186
25 196
25 268
26 27
26 47
26 56
26 82
26 94
26 99
26 113
26 122
26 145
26 151
26 176
26 217
26 225
27 31
27 56
27 139
27 140
27 158
27 214
27 258
27 274
27 286
28 45
28 73
28 93
28 100
28 113
28 124
28 138
28 273
28 275
29 42
29 49
29 65
29 95
29 153
29 196
29 213
29 214
29 220
29 255
29 294
30 55
30 61
30 74
30 78
30 84
30 110
30 154
30 230
30 240
30 257
30 275
30 293
31 63
31 82
31 87
31 123
31 139
31 208
32 44
32 67
32 82
32 156
32 200
32 233
32 236
33 35
33 51
33 96
33 112
33 117
33 153
33 169
34 87
34 92
34 97
34 287
35 38
35 89
35 116
35 127
35 292
36 39
36 161
36 179
36 183
36 217
36 242
36 297
37 53
37 66
37 86
37 87
37 88
37 113
37 142
37 144
37 167
37 185
37 202
37 220
37 222
37 225
37 290
38 53
38 109
38 116
38 133
38 142
38 146
38 183
38 242
38 245
39 51
39 80
39 99
39 105
39 161
40 73
40 123
40 149
40 165
40 175
41 89
41 245
41 266
42 135
42 175
42 199
43 50
43 58
43 102
43 122
43 159
43 164
43 196
43 262
43 289
44 60
44 135
44 205
44 255
45 66
45 70
45 87
45 104
45 124
45 151
45 169
46 52
46 83
46 107
46 110
46 162
46 204
46 295
47 99
47 159
47 175
47 189
47 237
47 281
48 99
48 146
48 150
49 52
49 109
49 143
50 122
50 231
51 80
51 112
51 154
51 194
51 211
51 263
52 71
52 109
52 110
52 111
52 142
52 168
52 238
52 250
52 255
52 297
53 62
53 86
53 95
53 109
53 116
53 133
53 143
53 239
53 267
53 291
54 60
54 74
54 82
54 84
54 87
54 112
54 124
54 126
54 135
54 145
54 172
54 219
54 256
54 274
54 296
54 299
55 78
55 86
55 96
55 139
55 263
56 92
56 94
56 140
56 153
56 187
56 221
56 231
56 266
56 286
57 74
57 108
57 126
57 127
57 146
57 183
57 189
57 204
57 255
57 256
57 267
58 74
58 122
58 123
58 146
58 161
58 209
58 291
58 293
59 69
59 72
59 131
59 136
59 162
59 180
59 241
60 87
60 266
60 282
60 289
61 130
61 207
61 208
61 243
61 280
62 86
62 127
62 141
62 198
62 266
63 82
63 85
63 119
63 147
63 155
63 169
63 177
63 223
64 282
64 300
65 95
65 121
65 159
65 181
65 201
65 233
65 248
65 278
65 291
65 296
66 83
66 88
66 100
66 104
66 142
66 144
66 151
66 165
66 183
66 247
66 286
67 74
67 84
67 146
67 149
67 199
67 230
67 248
68 182
68 208
69 70
69 72
69 136
69 188
69 267
69 268
70 131
70 151
70 171
70 261
70 290
71 110
71 120
71 233
72 131
72 186
72 203
72 212
72 225
73 112
73 137
73 149
73 236
73 238
73 297
74 84
74 146
74 149
74 160
74 251
74 266
74 267
74 290
75 78
75 129
75 140
75 171
75 181
75 214
75 282
76 114
76 136
76 174
76 225
76 243
76 280
76 297
78 93
78 105
78 108
78 140
78 167
78 202
78 230
78 275
79 95
79 130
79 135
79 150
79 155
79 172
80 128
80 150
80 157
80 167
80 171
80 274
81 183
81 219
82 99
82 113
82 114
82 116
82 127
82 159
82 205
82 208
82 223
83 137
83 142
83 159
83 217
83 237
84 145
84 149
84 170
84 190
84 263
84 292
85 114
85 119
85 222
85 229
85 259
85 272
86 96
86 118
86 124
86 139
86 196
86 246
86 251
86 276
86 291
87 88
87 92
87 109
87 113
87 170
87 202
87 209
88 91
88 109
88 127
88 143
88 168
88 202
88 205
88 208
89 186
89 229
89 266
90 115
90 116
90 123
90 228
91 219
91 224
91 240
91 259
91 294
92 97
92 110
92 171
92 298
93 140
93 195
94 99
94 208
94 232
94 256
95 143
95 172
95 248
95 266
96 112
96 114
96 116
96 139
96 162
96 239
96 273
96 277
97 125
97 247
98 156
98 187
98 257
98 285
99 113
99 116
99 117
99 127
99 136
99 145
99 147
99 159
99 166
99 192
99 205
100 113
100 132
100 142
100 198
100 233
100 250
101 173
102 140
102 195
102 228
102 235
103 109
103 111
103 143
103 188
103 199
103 217
103 244
104 107
104 135
104 177
104 207
104 222
104 277
105 271
105 298
106 209
106 227
106 237
107 191
107 195
107 260
108 115
108 127
108 133
108 202
108 216
108 218
108 232
108 241
109 110
109 111
109 133
109 138
109 142
109 143
110 142
110 143
110 146
110 167
110 213
110 230
110 286
110 289
110 297
111 133
111 163
111 267
111 270
112 124
112 139
112 225
113 136
114 127
114 136
114 204
115 127
115 199
116 117
116 119
116 127
116 147
116 163
116 197
116 210
116 265
117 269
118 135
118 199
118 219
119 147
119 165
119 167
119 272
119 291
120 128
120 141
120 192
120 280
121 233
121 298
122 131
122 146
122 152
122 199
122 246
122 276
122 289
123 149
123 186
123 209
123 226
123 238
123 240
123 281
124 139
124 175
124 231
124 249
125 160
125 172
125 191
125 229
125 255
125 286
126 135
126 145
126 227
126 248
127 141
127 142
127 143
127 145
127 262
128 141
128 150
128 152
128 167
128 220
128 240
128 262
129 200
129 203
129 236
129 244
129 257
129 260
130 207
131 138
131 167
131 282
132 167
132 212
132 228
132 233
132 241
132 250
132 270
134 271
135 199
136 164
137 229
137 245
138 159
138 210
138 222
138 240
138 255
138 273
139 187
139 206
140 214
140 238
140 254
141 143
141 145
142 143
142 146
142 163
142 196
142 223
142 234
142 259
142 278
143 267
143 298
144 152
144 208
144 253
144 259
145 163
145 172
145 231
145 289
146 154
146 183
146 196
146 212
147 149
147 157
147 197
147 268
147 269
147 273
147 289
148 210
148 221
148 293
149 150
149 175
150 162
150 166
150 236
150 251
150 256
151 191
151 206
151 258
151 266
151 274
153 168
153 176
153 182
153 231
153 235
153 245
153 252
154 171
154 201
154 217
154 229
154 239
155 186
155 242
155 267
155 275
157 167
157 176
157 237
157 243
157 264
157 282
158 291
159 183
159 197
159 210
159 222
159 226
159 237
159 261
159 262
159 281
159 291
160 177
160 182
160 192
160 217
160 220
160 237
160 240
160 242
160 255
160 293
160 300
161 191
161 212
161 218
161 232
161 241
161 250
161 299
162 216
162 236
162 241
163 199
163 293
165 264
165 278
166 235
166 254
166 279
167 168
167 173
167 202
168 173
168 194
168 198
168 202
168 249
168 252
168 255
168 272
168 280
169 187
169 206
169 237
169 258
169 261
169 293
169 300
170 180
170 187
170 193
170 211
170 239
170 260
170 263
170 278
170 289
170 297
171 177
171 190
171 201
171 213
171 229
171 234
171 256
171 266
171 267
171 290
172 200
172 230
172 283
173 186
173 203
173 280
174 211
174 225
174 255
174 267
174 289
174 297
175 176
175 184
175 213
175 219
175 248
175 259
175 268
175 294
176 219
176 235
176 240
176 254
176 264
176 274
176 279
176 294
177 178
177 210
177 237
177 239
177 242
177 264
177 274
177 277
177 290
177 296
178 185
178 237
178 258
178 264
178 271
179 189
179 269
179 273
180 187
180 226
180 278
180 281
181 198
181 215
182 200
182 211
182 213
182 230
182 231
182 240
182 246
182 281
182 295
183 187
183 210
183 219
183 256
184 294
185 257
185 271
186 195
186 202
186 203
186 260
186 267
186 297
187 206
187 231
187 256
187 278
188 244
188 291
189 227
189 269
190 201
190 247
190 257
190 273
191 247
191 257
191 260
191 263
191 266
191 269
191 274
191 299
192 255
193 196
193 212
193 250
193 257
193 268
193 278
193 289
194 197
194 198
194 210
194 215
194 246
195 202
195 203
195 205
195 228
195 234
195 266
196 212
197 214
197 264
197 291
198 215
198 231
198 240
198 255
198 270
199 204
199 221
199 226
199 242
199 293
200 213
200 214
200 230
200 238
200 257
200 283
201 213
201 229
201 235
201 239
201 254
201 290
202 205
203 208
203 236
203 261
203 267
203 286
204 229
205 228
205 233
205 250
206 231
206 256
206 261
206 266
207 208
207 216
208 236
208 254
208 261
208 286
208 287
209 236
209 246
209 295
210 222
210 246
210 296
211 214
211 225
211 230
211 244
211 278
212 223
212 233
212 250
212 258
212 289
213 220
213 230
213 240
213 268
214 230
216 241
217 220
218 232
218 299
219 226
219 235
219 259
219 261
220 229
220 240
220 242
220 268
220 284
220 295
221 226
221 245
221 266
221 293
222 224
222 237
225 267
226 240
226 245
226 261
226 281
226 291
226 293
227 251
227 261
227 291
227 296
229 254
229 284
230 239
230 244
230 246
230 278
230 283
231 240
231 252
231 256
231 270
231 278
232 250
232 299
233 250
234 256
234 266
234 274
235 240
235 254
235 274
235 279
236 246
236 296
237 264
237 277
237 300
238 247
238 254
238 257
239 244
239 291
240 279
240 281
240 284
240 288
240 300
241 299
242 267
242 277
242 300
243 264
243 282
244 291
245 252
245 293
246 284
246 295
247 257
247 263
248 255
248 266
248 267
248 268
249 255
249 272
249 280
249 293
250 287
251 261
251 263
251 297
252 280
255 266
255 267
255 277
255 300
256 266
256 267
260 263
260 297
263 297
264 278
264 292
265 273
266 267
266 274
266 297
267 289
267 297
268 289
269 273
269 299
272 293
272 300
274 281
279 290
281 288
284 295
291 296
293 300
295 296
*Classes
1
1
1
1
1
1
1
1
1
1
1
1
1
1
1
1
1
1
1
1
1
1
1
1
1
1
1
1
1
1
1
1
1
1
1
1
1
1
1
1
1
1
1
1
1
1
1
1
1
1
1
1
1
1
1
1
1
1
1
1
1
1
1
1
1
1
1
1
1
1
1
1
1
1
1
1
1
1
1
1
1
1
1
1
1
1
1
1
1
1
1
1
1
1
1
1
1
1
1
1
1
1
1
1
1
1
1
1
1
1
1
1
1
1
1
1
1
1
1
1
1
1
1
1
1
1
1
1
1
1
1
1
1
1
1
1
1
1
1
1
1
1
1
1
1
1
1
1
1
1
2
2
2
2
2
2
2
2
2
2
2
2
2
2
2
2
2
2
2
2
2
2
2
2
2
2
2
2
2
2
2
2
2
2
2
2
2
2
2
2
2
2
2
2
2
2
2
2
2
2
2
2
2
2
2
2
2
2
2
2
2
2
2
2
2
2
2
2
2
2
2
2
2
2
2
2
2
2
2
2
2
2
2
2
2
2
2
2
2
2
2
2
2
2
2
2
2
2
2
2
2
2
2
2
2
2
2
2
2
2
2
2
2
2
2
2
2
2
2
2
2
2
2
2
2
2
2
2
2
2
2
2
2
2
2
2
2
2
2
2
2
2
2
2
2
2
2
2
2
2
