*Vertices 300
*Edges
1 19
1 45
1 83
1 103
1 120
1 123
1 127
1 189
1 199
1 205
1 223
1 257
2 29
2 40
2 51
2 108
2 110
2 251
2 254
3 65
3 163
3 187
4 27
4 79
4 95
4 220
4 246
4 252
4 259
4 264
4 270
5 31
5 41
5 75
5 135
5 141
5 145
5 158
5 176
5 178
5 227
5 271
5 291
5 293
6 27
6 73
6 102
6 136
6 198
6 202
6 243
6 272
7 32
7 48
7 68
7 70
7 76
7 81
7 82
7 116
7 129
7 130
7 171
7 193
7 290
8 32
8 146
8 167
8 194
8 265
9 36
9 43
9 162
9 168
9 174
9 185
9 197
9 245
9 272
10 19
10 26
10 27
10 29
10 39
10 42
10 101
10 103
10 110
10 114
10 119
10 131
10 136
10 198
10 281
10 291
11 57
11 74
11 131
11 135
11 161
11 271
12 28
12 53
12 62
12 65
12 102
12 113
12 126
12 175
12 178
12 212
12 224
13 34
13 85
13 89
13 184
13 205
13 258
14 72
14 116
14 148
14 159
14 168
14 284
15 43
15 65
15 66
15 67
15 96
15 124
15 133
15 137
15 258
15 273
15 286
15 294
16 59
16 102
16 134
16 144
16 151
16 182
16 202
16 224
17 90
17 140
17 157
17 234
17 252
17 268
18 45
18 91
18 127
18 131
18 170
18 256
18 278
19 32
19 42
19 53
19 103
19 136
19 159
19 202
19 218
19 223
20 24
20 34
20 112
20 134
20 145
20 150
20 177
20 199
20 252
20 294
21 47
21 81
21 143
21 280
22 77
22 100
22 123
22 142
22 167
22 168
22 284
23 91
23 133
23 144
23 148
23 149
23 166
23 175
23 203
23 204
23 226
23 245
23 272
24 85
24 177
24 220
25 105
25 162
25 181
25 216
25 241
25 252
25 259
25 293
26 42
26 65
26 105
26 189
26 193
26 219
27 43
27 48
27 73
27 109
27 136
27 170
27 175
27 191
27 226
27 230
27 259
27 281
28 34
28 35
28 62
28 220
28 261
28 270
29 36
29 39
29 40
29 51
29 114
29 149
29 161
29 171
29 281
31 135
31 145
31 232
31 271
31 291
32 60
32 65
32 70
32 74
32 100
32 101
32 111
32 129
32 143
32 146
32 183
32 186
32 202
32 208
32 231
32 267
32 271
33 67
33 107
33 115
33 118
33 128
33 134
33 139
34 62
34 70
34 95
34 129
34 130
34 134
34 155
34 159
34 181
34 192
34 227
34 241
35 122
35 128
35 133
35 138
35 143
35 165
35 207
35 211
35 261
35 265
35 296
35 299
36 51
36 52
36 62
36 67
36 73
36 77
36 91
36 146
36 147
36 149
36 162
36 168
36 196
36 202
36 224
36 252
36 276
37 50
37 72
37 121
37 123
37 134
38 44
38 79
38 90
38 112
38 182
39 42
39 43
39 49
39 65
39 95
39 113
39 114
39 127
39 136
39 167
39 182
39 201
39 237
39 291
39 297
40 51
40 54
40 59
40 107
40 182
40 227
40 241
41 76
41 142
41 209
41 247
41 256
41 258
41 291
42 53
42 109
42 114
42 125
42 130
42 131
42 193
42 260
42 273
42 285
42 291
43 55
43 65
43 66
43 95
43 124
43 133
43 170
43 173
43 182
43 245
43 272
44 99
44 108
44 112
44 118
44 127
44 182
44 194
44 200
44 282
44 290
44 300
45 89
45 97
45 120
45 127
45 146
45 166
45 172
45 196
46 112
46 141
46 201
46 252
47 72
47 90
47 148
47 242
48 58
48 76
48 97
48 98
48 191
48 204
48 211
48 216
48 235
48 258
48 267
48 290
48 300
49 78
49 95
49 112
49 150
49 152
49 170
49 213
49 227
49 252
49 270
49 297
50 134
50 193
50 277
50 282
50 288
51 76
51 81
51 90
51 182
51 220
51 268
52 86
52 198
52 202
52 222
52 248
53 65
53 88
53 95
53 178
53 212
54 59
54 60
54 65
54 75
54 81
54 105
54 107
54 114
54 132
54 144
54 150
54 170
54 171
54 175
54 176
54 186
54 227
54 230
54 254
54 274
55 83
55 170
55 213
55 243
55 248
55 263
55 292
56 88
56 117
56 214
56 230
57 128
57 131
57 145
57 161
57 163
57 172
57 182
57 187
57 193
57 215
57 226
57 240
57 291
58 77
58 88
58 92
58 107
58 139
58 171
58 182
58 211
58 235
58 249
58 261
58 295
59 69
59 114
59 118
59 134
59 144
59 167
59 186
59 202
59 227
59 244
59 254
59 279
60 101
60 119
60 125
60 137
60 249
60 260
61 117
61 176
61 227
61 255
61 262
61 269
61 270
62 151
62 162
62 216
62 218
62 252
62 275
62 276
63 87
63 185
64 79
64 84
64 90
64 101
64 197
64 220
64 230
64 262
64 283
65 74
65 87
65 101
65 102
65 105
65 126
65 260
65 273
66 150
66 165
66 294
67 86
67 109
67 115
67 147
67 164
67 187
67 239
68 115
68 141
68 171
69 125
69 146
69 285
70 129
70 130
70 245
71 126
71 141
71 183
71 298
72 78
72 80
72 123
72 148
72 151
72 152
72 154
72 199
72 214
72 222
72 253
72 257
72 267
72 270
72 295
73 146
73 148
73 159
74 77
74 88
74 135
75 91
75 105
75 112
75 119
75 128
75 135
75 164
75 235
75 238
75 250
75 252
75 264
76 77
76 94
76 105
76 132
76 133
76 220
76 222
76 233
76 240
76 248
76 258
76 283
76 288
77 88
77 103
77 123
77 136
77 141
77 168
77 171
77 207
77 211
77 222
77 228
77 276
77 278
77 295
77 300
78 80
78 82
78 192
78 200
78 225
78 256
78 270
78 272
78 279
79 90
79 93
79 183
80 82
80 123
80 132
80 190
80 192
80 198
80 280
80 281
80 295
81 107
81 116
81 143
81 170
81 227
81 233
81 242
81 285
82 125
82 130
82 142
82 273
83 94
83 96
84 114
84 209
84 228
84 250
85 99
85 265
86 90
86 200
86 224
86 233
86 240
87 113
87 185
87 211
87 233
87 239
87 277
87 298
88 95
89 172
89 205
89 268
89 276
90 93
90 140
90 224
91 97
91 119
91 126
91 131
91 143
91 144
91 149
91 153
91 164
91 166
91 175
91 194
91 239
91 281
92 107
92 182
92 187
92 211
92 238
92 261
93 99
93 105
93 108
93 111
93 132
93 180
93 225
94 100
94 130
94 172
94 252
94 296
95 99
95 113
95 115
95 118
95 127
95 196
95 227
95 238
95 297
96 137
96 172
96 175
96 199
96 208
96 211
96 225
96 242
96 285
96 288
97 104
97 105
97 120
97 196
97 235
97 270
97 300
98 144
98 191
98 203
98 245
99 104
99 108
99 112
99 127
99 242
99 265
99 290
100 112
100 125
100 130
100 142
100 146
100 232
100 233
100 248
100 252
101 111
101 131
101 137
101 143
101 163
101 186
101 187
101 209
101 230
101 254
102 133
102 165
102 177
102 201
102 202
102 260
102 291
103 114
103 136
103 199
103 200
103 223
103 263
103 278
103 281
103 284
103 285
103 300
104 290
104 292
105 108
105 128
105 132
105 270
105 293
106 168
106 228
107 115
107 157
107 177
107 220
107 234
107 249
107 261
107 264
107 270
107 274
108 242
108 251
109 154
109 259
109 273
110 113
110 119
110 121
110 175
110 212
110 254
110 281
111 115
111 149
111 150
111 167
111 180
111 194
111 227
111 247
111 261
111 293
112 141
112 170
112 233
112 238
112 252
112 300
113 175
113 244
114 133
114 148
114 228
115 118
115 128
115 141
115 149
115 171
115 188
115 247
115 261
115 297
116 128
116 140
116 148
117 179
117 197
117 257
117 262
117 263
117 275
117 295
118 129
118 141
118 144
118 167
118 186
118 196
118 227
118 261
118 284
119 157
119 210
119 249
119 264
122 126
122 134
122 141
122 161
122 167
122 180
122 194
122 203
122 211
122 256
122 265
122 268
122 295
122 297
123 127
123 141
123 173
123 177
123 183
123 207
123 214
123 225
123 229
123 230
123 235
123 237
123 250
123 264
123 278
123 287
123 295
124 160
124 188
124 206
124 228
124 251
124 264
124 280
125 129
125 130
125 173
125 214
125 258
125 260
125 285
125 288
126 129
126 149
126 167
126 185
126 194
126 226
127 227
127 250
127 278
127 295
127 297
128 138
128 204
128 226
128 296
129 130
129 134
129 146
129 192
129 196
129 231
129 289
130 173
130 179
130 193
130 232
130 269
131 169
131 206
131 244
131 247
131 254
132 152
132 175
132 180
132 190
132 225
132 230
133 137
133 177
133 189
133 213
133 228
133 258
133 265
133 286
134 140
134 145
134 151
134 180
134 182
134 193
134 199
134 265
135 141
135 149
135 158
135 164
135 176
135 291
136 281
136 285
136 294
137 171
137 227
137 266
138 163
138 199
138 216
138 240
138 247
138 253
138 279
138 286
139 178
140 199
141 154
141 183
141 188
141 203
141 213
141 226
141 238
141 261
141 293
142 256
143 166
143 206
143 209
143 225
143 242
143 261
144 166
144 174
144 180
144 244
144 255
145 163
145 182
145 183
145 193
145 231
145 254
146 150
146 165
146 166
146 168
146 186
146 248
146 272
146 291
147 149
147 215
147 274
148 245
148 272
149 164
149 202
149 221
149 272
149 281
149 297
150 165
150 167
150 227
150 237
150 241
150 272
151 252
152 201
152 226
152 230
152 270
152 272
152 279
152 290
153 164
153 165
153 187
154 166
154 205
154 213
154 247
154 270
154 272
154 293
155 227
156 159
156 162
156 207
156 264
156 273
156 274
156 289
157 229
157 234
157 264
158 186
159 192
159 220
159 246
159 274
159 290
160 178
160 188
160 206
160 226
160 286
161 180
161 231
161 264
162 169
162 272
162 289
163 187
163 229
163 253
163 279
163 296
164 187
164 200
164 239
164 270
165 190
166 198
166 201
166 203
166 205
166 208
166 217
166 219
166 230
166 232
166 234
166 240
166 245
166 248
166 269
166 291
167 168
167 194
167 222
167 235
167 272
167 282
167 284
168 196
168 215
168 228
168 236
168 272
168 276
168 284
169 241
170 173
170 213
171 220
171 227
171 264
172 175
172 199
172 211
172 240
172 296
173 202
173 218
173 224
173 240
173 258
174 180
174 277
175 203
175 230
175 258
175 281
175 288
176 178
176 203
176 227
176 242
177 214
177 220
177 246
177 291
178 188
178 195
178 200
178 224
178 247
178 287
179 276
179 289
180 208
180 225
181 196
181 238
181 241
182 196
182 241
184 205
184 206
184 210
184 216
185 203
186 208
187 193
187 200
187 212
187 222
187 239
187 277
187 279
188 226
189 199
189 283
190 275
191 267
192 198
192 202
192 253
192 255
192 270
192 281
192 300
193 223
193 246
194 200
194 268
194 284
195 266
195 287
195 288
195 296
195 298
196 238
197 223
197 262
197 282
198 202
198 206
198 209
198 221
198 247
198 252
198 256
198 268
198 269
198 291
198 300
199 252
199 285
200 222
200 223
200 247
200 250
200 270
201 205
201 226
201 230
201 237
201 290
202 215
202 221
202 224
202 231
202 243
202 267
202 271
202 300
203 222
203 234
203 242
203 245
203 288
204 212
204 213
204 226
204 235
204 238
204 241
204 260
204 270
204 285
204 287
205 232
205 248
206 208
206 210
206 225
206 239
206 244
206 262
206 269
206 286
206 287
207 211
207 242
207 264
207 265
207 285
208 225
208 232
209 220
209 247
209 250
210 239
210 249
210 271
211 219
211 233
211 295
211 297
212 222
212 254
212 260
212 270
213 238
213 260
213 287
213 293
214 230
214 245
214 260
214 287
215 224
215 228
215 240
215 281
216 235
216 286
217 223
217 234
218 224
218 275
219 222
219 233
219 248
220 223
220 227
220 246
220 262
220 264
220 270
220 272
220 283
221 243
221 256
221 272
221 291
222 248
222 253
222 257
222 282
222 288
223 234
223 262
223 300
225 256
225 269
226 281
227 262
227 268
227 269
227 282
228 236
228 264
228 276
229 243
229 264
229 297
229 299
230 234
230 262
230 263
230 270
230 287
231 240
231 254
231 290
232 249
232 271
233 240
233 252
234 247
235 250
235 282
235 284
235 286
236 257
237 241
237 253
237 295
239 266
239 298
240 290
241 285
241 295
242 258
242 265
242 273
242 285
245 260
245 272
248 263
248 282
248 288
249 271
250 286
251 280
251 299
252 259
252 261
252 269
253 296
254 279
255 262
255 270
256 265
257 263
257 265
257 267
257 278
258 291
259 261
259 271
262 287
263 265
267 278
268 282
269 287
269 300
270 272
272 282
273 285
277 282
278 294
279 300
282 288
283 285
284 285
284 295
284 300
285 294
286 294
287 300
288 296
*Classes
1
1
1
1
1
1
1
1
1
1
1
1
1
1
1
1
1
1
1
1
1
1
1
1
1
1
1
1
1
1
1
1
1
1
1
1
1
1
1
1
1
1
1
1
1
1
1
1
1
1
1
1
1
1
1
1
1
1
1
1
1
1
1
1
1
1
1
1
1
1
1
1
1
1
1
1
1
1
1
1
1
1
1
1
1
1
1
1
1
1
1
1
1
1
1
1
1
1
1
1
1
1
1
1
1
1
1
1
1
1
1
1
1
1
1
1
1
1
1
1
1
1
1
1
1
1
1
1
1
1
1
1
1
1
1
1
1
1
1
1
1
1
1
1
1
1
1
1
1
1
2
2
2
2
2
2
2
2
2
2
2
2
2
2
2
2
2
2
2
2
2
2
2
2
2
2
2
2
2
2
2
2
2
2
2
2
2
2
2
2
2
2
2
2
2
2
2
2
2
2
2
2
2
2
2
2
2
2
2
2
2
2
2
2
2
2
2
2
2
2
2
2
2
2
2
2
2
2
2
2
2
2
2
2
2
2
2
2
2
2
2
2
2
2
2
2
2
2
2
2
2
2
2
2
2
2
2
2
2
2
2
2
2
2
2
2
2
2
2
2
2
2
2
2
2
2
2
2
2
2
2
2
2
2
2
2
2
2
2
2
2
2
2
2
2
2
2
2
2
2
