*Vertices 300
*Edges
1 2
1 64
1 125
1 147
1 278
1 296
1 298
2 18
2 22
2 42
2 52
2 67
2 90
2 114
2 121
2 166
2 170
2 277
2 278
2 293
3 37
3 53
3 61
3 99
3 100
3 109
3 110
3 174
3 185
3 208
3 275
4 23
4 61
4 92
4 111
4 143
4 158
4 232
4 236
4 257
5 53
5 98
5 100
5 112
5 113
5 120
5 197
5 199
5 210
5 224
5 225
6 18
6 40
6 94
6 109
6 166
6 212
6 230
6 245
7 17
7 27
7 42
7 51
7 55
7 57
7 90
7 131
7 193
7 225
7 278
8 45
8 48
8 78
8 99
8 100
8 236
8 252
8 288
9 59
9 81
9 156
10 33
10 44
10 59
10 140
11 25
11 48
11 70
11 132
11 224
11 283
12 58
12 101
12 104
12 158
12 210
12 243
13 35
13 37
13 42
13 77
13 99
13 122
13 203
13 221
13 288
14 18
14 104
14 132
14 143
14 243
15 54
15 83
15 110
15 147
15 160
15 212
15 269
15 297
15 298
16 35
16 43
16 69
16 77
16 96
16 122
16 128
16 177
16 216
17 43
17 56
17 83
17 132
17 176
17 214
17 236
18 25
18 53
18 68
18 90
18 95
18 137
18 210
18 243
18 245
18 251
18 280
19 31
19 33
19 64
19 204
19 221
20 28
20 114
20 115
20 136
20 216
20 237
20 242
21 26
21 40
21 68
21 113
21 118
21 119
21 171
21 196
21 253
21 266
22 34
22 83
22 114
22 119
22 121
22 230
23 61
23 66
23 143
23 208
23 242
23 247
24 32
24 87
24 207
24 245
25 70
25 126
25 137
25 145
25 177
26 60
26 94
26 147
26 171
26 241
27 118
27 131
27 171
27 176
27 253
28 85
28 115
28 136
29 182
30 191
31 64
31 95
31 101
32 49
32 68
32 85
32 108
32 115
32 282
33 59
33 167
33 198
34 68
34 119
34 176
34 205
34 238
35 43
35 69
35 75
35 77
35 108
35 122
35 226
35 290
36 60
36 75
36 89
36 120
36 129
36 164
36 166
36 178
36 195
36 245
37 38
37 42
37 52
37 64
37 68
37 81
37 161
37 202
37 264
37 269
37 275
37 297
38 59
38 95
38 118
38 194
38 213
39 107
39 112
39 114
39 131
39 138
39 169
39 213
39 260
40 62
40 109
40 131
40 146
40 162
40 222
41 50
41 70
41 74
41 89
41 298
42 52
42 55
42 64
42 73
42 121
42 150
42 154
42 200
42 222
42 236
42 253
42 298
42 300
43 77
43 91
43 122
43 157
43 215
43 278
44 48
44 108
44 186
44 238
44 269
44 270
44 290
44 293
45 48
45 79
45 92
45 199
45 203
45 207
45 252
45 272
46 78
46 96
46 97
46 124
46 160
46 186
46 188
46 218
46 300
47 99
47 107
47 125
47 278
48 56
48 100
48 189
48 254
48 269
49 61
49 84
49 85
49 128
49 148
49 189
49 207
49 299
50 60
50 93
50 206
50 207
50 293
51 57
51 64
51 79
51 121
51 125
51 131
51 212
51 245
51 251
52 81
52 114
52 123
52 163
52 202
53 98
53 210
54 63
54 110
54 138
54 144
54 230
55 57
55 70
55 71
55 75
55 82
55 89
55 90
55 94
55 178
55 200
55 222
55 261
55 282
55 296
56 58
56 60
56 65
56 76
56 92
56 100
56 116
56 138
56 185
56 204
56 214
56 237
56 286
57 85
57 115
58 60
58 65
58 76
58 138
58 142
58 145
58 180
58 231
58 237
58 243
59 61
59 109
59 118
59 156
59 157
59 171
59 175
59 232
59 291
60 116
60 121
60 132
60 194
61 66
61 84
61 87
61 99
61 175
61 208
61 253
61 257
62 70
62 131
62 135
62 146
62 170
62 192
62 222
63 107
63 110
63 137
63 138
63 141
63 289
64 125
64 147
64 266
64 280
65 72
65 76
65 90
65 92
65 107
65 225
65 268
65 273
65 292
66 78
66 94
66 120
66 129
66 179
67 90
67 101
67 113
67 121
67 246
67 292
68 119
68 185
68 216
68 240
68 284
69 111
69 128
69 174
69 218
70 71
70 133
70 137
70 145
70 154
70 192
70 244
70 249
71 74
71 142
71 222
71 287
72 90
72 95
72 149
72 154
72 173
72 209
72 268
72 279
72 281
72 293
72 294
73 101
73 124
73 196
73 259
73 293
73 298
74 129
74 142
74 264
74 267
74 270
74 298
75 89
75 97
75 178
75 203
75 244
75 295
76 97
76 98
76 116
76 130
76 150
77 89
77 98
77 104
77 148
77 169
77 205
77 226
77 258
77 295
78 120
78 124
78 271
78 285
78 290
79 212
80 88
80 105
80 213
81 164
81 187
81 218
81 241
81 245
82 83
82 86
82 89
82 132
82 151
82 263
83 121
83 132
83 147
83 176
83 260
83 270
83 298
85 115
85 128
85 194
85 200
86 89
86 254
86 267
86 284
86 285
87 127
87 180
87 220
88 103
88 109
88 117
88 123
88 165
88 183
89 94
89 120
89 148
89 206
89 208
89 228
89 229
89 258
90 136
90 242
91 176
91 192
91 235
91 252
91 259
92 97
92 107
92 203
92 238
92 248
92 279
93 122
93 128
93 206
93 220
93 230
93 236
93 293
94 109
94 138
94 217
94 242
94 281
95 118
95 122
95 171
95 194
95 217
95 223
95 230
95 273
95 298
96 145
96 170
97 98
97 205
97 218
97 237
97 269
98 100
98 112
98 148
98 150
99 100
99 101
99 143
99 160
99 203
99 246
99 253
100 101
100 112
100 140
101 103
101 128
101 163
101 174
101 249
101 272
101 292
101 300
102 181
103 153
103 165
103 260
103 289
104 114
104 136
104 143
104 210
104 224
104 226
104 250
104 275
105 126
106 122
106 234
106 245
106 289
107 298
108 157
108 206
108 256
108 262
108 288
108 290
109 131
109 174
109 183
110 160
110 185
110 197
110 230
111 128
111 170
111 262
112 120
112 133
112 143
112 146
112 213
112 255
112 283
113 235
113 257
113 292
114 123
114 134
114 142
114 143
114 154
114 169
114 216
114 230
114 231
115 200
115 201
115 202
115 284
116 167
116 286
117 144
117 165
118 171
118 174
118 187
119 136
119 242
119 295
120 124
120 146
120 178
120 228
120 243
121 134
121 156
121 197
121 230
121 234
121 241
122 135
122 194
122 204
122 250
122 293
123 158
123 236
123 247
123 257
123 287
123 299
124 239
124 255
124 259
125 278
127 296
128 207
128 220
128 227
128 272
129 135
129 141
129 142
129 157
129 272
130 131
130 188
130 221
130 264
131 163
131 216
131 291
132 136
132 159
132 206
132 224
132 239
132 250
132 260
133 155
133 227
133 249
133 255
134 177
134 269
134 279
135 170
135 194
135 278
136 150
136 201
136 210
136 229
136 239
136 242
136 276
137 141
137 179
137 208
137 236
137 285
138 139
138 142
138 150
138 180
138 192
138 255
139 150
139 293
140 151
140 205
140 225
140 243
141 200
142 154
142 270
142 297
143 148
143 160
143 213
143 283
144 153
144 176
144 237
144 273
145 246
146 178
146 187
146 215
146 225
146 278
147 152
147 173
147 178
147 241
147 275
148 158
149 247
149 281
149 283
150 151
150 201
150 212
150 220
150 298
151 155
151 173
151 263
152 176
152 178
152 250
152 288
153 155
153 184
153 189
153 196
153 217
153 241
153 267
153 279
153 280
154 236
154 293
154 294
155 171
155 196
155 258
155 259
155 276
155 288
155 290
156 194
156 265
156 268
156 291
156 297
156 298
157 180
157 198
157 219
157 233
157 278
157 285
158 208
158 209
158 222
158 283
158 299
159 220
159 240
159 265
159 291
160 197
160 203
160 207
160 208
160 224
160 287
160 300
161 162
161 181
161 249
161 254
161 291
162 167
162 181
162 202
162 220
162 235
162 258
162 297
163 171
163 173
163 202
163 220
163 282
163 293
164 195
164 245
164 273
165 167
165 173
165 183
165 186
165 235
165 262
165 270
166 170
166 244
166 246
166 256
167 186
167 246
167 275
167 297
168 180
168 185
168 196
168 233
168 282
168 293
168 296
169 201
169 256
169 280
170 196
170 215
170 227
170 228
170 244
170 249
170 278
170 288
171 174
171 176
171 187
171 269
171 288
171 298
173 181
173 209
173 239
173 241
173 262
173 274
174 197
174 214
174 218
174 224
174 289
175 214
175 257
175 289
175 294
176 214
176 288
177 184
177 283
177 287
177 300
178 199
178 222
179 200
179 208
179 236
179 261
179 275
180 184
180 185
180 254
180 277
180 282
181 186
181 214
181 216
181 228
181 236
181 286
181 291
182 194
182 236
183 185
184 205
184 207
184 217
184 224
184 238
184 251
184 254
184 279
184 300
185 202
185 216
185 220
185 282
186 209
186 214
186 218
186 237
186 241
186 262
186 270
186 290
186 293
187 210
187 213
187 268
188 193
188 272
188 293
189 197
189 231
189 241
189 268
190 191
190 200
190 261
191 261
192 215
192 259
192 262
192 278
193 225
193 266
194 200
194 204
194 236
194 237
194 265
195 231
195 270
196 249
196 256
196 259
196 277
196 279
197 224
197 241
197 269
198 233
198 271
198 281
198 282
199 219
199 232
199 242
199 252
200 222
200 234
200 261
200 293
201 202
201 210
201 220
201 225
201 242
201 256
201 280
202 220
202 258
202 280
202 284
202 299
203 294
204 214
204 237
204 244
204 293
204 298
205 207
205 216
205 218
205 223
205 251
205 286
206 273
207 223
207 243
207 245
207 300
208 223
208 228
208 257
208 263
208 292
208 299
209 214
209 291
209 294
210 268
210 275
210 276
210 298
213 260
214 217
214 228
214 257
214 262
214 289
214 291
215 227
215 228
215 271
216 234
216 282
216 284
216 286
217 221
217 226
217 242
217 262
217 279
218 245
218 289
219 232
219 254
219 285
220 225
220 227
220 230
220 250
220 291
220 299
221 242
223 269
223 297
224 226
224 243
225 227
226 259
226 262
230 245
230 293
231 239
231 241
232 242
232 281
233 259
233 281
233 282
233 299
234 241
234 293
235 241
236 244
236 292
236 297
237 244
237 269
237 270
237 274
237 286
238 251
238 269
238 293
239 274
240 260
240 265
242 253
242 281
242 282
242 295
242 299
244 295
245 285
245 290
247 284
247 290
247 299
249 256
249 277
249 283
249 291
250 293
250 299
252 276
253 299
254 267
254 269
256 283
259 278
259 279
260 265
260 289
260 297
261 275
265 297
266 282
266 283
267 270
268 279
268 298
269 297
271 281
275 297
276 288
277 293
279 298
281 282
282 284
282 293
282 296
284 290
285 290
288 290
*Classes
1
1
1
1
1
1
1
1
1
1
1
1
1
1
1
1
1
1
1
1
1
1
1
1
1
1
1
1
1
1
1
1
1
1
1
1
1
1
1
1
1
1
1
1
1
1
1
1
1
1
1
1
1
1
1
1
1
1
1
1
1
1
1
1
1
1
1
1
1
1
1
1
1
1
1
1
1
1
1
1
1
1
1
1
1
1
1
1
1
1
1
1
1
1
1
1
1
1
1
1
1
1
1
1
1
1
1
1
1
1
1
1
1
1
1
1
1
1
1
1
1
1
1
1
1
1
1
1
1
1
1
1
1
1
1
1
1
1
1
1
1
1
1
1
1
1
1
1
1
1
2
2
2
2
2
2
2
2
2
2
2
2
2
2
2
2
2
2
2
2
2
2
2
2
2
2
2
2
2
2
2
2
2
2
2
2
2
2
2
2
2
2
2
2
2
2
2
2
2
2
2
2
2
2
2
2
2
2
2
2
2
2
2
2
2
2
2
2
2
2
2
2
2
2
2
2
2
2
2
2
2
2
2
2
2
2
2
2
2
2
2
2
2
2
2
2
2
2
2
2
2
2
2
2
2
2
2
2
2
2
2
2
2
2
2
2
2
2
2
2
2
2
2
2
2
2
2
2
2
2
2
2
2
2
2
2
2
2
2
2
2
2
2
2
2
2
2
2
2
2
