*Vertices 300
*Edges
1 159
1 232
1 242
2 7
2 63
2 144
2 153
2 157
2 185
2 217
3 4
3 10
3 56
3 59
3 89
3 99
3 114
3 134
3 146
3 241
3 270
4 8
4 26
4 29
4 38
4 45
4 53
4 55
4 65
4 99
4 102
4 108
4 113
4 136
4 146
4 179
4 185
4 205
4 221
4 222
4 271
4 290
5 27
5 57
5 68
5 78
5 81
5 87
5 90
5 94
5 105
5 134
5 177
5 194
5 210
5 279
6 39
6 84
6 106
6 132
6 196
6 216
6 219
6 227
6 246
6 248
6 284
7 28
7 153
7 156
7 207
7 287
8 13
8 24
8 30
8 41
8 55
8 61
8 68
8 194
8 197
8 225
8 249
8 256
9 22
9 35
9 45
9 50
9 55
9 64
9 81
9 86
9 108
9 127
9 171
9 182
9 200
9 201
9 209
9 245
9 257
10 16
10 28
10 86
10 89
10 99
10 115
10 121
10 227
10 241
11 13
11 26
11 68
11 71
11 99
11 100
11 123
11 134
11 141
11 166
11 213
11 237
11 240
11 266
11 268
11 292
12 23
12 34
12 64
12 88
12 89
12 100
12 103
12 106
12 116
12 120
12 160
12 197
12 198
12 209
12 210
12 217
12 258
12 279
12 289
13 62
13 68
13 90
13 94
13 121
13 153
13 180
13 221
13 256
13 283
14 65
14 88
14 89
14 137
14 244
15 136
15 139
15 209
15 224
16 56
16 58
16 89
16 99
16 121
16 129
16 145
16 210
16 277
17 40
17 56
17 88
17 106
17 126
17 147
17 176
18 42
18 49
18 56
18 66
18 70
18 83
18 91
18 143
18 166
18 168
18 182
18 193
18 269
18 270
19 31
19 112
20 31
20 41
20 139
20 179
20 205
20 219
20 252
21 67
21 73
21 79
21 114
21 119
21 138
21 184
21 211
21 249
21 252
21 263
21 274
21 286
22 35
22 81
22 86
22 87
22 151
22 281
23 109
23 116
23 119
23 141
23 172
23 219
24 90
24 134
24 208
24 290
25 71
25 104
25 131
25 216
25 295
26 90
26 102
26 109
26 111
26 172
26 204
26 222
26 264
26 268
27 57
27 99
27 104
27 133
27 134
27 141
27 234
27 262
27 267
27 279
28 86
28 108
28 115
28 121
28 173
28 177
28 227
28 292
29 41
29 76
29 111
29 113
29 115
29 125
29 139
29 160
29 247
29 252
29 271
29 293
30 40
30 52
30 63
30 126
30 153
30 154
30 168
30 172
30 188
30 249
31 50
31 69
31 181
31 211
31 246
31 252
32 41
32 46
32 139
32 140
32 145
33 87
33 94
33 131
33 251
34 44
34 58
34 64
34 202
34 210
34 213
34 236
34 246
34 289
34 296
35 37
35 44
35 64
35 81
35 104
35 108
35 115
35 127
35 130
35 134
35 146
35 154
35 253
36 48
36 59
36 66
36 67
36 70
36 82
36 87
36 97
36 99
36 114
36 119
36 123
36 145
36 150
36 172
36 178
36 300
37 87
37 88
37 89
37 120
37 130
37 136
37 170
37 175
37 184
37 186
37 204
38 45
38 60
38 86
38 108
38 127
38 136
38 182
39 48
39 70
39 82
39 84
39 118
39 145
39 151
39 152
39 187
39 216
39 224
39 281
40 63
40 124
40 126
40 153
40 164
40 183
40 246
40 259
40 261
40 267
41 74
41 125
41 130
41 139
41 204
41 205
41 294
42 51
42 56
42 91
42 144
42 145
42 157
42 160
42 193
42 244
43 71
43 80
43 104
43 119
43 135
43 203
43 299
44 74
44 128
44 130
44 152
44 161
44 253
44 280
45 51
45 61
45 65
45 108
45 111
45 142
45 182
45 254
46 140
46 145
46 162
46 183
46 224
46 230
46 231
46 300
47 51
47 63
47 111
47 115
47 117
47 150
47 167
47 189
47 247
47 265
47 278
47 284
48 53
48 66
48 68
48 70
48 119
48 129
48 226
48 232
49 90
49 91
49 172
50 58
50 69
50 137
50 171
50 181
50 182
50 210
50 291
51 56
51 64
51 111
51 116
51 129
51 145
51 146
51 150
51 157
51 263
52 95
52 129
52 146
52 153
52 237
52 258
52 299
53 72
53 79
53 84
53 102
53 110
53 111
53 119
53 142
54 90
54 127
54 159
54 183
55 64
55 74
55 102
55 104
55 113
55 116
55 135
55 146
55 151
55 156
55 167
55 222
55 245
55 249
55 281
56 59
56 77
56 89
56 91
56 97
56 99
56 106
56 133
56 134
56 135
56 145
56 195
56 298
57 60
57 68
57 81
57 210
57 225
57 244
57 246
58 137
58 156
58 162
58 202
58 210
58 296
59 66
59 67
59 86
59 98
59 99
59 110
59 112
59 116
59 134
59 135
59 144
59 174
59 203
59 247
59 257
60 65
60 66
60 68
60 80
60 108
60 246
61 100
61 131
61 172
61 197
61 205
61 210
61 228
61 249
61 274
62 68
62 78
62 105
62 147
62 150
62 160
62 180
62 206
62 256
63 76
63 126
63 144
63 164
63 167
63 183
63 189
63 191
63 234
63 280
64 106
64 120
64 197
64 217
64 241
64 242
64 263
65 90
65 94
65 108
65 121
65 217
66 82
66 83
66 119
66 143
66 150
66 174
66 223
66 226
67 78
67 103
67 105
67 114
67 141
67 145
67 157
67 158
67 162
67 177
67 181
67 203
67 235
67 246
67 271
67 278
68 90
68 119
68 177
68 194
68 240
68 256
69 157
69 177
70 82
70 91
70 104
70 114
70 118
70 129
70 134
70 135
70 145
70 152
70 232
71 83
71 100
71 104
71 134
71 140
71 158
71 193
71 200
71 251
71 271
71 290
72 84
72 94
72 110
72 112
72 119
72 208
73 79
73 142
73 187
73 195
74 123
74 139
74 146
74 201
74 294
75 83
75 86
75 108
75 116
75 143
75 291
76 115
76 164
76 198
76 234
77 78
77 92
77 97
77 123
77 139
77 181
77 210
77 222
77 300
78 81
78 92
78 97
78 105
78 181
78 210
78 218
78 271
79 111
79 119
79 142
79 189
79 223
79 260
80 104
80 122
80 135
80 140
80 165
80 211
80 246
80 262
80 276
80 289
81 104
81 146
81 153
81 154
81 194
81 215
82 102
82 112
82 118
82 166
82 218
82 219
82 266
82 285
83 104
83 122
83 134
83 143
83 166
83 193
84 101
84 106
84 158
84 214
85 109
85 119
85 126
85 240
86 95
86 108
86 116
86 135
86 177
86 227
86 257
87 94
87 99
87 121
87 125
87 131
87 142
87 151
87 184
87 196
87 231
87 238
87 276
87 283
88 89
88 130
88 147
88 155
88 165
88 184
89 253
89 265
90 94
90 106
90 112
90 127
90 133
90 134
90 141
90 172
90 175
90 261
90 263
90 283
91 105
91 149
91 209
91 251
91 256
92 124
92 165
92 242
92 267
93 115
93 132
93 160
93 194
94 95
94 112
94 121
94 125
94 141
94 167
94 194
94 204
94 217
94 281
94 291
95 116
95 121
95 146
95 283
95 290
96 102
96 117
96 185
96 191
96 278
97 106
97 135
97 221
97 252
97 262
97 300
98 116
98 122
98 126
98 134
98 137
98 242
99 106
99 110
99 123
99 134
99 135
99 229
99 237
99 251
99 292
100 120
100 168
100 178
100 194
100 205
101 145
101 158
101 218
101 251
102 112
102 117
102 119
102 207
102 224
102 232
102 235
102 238
102 266
102 271
103 144
103 160
103 176
103 246
103 275
104 116
104 126
104 134
104 135
104 154
104 180
105 145
105 147
105 152
105 191
105 201
105 202
105 264
105 299
106 132
106 133
106 145
106 157
106 191
106 195
106 196
106 227
106 245
106 284
107 157
107 191
107 243
107 278
107 289
108 111
108 136
108 172
108 182
108 185
108 199
108 269
108 287
109 114
109 126
109 191
109 193
109 200
109 246
109 253
110 111
110 119
110 134
110 141
110 161
110 198
110 202
110 215
110 251
110 274
111 129
111 142
111 146
111 183
111 191
111 220
111 241
111 243
111 252
111 258
112 192
112 249
112 285
113 115
113 222
113 239
113 247
113 293
114 145
114 146
114 148
114 157
114 158
114 162
114 200
114 211
114 232
114 248
114 286
115 130
115 151
115 160
115 164
115 173
115 236
115 252
116 134
116 135
116 150
117 199
117 277
118 168
118 189
118 260
119 141
119 153
119 161
119 192
119 205
119 211
119 218
119 274
119 300
120 139
120 168
120 175
120 258
121 167
121 196
121 281
122 134
122 137
122 194
122 205
123 139
123 229
123 289
123 294
124 143
124 163
124 226
124 281
125 130
125 179
125 215
125 273
125 286
126 134
126 143
126 149
126 164
126 191
126 204
126 246
127 159
127 261
127 265
127 283
127 285
128 158
128 161
128 214
128 253
128 296
129 210
129 258
130 160
130 204
130 274
131 163
131 205
131 235
131 254
131 273
132 157
132 243
132 263
133 146
133 157
133 165
133 182
133 268
133 294
134 152
134 165
134 184
134 194
134 215
134 221
134 242
134 253
135 152
135 167
135 180
135 298
136 186
136 209
136 216
136 231
136 246
136 251
136 277
138 213
138 252
138 298
139 224
139 292
140 182
140 246
140 269
141 175
141 178
141 198
141 203
141 204
141 205
141 213
141 215
141 218
141 221
141 233
141 234
141 239
141 240
141 251
141 263
141 299
142 205
142 235
143 149
143 153
143 218
143 240
143 246
144 174
144 217
144 279
144 288
145 146
145 187
145 199
145 202
145 282
146 234
146 237
147 189
147 230
147 266
148 162
148 165
148 244
149 157
149 252
149 260
149 294
149 296
150 206
150 235
150 267
151 156
151 163
151 171
151 185
151 204
151 205
151 206
151 230
151 239
151 246
151 281
151 283
151 291
151 294
151 297
152 181
152 184
152 194
152 221
152 223
152 253
152 276
153 157
153 164
153 178
153 218
153 267
154 159
154 196
154 249
155 161
155 165
155 242
155 294
156 160
156 162
156 242
156 281
157 191
157 226
157 235
158 207
158 214
158 232
158 235
158 290
158 300
159 171
159 177
159 196
159 205
159 238
159 240
159 242
159 265
160 173
160 242
160 266
161 185
161 222
161 259
161 269
161 274
161 290
162 165
162 184
162 195
162 217
162 224
162 248
162 281
162 294
163 185
163 194
163 234
163 245
163 262
163 270
163 283
164 206
164 231
164 234
164 245
164 266
164 299
165 187
165 195
165 242
165 252
165 266
165 271
165 275
165 294
166 170
166 189
166 192
166 201
166 263
166 265
166 266
166 277
166 281
166 298
166 300
168 175
168 189
168 191
168 200
168 209
168 277
169 258
170 182
170 192
170 255
170 269
171 205
171 224
171 238
171 239
171 241
171 247
171 257
171 271
171 283
171 294
172 178
172 188
172 204
172 208
172 218
172 219
172 231
172 249
172 259
172 260
172 292
173 180
173 250
173 284
174 177
174 235
174 240
174 282
175 233
175 239
176 194
176 197
176 236
176 271
176 274
176 275
176 276
176 295
177 235
177 240
178 215
178 225
178 267
179 215
179 216
179 271
179 279
180 194
180 222
180 230
180 250
180 254
180 260
180 297
181 188
181 194
181 229
181 244
181 249
181 253
181 276
181 278
182 220
182 234
182 269
182 299
183 191
183 220
183 223
183 243
183 261
183 284
184 204
184 227
184 238
184 246
184 248
184 253
184 289
184 297
185 238
185 247
185 255
185 269
185 270
185 294
186 204
186 216
186 228
186 258
186 266
187 205
187 224
187 238
187 245
187 271
187 275
187 298
188 227
188 242
188 249
188 252
188 297
189 200
189 209
189 223
189 266
189 286
190 219
190 265
190 268
190 286
191 209
191 243
192 249
192 253
192 255
192 261
192 263
192 266
192 268
192 298
193 200
193 207
193 218
193 221
193 251
193 266
193 273
194 197
194 229
194 234
194 244
194 260
194 283
195 198
195 217
195 228
196 231
196 246
197 208
197 231
197 236
197 249
197 274
197 276
198 228
198 277
198 289
198 300
199 213
199 282
199 287
200 206
200 242
200 255
200 266
200 286
201 265
201 281
201 300
202 210
202 247
202 254
202 288
203 240
204 205
204 228
204 234
204 235
204 246
204 249
204 271
204 277
205 208
205 235
205 239
205 252
205 257
205 261
205 271
205 277
205 298
206 220
206 230
206 266
206 287
206 293
207 232
207 273
208 211
208 219
208 229
208 231
208 249
208 265
208 272
208 277
208 278
208 292
209 211
209 217
209 229
209 233
209 255
209 256
209 277
209 278
209 300
210 212
210 225
210 228
210 291
211 238
211 255
211 262
211 265
211 272
212 229
212 238
212 242
215 218
215 221
215 222
216 217
216 219
216 227
216 268
217 219
217 279
217 289
218 219
218 221
218 251
218 267
219 239
219 251
219 252
219 259
219 260
219 266
219 286
219 292
220 243
220 250
220 269
220 290
220 293
220 295
221 222
221 242
221 259
221 262
221 270
222 230
222 259
222 266
222 269
223 253
223 260
224 238
224 255
224 279
225 235
225 256
225 267
225 278
227 232
227 239
227 297
228 277
229 233
229 242
229 266
230 235
230 266
230 281
230 294
230 300
231 234
231 238
231 246
231 255
231 276
232 273
232 297
233 239
233 256
234 245
234 246
234 262
234 267
234 278
234 298
234 299
235 267
235 276
235 290
235 300
236 294
236 296
237 258
238 241
238 242
238 246
238 248
238 255
239 252
239 260
239 261
239 293
239 297
241 259
241 270
241 283
241 289
242 249
242 252
242 263
242 266
242 294
244 272
245 275
245 298
246 249
246 255
246 283
246 289
246 291
246 297
247 257
247 288
249 252
249 255
249 292
250 253
250 265
250 292
250 293
250 298
251 274
251 296
252 260
252 297
253 265
253 293
254 260
255 262
255 268
255 270
255 277
255 286
256 277
256 282
258 284
258 291
259 286
259 292
260 292
260 297
261 271
261 284
261 298
262 270
263 300
265 268
265 285
266 268
266 292
267 278
269 270
269 290
269 294
269 295
275 276
277 278
277 300
278 284
278 289
278 300
283 291
284 291
284 298
286 296
291 297
293 295
294 296
*Classes
1
1
1
1
1
1
1
1
1
1
1
1
1
1
1
1
1
1
1
1
1
1
1
1
1
1
1
1
1
1
1
1
1
1
1
1
1
1
1
1
1
1
1
1
1
1
1
1
1
1
1
1
1
1
1
1
1
1
1
1
1
1
1
1
1
1
1
1
1
1
1
1
1
1
1
1
1
1
1
1
1
1
1
1
1
1
1
1
1
1
1
1
1
1
1
1
1
1
1
1
1
1
1
1
1
1
1
1
1
1
1
1
1
1
1
1
1
1
1
1
1
1
1
1
1
1
1
1
1
1
1
1
1
1
1
1
1
1
1
1
1
1
1
1
1
1
1
1
1
1
2
2
2
2
2
2
2
2
2
2
2
2
2
2
2
2
2
2
2
2
2
2
2
2
2
2
2
2
2
2
2
2
2
2
2
2
2
2
2
2
2
2
2
2
2
2
2
2
2
2
2
2
2
2
2
2
2
2
2
2
2
2
2
2
2
2
2
2
2
2
2
2
2
2
2
2
2
2
2
2
2
2
2
2
2
2
2
2
2
2
2
2
2
2
2
2
2
2
2
2
2
2
2
2
2
2
2
2
2
2
2
2
2
2
2
2
2
2
2
2
2
2
2
2
2
2
2
2
2
2
2
2
2
2
2
2
2
2
2
2
2
2
2
2
2
2
2
2
2
2
