*Vertices 300
*Edges
1 3
1 13
1 80
1 144
1 157
1 182
1 269
1 276
1 285
1 288
2 7
2 10
2 19
2 25
2 99
2 111
2 198
2 269
2 281
3 82
3 95
3 114
3 141
3 146
3 162
3 173
3 181
3 185
3 250
3 257
3 269
3 285
4 36
4 58
4 86
4 104
4 158
4 177
4 252
5 12
5 20
5 93
5 118
5 145
5 148
5 153
5 167
5 173
5 184
5 217
5 237
5 242
5 256
6 80
6 93
6 109
6 224
6 292
7 18
7 111
7 168
7 283
8 55
8 56
8 67
8 86
8 104
8 211
8 255
8 292
8 300
9 25
9 77
9 114
9 138
9 141
9 156
9 159
9 194
9 222
9 232
9 259
9 269
9 279
9 289
10 25
10 49
10 53
10 101
10 128
10 133
10 209
10 242
11 75
11 114
11 186
11 248
12 18
12 98
12 155
12 209
12 210
13 29
13 33
13 42
13 65
13 72
13 74
13 87
13 112
13 144
13 193
13 232
13 240
13 288
14 27
14 35
14 101
14 104
14 107
14 133
14 173
14 190
14 193
14 279
14 297
14 300
15 32
15 58
15 70
15 103
15 134
15 185
15 195
15 219
15 231
15 236
15 251
15 252
15 256
16 34
16 35
16 57
16 76
16 79
16 84
16 91
16 131
16 145
16 199
16 218
16 231
16 236
16 254
16 277
16 289
16 299
17 18
17 96
17 101
17 126
17 155
17 167
17 174
17 208
17 295
18 101
18 109
18 116
18 155
18 197
18 247
19 27
19 61
19 70
19 98
19 100
19 106
19 172
19 235
20 28
20 29
20 61
20 79
20 107
20 114
20 139
20 154
20 221
20 225
20 237
20 251
20 282
21 90
21 104
21 107
21 109
21 176
21 196
21 289
21 292
21 296
22 88
22 141
22 147
22 212
22 218
23 74
23 75
23 115
23 123
23 164
23 195
23 206
23 258
24 61
24 87
24 117
24 118
24 169
24 188
24 197
24 207
24 240
24 275
25 34
25 58
25 69
25 77
25 92
25 138
25 149
25 150
25 159
25 162
25 192
25 194
25 201
25 216
25 225
25 249
25 281
26 63
26 64
26 66
26 135
26 150
26 204
26 225
26 248
26 276
26 300
27 61
27 84
27 179
27 201
27 220
27 227
27 235
27 244
27 286
27 300
28 79
28 90
28 95
28 103
28 155
28 185
28 206
28 207
28 225
28 229
29 79
29 83
29 88
29 93
29 100
29 112
29 115
29 124
29 142
29 151
29 159
29 172
29 179
29 208
29 221
29 256
29 269
29 285
30 46
30 96
30 123
30 131
30 180
30 230
30 238
30 239
30 283
31 59
31 78
31 86
31 197
31 285
31 291
32 42
32 60
32 136
32 231
32 235
32 236
32 300
33 39
33 48
33 155
33 176
33 184
33 188
33 191
33 197
33 209
33 218
33 269
34 78
34 92
34 114
34 150
34 162
34 178
34 218
34 229
34 254
35 128
35 145
35 146
35 168
35 274
36 43
36 58
36 67
36 148
36 177
36 230
36 242
37 96
37 113
37 125
37 143
37 246
38 41
38 43
38 71
38 168
38 175
38 195
38 210
38 288
38 295
39 52
39 95
39 128
39 139
39 189
39 211
39 215
39 218
39 221
39 236
39 300
40 73
40 77
40 85
40 113
40 136
40 145
40 170
40 181
40 191
40 216
40 265
40 270
40 296
41 54
41 71
41 168
41 176
41 265
42 60
42 65
42 72
42 121
42 131
42 146
42 159
42 212
42 236
42 240
42 244
42 272
43 60
43 71
43 96
43 151
43 164
43 167
43 180
43 213
43 230
43 237
43 242
44 71
44 73
44 126
44 157
44 186
44 209
44 211
44 238
44 265
45 50
45 87
45 96
45 119
45 122
45 171
45 176
45 212
45 241
45 251
45 255
45 289
46 53
46 96
46 105
46 130
46 230
46 260
47 64
47 86
47 92
47 111
47 149
47 189
47 190
47 243
47 244
47 264
47 278
47 286
48 54
48 109
48 176
48 184
48 191
48 266
48 282
49 63
49 104
49 105
49 133
49 134
49 190
49 245
49 253
50 61
50 125
50 140
50 153
50 196
50 216
50 221
50 251
50 274
51 138
51 185
51 234
51 264
52 89
52 109
52 136
52 218
52 245
53 96
53 121
53 201
53 223
53 262
53 280
54 102
54 174
54 176
54 197
54 261
54 280
54 295
55 58
55 86
55 88
55 93
55 100
55 170
55 182
55 190
55 194
55 273
56 74
56 104
56 137
56 164
56 215
56 231
56 246
56 250
56 254
56 279
57 75
57 87
57 152
58 86
58 93
58 133
58 142
58 150
58 159
58 170
58 180
58 219
58 230
58 245
58 254
58 287
58 290
59 72
59 112
59 122
59 202
60 121
60 132
60 146
60 272
60 284
61 134
61 153
61 169
61 198
61 225
61 269
61 286
61 300
62 79
62 114
63 66
63 67
63 76
63 108
63 114
63 116
63 148
63 150
63 169
63 190
63 199
63 290
64 125
64 135
64 150
64 166
64 189
64 220
64 264
64 300
65 77
65 104
65 113
65 189
65 190
65 226
66 89
66 169
66 190
66 226
66 248
66 292
67 79
67 104
67 112
67 114
67 149
67 169
67 204
67 224
68 73
68 82
68 85
68 90
68 101
68 111
68 131
68 159
68 161
68 171
68 173
68 228
68 277
68 279
68 284
69 127
69 159
69 271
70 140
70 142
70 191
70 236
71 150
71 151
72 74
72 85
72 112
72 115
72 122
72 137
72 171
72 193
72 220
72 272
72 293
72 300
73 78
73 132
73 145
73 147
73 173
73 186
73 191
73 273
73 296
74 85
74 86
74 152
74 157
74 206
74 214
74 254
74 257
74 280
74 297
75 115
75 148
75 188
75 248
76 77
76 129
76 146
76 148
76 161
76 216
76 266
77 85
77 108
77 113
77 125
77 149
77 159
77 160
77 164
77 172
77 182
77 192
77 201
77 204
77 216
77 219
77 256
77 267
77 293
78 95
78 145
78 148
78 149
78 197
79 84
79 88
79 114
79 183
79 221
79 225
79 229
79 282
80 100
80 172
80 189
80 275
81 96
81 193
81 284
82 101
82 109
82 111
82 129
82 131
82 133
82 137
82 140
82 168
82 174
82 176
82 214
82 221
82 250
82 280
82 295
83 127
83 162
83 235
83 256
83 259
83 300
84 88
84 110
84 115
84 136
84 148
84 168
84 179
85 108
85 117
85 122
85 124
85 137
85 171
85 182
85 201
85 212
85 255
85 261
85 272
85 277
85 289
85 292
85 293
86 93
86 104
86 136
86 190
86 214
86 226
86 252
86 273
86 285
86 288
87 96
87 169
87 193
87 221
87 246
88 114
88 141
88 146
88 239
89 100
89 116
89 136
89 189
89 211
89 226
89 238
89 245
90 103
90 131
90 156
90 236
90 285
90 289
91 92
91 94
91 111
91 181
91 269
91 291
91 299
92 110
92 111
92 162
92 163
92 181
92 204
92 221
92 246
92 249
92 260
92 269
93 98
93 99
93 100
93 175
93 219
93 220
93 237
93 254
94 141
94 211
94 299
95 142
95 146
95 149
95 204
95 221
95 229
95 237
95 246
96 105
96 127
96 167
96 170
96 193
96 195
97 226
97 227
98 106
98 107
98 186
98 212
98 247
98 254
99 237
99 240
99 242
100 116
100 117
100 137
100 159
100 170
100 172
100 175
100 179
100 191
100 222
100 227
100 256
100 271
100 275
100 279
101 109
101 128
101 133
101 140
101 141
101 159
101 171
101 231
101 236
101 292
102 133
102 157
102 176
102 211
102 220
102 231
102 250
102 268
103 114
103 160
103 170
103 174
103 177
103 185
103 205
103 221
103 254
103 285
104 190
104 193
104 206
104 211
104 279
105 130
105 245
105 260
106 126
106 179
106 183
106 209
107 114
107 125
107 173
107 183
107 216
107 254
107 269
107 296
107 297
108 160
108 164
108 199
108 201
108 235
108 237
108 240
108 251
108 294
109 116
109 176
109 188
109 194
109 292
110 134
110 168
110 172
110 179
111 135
111 138
111 229
111 236
111 241
111 243
111 247
111 255
112 115
112 144
112 197
112 200
112 224
112 285
113 116
113 164
113 190
113 246
113 256
113 270
113 274
114 124
114 139
114 174
114 177
114 183
114 251
114 269
115 128
115 148
115 194
115 217
115 273
115 284
115 287
116 148
116 211
116 239
116 256
116 271
116 275
117 137
117 169
117 178
117 187
117 275
118 188
118 193
118 207
118 222
118 232
118 233
118 272
118 275
119 134
119 271
120 121
120 123
120 241
121 139
121 212
121 236
122 251
123 138
123 180
123 205
123 244
123 289
124 137
124 142
124 159
124 162
124 174
124 177
124 179
124 257
124 269
125 143
125 172
125 216
125 224
125 233
125 251
125 274
126 148
126 151
126 161
126 183
126 189
126 211
127 135
127 159
127 181
127 236
127 259
128 129
128 159
128 175
128 218
128 252
128 274
129 146
129 168
129 173
129 188
129 205
129 207
129 210
129 219
129 221
129 245
129 272
129 298
130 145
131 148
131 236
131 239
132 147
132 153
132 272
133 162
133 180
133 243
133 257
133 268
134 219
135 146
135 152
135 165
135 234
135 241
135 244
135 258
136 171
136 202
136 212
136 265
137 140
137 160
137 171
137 172
137 196
137 215
137 275
138 180
138 199
138 227
138 230
138 234
138 236
138 255
138 273
139 206
139 236
139 275
139 279
140 203
140 234
140 236
140 238
140 241
140 262
141 146
141 232
141 239
141 279
141 282
141 284
141 298
142 157
142 159
142 162
142 191
142 193
142 211
142 236
142 237
142 244
142 251
142 290
143 218
143 233
143 255
143 292
144 159
144 165
144 171
144 219
144 251
144 298
145 148
145 199
145 278
146 165
146 168
146 173
146 181
146 233
146 246
146 284
146 290
147 176
147 184
147 212
147 221
147 235
147 270
147 294
147 297
147 300
148 161
148 166
148 230
148 236
148 266
148 287
148 289
148 296
149 204
150 151
150 159
150 170
150 222
150 231
150 261
150 296
151 218
151 257
152 153
152 157
152 166
152 173
152 206
152 243
152 244
152 267
152 289
153 157
153 173
153 221
153 254
154 167
154 211
154 225
154 226
154 258
154 273
154 288
155 185
155 208
155 209
155 210
155 221
155 229
155 259
155 285
156 216
156 222
156 232
156 252
156 253
157 173
157 182
157 189
157 211
157 214
157 225
157 251
157 280
157 288
157 300
158 259
159 175
159 188
159 192
159 194
159 219
159 226
159 244
159 277
159 292
160 193
160 201
160 205
160 232
161 171
161 183
161 228
161 253
161 293
161 297
162 188
162 204
162 222
162 232
162 240
162 257
162 260
162 287
162 290
163 234
163 237
163 242
163 249
163 284
163 287
164 183
164 242
164 245
164 267
164 270
165 186
165 210
165 234
165 244
165 295
166 300
167 172
167 173
167 184
167 198
167 217
167 273
167 279
167 283
168 178
168 179
168 272
168 275
168 290
169 190
169 290
170 177
170 185
170 191
171 189
171 199
171 226
171 251
171 255
171 261
171 277
171 292
172 175
172 179
172 216
172 222
172 233
172 279
173 228
173 233
173 273
173 300
174 175
174 176
174 183
174 241
174 295
174 296
175 176
175 195
175 277
175 296
176 196
176 212
177 185
177 223
177 226
177 292
178 179
178 187
178 275
178 296
179 193
179 224
180 219
180 243
180 298
181 186
181 237
181 240
181 288
181 293
181 296
181 299
182 257
182 273
183 245
183 293
184 252
184 269
184 282
184 297
185 192
185 242
185 256
185 292
186 238
186 239
186 240
186 248
186 257
186 275
187 248
187 279
188 194
188 197
188 254
188 260
188 267
188 285
188 286
189 211
189 226
189 279
189 293
189 300
190 253
190 259
190 285
191 198
191 218
191 250
191 265
191 269
192 219
192 232
192 242
192 255
192 259
192 266
192 298
193 218
193 221
193 224
193 232
193 233
193 237
193 259
193 269
194 196
194 223
194 273
195 226
195 234
195 256
195 262
195 264
195 291
196 212
196 226
196 251
197 208
197 209
197 218
197 247
197 254
197 285
198 250
198 269
198 283
199 234
199 242
199 271
199 294
200 214
201 205
201 216
201 222
201 235
201 300
203 262
204 276
204 278
205 221
205 248
206 207
206 251
206 282
206 297
206 299
207 233
207 258
207 275
207 276
207 298
208 209
208 229
208 285
208 288
209 215
209 245
210 280
210 288
210 295
211 215
211 216
211 218
211 225
211 239
211 251
211 254
211 256
211 279
211 283
211 300
212 215
212 221
212 229
212 238
212 246
212 254
212 258
212 289
212 291
213 242
214 228
214 257
215 221
216 233
216 248
216 253
216 272
216 279
216 297
217 238
217 243
217 273
217 283
217 287
218 233
218 257
219 251
219 255
219 266
219 280
219 295
219 298
219 299
220 254
220 300
221 229
221 246
221 248
221 269
222 231
222 232
222 233
222 235
223 273
223 292
224 226
224 292
225 279
225 282
226 252
226 288
226 291
226 292
227 235
227 273
228 234
228 241
228 288
229 247
230 239
230 296
231 235
231 246
231 250
231 299
232 246
232 250
232 252
232 259
232 267
232 274
233 248
233 284
234 237
234 238
234 241
234 244
234 262
234 264
234 288
235 259
235 300
236 252
236 255
236 279
237 240
237 242
237 244
237 254
237 256
238 257
238 289
239 252
239 257
239 279
239 283
239 284
239 286
239 287
240 242
240 248
240 260
240 275
241 251
241 264
241 295
242 271
242 285
242 291
243 244
243 285
243 291
244 264
244 269
244 286
244 289
245 246
245 250
246 250
246 258
246 259
247 254
247 255
248 254
248 257
249 263
250 258
250 298
251 280
251 295
252 269
252 285
253 272
255 265
255 272
255 292
261 266
261 283
261 286
263 264
263 298
264 278
269 282
269 289
270 286
271 281
271 285
272 292
280 295
280 299
282 289
282 291
282 293
282 298
282 299
283 286
284 287
285 291
287 290
289 291
289 299
291 293
293 296
293 299
298 299
*Classes
1
1
1
1
1
1
1
1
1
1
1
1
1
1
1
1
1
1
1
1
1
1
1
1
1
1
1
1
1
1
1
1
1
1
1
1
1
1
1
1
1
1
1
1
1
1
1
1
1
1
1
1
1
1
1
1
1
1
1
1
1
1
1
1
1
1
1
1
1
1
1
1
1
1
1
1
1
1
1
1
1
1
1
1
1
1
1
1
1
1
1
1
1
1
1
1
1
1
1
1
1
1
1
1
1
1
1
1
1
1
1
1
1
1
1
1
1
1
1
1
1
1
1
1
1
1
1
1
1
1
1
1
1
1
1
1
1
1
1
1
1
1
1
1
1
1
1
1
1
1
2
2
2
2
2
2
2
2
2
2
2
2
2
2
2
2
2
2
2
2
2
2
2
2
2
2
2
2
2
2
2
2
2
2
2
2
2
2
2
2
2
2
2
2
2
2
2
2
2
2
2
2
2
2
2
2
2
2
2
2
2
2
2
2
2
2
2
2
2
2
2
2
2
2
2
2
2
2
2
2
2
2
2
2
2
2
2
2
2
2
2
2
2
2
2
2
2
2
2
2
2
2
2
2
2
2
2
2
2
2
2
2
2
2
2
2
2
2
2
2
2
2
2
2
2
2
2
2
2
2
2
2
2
2
2
2
2
2
2
2
2
2
2
2
2
2
2
2
2
2
