*Vertices 300
*Edges
1 95
1 96
1 249
2 12
2 22
2 26
2 35
2 86
2 87
2 92
2 96
2 117
2 118
2 129
2 220
2 245
2 287
3 60
3 72
3 82
4 9
4 32
4 41
4 61
4 64
4 94
4 128
4 132
4 135
4 149
4 162
4 193
4 228
4 279
5 15
5 64
5 66
5 78
5 80
5 119
5 143
5 148
5 163
5 180
5 203
6 9
6 38
6 53
6 115
6 126
6 132
6 160
6 228
6 245
6 247
7 17
7 212
7 245
8 42
8 62
8 128
8 129
8 147
8 149
8 210
8 240
9 41
9 88
9 126
9 249
9 263
10 17
10 37
10 51
10 95
10 118
10 121
10 163
10 238
10 299
11 22
11 45
11 88
11 114
11 118
11 194
11 246
11 289
12 35
12 69
12 230
12 260
12 268
12 269
12 276
13 27
13 37
13 44
13 173
13 199
14 18
14 24
14 28
14 35
14 48
14 73
14 83
14 85
14 99
14 114
14 120
14 135
14 157
14 243
15 55
15 65
15 103
15 148
15 207
15 238
15 244
15 247
16 54
16 71
16 76
16 91
16 166
17 37
17 39
17 44
17 68
17 72
17 73
17 79
17 85
17 99
17 114
17 118
17 212
17 256
18 28
18 70
18 97
18 209
19 21
19 56
19 70
19 72
19 73
19 86
19 118
19 240
19 298
20 80
20 86
20 179
20 204
20 287
21 46
21 56
21 67
21 72
21 84
21 89
21 271
22 35
22 87
22 92
22 117
22 156
22 207
23 73
23 118
23 174
23 216
23 261
24 35
24 39
24 77
24 123
24 134
24 146
24 148
24 248
24 251
24 263
24 265
25 159
25 164
25 209
25 227
25 288
26 87
26 110
26 285
26 298
27 44
27 81
27 92
27 173
28 99
28 120
28 135
28 227
28 233
28 291
29 45
29 70
29 89
29 141
30 65
30 75
30 85
30 142
30 266
30 269
30 280
31 60
31 89
31 237
32 40
32 41
32 61
32 64
32 122
32 160
32 207
33 124
33 150
33 183
33 197
33 219
34 62
34 101
34 297
34 300
35 54
35 81
35 92
35 96
35 117
35 146
35 147
35 148
35 194
35 198
35 207
35 265
35 280
36 137
36 194
36 242
37 83
37 87
37 129
38 167
38 234
38 239
38 252
39 53
39 60
39 99
39 105
39 112
39 116
39 123
39 134
39 143
39 286
40 45
40 53
40 82
40 90
40 122
40 126
40 135
40 149
40 153
40 201
40 229
40 277
41 61
41 94
41 100
41 128
41 140
41 154
42 129
42 147
42 166
42 268
42 279
43 98
43 106
43 120
43 236
43 239
43 249
43 292
44 59
44 99
44 101
44 121
44 131
44 164
44 190
44 207
44 219
44 231
45 70
45 89
45 114
45 132
46 93
46 218
46 299
47 81
47 87
47 92
47 103
47 227
48 66
48 136
48 263
49 56
49 63
49 70
49 75
49 90
49 115
49 127
49 130
49 132
49 149
49 189
49 198
49 210
50 124
50 141
50 184
50 259
51 133
51 254
52 161
52 170
52 199
52 256
52 275
53 73
53 76
53 105
53 122
53 126
53 143
53 248
54 63
54 91
54 96
54 115
54 210
54 270
55 204
55 233
55 263
55 287
56 70
56 118
56 198
57 146
57 166
57 192
57 194
57 211
57 227
57 251
58 131
58 142
58 264
58 283
59 121
59 228
60 82
60 99
60 138
60 183
60 200
61 72
61 162
61 218
62 101
62 129
62 153
62 181
63 208
63 210
63 240
63 259
64 66
64 158
64 164
64 196
64 256
64 267
64 272
65 75
65 85
65 130
65 165
65 226
65 244
66 80
66 89
66 132
66 160
66 213
66 257
67 84
67 150
67 292
68 72
68 78
68 99
68 131
68 229
68 247
68 253
69 81
69 100
69 139
69 260
69 270
69 289
70 113
70 141
70 155
70 250
71 169
71 250
71 253
71 287
72 74
72 79
72 99
72 130
72 138
72 251
73 86
73 118
73 120
73 143
73 148
73 202
74 115
74 130
74 134
74 182
75 90
75 142
75 149
75 157
75 168
75 224
76 91
76 159
76 278
77 123
77 144
77 204
77 224
77 226
78 99
78 119
78 148
78 173
78 233
78 283
79 99
79 105
79 108
79 168
79 217
79 248
80 86
80 196
80 258
81 92
81 103
81 139
81 194
81 270
81 281
82 111
82 199
83 99
83 102
84 91
85 99
85 114
85 127
85 192
85 268
86 118
87 129
87 191
87 199
87 235
87 241
87 276
87 300
88 114
88 118
88 155
88 216
88 236
88 246
88 252
88 267
89 132
89 186
89 220
89 237
89 271
90 93
90 122
90 149
90 234
91 204
91 212
91 239
91 292
92 146
92 155
92 173
92 262
93 135
93 239
93 265
93 298
94 105
94 124
94 140
94 150
94 198
94 279
95 96
95 126
95 183
95 194
95 272
96 115
96 210
96 246
97 121
97 178
97 196
97 256
97 283
98 120
98 152
98 212
98 220
98 251
98 256
99 101
99 114
99 199
100 110
100 139
100 228
100 270
100 272
101 172
101 185
101 233
102 202
103 170
103 201
103 223
103 283
104 116
104 180
104 200
104 226
104 235
104 278
104 280
104 285
105 126
105 143
105 160
105 162
105 188
105 229
105 234
105 237
105 257
105 273
105 284
106 200
106 220
106 270
107 194
107 220
107 221
107 269
107 294
108 157
108 192
109 219
109 294
110 139
110 160
110 175
110 187
110 203
110 251
110 277
110 282
110 294
111 153
111 283
112 116
112 271
113 122
113 180
114 145
114 207
114 217
114 260
114 286
114 291
115 127
115 130
115 132
115 192
115 244
116 157
116 213
117 147
117 205
117 247
117 249
117 254
117 279
118 200
118 201
119 131
119 184
119 208
119 219
119 241
119 272
120 241
120 285
121 154
121 170
121 196
121 254
122 135
122 159
122 183
122 247
122 263
123 126
123 251
123 253
124 126
124 136
124 141
124 150
124 153
124 185
124 190
124 201
124 247
125 172
125 190
125 194
125 252
125 297
126 141
126 192
126 254
126 268
126 295
127 132
127 223
127 228
127 255
128 149
128 291
128 293
129 223
129 292
130 134
130 200
130 206
130 243
130 280
131 151
131 164
131 175
131 248
131 269
131 279
132 135
132 181
132 204
132 213
132 229
132 290
133 152
133 172
133 262
133 299
135 166
135 193
135 207
135 219
136 201
136 208
136 285
136 289
137 202
138 238
138 255
139 161
139 165
140 141
140 150
140 193
140 213
141 215
141 247
141 252
141 263
141 284
142 289
143 145
143 148
143 192
143 218
144 156
144 192
144 220
144 297
145 187
145 207
145 240
145 283
147 188
147 189
147 292
148 215
148 256
148 257
149 162
149 265
149 291
150 281
150 294
150 298
151 159
151 168
151 206
151 212
151 219
151 229
151 234
151 238
151 258
151 263
151 273
151 285
152 241
152 251
152 264
152 299
153 277
154 173
154 175
154 191
154 195
154 227
154 300
155 170
155 204
155 226
155 235
155 256
155 274
156 158
156 166
156 201
156 207
156 209
156 220
156 279
157 158
157 168
157 176
157 211
157 228
157 266
157 272
157 293
158 159
158 160
158 170
158 171
158 175
158 195
158 200
158 207
158 209
158 218
158 255
158 258
158 272
159 202
159 230
159 236
159 238
159 258
159 268
160 170
160 171
160 195
160 228
160 260
160 273
161 164
161 204
161 217
161 274
161 298
162 182
162 204
162 227
162 229
162 258
162 259
162 263
162 266
162 274
162 294
162 295
163 180
163 223
163 261
164 172
164 190
164 284
165 173
165 177
165 196
165 200
165 212
165 230
165 263
165 270
166 219
166 237
166 240
167 181
167 192
168 209
168 238
168 260
168 266
168 272
169 237
169 250
169 300
170 195
170 199
170 221
170 229
170 235
170 255
170 266
170 270
170 300
171 200
171 204
171 229
171 237
171 255
171 267
171 272
171 278
172 179
172 190
172 204
172 226
172 271
173 196
174 206
174 278
175 195
175 218
176 188
176 191
176 272
177 200
177 202
177 218
177 222
178 186
178 218
178 246
178 248
178 284
178 294
179 190
180 225
180 247
180 264
180 288
180 299
181 192
181 194
181 224
181 265
182 187
182 239
182 283
182 294
183 223
183 254
184 281
185 212
185 263
185 265
186 191
186 212
186 241
186 248
186 284
186 295
186 299
188 280
190 284
191 212
191 272
191 284
192 245
192 254
193 221
193 241
194 211
194 215
194 224
194 270
195 218
195 221
195 266
195 300
196 200
196 212
198 290
200 222
200 270
200 278
201 207
201 214
201 219
201 223
202 264
202 268
203 240
203 255
203 268
204 226
204 255
204 256
204 265
204 271
204 274
204 280
206 212
206 261
206 263
206 279
206 287
207 209
207 222
207 265
207 272
209 222
209 231
209 266
210 276
211 215
211 216
211 270
212 229
212 230
212 263
212 270
212 285
213 247
214 247
214 288
215 243
215 264
215 270
216 300
217 245
217 288
218 222
218 284
219 234
219 240
219 273
220 259
221 242
221 269
223 249
223 254
223 261
224 265
226 280
228 260
228 277
229 247
229 252
229 255
229 259
229 261
229 263
229 272
229 295
230 249
233 259
233 264
233 299
234 252
235 269
236 239
236 250
236 264
236 268
237 255
237 300
239 267
239 283
239 291
240 255
240 270
241 264
241 288
241 299
242 293
243 277
244 247
246 289
246 294
247 288
248 295
250 264
251 294
252 259
252 287
255 259
255 267
255 270
255 285
256 274
256 275
258 268
258 272
258 295
259 287
260 277
261 263
262 296
263 272
263 279
263 285
264 299
265 283
265 291
267 278
267 291
271 285
273 286
283 294
288 299
289 294
290 293
294 296
*Classes
1
1
1
1
1
1
1
1
1
1
1
1
1
1
1
1
1
1
1
1
1
1
1
1
1
1
1
1
1
1
1
1
1
1
1
1
1
1
1
1
1
1
1
1
1
1
1
1
1
1
1
1
1
1
1
1
1
1
1
1
1
1
1
1
1
1
1
1
1
1
1
1
1
1
1
1
1
1
1
1
1
1
1
1
1
1
1
1
1
1
1
1
1
1
1
1
1
1
1
1
1
1
1
1
1
1
1
1
1
1
1
1
1
1
1
1
1
1
1
1
1
1
1
1
1
1
1
1
1
1
1
1
1
1
1
1
1
1
1
1
1
1
1
1
1
1
1
1
1
1
2
2
2
2
2
2
2
2
2
2
2
2
2
2
2
2
2
2
2
2
2
2
2
2
2
2
2
2
2
2
2
2
2
2
2
2
2
2
2
2
2
2
2
2
2
2
2
2
2
2
2
2
2
2
2
2
2
2
2
2
2
2
2
2
2
2
2
2
2
2
2
2
2
2
2
2
2
2
2
2
2
2
2
2
2
2
2
2
2
2
2
2
2
2
2
2
2
2
2
2
2
2
2
2
2
2
2
2
2
2
2
2
2
2
2
2
2
2
2
2
2
2
2
2
2
2
2
2
2
2
2
2
2
2
2
2
2
2
2
2
2
2
2
2
2
2
2
2
2
2
