*Vertices 300
*Edges
1 5
1 21
1 51
1 84
1 157
1 169
1 179
1 270
2 10
2 47
2 115
2 229
2 264
3 30
3 43
3 47
3 65
3 95
3 108
3 175
3 206
3 251
3 253
3 277
3 296
4 27
4 74
4 87
4 113
4 137
4 139
4 180
4 220
4 233
4 236
4 249
4 288
5 36
5 43
5 56
5 98
5 161
6 53
6 77
6 103
6 117
6 216
7 23
7 44
7 48
7 60
7 108
7 210
7 276
7 290
7 295
7 296
8 40
8 123
8 128
8 132
8 137
8 177
9 31
9 38
9 55
9 58
9 78
9 88
9 157
9 163
9 172
9 214
9 226
9 234
9 237
9 261
9 284
9 287
10 24
10 69
10 71
10 87
10 100
10 149
10 163
10 167
10 259
10 264
11 46
11 55
11 79
11 88
11 172
11 195
11 214
11 227
11 228
11 236
11 253
11 256
11 274
12 25
12 88
12 102
12 119
12 128
12 131
12 164
12 191
12 195
12 224
12 252
12 256
12 269
13 27
13 32
13 49
13 77
13 92
13 173
13 183
13 221
13 237
13 244
14 35
14 136
14 171
14 176
14 208
14 232
15 61
15 112
15 114
15 145
15 162
15 191
15 201
15 221
15 226
15 228
15 263
16 42
16 118
16 122
16 124
16 172
17 54
17 67
17 79
17 86
17 97
17 124
17 142
17 160
17 164
17 283
18 31
18 40
18 89
18 121
18 123
18 204
18 258
19 31
19 48
19 50
19 70
19 119
19 169
19 210
20 91
20 130
20 134
20 149
20 159
21 94
21 109
21 134
21 147
21 160
21 271
22 187
22 200
22 221
22 240
22 259
22 274
22 292
23 24
23 48
23 72
23 101
23 103
23 160
23 176
23 194
23 248
24 48
24 55
24 82
24 84
24 145
24 149
24 185
24 216
24 222
24 256
24 274
24 297
25 102
25 156
25 163
25 174
25 183
25 194
25 214
25 226
25 276
26 98
26 169
26 174
26 211
26 226
26 280
26 295
27 54
27 74
27 83
27 114
27 185
27 234
27 236
27 274
28 41
28 147
28 168
28 260
28 282
28 292
28 295
29 74
29 192
29 273
29 291
30 75
30 87
30 88
30 95
30 100
30 141
30 197
30 224
30 261
30 263
31 39
31 43
31 50
31 75
31 88
31 89
31 97
31 100
31 116
31 117
31 195
31 209
31 265
31 272
32 141
32 173
32 186
32 192
32 197
32 216
32 300
33 34
33 195
33 235
34 47
34 108
34 161
34 207
34 223
34 248
34 251
34 256
35 82
35 157
35 169
35 234
35 256
35 285
36 53
36 114
37 39
37 60
37 215
37 227
37 280
38 58
38 115
38 228
38 232
38 235
38 261
38 269
39 77
39 97
39 102
39 115
39 228
39 300
40 63
40 75
40 121
40 132
40 154
40 175
40 176
40 241
40 261
40 283
41 70
41 93
41 143
41 172
41 219
41 252
41 260
41 295
42 120
42 123
42 136
42 195
43 56
43 59
43 156
44 48
44 276
44 290
45 90
45 191
45 212
46 88
46 137
46 143
46 224
46 275
46 290
47 66
47 71
47 115
47 167
47 170
47 189
47 209
47 296
48 72
48 103
48 132
48 160
48 196
48 210
48 290
49 176
49 202
49 205
49 237
49 238
49 239
49 241
49 247
49 271
50 88
50 92
50 105
51 55
51 84
51 100
51 173
51 188
51 236
51 241
51 243
52 78
52 84
52 175
53 61
53 143
53 257
54 97
54 142
54 162
54 194
54 236
54 261
54 286
54 290
55 65
55 100
55 222
55 226
55 236
55 238
55 298
56 157
56 164
56 198
56 214
56 299
57 68
57 143
57 152
57 160
57 168
57 205
57 261
57 279
58 100
58 133
58 136
58 207
58 209
58 214
58 240
58 262
58 287
59 74
59 118
59 159
59 187
59 241
59 249
60 74
60 89
60 106
60 140
60 150
60 226
60 288
60 290
61 111
61 147
61 162
61 186
61 191
61 291
62 96
62 126
62 143
62 144
62 193
62 207
62 209
62 223
62 293
62 297
63 64
63 241
63 284
64 136
64 150
64 161
64 186
64 269
65 83
65 108
65 170
65 274
65 282
66 103
66 132
66 141
66 170
66 176
66 184
67 88
67 261
67 283
68 96
68 106
68 155
68 168
68 181
68 202
68 270
69 86
69 87
69 88
69 109
69 128
69 163
69 167
69 232
69 263
69 299
70 206
70 207
70 219
70 296
71 84
71 139
71 167
71 205
71 208
71 227
71 268
72 101
72 160
72 194
72 222
72 283
73 108
73 114
73 147
73 199
73 296
73 298
74 77
74 83
74 89
74 118
74 122
74 124
74 151
74 185
74 188
74 241
74 251
74 259
75 88
75 95
75 126
75 134
75 208
75 223
75 233
75 239
75 272
76 86
76 90
76 107
76 151
76 212
76 259
77 88
77 92
77 97
77 100
77 101
77 103
77 173
77 200
77 234
77 246
77 251
78 100
78 102
78 144
78 173
78 217
78 270
78 281
78 296
79 122
79 195
79 229
80 207
81 94
81 95
81 165
81 244
82 115
82 127
82 159
82 173
82 191
82 232
82 234
82 261
82 285
83 95
83 113
83 271
84 98
84 139
84 145
84 153
84 233
84 293
85 137
85 156
85 290
86 107
86 134
86 160
86 198
86 210
86 274
87 94
87 95
87 137
87 176
87 263
88 100
88 112
88 121
88 128
88 148
88 157
88 224
88 226
88 227
88 237
88 263
88 272
89 143
89 159
89 160
89 241
89 257
89 281
90 211
90 239
90 255
90 276
90 287
91 172
91 191
91 235
92 105
92 233
92 268
93 143
93 211
93 252
93 291
94 95
94 161
94 190
95 113
95 141
95 161
95 194
95 202
95 282
95 290
96 99
96 208
96 209
96 270
97 124
97 142
97 164
97 228
97 249
97 261
98 139
98 167
98 209
98 262
98 265
99 253
100 128
100 133
100 149
100 158
100 175
100 185
100 267
100 281
101 163
101 204
101 213
101 228
101 229
102 119
102 128
102 144
102 154
102 166
102 180
102 189
102 271
103 116
103 132
103 139
103 173
103 187
103 196
103 217
103 224
103 234
103 252
103 284
104 158
104 212
104 215
104 281
105 123
105 131
105 278
106 198
106 202
106 256
106 259
107 122
107 224
108 215
108 295
109 128
109 129
109 134
109 140
109 255
110 224
110 227
110 290
111 161
111 209
112 132
112 145
112 186
112 263
112 266
114 158
114 207
114 260
114 267
114 270
114 296
115 207
115 232
115 255
115 261
115 284
115 300
116 117
116 132
116 176
116 223
116 294
117 167
117 175
117 218
118 249
118 297
119 181
119 210
119 276
120 230
120 242
120 251
120 278
120 280
121 131
121 148
121 154
121 204
121 222
121 253
121 258
121 261
122 136
122 258
122 260
123 131
123 132
123 192
123 199
123 208
123 236
123 239
123 245
123 271
125 132
125 254
126 223
126 241
126 274
126 281
126 293
127 204
127 233
127 245
127 253
127 277
127 281
127 289
128 143
128 147
128 211
128 232
128 256
128 273
128 285
129 203
129 237
130 182
130 202
130 208
130 248
130 278
130 285
131 170
131 277
131 293
132 217
132 257
132 276
133 256
134 140
134 149
134 160
135 205
135 207
135 273
136 150
136 172
136 186
136 195
136 217
136 232
136 284
137 139
137 156
137 165
137 176
137 184
137 210
137 263
138 139
138 205
139 227
139 254
140 169
140 189
140 214
140 229
140 267
140 286
140 291
141 153
141 179
141 234
141 285
141 292
142 286
143 215
143 257
143 262
143 275
143 284
144 176
144 207
144 217
145 151
145 165
145 172
145 185
145 196
145 209
145 218
145 221
145 222
145 233
145 293
147 156
147 271
148 226
148 275
148 288
148 293
149 175
149 182
149 222
149 259
149 297
149 300
150 186
150 242
151 169
151 185
151 188
151 263
152 184
152 219
152 245
152 269
154 180
154 210
154 252
154 266
155 156
155 157
155 265
155 285
155 299
156 157
156 169
156 217
156 235
156 285
157 268
158 207
158 227
158 267
158 276
159 183
159 300
160 204
160 299
161 213
161 245
162 215
162 255
163 214
163 218
163 235
163 249
164 191
164 207
164 223
164 254
164 258
165 196
165 200
166 183
166 217
166 218
166 227
166 231
166 244
166 293
167 177
167 178
167 186
167 209
167 218
167 223
167 268
168 175
168 205
168 236
168 282
169 181
169 213
169 217
169 245
169 247
169 263
169 291
171 205
171 209
171 232
171 262
171 268
172 180
172 195
172 224
172 225
172 234
172 243
173 186
173 216
173 269
173 281
173 299
173 300
174 218
174 257
175 205
175 206
175 210
175 236
175 243
175 277
176 238
176 248
176 294
176 299
177 251
178 209
178 212
178 262
178 266
178 285
178 300
180 188
180 220
180 243
181 226
181 268
181 288
181 291
182 199
182 201
182 211
182 266
182 298
183 217
184 196
184 206
184 233
185 201
185 209
185 248
187 219
187 237
187 260
187 289
188 220
188 277
190 218
190 275
192 196
192 203
192 207
192 208
192 231
192 270
192 273
192 284
193 262
193 286
194 290
195 207
195 243
196 248
196 264
197 240
197 265
197 299
197 300
198 214
198 240
199 215
199 266
199 298
200 278
201 221
201 234
201 284
202 206
202 213
202 241
202 275
202 279
202 282
205 206
205 220
205 232
205 251
205 279
206 211
206 242
206 244
206 268
206 279
207 222
207 254
207 294
208 285
209 214
209 262
209 266
209 300
210 262
211 215
211 242
211 251
212 253
212 289
213 222
213 245
213 252
214 249
214 262
215 281
215 284
217 284
218 231
218 235
218 257
219 263
219 273
220 232
220 270
220 296
221 274
222 226
222 245
222 254
222 282
222 289
222 291
223 251
223 254
224 227
224 273
224 287
224 291
225 279
225 280
225 296
226 228
226 232
226 265
226 276
226 288
226 293
228 256
228 274
229 234
229 284
230 287
231 270
232 265
232 276
232 299
234 284
234 289
234 291
235 279
237 242
237 289
238 264
238 298
239 250
239 255
241 260
241 281
241 286
242 251
243 265
245 269
245 276
245 289
247 265
248 253
248 270
250 254
251 259
253 256
253 270
253 274
253 275
253 289
253 291
254 279
254 294
256 269
256 274
257 276
259 267
260 270
262 292
264 272
265 292
265 299
267 276
268 288
269 274
269 276
272 293
273 291
274 275
275 279
275 295
279 294
281 284
281 287
281 289
287 290
288 293
289 291
*Classes
1
1
1
1
1
1
1
1
1
1
1
1
1
1
1
1
1
1
1
1
1
1
1
1
1
1
1
1
1
1
1
1
1
1
1
1
1
1
1
1
1
1
1
1
1
1
1
1
1
1
1
1
1
1
1
1
1
1
1
1
1
1
1
1
1
1
1
1
1
1
1
1
1
1
1
1
1
1
1
1
1
1
1
1
1
1
1
1
1
1
1
1
1
1
1
1
1
1
1
1
1
1
1
1
1
1
1
1
1
1
1
1
1
1
1
1
1
1
1
1
1
1
1
1
1
1
1
1
1
1
1
1
1
1
1
1
1
1
1
1
1
1
1
1
1
1
1
1
1
1
2
2
2
2
2
2
2
2
2
2
2
2
2
2
2
2
2
2
2
2
2
2
2
2
2
2
2
2
2
2
2
2
2
2
2
2
2
2
2
2
2
2
2
2
2
2
2
2
2
2
2
2
2
2
2
2
2
2
2
2
2
2
2
2
2
2
2
2
2
2
2
2
2
2
2
2
2
2
2
2
2
2
2
2
2
2
2
2
2
2
2
2
2
2
2
2
2
2
2
2
2
2
2
2
2
2
2
2
2
2
2
2
2
2
2
2
2
2
2
2
2
2
2
2
2
2
2
2
2
2
2
2
2
2
2
2
2
2
2
2
2
2
2
2
2
2
2
2
2
2
