*Vertices 300
*Edges
1 2
1 40
1 53
1 54
1 68
1 75
1 109
1 120
1 142
1 174
1 183
1 195
1 199
1 228
1 254
1 290
2 26
2 34
2 141
2 183
2 188
2 210
2 231
3 110
3 173
3 177
3 203
4 54
4 106
4 138
4 172
4 219
4 229
4 271
5 41
5 66
5 243
5 274
6 196
6 291
7 47
7 99
7 104
7 113
7 130
7 185
7 236
7 246
7 250
7 295
7 300
8 10
8 135
8 144
8 146
8 156
8 166
8 237
8 245
9 128
10 54
10 62
10 76
10 89
10 107
10 144
10 155
10 176
10 178
10 239
10 274
11 33
11 110
11 247
11 277
12 73
12 81
12 94
12 165
12 187
12 220
12 283
13 67
13 193
13 239
13 276
14 61
14 62
14 128
14 135
14 181
14 206
14 224
14 240
14 259
14 266
15 39
15 61
15 201
16 155
16 225
16 255
17 31
17 61
17 88
17 108
17 294
18 39
18 55
18 57
18 170
18 190
18 195
18 214
18 246
18 262
18 279
19 46
19 68
19 71
19 95
19 142
19 216
19 236
20 42
20 125
21 26
21 70
21 119
21 133
21 137
21 187
21 206
21 213
21 264
21 286
22 35
22 41
22 87
22 93
22 101
22 112
22 188
22 229
22 250
23 49
23 52
23 54
23 78
23 83
23 118
23 141
23 153
23 183
23 195
23 207
23 254
23 290
24 65
24 90
24 121
24 129
24 175
24 255
24 262
24 277
25 48
25 64
25 69
25 79
25 132
25 262
26 42
26 51
26 74
26 99
26 112
26 116
26 133
26 200
26 209
26 212
26 233
26 253
27 53
27 85
27 143
27 156
27 212
27 220
27 229
27 250
27 256
27 295
28 62
28 68
28 95
28 104
28 126
28 129
28 158
28 165
28 212
28 213
28 265
28 269
29 171
29 252
29 267
29 294
30 33
30 57
30 60
30 98
30 108
30 125
30 140
30 147
30 156
30 175
30 189
30 256
30 266
30 276
31 69
31 70
31 77
31 91
31 132
31 155
31 188
31 210
31 223
31 254
31 288
31 299
32 58
32 66
32 102
32 107
32 109
32 198
32 217
32 218
32 232
32 277
33 72
33 91
33 111
33 140
33 173
33 180
34 37
34 44
34 58
34 67
34 89
34 111
34 126
34 137
34 139
34 165
34 215
34 259
34 269
35 41
35 126
35 169
35 192
35 294
36 133
36 163
36 249
37 60
37 84
37 111
37 225
38 60
38 71
38 88
38 108
38 213
38 245
38 293
39 49
39 55
39 61
39 66
39 113
39 125
39 257
39 283
40 45
40 75
40 88
40 108
40 109
40 142
40 157
40 201
40 239
40 268
40 299
41 55
41 87
41 114
41 169
41 180
41 182
41 189
41 219
41 234
41 243
41 261
41 267
41 274
42 125
42 177
42 246
42 250
43 63
43 80
43 116
43 149
43 172
43 175
43 269
44 77
44 111
44 116
44 127
44 139
44 160
44 191
44 237
45 57
45 88
45 130
45 140
45 180
45 183
45 191
45 261
45 299
46 121
46 130
46 135
46 200
46 240
46 250
46 251
46 252
46 260
47 51
47 72
47 104
47 161
47 170
47 209
47 213
48 132
48 175
48 206
48 207
48 255
48 284
48 296
49 54
49 72
49 114
49 125
49 154
49 171
49 285
49 292
50 64
50 86
50 96
50 115
50 144
50 156
50 237
50 274
51 209
51 212
51 213
51 217
51 285
52 69
52 118
52 132
52 186
52 277
52 295
53 76
53 85
53 99
53 107
53 173
53 174
53 195
53 200
53 229
53 259
53 270
53 281
53 287
53 295
54 58
54 116
54 127
54 140
54 142
54 144
54 153
54 154
54 221
54 285
55 113
55 114
55 116
55 166
55 189
56 58
56 61
56 70
56 79
56 96
56 192
56 199
56 242
57 94
57 108
57 156
57 169
57 170
57 276
57 292
57 294
58 61
58 69
58 79
58 102
58 111
58 180
58 192
58 251
58 261
58 269
58 289
59 158
59 203
59 225
59 233
59 279
59 295
60 82
60 90
60 98
60 111
60 129
60 136
60 165
60 243
61 62
61 96
61 106
61 111
61 175
61 192
61 290
62 89
62 107
62 114
62 126
62 131
62 135
63 80
63 173
63 175
63 189
64 137
64 144
64 201
64 219
65 75
65 121
65 126
65 175
65 201
65 212
66 120
66 128
66 159
66 228
66 261
67 126
67 137
67 240
67 242
67 271
68 95
68 97
68 103
68 117
68 120
68 132
68 142
68 290
69 73
69 99
69 102
69 132
69 138
69 207
69 234
70 78
70 96
70 119
70 139
70 152
70 198
70 220
70 242
70 244
70 259
70 263
70 295
70 298
71 108
72 140
72 200
72 201
72 240
73 90
73 129
73 134
73 165
73 179
73 218
73 220
73 283
74 80
74 92
74 99
74 167
74 282
74 295
75 87
75 108
75 109
75 126
75 127
75 173
75 224
75 238
75 239
75 274
75 298
76 97
76 145
76 155
76 184
76 195
76 205
76 295
77 91
77 111
77 188
77 238
78 116
78 119
78 145
79 111
79 132
79 160
79 222
79 252
79 281
80 92
80 116
80 199
80 219
80 232
80 268
80 289
80 292
81 88
81 93
81 94
81 99
81 146
81 177
81 282
82 136
82 182
82 234
82 267
82 272
82 300
83 88
83 118
83 254
83 265
84 170
84 214
84 248
85 126
85 148
85 169
85 239
85 242
85 245
85 272
86 115
87 168
87 233
87 234
87 240
88 108
88 180
88 201
88 202
88 228
88 254
88 261
88 262
89 139
89 263
90 129
90 179
90 220
90 244
90 279
91 140
91 146
91 296
92 155
92 199
92 222
92 235
93 99
93 226
93 241
93 276
93 294
94 114
94 116
94 127
94 165
95 179
95 197
95 237
95 275
96 144
96 151
96 178
96 215
96 260
96 274
97 117
97 145
97 152
97 180
97 184
97 290
98 123
98 136
98 147
98 153
98 156
98 174
98 232
98 266
98 273
99 113
99 177
99 184
99 199
99 205
99 295
99 300
100 190
100 195
100 205
100 227
100 240
101 112
101 197
101 235
101 300
102 109
102 171
102 188
102 208
102 258
103 115
103 118
103 120
103 128
103 130
103 134
103 147
103 179
103 192
103 194
103 199
103 259
103 291
104 116
104 158
104 181
104 212
104 227
104 237
104 262
105 144
105 174
105 189
105 198
105 231
105 244
105 250
105 261
105 299
106 118
106 138
106 170
106 192
106 196
106 229
106 250
106 271
106 280
107 144
107 200
107 209
107 211
107 214
107 217
107 287
108 116
108 127
108 230
108 246
108 247
108 275
109 125
109 196
109 219
110 277
110 289
110 299
111 126
111 269
112 160
112 181
112 229
112 237
112 250
112 281
114 116
114 131
114 135
115 120
115 166
115 242
116 127
116 133
116 142
116 212
116 245
116 253
116 262
117 119
117 186
117 189
117 210
117 283
117 286
118 120
118 128
118 179
118 194
118 217
118 229
118 250
119 137
119 145
119 185
119 186
119 241
119 243
119 259
119 286
120 128
120 236
121 177
121 211
121 247
121 255
121 292
122 165
122 245
122 276
122 296
122 299
123 132
123 145
123 217
123 234
123 277
124 129
124 213
124 244
124 279
124 288
125 140
125 173
125 218
125 238
125 267
125 289
126 141
126 148
126 157
126 179
126 204
126 210
126 213
126 258
126 259
126 285
126 296
128 134
128 173
128 220
128 236
128 259
129 136
129 165
129 187
130 157
130 184
130 236
130 251
130 291
131 175
131 181
131 203
131 206
131 250
132 155
132 186
132 223
132 229
132 277
133 143
133 149
133 183
133 213
133 239
133 246
133 253
133 275
134 157
134 173
134 217
134 283
135 145
135 200
135 203
135 230
135 260
136 167
136 220
137 148
137 169
137 174
137 201
137 237
137 239
137 266
137 271
138 157
138 217
138 234
138 236
138 273
138 289
139 147
139 180
139 202
139 207
139 261
139 281
139 297
140 154
141 195
141 210
141 274
142 189
142 195
142 268
143 187
144 154
144 178
144 184
145 153
145 244
146 166
146 257
146 260
146 273
146 282
146 299
147 153
147 297
148 193
148 201
148 205
148 213
148 228
148 254
149 239
150 210
151 207
151 218
151 267
151 274
152 162
152 166
152 180
152 208
152 253
152 282
153 192
154 184
154 263
154 286
155 194
155 202
155 215
155 251
155 264
155 283
156 166
156 181
156 207
156 230
156 233
156 234
156 237
156 256
157 158
157 196
157 201
157 206
157 289
157 296
158 206
158 296
159 276
160 181
160 237
160 278
160 281
161 203
161 229
161 244
161 250
163 212
163 228
163 229
163 279
164 178
165 174
165 187
165 245
165 266
166 174
166 211
166 234
166 267
166 273
166 294
166 297
168 240
169 190
169 200
169 230
169 242
169 245
169 246
169 253
169 279
169 294
170 194
171 197
171 268
172 175
172 226
172 229
172 264
172 270
172 298
173 189
173 217
173 236
173 238
173 281
174 195
174 232
174 266
174 269
174 273
174 282
175 229
175 233
176 182
176 199
176 234
176 246
176 293
177 197
177 205
177 211
178 274
179 220
179 230
179 250
179 275
180 183
180 208
180 218
180 261
180 272
180 276
180 282
181 182
181 237
181 247
181 256
181 267
181 269
181 290
182 253
182 254
182 272
182 293
183 210
183 217
183 231
184 185
184 199
184 216
184 297
185 192
185 268
187 192
187 203
187 261
187 264
187 269
189 285
189 286
190 195
190 201
190 205
190 230
190 246
190 279
191 215
191 218
191 243
191 244
191 272
191 286
192 268
192 269
193 209
193 254
193 257
193 276
193 287
194 199
194 215
195 197
195 203
195 205
195 227
196 202
196 212
196 296
197 205
197 268
198 232
199 234
199 246
200 240
200 242
200 245
200 267
200 269
201 204
201 212
201 230
201 237
201 266
202 219
202 251
202 254
203 230
203 250
203 279
204 210
204 225
204 230
204 241
205 245
205 254
205 295
206 207
206 236
206 237
206 290
207 234
207 255
207 274
207 276
207 290
208 222
208 290
209 287
210 223
210 225
210 241
210 288
210 294
211 297
212 220
212 228
212 230
212 249
212 253
212 260
212 262
212 296
215 222
215 244
215 267
215 283
215 290
216 236
217 238
217 272
218 232
218 254
218 272
218 274
218 289
219 234
219 242
219 249
219 251
219 292
219 294
220 259
220 279
222 237
222 290
224 239
226 238
226 280
226 294
228 261
229 253
229 254
229 279
230 250
232 246
232 250
232 289
233 237
234 242
234 268
234 279
235 251
236 259
236 263
236 281
236 286
237 247
237 281
237 290
238 280
239 271
240 250
240 269
240 271
242 249
242 272
242 294
242 295
242 298
243 263
243 286
244 279
244 290
245 294
246 250
246 275
246 289
247 292
249 265
249 274
249 296
251 283
251 289
253 254
254 288
255 277
257 283
259 285
259 287
259 300
260 262
260 272
260 283
262 296
263 285
263 286
264 270
265 274
266 279
266 288
267 269
267 272
267 294
269 282
272 282
272 293
274 276
274 298
276 282
279 288
281 300
285 286
285 300
287 295
292 299
294 295
294 298
*Classes
1
1
1
1
1
1
1
1
1
1
1
1
1
1
1
1
1
1
1
1
1
1
1
1
1
1
1
1
1
1
1
1
1
1
1
1
1
1
1
1
1
1
1
1
1
1
1
1
1
1
1
1
1
1
1
1
1
1
1
1
1
1
1
1
1
1
1
1
1
1
1
1
1
1
1
1
1
1
1
1
1
1
1
1
1
1
1
1
1
1
1
1
1
1
1
1
1
1
1
1
1
1
1
1
1
1
1
1
1
1
1
1
1
1
1
1
1
1
1
1
1
1
1
1
1
1
1
1
1
1
1
1
1
1
1
1
1
1
1
1
1
1
1
1
1
1
1
1
1
1
2
2
2
2
2
2
2
2
2
2
2
2
2
2
2
2
2
2
2
2
2
2
2
2
2
2
2
2
2
2
2
2
2
2
2
2
2
2
2
2
2
2
2
2
2
2
2
2
2
2
2
2
2
2
2
2
2
2
2
2
2
2
2
2
2
2
2
2
2
2
2
2
2
2
2
2
2
2
2
2
2
2
2
2
2
2
2
2
2
2
2
2
2
2
2
2
2
2
2
2
2
2
2
2
2
2
2
2
2
2
2
2
2
2
2
2
2
2
2
2
2
2
2
2
2
2
2
2
2
2
2
2
2
2
2
2
2
2
2
2
2
2
2
2
2
2
2
2
2
2
