*Vertices 300
*Edges
1 35
1 126
1 161
1 215
2 64
2 65
2 92
2 94
2 176
3 18
3 43
3 62
3 74
3 130
3 132
3 145
3 162
3 200
3 252
3 286
4 24
4 89
4 109
4 120
4 174
4 228
4 253
4 275
5 11
5 23
5 31
5 32
5 35
5 41
5 73
5 84
5 99
5 106
5 109
5 126
5 138
5 195
6 47
6 58
6 142
6 180
6 218
6 253
7 9
7 21
7 31
7 33
7 38
7 77
7 79
7 82
7 89
7 93
7 95
7 98
7 105
7 138
7 253
8 74
8 101
8 111
8 130
8 135
8 139
9 33
9 82
9 165
9 196
9 223
9 224
9 266
9 278
10 35
10 83
10 87
10 117
10 123
10 126
10 137
10 142
11 25
11 36
11 47
11 58
11 159
11 195
11 211
12 106
12 108
12 142
12 177
12 292
12 293
13 72
13 117
13 118
13 142
14 17
14 68
14 71
14 76
14 118
14 140
15 31
15 109
16 29
16 41
16 86
16 100
16 170
16 233
17 40
17 68
17 85
17 92
17 97
17 106
17 133
17 140
17 206
18 66
18 106
18 113
18 240
18 242
18 280
19 26
19 38
19 46
19 49
19 50
19 61
19 95
19 103
19 111
19 139
19 144
19 165
19 192
19 216
20 227
21 33
21 37
21 51
21 55
21 58
21 81
21 97
21 105
21 133
21 166
21 196
21 211
21 239
21 268
22 31
22 42
22 109
22 110
22 235
22 244
22 264
22 277
23 54
23 64
23 72
23 79
23 84
23 92
23 106
23 109
23 175
23 253
24 37
24 120
24 135
24 189
24 209
24 221
24 284
25 36
25 67
25 119
26 48
26 95
26 158
27 134
27 135
27 216
28 97
28 113
28 200
28 222
29 31
29 68
29 78
29 86
29 90
29 209
30 40
30 82
30 98
30 99
30 131
30 225
31 41
31 55
31 77
31 78
31 90
31 109
31 138
31 178
31 235
31 258
31 269
32 33
32 40
32 41
32 54
32 73
32 80
32 81
32 85
32 89
32 91
32 130
32 131
32 132
32 149
32 176
33 37
33 38
33 41
33 48
33 55
33 81
33 89
33 94
33 105
33 268
33 291
34 61
34 147
34 158
35 38
35 41
35 76
35 114
35 116
35 120
35 126
35 138
35 168
35 205
35 293
36 42
36 67
36 101
36 148
37 55
37 81
37 108
37 125
37 189
37 202
37 289
37 297
38 41
38 47
38 59
38 77
38 84
38 95
38 98
38 125
38 143
38 190
38 249
38 290
39 95
39 97
39 113
39 203
39 296
40 46
40 69
40 85
40 92
40 124
40 131
40 182
40 255
41 48
41 89
41 128
41 185
41 186
41 255
42 45
42 56
42 63
42 101
42 111
42 139
42 244
43 130
43 180
44 100
44 122
44 123
44 171
44 215
45 63
45 83
45 163
45 200
45 212
46 52
46 56
46 86
46 90
46 139
46 149
47 58
47 59
47 177
47 178
47 190
47 199
47 249
47 256
48 68
48 89
48 104
48 167
48 190
48 240
48 292
49 95
49 158
50 85
50 92
50 112
50 122
50 129
50 134
50 192
50 280
50 286
51 55
51 102
51 110
51 115
51 236
51 285
52 84
52 128
52 136
52 149
52 274
52 289
53 123
53 126
53 173
53 191
53 223
54 67
54 72
54 75
54 76
54 81
54 89
54 239
54 265
54 283
54 294
55 58
55 77
55 146
55 223
55 274
56 103
56 124
56 136
56 139
56 141
56 300
57 69
57 85
57 192
57 277
58 97
58 113
58 187
58 224
58 239
58 248
59 91
59 143
59 172
60 93
60 107
60 127
60 141
60 171
60 212
60 230
60 237
60 242
60 273
60 288
61 66
61 95
61 97
61 158
61 162
61 253
62 67
62 72
62 74
62 82
62 86
62 89
62 96
62 127
62 130
62 180
62 195
63 73
63 82
63 98
63 160
63 290
64 83
64 85
64 92
64 93
64 99
64 112
64 119
64 137
64 140
64 141
64 163
64 203
64 223
64 237
64 283
64 284
65 85
65 92
65 115
65 191
65 226
65 292
66 106
66 111
66 158
66 204
67 72
67 82
67 108
67 114
67 119
67 196
67 201
67 274
67 290
67 291
67 296
68 78
68 90
68 190
68 258
68 278
69 85
69 86
69 92
69 97
69 104
69 113
69 116
69 197
69 207
69 300
70 88
70 154
70 228
70 267
71 76
71 98
71 135
71 136
71 191
71 193
71 284
71 289
72 84
72 114
72 117
72 211
72 224
72 237
72 255
73 117
73 138
73 140
73 202
73 283
74 86
74 111
74 130
74 135
74 149
74 168
74 211
74 268
74 272
75 247
75 263
76 112
76 118
76 130
76 205
76 265
77 79
77 84
77 108
77 109
77 135
77 136
77 214
78 90
78 109
78 193
78 209
78 281
78 286
79 84
79 99
79 136
79 138
79 220
79 286
80 91
80 132
80 164
80 176
80 242
81 238
82 98
82 104
82 105
82 110
82 127
82 128
82 138
82 149
82 274
82 295
83 92
83 117
83 129
83 134
83 143
83 244
84 92
84 136
84 193
84 207
84 229
84 233
84 254
85 92
85 106
85 112
85 271
86 90
86 113
86 127
86 141
86 240
87 177
87 215
87 249
87 296
88 103
88 207
88 208
88 226
88 258
89 91
89 96
89 99
89 104
89 109
89 127
89 150
89 255
89 282
89 291
89 292
90 99
90 236
90 260
90 289
91 96
91 108
91 162
91 172
91 244
92 94
92 137
92 143
92 166
92 264
93 107
93 138
93 141
93 207
93 210
93 269
94 151
94 156
94 201
94 229
94 268
95 97
95 125
95 152
95 156
95 266
95 281
96 102
96 108
96 115
96 130
96 146
96 150
96 162
96 196
96 197
97 113
97 133
97 258
98 99
98 109
98 110
98 125
98 144
98 289
99 103
99 109
99 133
99 136
99 139
99 192
99 260
99 275
99 279
100 122
100 135
100 170
100 199
100 224
101 112
101 146
101 148
101 297
102 115
102 209
102 241
102 242
102 243
103 133
103 139
103 185
103 198
103 207
103 233
104 128
104 158
104 203
104 299
105 127
105 145
105 215
106 107
106 177
106 266
107 141
107 275
108 115
108 146
108 155
108 215
108 227
108 296
108 298
109 110
109 119
109 136
109 248
109 279
110 115
111 139
111 177
111 283
111 286
111 290
112 119
112 139
112 181
112 204
112 205
112 255
112 297
113 133
113 159
113 185
113 222
113 227
113 240
113 263
113 265
113 267
113 280
114 175
114 178
114 197
114 225
114 276
114 293
115 191
115 247
115 277
116 120
116 187
116 211
116 300
117 118
117 138
117 140
117 165
117 169
117 247
117 259
118 184
118 299
119 139
119 175
119 300
120 176
121 164
121 192
121 231
122 123
122 129
123 126
123 129
123 176
123 178
124 131
124 139
124 256
125 143
125 144
125 151
125 175
125 202
125 221
125 227
125 229
125 283
125 285
125 290
126 137
126 153
126 197
126 207
126 219
126 241
126 275
126 288
127 140
127 141
127 151
127 163
127 272
127 291
128 149
128 185
128 231
128 234
128 240
129 137
129 138
129 192
129 210
129 243
129 292
130 132
130 135
130 146
130 172
130 205
130 273
132 196
132 271
132 296
133 185
133 253
134 143
134 233
134 272
134 280
134 297
135 179
135 216
135 284
136 139
136 141
136 193
136 207
137 291
138 140
138 193
139 141
139 144
139 181
139 241
140 163
141 208
141 240
143 162
143 260
145 191
145 280
145 298
146 207
146 209
146 246
146 291
146 297
147 228
147 259
147 268
147 273
147 275
148 251
148 273
149 243
150 158
151 156
151 157
151 198
151 247
151 264
152 163
152 173
152 184
152 200
152 234
152 286
152 294
152 296
153 155
153 160
153 175
153 186
153 188
153 191
153 207
153 233
153 253
154 194
154 225
154 300
155 185
155 212
155 265
156 213
156 224
157 162
157 192
157 195
157 201
157 216
157 218
157 222
157 228
157 231
157 254
157 257
157 264
157 285
157 286
157 289
158 197
158 209
158 222
158 229
158 235
158 238
159 170
159 173
159 247
159 267
160 198
160 212
160 247
160 284
161 208
162 171
162 197
162 207
162 222
162 223
162 228
162 238
162 248
162 252
162 253
162 257
162 278
163 179
163 200
163 209
163 212
163 236
163 243
163 257
164 199
165 192
165 246
165 247
165 281
166 201
166 244
166 270
167 190
167 203
167 245
167 263
168 195
168 205
168 229
168 285
169 174
169 183
169 198
169 216
170 176
170 238
170 242
170 244
170 255
170 267
170 270
170 281
171 175
171 179
171 186
171 188
171 205
171 222
171 242
171 252
172 188
172 219
172 224
172 238
172 244
172 253
172 274
173 223
173 234
173 236
174 198
174 275
175 186
175 191
175 257
175 269
177 249
179 197
179 209
179 234
179 236
179 257
179 266
179 291
180 187
180 195
180 218
180 227
180 264
180 270
181 238
182 287
184 185
184 225
184 265
184 291
185 212
185 265
185 291
186 212
186 269
186 284
187 227
187 233
187 253
187 259
187 270
187 297
188 205
188 219
188 233
188 259
189 216
189 225
189 255
190 203
190 240
190 245
190 277
190 283
190 293
191 199
191 258
192 224
192 234
192 236
192 286
193 200
194 242
194 276
194 300
195 218
195 229
195 249
195 270
196 239
196 262
196 265
196 285
196 288
197 209
198 238
198 247
198 274
198 294
199 249
200 229
200 232
200 234
200 276
200 298
201 218
201 249
201 297
202 230
202 243
203 277
203 299
204 205
204 212
204 249
204 270
204 284
205 297
207 257
207 258
207 297
208 213
208 223
208 226
208 240
208 268
208 278
208 284
208 290
208 295
209 257
209 259
209 291
210 250
211 215
211 217
212 276
212 284
212 288
212 295
213 224
213 284
213 286
213 290
215 296
216 218
216 228
217 260
217 292
218 228
218 239
218 249
218 270
218 285
218 286
219 224
219 253
219 275
220 273
220 295
222 229
222 238
222 252
222 257
222 263
222 286
223 226
223 228
223 239
223 240
223 262
223 272
223 278
223 290
224 244
224 286
225 255
225 291
227 256
227 263
227 270
228 239
228 252
228 257
228 262
228 268
228 286
228 294
229 233
229 238
229 298
230 239
230 294
231 240
231 256
231 289
232 248
232 276
233 253
233 259
233 297
234 236
234 261
234 277
234 286
235 264
235 290
235 296
236 257
236 260
237 288
238 247
238 274
238 278
238 281
239 252
239 260
239 285
239 294
240 280
241 288
242 246
242 267
242 281
243 247
244 264
244 270
245 277
246 281
247 264
248 252
249 270
249 285
249 288
250 271
251 279
252 278
254 257
254 286
255 292
257 282
257 286
257 300
259 291
260 285
261 262
261 286
264 270
264 290
264 296
265 270
265 288
268 295
270 288
270 289
270 297
272 274
272 278
273 274
273 295
274 281
277 288
277 295
278 281
278 287
278 290
279 281
280 284
283 284
283 293
288 289
288 295
288 297
290 296
297 300
*Classes
1
1
1
1
1
1
1
1
1
1
1
1
1
1
1
1
1
1
1
1
1
1
1
1
1
1
1
1
1
1
1
1
1
1
1
1
1
1
1
1
1
1
1
1
1
1
1
1
1
1
1
1
1
1
1
1
1
1
1
1
1
1
1
1
1
1
1
1
1
1
1
1
1
1
1
1
1
1
1
1
1
1
1
1
1
1
1
1
1
1
1
1
1
1
1
1
1
1
1
1
1
1
1
1
1
1
1
1
1
1
1
1
1
1
1
1
1
1
1
1
1
1
1
1
1
1
1
1
1
1
1
1
1
1
1
1
1
1
1
1
1
1
1
1
1
1
1
1
1
1
2
2
2
2
2
2
2
2
2
2
2
2
2
2
2
2
2
2
2
2
2
2
2
2
2
2
2
2
2
2
2
2
2
2
2
2
2
2
2
2
2
2
2
2
2
2
2
2
2
2
2
2
2
2
2
2
2
2
2
2
2
2
2
2
2
2
2
2
2
2
2
2
2
2
2
2
2
2
2
2
2
2
2
2
2
2
2
2
2
2
2
2
2
2
2
2
2
2
2
2
2
2
2
2
2
2
2
2
2
2
2
2
2
2
2
2
2
2
2
2
2
2
2
2
2
2
2
2
2
2
2
2
2
2
2
2
2
2
2
2
2
2
2
2
2
2
2
2
2
2
