*Vertices 300
*Edges
1 84
1 107
1 114
1 138
1 185
1 244
2 39
2 70
2 191
2 216
3 19
3 27
3 30
3 78
3 84
3 146
3 174
3 286
4 64
4 137
4 144
4 170
4 196
4 210
4 244
4 246
4 277
5 14
5 15
5 16
5 25
5 59
5 119
5 175
5 185
5 203
5 227
5 248
5 260
6 47
6 81
6 91
6 129
6 137
6 140
6 237
6 249
6 253
7 66
7 77
7 85
7 90
7 114
7 155
7 156
7 239
7 285
8 61
8 93
8 131
8 200
8 201
8 242
9 52
9 141
9 211
9 252
10 41
10 72
10 80
10 117
10 202
10 264
11 62
11 70
11 92
11 123
12 32
12 50
12 83
12 84
12 225
12 255
12 272
13 56
13 71
13 142
13 165
13 228
13 279
13 294
13 295
13 296
14 16
14 166
14 195
14 231
15 24
15 34
15 66
15 82
15 107
15 117
15 126
15 219
15 240
15 264
16 23
16 47
16 81
16 119
16 228
16 247
16 285
17 46
17 104
17 113
17 120
17 137
17 215
17 232
17 245
17 249
17 253
17 277
17 281
18 33
18 85
18 114
18 176
18 187
18 216
18 217
18 218
18 224
18 242
18 244
18 254
19 22
19 27
19 78
19 89
19 137
19 221
20 91
20 143
20 182
20 292
21 25
21 90
21 145
21 245
21 263
21 272
22 51
22 76
22 89
22 108
22 123
22 124
22 128
22 150
22 280
22 289
23 64
23 119
23 136
23 193
23 202
23 233
23 267
24 76
24 82
24 87
24 127
24 141
24 225
24 251
25 26
25 61
25 90
25 107
25 113
25 138
25 176
25 211
25 227
25 245
25 272
25 295
26 60
26 107
26 229
26 255
26 273
26 296
27 30
27 72
27 78
27 84
27 89
27 143
27 260
29 41
29 69
29 80
29 93
29 98
29 164
29 201
29 231
29 264
29 289
30 246
30 286
31 58
31 70
31 114
31 117
31 125
31 189
32 46
32 167
32 229
32 237
32 253
32 295
33 69
33 111
34 35
34 39
34 52
34 82
34 148
34 186
34 257
35 182
36 60
36 168
36 188
37 40
37 76
37 120
37 140
37 144
37 203
37 206
37 247
37 277
37 284
38 167
38 170
38 230
38 245
38 294
39 65
39 66
39 95
39 116
39 117
39 133
39 210
39 228
39 260
40 76
40 115
40 120
40 131
40 143
40 144
40 251
41 45
41 51
41 65
41 80
41 89
41 120
41 143
41 153
42 51
42 68
42 75
42 103
42 104
42 141
42 179
43 46
43 115
43 290
44 100
44 118
44 244
44 298
45 58
45 99
45 108
45 110
45 142
45 234
45 294
46 111
46 149
46 195
46 215
46 235
46 237
46 238
47 54
47 81
47 99
47 121
47 135
47 148
47 175
47 198
47 217
47 232
47 244
47 251
47 256
47 264
47 272
47 285
48 54
48 58
48 119
48 161
48 193
48 209
48 226
48 275
49 262
50 83
50 91
50 172
50 191
50 265
51 89
51 104
51 123
51 124
51 171
51 266
52 92
52 94
52 136
52 141
53 145
53 146
53 148
53 237
53 282
53 293
54 58
54 121
54 175
54 203
55 79
55 92
55 100
55 184
55 191
55 261
56 63
56 138
56 154
56 213
56 234
56 237
56 242
56 249
56 253
56 273
56 286
57 121
57 138
57 284
58 84
58 93
58 116
58 117
58 202
58 294
59 80
59 105
59 176
59 219
59 235
59 252
60 65
60 152
60 159
60 187
60 192
60 226
60 257
60 267
61 62
61 100
61 113
61 118
61 137
61 254
61 287
61 294
62 70
62 92
62 100
62 235
62 266
63 121
63 132
63 138
63 242
63 286
63 291
64 113
64 137
65 125
65 203
66 71
66 72
66 95
66 114
66 116
66 133
66 170
66 203
66 229
66 243
66 281
66 286
66 293
66 299
67 104
67 124
67 139
67 194
67 207
67 228
68 75
68 108
68 121
69 93
69 111
69 123
69 217
69 246
69 284
70 191
70 233
70 248
71 92
71 133
72 80
72 99
72 114
72 117
72 143
72 149
72 187
72 212
72 231
72 261
72 297
73 79
73 120
73 194
74 123
74 154
74 216
74 243
74 293
75 91
75 95
75 108
75 139
75 150
75 242
76 82
76 131
76 143
76 171
76 242
76 264
77 212
77 285
78 93
78 96
78 116
78 155
78 168
78 216
79 92
79 128
79 289
80 105
80 143
80 269
80 289
81 122
81 129
81 161
81 244
81 254
82 87
82 175
82 200
82 207
82 244
82 283
83 260
84 93
84 94
84 116
84 125
84 146
84 182
84 255
84 263
85 165
85 198
86 203
86 276
87 127
87 148
87 223
88 159
88 178
88 206
88 214
88 221
89 120
89 134
89 147
89 158
89 163
89 268
90 239
90 244
90 246
91 124
91 137
91 150
91 160
91 205
91 234
92 128
92 140
92 193
92 235
92 266
92 269
92 278
92 289
92 296
92 298
93 116
93 125
93 126
93 131
93 244
93 290
94 182
94 206
94 231
94 255
94 295
95 135
95 150
95 188
95 214
95 281
95 298
95 299
96 147
96 180
96 207
96 228
96 232
97 297
98 169
98 213
98 299
99 108
99 109
99 172
99 212
100 118
100 141
101 196
101 251
101 263
102 106
102 167
102 172
102 194
102 283
103 233
103 264
103 272
103 287
103 296
104 113
104 140
104 151
104 244
105 152
105 228
105 240
105 285
106 172
106 205
106 241
106 247
106 250
106 266
106 296
107 114
107 125
107 172
107 192
107 219
107 293
107 295
108 110
108 128
108 231
109 111
109 139
109 212
109 231
109 261
109 290
110 162
110 220
110 246
111 139
111 145
111 248
111 258
111 261
111 265
111 290
112 126
112 148
112 205
112 218
112 295
113 137
113 138
113 165
113 185
113 211
113 217
113 218
113 221
113 246
113 254
113 287
114 125
114 127
114 143
114 149
115 181
115 193
115 231
116 133
116 189
116 203
116 260
117 125
117 219
117 231
117 250
117 259
117 283
117 287
118 126
118 202
118 218
118 281
118 289
119 182
119 206
120 156
120 195
120 226
120 236
120 261
120 285
121 135
121 138
121 148
121 179
121 253
122 223
122 226
122 260
122 276
123 197
123 219
124 128
124 133
124 150
124 165
124 198
124 216
124 244
124 283
125 196
125 230
126 267
126 277
127 217
127 244
128 242
128 247
129 134
129 140
129 149
129 175
130 139
130 197
130 265
131 133
131 242
132 177
132 207
132 291
133 187
133 198
133 221
133 242
134 147
134 194
134 205
135 192
135 222
135 255
135 271
136 196
136 234
136 240
137 153
137 257
137 266
138 164
138 167
138 206
138 270
139 230
139 240
139 246
139 258
140 174
140 205
140 286
140 287
141 165
141 276
141 296
142 172
142 267
143 205
143 283
144 160
144 191
144 205
145 162
145 163
145 165
145 227
145 246
145 248
146 247
146 273
146 293
147 166
147 214
148 170
148 186
148 237
148 294
149 235
150 155
150 199
150 203
150 238
151 189
151 192
151 205
152 159
152 206
152 208
152 234
152 255
152 267
152 277
152 285
152 286
153 191
153 218
153 253
153 257
153 295
154 255
154 292
155 158
155 249
156 158
156 239
156 266
156 283
156 285
157 158
157 251
158 202
158 285
159 206
159 208
159 228
159 232
159 255
159 275
159 285
160 267
160 276
161 257
161 290
162 190
162 240
162 283
163 185
163 210
163 214
164 170
164 245
164 264
164 279
164 300
165 203
165 221
165 225
165 228
165 253
165 260
165 274
165 282
166 213
166 239
167 170
167 265
167 270
167 280
169 268
170 201
170 229
170 264
170 265
170 274
170 279
170 280
170 294
171 177
171 206
171 211
171 266
171 291
172 184
172 209
172 250
172 255
172 262
172 280
173 184
173 185
173 218
173 227
173 242
173 294
174 236
174 239
174 286
175 179
175 251
175 286
176 211
176 235
177 228
177 247
177 250
178 249
178 282
179 217
179 286
180 222
180 274
181 188
181 201
181 204
181 241
182 184
182 187
182 222
182 231
182 274
182 291
183 213
183 216
183 298
184 187
184 197
184 219
184 225
184 250
184 266
184 294
185 208
185 214
185 260
185 279
185 280
186 205
186 224
186 239
186 266
187 225
187 228
187 231
187 280
187 291
188 189
188 197
188 198
188 202
188 209
188 210
188 241
188 256
188 272
188 299
189 202
189 235
189 278
190 215
190 233
190 248
190 283
191 192
191 218
191 253
191 265
193 233
193 275
195 226
197 199
197 213
197 217
197 218
197 219
197 242
197 258
198 209
198 227
198 231
198 232
198 242
198 253
198 291
198 298
199 203
199 217
199 237
199 278
200 231
200 263
201 241
201 257
201 260
201 265
202 235
202 272
202 278
202 281
202 285
203 228
203 247
203 278
204 215
204 238
206 208
206 232
206 291
207 210
207 226
208 217
208 260
208 279
209 241
209 249
209 280
209 298
210 214
210 224
210 226
210 238
210 241
210 261
210 288
211 266
212 224
212 294
213 242
213 281
214 230
214 233
214 261
214 288
215 238
215 283
216 244
216 298
217 236
218 242
218 245
218 253
220 234
220 265
220 287
222 274
224 266
225 260
225 272
225 274
225 280
227 288
228 250
228 272
228 296
229 274
231 280
232 255
232 277
233 248
234 265
234 286
235 281
236 291
239 266
240 266
240 273
241 247
245 264
245 272
245 280
246 279
247 296
249 252
249 253
250 255
252 282
253 255
253 260
253 274
253 295
254 287
255 275
255 285
255 286
255 292
255 295
257 267
259 274
260 262
260 274
260 281
261 272
261 296
262 280
262 281
266 284
266 294
267 280
267 284
267 285
269 289
270 275
270 280
272 280
272 295
272 296
272 299
277 286
280 295
281 299
283 285
284 285
285 298
288 297
*Classes
1
1
1
1
1
1
1
1
1
1
1
1
1
1
1
1
1
1
1
1
1
1
1
1
1
1
1
1
1
1
1
1
1
1
1
1
1
1
1
1
1
1
1
1
1
1
1
1
1
1
1
1
1
1
1
1
1
1
1
1
1
1
1
1
1
1
1
1
1
1
1
1
1
1
1
1
1
1
1
1
1
1
1
1
1
1
1
1
1
1
1
1
1
1
1
1
1
1
1
1
1
1
1
1
1
1
1
1
1
1
1
1
1
1
1
1
1
1
1
1
1
1
1
1
1
1
1
1
1
1
1
1
1
1
1
1
1
1
1
1
1
1
1
1
1
1
1
1
1
1
2
2
2
2
2
2
2
2
2
2
2
2
2
2
2
2
2
2
2
2
2
2
2
2
2
2
2
2
2
2
2
2
2
2
2
2
2
2
2
2
2
2
2
2
2
2
2
2
2
2
2
2
2
2
2
2
2
2
2
2
2
2
2
2
2
2
2
2
2
2
2
2
2
2
2
2
2
2
2
2
2
2
2
2
2
2
2
2
2
2
2
2
2
2
2
2
2
2
2
2
2
2
2
2
2
2
2
2
2
2
2
2
2
2
2
2
2
2
2
2
2
2
2
2
2
2
2
2
2
2
2
2
2
2
2
2
2
2
2
2
2
2
2
2
2
2
2
2
2
2
