*Vertices 300
*Edges
1 66
1 76
1 100
1 104
1 115
1 237
1 251
1 281
2 88
2 172
2 235
2 298
3 5
3 21
3 127
3 132
3 226
3 275
4 6
4 21
4 41
4 65
4 69
4 87
4 126
4 148
4 220
4 240
4 275
4 292
5 21
5 52
5 70
5 72
5 82
5 91
5 119
5 142
5 268
6 29
6 41
6 67
6 85
6 87
6 93
6 132
6 147
6 221
6 275
6 292
7 68
7 69
7 75
7 102
7 105
7 113
7 146
7 170
7 175
7 177
7 191
7 264
8 86
8 95
8 132
8 183
8 189
8 215
8 239
8 266
8 295
9 19
9 26
9 37
9 56
9 76
9 95
9 149
9 197
9 245
9 299
10 30
10 42
10 53
10 68
10 77
10 137
10 184
10 233
10 300
11 147
11 186
11 187
12 37
12 138
12 199
12 201
13 27
13 48
13 54
13 55
13 58
13 239
14 25
14 161
14 201
14 212
14 257
14 267
15 26
15 39
15 41
15 43
15 53
15 113
15 117
15 130
15 150
15 254
15 269
15 296
16 138
16 146
16 191
16 255
17 27
17 36
17 41
17 50
17 55
17 58
17 130
17 134
17 140
17 187
17 230
17 255
18 36
18 53
18 54
18 104
18 110
18 118
18 119
18 141
18 192
18 240
18 272
19 62
19 70
19 95
19 108
19 115
19 132
19 249
19 279
19 289
20 35
20 37
20 59
20 72
20 115
20 120
20 124
20 126
20 149
20 185
20 195
20 264
20 271
20 291
21 60
21 65
21 132
21 145
21 159
21 195
21 216
21 226
21 266
21 277
21 297
22 71
22 125
22 174
23 42
23 44
23 50
23 68
23 100
23 145
23 176
24 51
24 116
24 178
24 252
24 260
24 262
24 280
25 42
25 54
25 58
25 89
25 100
25 128
25 157
25 255
25 267
26 35
26 37
26 56
26 76
26 92
26 113
26 130
26 138
26 146
26 149
26 223
26 230
26 277
26 296
27 33
27 36
27 37
27 48
27 63
27 78
27 101
27 106
27 138
27 148
27 149
28 56
28 59
28 81
28 90
28 91
28 99
28 124
28 129
28 223
28 231
29 67
29 93
29 144
29 213
29 241
30 69
30 89
30 108
30 110
30 122
30 137
30 210
30 242
30 244
30 245
30 285
31 144
31 256
32 53
32 54
32 64
32 111
32 177
32 260
33 36
33 40
33 47
33 48
33 49
33 51
33 58
33 63
33 85
33 92
33 102
33 114
33 140
33 144
33 170
33 186
33 212
33 219
33 293
34 37
34 42
34 46
34 66
34 69
34 75
34 116
34 129
34 134
34 137
34 144
34 190
34 218
34 227
34 236
34 281
34 294
35 37
35 106
35 110
35 130
35 149
35 184
35 187
35 202
36 39
36 41
36 43
36 49
36 50
36 55
36 78
36 94
36 99
36 101
36 114
36 132
36 159
36 178
36 182
36 185
36 204
36 225
36 272
37 63
37 106
37 110
37 130
37 138
37 146
37 149
37 252
38 127
38 134
38 137
38 227
38 232
39 97
39 100
39 123
39 202
39 277
40 46
40 60
40 82
40 101
40 177
41 69
41 75
41 78
41 95
41 114
41 117
41 157
41 213
41 261
41 299
42 58
42 83
42 100
42 128
42 137
42 139
42 145
42 202
42 229
42 259
42 269
43 59
43 66
43 74
43 97
43 100
43 115
43 118
43 178
43 190
43 198
43 223
43 225
43 263
43 264
44 90
44 145
44 223
44 286
45 71
45 103
46 137
46 225
46 259
46 298
47 66
47 144
47 169
47 202
47 206
47 231
47 244
47 247
47 257
48 54
48 58
48 60
48 114
48 148
48 198
48 244
48 250
48 282
49 58
49 66
49 78
49 289
50 55
50 130
50 134
50 249
50 257
51 71
51 95
51 98
51 111
51 116
51 125
51 144
51 169
51 183
51 221
51 285
52 53
52 67
52 120
52 127
52 134
52 136
52 139
52 154
52 169
52 210
52 212
52 218
52 243
52 271
52 276
53 54
53 65
53 104
53 110
53 126
53 139
53 140
53 150
53 210
53 273
53 287
54 58
54 104
54 111
54 118
54 150
54 191
54 203
54 218
54 280
54 287
54 295
55 81
55 99
55 101
55 159
55 175
55 180
55 214
55 226
55 260
55 262
55 275
56 90
56 109
56 129
56 136
56 227
57 92
57 160
57 228
57 241
58 59
58 60
58 140
58 148
58 155
58 256
58 267
58 289
59 74
59 118
59 135
59 140
59 148
59 231
60 78
60 114
60 132
60 236
60 273
61 70
61 99
61 163
61 246
61 255
61 275
62 70
62 95
62 129
62 142
62 155
62 204
62 215
63 92
63 114
63 144
65 69
65 78
65 126
65 127
65 129
65 136
65 148
65 277
66 70
66 75
66 76
66 82
66 104
66 115
66 124
66 126
66 134
66 135
66 144
66 147
66 160
66 182
66 187
66 188
66 212
66 218
66 227
66 261
66 267
66 284
66 289
67 93
67 120
67 143
67 151
67 188
67 200
67 277
68 79
68 105
68 113
68 175
68 176
68 184
68 203
68 288
69 75
69 81
69 102
69 122
69 128
69 132
69 136
69 209
69 225
70 95
70 106
70 125
70 142
70 215
70 239
70 289
70 290
71 103
71 123
71 125
71 129
71 131
72 91
72 115
72 119
72 120
72 206
72 221
72 269
72 285
73 79
73 89
73 99
73 101
73 116
73 134
73 146
73 161
73 175
73 192
73 248
74 118
74 147
74 166
74 188
74 218
74 272
75 102
75 122
75 130
75 137
75 179
75 183
75 190
75 191
75 198
75 270
76 104
76 105
76 115
76 135
76 138
76 144
76 185
76 215
76 218
76 222
76 230
76 256
76 265
76 267
76 271
76 281
76 289
77 83
77 139
77 192
77 233
78 86
78 87
78 102
78 117
78 126
78 127
78 132
78 157
78 176
78 201
78 287
79 99
79 205
79 247
79 288
80 207
80 212
80 216
81 122
81 159
81 185
81 195
81 225
81 231
81 290
82 142
82 166
82 177
82 268
82 284
82 292
82 300
83 120
83 139
84 112
84 159
84 160
84 176
84 189
84 190
84 198
84 238
85 93
85 102
85 124
85 133
85 197
85 221
85 229
86 95
86 132
86 145
86 187
86 207
86 284
87 93
87 132
87 147
87 158
87 293
87 296
88 141
88 298
89 101
89 110
89 116
89 146
89 149
89 166
89 170
89 255
89 275
90 91
90 99
90 109
90 129
90 192
90 215
90 223
90 227
90 231
90 287
92 113
92 114
92 119
92 144
92 160
92 170
92 175
92 185
92 201
92 211
92 212
92 228
92 230
92 233
93 229
93 288
94 106
94 107
94 166
94 197
94 237
94 263
94 268
94 272
95 115
95 125
95 132
95 145
95 172
95 178
95 261
95 270
95 281
96 100
97 179
97 289
98 111
98 170
98 186
98 258
98 287
98 296
99 101
99 116
99 124
99 163
99 176
100 137
100 139
100 202
100 223
100 232
100 251
100 266
100 292
101 114
101 172
101 194
101 198
101 231
101 240
101 273
101 284
102 107
102 114
102 130
102 132
102 133
102 136
102 142
102 190
102 229
103 123
103 167
104 119
104 143
104 179
104 276
104 287
104 291
105 184
105 213
105 244
106 129
106 176
106 233
106 237
106 262
106 290
107 112
107 125
107 133
107 157
107 175
107 257
107 277
108 110
108 158
108 259
108 269
108 279
109 129
109 220
109 297
109 300
110 146
110 149
110 153
110 245
110 273
111 116
111 151
111 183
111 198
112 160
112 189
112 257
113 130
113 138
113 170
113 175
113 184
113 185
113 210
113 218
113 223
114 200
115 124
115 125
115 132
115 172
115 178
115 206
115 270
115 281
115 284
116 134
116 196
116 237
116 248
117 120
117 125
117 126
117 150
117 244
118 147
118 164
118 211
118 259
119 185
120 124
120 126
120 127
120 139
121 202
121 221
121 225
121 276
121 295
122 128
122 131
122 205
123 133
123 215
123 233
123 271
123 300
124 149
124 201
125 126
125 157
125 198
125 202
125 204
125 244
126 136
126 139
126 150
126 241
126 284
127 136
127 148
127 226
127 232
128 131
128 137
128 145
128 286
128 291
129 131
129 155
129 211
129 226
129 236
129 262
130 134
130 165
130 187
130 255
130 294
131 135
131 291
132 145
132 187
132 189
132 217
132 295
133 134
133 175
133 210
133 234
134 168
134 180
134 196
134 223
134 231
134 234
134 250
134 276
135 148
135 262
135 276
135 298
136 156
136 208
136 214
136 218
136 252
136 271
136 277
137 150
137 158
137 193
137 229
137 281
137 295
138 146
138 170
138 260
139 207
140 148
140 150
140 155
140 194
141 212
141 238
141 274
142 162
142 180
142 192
142 245
143 147
144 170
144 219
144 232
144 256
145 272
145 294
146 169
146 170
146 299
147 187
147 268
149 280
150 183
150 296
151 177
151 277
152 154
152 198
152 233
152 281
153 203
153 264
154 188
154 233
154 241
154 281
154 286
155 157
155 197
155 204
155 234
155 300
156 195
156 252
157 164
157 165
157 201
157 204
157 211
157 297
158 193
158 194
158 253
158 282
159 181
159 192
159 208
159 230
159 251
159 260
159 266
159 282
159 290
160 167
160 229
160 241
160 263
160 283
160 293
161 168
161 269
163 176
163 192
163 285
164 202
164 211
164 229
164 234
164 235
164 244
164 248
164 273
165 204
165 287
165 292
165 300
166 176
166 272
166 275
167 217
167 283
168 186
168 198
168 223
168 239
168 250
168 259
168 263
168 269
168 294
169 171
169 218
169 249
169 257
169 276
169 278
169 291
169 299
170 254
170 255
170 276
170 289
171 179
171 184
171 235
171 257
172 179
172 184
172 207
172 223
172 251
172 266
172 274
172 298
173 235
173 237
173 248
173 283
174 197
174 228
174 229
174 243
174 248
174 257
174 279
174 289
174 290
175 186
175 192
175 259
175 300
176 238
176 240
176 255
176 275
176 289
177 192
177 264
177 280
177 288
178 182
178 186
178 191
178 261
178 280
179 184
179 186
179 190
179 196
179 198
179 228
179 232
179 245
179 247
179 255
179 279
179 292
180 192
180 214
180 231
180 240
180 249
180 252
180 287
181 211
181 237
181 250
181 254
181 260
181 282
181 294
182 191
182 225
182 226
182 228
182 243
182 261
183 217
183 285
184 203
184 279
184 292
185 192
185 230
186 191
186 192
186 207
186 216
186 223
186 230
186 235
186 247
186 279
186 296
187 268
188 218
189 190
189 215
189 222
189 223
189 251
190 198
190 223
190 245
190 250
190 264
190 270
190 275
190 279
191 247
191 287
192 203
192 230
192 240
192 262
192 263
192 280
192 287
192 300
193 203
193 254
193 280
193 295
194 220
194 231
194 253
194 260
194 282
195 215
195 216
195 233
196 222
196 227
196 237
196 256
196 292
197 245
197 255
197 292
198 233
198 240
198 250
198 254
198 270
198 275
198 288
199 240
199 259
199 269
199 289
200 261
200 276
201 204
201 212
201 239
202 228
202 232
202 243
202 244
202 255
202 270
202 271
202 277
202 289
203 218
203 228
203 264
203 280
204 239
205 251
205 266
205 298
206 231
206 260
207 237
207 241
207 279
207 286
207 298
208 253
209 220
209 224
209 291
209 294
210 221
210 234
210 274
210 285
211 226
211 234
211 244
211 260
211 300
212 213
212 216
212 238
212 289
213 216
213 222
213 280
213 289
213 299
214 218
214 249
214 250
214 254
214 257
214 266
215 222
215 233
215 251
215 282
215 292
216 296
217 249
217 266
217 283
218 230
218 243
218 264
218 271
218 289
218 291
219 231
219 252
220 231
220 294
221 285
222 282
222 292
223 239
223 269
224 271
224 291
225 263
225 298
226 255
226 275
227 256
228 229
228 243
228 257
228 264
228 279
228 289
228 292
228 300
229 248
229 263
229 288
229 290
229 293
229 295
230 260
230 262
230 263
230 287
231 252
232 256
232 292
233 281
233 282
234 300
235 244
235 247
235 257
235 283
236 258
236 259
237 272
237 279
238 240
239 266
240 250
240 263
240 289
241 283
241 284
241 286
242 249
242 257
243 264
243 272
243 289
244 270
244 271
244 273
246 251
246 255
246 259
246 266
246 300
247 257
247 279
247 283
247 296
248 263
249 251
249 257
249 266
250 254
250 269
250 276
250 294
251 266
251 274
254 262
254 276
255 271
255 275
255 292
255 295
255 300
257 264
257 278
258 296
259 269
259 292
259 298
259 300
260 282
260 298
262 276
262 290
262 300
263 268
264 280
264 288
264 289
265 280
265 289
266 274
268 293
269 300
270 271
270 295
271 275
271 276
271 291
271 295
276 291
280 289
283 286
283 296
286 296
286 298
290 300
292 300
*Classes
1
1
1
1
1
1
1
1
1
1
1
1
1
1
1
1
1
1
1
1
1
1
1
1
1
1
1
1
1
1
1
1
1
1
1
1
1
1
1
1
1
1
1
1
1
1
1
1
1
1
1
1
1
1
1
1
1
1
1
1
1
1
1
1
1
1
1
1
1
1
1
1
1
1
1
1
1
1
1
1
1
1
1
1
1
1
1
1
1
1
1
1
1
1
1
1
1
1
1
1
1
1
1
1
1
1
1
1
1
1
1
1
1
1
1
1
1
1
1
1
1
1
1
1
1
1
1
1
1
1
1
1
1
1
1
1
1
1
1
1
1
1
1
1
1
1
1
1
1
1
2
2
2
2
2
2
2
2
2
2
2
2
2
2
2
2
2
2
2
2
2
2
2
2
2
2
2
2
2
2
2
2
2
2
2
2
2
2
2
2
2
2
2
2
2
2
2
2
2
2
2
2
2
2
2
2
2
2
2
2
2
2
2
2
2
2
2
2
2
2
2
2
2
2
2
2
2
2
2
2
2
2
2
2
2
2
2
2
2
2
2
2
2
2
2
2
2
2
2
2
2
2
2
2
2
2
2
2
2
2
2
2
2
2
2
2
2
2
2
2
2
2
2
2
2
2
2
2
2
2
2
2
2
2
2
2
2
2
2
2
2
2
2
2
2
2
2
2
2
2
