*Vertices 300
*Edges
1 30
1 51
1 61
1 105
1 110
1 111
1 116
1 126
1 138
1 206
1 241
1 262
1 272
1 298
2 10
2 132
2 175
2 296
3 68
3 89
3 123
3 130
3 137
3 205
4 7
4 8
4 38
4 66
4 80
4 110
4 112
4 191
4 194
4 212
4 256
4 277
4 293
4 295
5 7
5 11
5 35
5 45
5 84
5 88
5 95
5 129
5 190
5 205
5 219
5 263
6 23
6 30
6 41
6 43
6 44
6 58
6 63
6 73
6 75
6 90
6 102
6 120
6 127
6 161
6 170
6 196
6 198
6 248
6 273
7 84
7 95
7 133
7 184
7 277
8 31
8 38
8 133
8 150
8 166
8 215
9 34
9 35
9 36
9 37
9 62
9 63
9 89
9 103
9 108
9 123
9 125
9 130
9 139
9 263
9 271
10 22
10 54
10 61
10 72
10 90
10 100
10 101
10 104
10 117
10 121
10 132
10 140
11 28
11 35
11 128
11 144
11 165
11 220
11 235
12 74
12 111
12 116
12 149
12 203
12 217
12 223
12 230
12 252
13 154
13 176
13 186
13 198
13 210
13 221
13 261
13 300
14 24
14 43
14 70
14 157
14 214
14 220
14 222
15 19
15 21
15 43
15 51
15 59
15 73
15 78
15 79
15 89
15 96
15 106
15 109
15 122
15 138
15 145
15 226
15 235
15 240
15 257
16 23
16 29
16 36
16 42
16 64
16 67
16 82
16 98
16 100
16 101
16 108
16 145
16 173
16 174
16 182
16 206
16 253
17 27
17 68
17 83
17 138
17 186
17 188
17 292
18 26
18 49
18 59
18 71
18 127
18 170
18 181
18 211
18 213
18 216
18 219
18 251
19 28
19 69
19 79
19 96
19 102
19 122
19 136
19 147
19 195
19 202
19 231
19 247
20 52
20 80
20 83
20 94
20 124
20 139
20 166
20 217
20 226
20 230
20 286
20 291
21 30
21 31
21 58
21 76
21 80
21 87
21 106
21 165
21 269
22 61
22 103
22 161
23 104
23 127
23 145
23 167
23 168
23 214
24 171
25 109
25 136
25 200
25 221
25 223
25 279
25 284
26 27
26 36
26 56
26 70
26 83
26 95
26 98
26 126
26 129
26 145
26 199
26 213
26 227
27 29
27 48
27 68
27 98
27 119
27 140
27 160
27 174
27 183
27 184
27 191
27 195
27 209
27 250
27 261
27 275
27 289
28 56
28 69
28 81
28 128
28 144
28 209
28 226
28 260
28 273
28 280
28 288
29 48
29 140
29 289
29 292
29 296
30 32
30 76
30 106
30 112
30 195
30 199
30 216
30 230
30 245
30 262
30 269
31 39
31 58
31 63
31 79
31 133
31 159
31 215
31 243
31 248
31 288
32 63
32 84
32 107
32 154
32 180
32 203
32 230
32 252
33 76
33 254
33 255
33 275
34 46
34 62
34 90
34 100
34 105
34 124
34 132
34 139
34 148
34 204
35 37
35 74
35 130
35 137
35 149
35 224
35 231
35 263
35 277
36 82
36 89
36 93
36 95
36 101
36 104
36 114
36 123
36 126
36 129
36 139
36 153
36 187
37 63
37 88
37 96
37 99
37 103
37 125
37 232
38 66
38 80
38 110
38 150
38 151
38 256
39 58
39 79
40 46
40 221
40 253
41 73
41 90
41 95
41 167
41 173
41 185
41 198
41 239
42 108
42 145
42 157
42 173
43 58
43 63
43 65
43 79
43 94
43 110
43 112
43 145
43 159
43 188
43 214
43 252
44 62
44 95
44 103
44 117
44 139
44 142
44 162
44 197
44 199
44 210
44 226
45 74
45 108
45 123
45 149
45 161
45 190
45 192
45 217
45 276
46 47
46 62
46 66
46 113
46 131
46 134
46 182
46 218
46 226
46 253
46 300
47 85
47 154
47 226
47 242
47 285
48 193
48 204
48 242
48 250
48 274
49 91
49 93
49 162
49 167
49 194
49 196
49 197
49 211
49 277
50 56
50 68
50 83
50 126
50 128
50 160
50 163
50 165
50 178
50 210
50 234
50 258
50 286
51 74
51 90
51 105
51 107
51 115
51 122
51 125
51 132
51 169
51 184
51 186
51 187
51 238
51 280
51 288
52 80
52 86
52 115
52 206
52 215
52 230
52 256
53 84
53 117
53 145
53 180
53 202
53 221
53 234
53 285
54 100
54 104
54 182
54 210
54 276
55 122
55 140
55 165
55 234
55 257
55 264
55 279
56 61
56 70
56 89
56 122
56 125
56 128
56 191
57 76
57 77
57 109
57 160
57 169
57 180
57 205
57 241
57 267
58 63
58 76
58 104
58 119
58 165
58 181
58 191
58 206
58 244
59 125
59 127
59 152
59 156
59 240
59 294
60 82
60 100
60 210
60 214
60 223
60 229
60 296
61 89
61 119
61 140
61 141
61 167
61 208
61 260
62 113
62 192
62 197
62 217
62 218
62 242
62 256
63 73
63 79
63 86
63 116
63 154
63 161
63 258
64 98
64 263
64 288
64 295
65 88
65 91
65 94
65 105
65 139
65 159
66 79
66 113
66 160
66 185
66 197
66 236
66 242
66 257
66 294
67 83
67 100
67 116
67 145
67 162
67 179
67 187
67 191
67 249
68 83
68 95
68 123
68 137
68 145
68 156
68 193
68 204
68 209
68 218
68 273
68 284
69 128
69 147
69 167
69 200
69 214
69 247
69 295
70 83
70 96
70 98
70 99
70 214
70 286
71 97
71 192
71 213
71 220
71 272
72 74
72 93
72 100
72 104
72 119
72 126
72 140
72 144
72 201
73 75
73 90
73 97
73 173
73 189
73 226
73 248
73 255
74 83
74 114
74 126
74 130
74 187
74 192
74 213
74 255
74 275
74 276
74 283
75 95
75 131
75 211
75 250
75 255
76 78
76 89
76 122
76 180
76 255
77 109
77 150
77 163
77 215
77 253
77 264
77 275
77 278
78 89
78 93
78 101
78 120
78 122
78 160
78 226
79 99
79 112
79 122
79 145
79 171
79 185
79 235
79 252
80 87
80 191
80 246
80 257
81 115
81 117
81 142
81 144
81 189
81 197
81 204
81 214
81 227
81 234
81 251
81 258
81 260
81 280
81 297
82 108
82 126
82 139
82 200
82 210
82 237
82 270
82 283
83 86
83 95
83 111
83 116
83 126
83 131
83 137
83 145
83 166
83 192
83 198
83 240
84 88
84 91
84 145
84 179
84 285
85 105
85 125
85 140
85 143
85 166
85 167
85 195
85 217
85 238
85 242
85 282
86 116
86 249
86 274
87 280
87 282
87 300
88 94
88 120
88 125
88 139
88 145
88 168
88 170
88 177
88 205
88 221
88 239
88 240
89 121
89 122
89 123
89 125
89 128
89 130
89 141
89 219
89 270
89 288
90 96
90 97
90 100
90 132
90 139
90 292
91 94
91 120
91 182
91 211
91 276
92 214
92 253
92 258
92 284
93 101
93 160
93 175
93 196
93 201
93 267
94 120
94 171
94 286
95 116
95 117
95 124
95 126
95 131
95 139
95 156
96 99
96 137
96 220
96 231
97 134
97 176
97 209
97 213
97 236
98 163
98 191
98 261
99 125
99 181
99 185
99 232
99 233
100 123
100 145
100 179
100 215
100 284
100 296
101 104
101 142
101 161
101 220
102 171
102 202
102 208
102 248
103 117
103 125
103 161
103 224
103 234
104 187
104 191
104 252
105 124
105 126
105 138
105 139
105 238
106 111
106 129
106 254
107 115
107 131
107 132
107 134
107 174
107 187
107 201
107 225
108 123
108 131
108 134
108 177
108 195
108 213
108 259
108 292
109 136
109 197
109 226
109 236
110 112
110 148
110 262
111 116
111 129
111 133
111 164
111 237
111 273
112 159
112 199
113 134
113 237
113 266
114 126
114 141
114 146
114 150
114 267
115 122
115 132
115 139
115 185
115 225
115 252
115 253
115 264
115 280
115 288
116 149
116 199
116 203
116 217
116 259
117 142
117 153
117 184
117 197
117 234
117 285
119 140
119 161
119 206
120 125
120 170
120 206
121 122
121 123
121 198
121 288
121 291
122 170
122 180
122 184
122 219
122 271
123 125
123 177
123 205
123 270
123 284
123 296
124 125
124 139
124 153
124 157
124 187
124 290
125 127
125 168
125 177
125 187
125 232
126 139
126 146
126 166
126 213
126 252
126 259
126 265
126 272
126 280
126 281
127 145
127 216
127 238
127 249
127 273
128 181
129 133
129 181
129 219
129 227
129 241
129 261
130 141
130 165
130 214
131 134
131 156
131 185
131 250
132 167
132 179
132 218
132 251
133 135
133 142
133 143
133 184
133 210
133 248
133 269
134 167
134 209
134 265
134 285
135 208
135 210
135 223
135 260
135 295
136 149
136 168
136 192
136 195
136 236
136 244
137 182
137 296
138 156
138 174
138 186
138 189
138 216
138 232
138 240
138 281
139 187
140 143
140 180
140 199
140 282
140 285
141 146
141 182
142 153
142 165
142 220
142 224
143 160
143 166
143 167
144 270
144 283
144 288
145 174
145 197
145 253
146 167
146 182
146 212
146 229
146 255
147 237
147 255
147 295
148 164
148 169
148 199
148 271
149 182
149 192
149 224
149 229
149 276
151 164
151 183
151 216
151 229
151 274
151 294
152 263
152 273
152 282
152 285
153 172
153 227
153 260
153 269
153 286
153 289
153 290
154 210
154 247
154 283
155 181
155 210
155 221
155 231
155 233
155 239
155 245
155 254
156 176
156 205
156 232
156 236
156 240
156 250
157 214
158 193
158 216
158 218
158 222
158 229
158 232
158 255
158 261
159 171
159 173
159 180
159 188
159 199
159 214
159 220
159 230
159 237
159 243
159 249
160 163
160 191
160 212
160 226
160 257
161 175
161 206
161 217
161 256
161 264
161 293
162 192
162 199
162 204
163 205
163 258
164 197
164 199
164 233
164 266
164 271
164 284
164 296
165 172
165 192
165 195
165 214
165 220
165 234
165 244
165 271
165 273
165 284
166 259
166 274
166 286
167 180
167 195
167 202
167 203
167 230
167 251
167 259
167 277
168 174
168 204
168 214
168 239
168 244
169 177
169 199
169 206
169 221
169 257
169 278
170 184
170 203
170 235
170 251
170 271
170 277
170 299
171 223
171 237
171 264
172 179
172 192
172 195
172 199
172 220
172 263
172 264
172 284
172 289
173 198
173 220
173 226
173 230
174 186
174 191
174 209
174 216
174 222
174 225
174 275
174 281
174 296
175 196
175 200
175 201
175 217
175 227
175 248
175 256
175 271
175 296
175 298
176 187
176 199
176 205
176 232
176 236
176 260
176 268
177 221
177 278
177 284
178 280
179 192
179 213
179 283
179 290
180 191
180 217
180 221
180 223
180 230
180 247
180 265
180 277
180 283
181 219
181 231
181 233
181 239
182 207
182 219
182 276
182 296
183 212
183 215
183 255
183 265
183 294
184 200
184 209
184 271
184 277
184 286
185 198
185 203
185 216
185 229
185 252
185 268
185 287
185 291
186 189
186 199
186 213
186 226
186 236
186 237
186 249
186 266
187 191
187 236
187 260
187 268
187 297
188 220
188 243
188 259
189 198
189 226
189 240
189 269
189 273
190 287
191 205
191 223
191 230
191 278
191 293
191 297
192 204
192 213
192 214
192 226
192 283
192 290
193 261
193 274
194 223
194 277
195 217
196 220
196 248
196 277
197 205
197 217
197 225
197 226
197 235
197 242
197 256
197 271
197 299
198 240
198 258
198 298
199 204
199 221
199 236
199 249
199 257
199 266
199 284
200 223
200 248
200 271
201 256
201 292
202 259
202 277
203 217
203 251
203 252
203 255
204 214
204 253
204 284
205 219
205 250
205 258
205 278
205 293
206 256
206 278
207 276
208 227
208 234
208 257
208 264
210 217
210 221
210 229
210 240
210 245
210 256
210 281
210 284
212 215
212 225
212 242
212 252
212 255
212 282
212 294
213 226
213 227
213 276
213 283
213 291
214 239
214 253
214 258
214 287
215 253
215 271
216 229
216 232
216 268
217 230
217 245
217 256
217 286
218 261
218 273
218 281
220 244
221 281
221 283
221 284
221 296
222 236
222 261
222 296
223 225
223 264
223 271
223 283
223 293
223 295
223 297
224 241
225 234
225 242
225 264
225 282
226 256
226 269
227 286
227 296
227 297
228 246
229 232
229 268
229 296
230 277
230 297
231 239
231 254
231 299
232 236
233 261
233 266
233 271
233 284
233 289
234 257
234 263
234 264
234 279
234 297
235 239
235 251
235 299
236 296
237 273
239 254
240 245
240 256
240 257
240 269
240 298
241 267
241 277
242 282
244 258
244 271
244 273
244 298
245 254
246 258
247 283
248 256
249 260
249 279
249 286
250 291
255 283
256 278
256 286
256 292
257 278
258 298
259 265
260 279
260 286
261 273
261 296
262 286
263 264
264 293
265 285
265 294
267 277
268 296
269 286
270 300
271 284
272 296
272 298
273 281
274 294
276 300
280 282
280 300
282 285
282 300
284 289
284 296
286 291
287 291
288 295
289 292
289 296
295 297
296 298
*Classes
1
1
1
1
1
1
1
1
1
1
1
1
1
1
1
1
1
1
1
1
1
1
1
1
1
1
1
1
1
1
1
1
1
1
1
1
1
1
1
1
1
1
1
1
1
1
1
1
1
1
1
1
1
1
1
1
1
1
1
1
1
1
1
1
1
1
1
1
1
1
1
1
1
1
1
1
1
1
1
1
1
1
1
1
1
1
1
1
1
1
1
1
1
1
1
1
1
1
1
1
1
1
1
1
1
1
1
1
1
1
1
1
1
1
1
1
1
1
1
1
1
1
1
1
1
1
1
1
1
1
1
1
1
1
1
1
1
1
1
1
1
1
1
1
1
1
1
1
1
1
2
2
2
2
2
2
2
2
2
2
2
2
2
2
2
2
2
2
2
2
2
2
2
2
2
2
2
2
2
2
2
2
2
2
2
2
2
2
2
2
2
2
2
2
2
2
2
2
2
2
2
2
2
2
2
2
2
2
2
2
2
2
2
2
2
2
2
2
2
2
2
2
2
2
2
2
2
2
2
2
2
2
2
2
2
2
2
2
2
2
2
2
2
2
2
2
2
2
2
2
2
2
2
2
2
2
2
2
2
2
2
2
2
2
2
2
2
2
2
2
2
2
2
2
2
2
2
2
2
2
2
2
2
2
2
2
2
2
2
2
2
2
2
2
2
2
2
2
2
2
