*Vertices 300
*Edges
1 168
2 4
2 72
2 227
2 266
2 269
3 21
3 24
3 54
3 60
3 96
3 115
3 221
4 15
4 16
4 67
4 71
4 72
4 74
4 121
4 130
4 217
4 224
4 245
4 259
4 279
5 19
5 26
5 63
5 148
5 161
5 244
5 269
5 277
5 289
6 31
6 82
6 100
6 114
6 138
6 139
6 140
6 193
6 231
6 276
7 36
7 114
7 115
7 120
7 138
7 139
7 140
7 175
7 234
7 261
7 284
8 21
8 54
8 60
8 66
8 97
8 104
8 115
8 124
8 144
8 201
8 233
8 262
8 284
8 291
9 38
9 137
9 152
9 170
9 193
9 247
10 26
10 80
10 93
10 134
10 145
10 152
10 192
10 194
11 89
11 143
11 202
12 92
12 131
12 132
12 154
12 165
12 211
12 289
13 45
13 55
13 80
13 81
13 100
13 120
13 137
13 153
13 242
14 39
14 65
14 85
14 157
14 206
14 231
14 248
14 294
15 53
15 62
15 121
15 193
15 216
15 223
15 281
15 282
16 36
16 74
16 121
16 257
16 286
17 45
17 64
17 164
17 203
17 231
18 40
18 47
18 77
18 82
19 71
19 72
19 104
19 159
19 237
20 40
20 206
20 238
20 252
21 23
21 55
21 60
21 70
21 145
21 153
21 180
22 87
22 102
22 109
23 55
23 71
23 93
23 105
23 133
23 138
23 170
23 180
23 271
23 276
24 54
24 135
24 143
24 172
24 198
25 37
25 67
25 130
25 175
25 259
26 65
26 108
26 132
26 134
26 142
26 143
26 166
26 185
26 205
26 222
27 60
27 73
27 104
27 119
27 186
27 233
27 261
28 39
28 89
28 94
28 96
28 118
28 224
28 240
28 290
29 46
29 77
29 162
29 179
30 35
30 63
30 118
30 126
30 133
30 135
30 147
31 65
31 98
31 101
31 108
31 140
31 228
31 251
31 291
32 178
32 221
32 224
32 266
32 276
33 272
34 47
34 94
34 225
35 50
35 80
35 127
35 133
36 93
36 96
36 120
36 162
36 180
36 228
36 257
36 283
37 85
37 99
37 113
37 119
37 130
37 240
37 249
38 50
38 52
38 60
38 62
38 67
38 242
38 256
39 50
39 62
39 70
39 96
39 113
39 118
39 132
39 149
39 217
39 231
39 237
40 75
40 107
40 152
40 158
40 224
40 230
40 252
40 256
41 168
41 235
42 154
43 48
43 58
43 73
43 75
43 79
43 91
43 106
43 110
43 117
43 172
44 90
44 92
44 108
44 110
44 114
44 148
44 168
44 181
44 252
44 299
45 64
45 93
45 137
45 205
45 207
45 222
45 231
45 270
46 77
46 90
46 156
47 82
47 88
47 97
47 114
47 171
47 233
47 290
48 72
48 82
48 89
48 98
48 143
48 158
48 172
48 197
48 263
48 270
49 70
49 104
49 189
50 52
50 60
50 80
50 101
50 127
50 170
50 196
50 237
50 249
50 256
51 67
51 90
51 118
51 153
51 185
51 231
51 235
51 260
51 288
51 291
52 63
52 101
52 109
52 151
52 177
52 207
52 208
52 221
52 296
53 111
53 203
53 214
53 261
53 280
54 60
54 115
54 120
54 144
54 237
54 261
55 71
55 72
55 80
55 145
56 102
56 115
56 128
56 217
56 225
57 74
57 86
57 97
57 122
57 140
58 68
58 88
58 91
58 138
58 154
58 235
59 79
59 101
59 117
59 141
59 171
59 184
59 201
59 240
59 258
59 267
60 93
60 94
60 95
60 104
60 124
60 129
60 203
61 145
61 171
62 117
62 242
62 264
63 92
63 116
63 131
63 133
63 139
63 147
63 150
63 179
63 204
63 260
63 278
63 289
63 290
64 122
64 170
64 243
64 254
65 72
65 84
65 113
65 149
65 151
65 222
65 245
65 248
65 255
66 73
66 133
66 179
66 180
66 251
66 290
67 96
67 99
67 119
67 128
67 130
67 169
67 243
67 291
67 296
68 115
68 134
68 138
68 212
68 235
68 239
69 70
69 113
69 123
69 294
70 76
70 104
70 112
70 113
70 194
70 219
70 235
70 238
70 255
71 72
71 104
71 255
71 264
71 278
72 88
72 98
72 113
72 156
72 192
72 212
72 218
72 299
73 79
73 110
74 121
74 154
74 187
75 79
75 88
75 107
75 148
75 236
75 252
75 258
75 260
75 270
75 293
76 113
76 209
76 298
77 82
77 109
77 197
77 218
77 226
77 273
77 275
77 289
78 107
78 136
78 180
78 251
78 270
79 91
79 106
79 117
79 151
79 207
80 89
80 202
80 290
81 98
81 120
81 147
81 220
81 286
82 92
82 114
82 137
82 158
82 261
83 253
83 284
84 201
84 211
84 248
84 265
84 292
85 130
85 192
85 222
85 237
86 187
86 234
86 264
87 89
87 227
87 281
88 138
88 177
89 96
89 100
89 143
89 230
89 298
90 148
90 257
90 291
91 284
92 131
92 137
92 148
92 299
93 94
93 145
93 164
93 171
93 192
94 108
94 125
94 143
94 210
94 285
94 290
94 299
95 105
95 129
95 147
96 280
96 296
97 122
97 144
97 149
97 246
97 289
98 108
98 147
98 149
98 205
98 206
98 272
98 275
98 283
99 130
99 144
99 273
100 120
100 140
100 149
100 153
100 198
101 108
101 117
101 118
101 211
102 109
102 128
102 173
102 208
102 223
102 289
103 127
103 162
103 187
103 208
103 254
103 260
103 282
104 125
104 150
104 278
105 125
105 129
105 186
105 192
105 226
105 298
106 276
107 199
107 234
107 255
108 110
108 143
108 147
108 255
108 260
108 270
108 283
108 295
109 180
109 194
109 273
110 148
110 167
110 253
110 262
110 267
110 284
111 142
111 167
111 170
111 188
111 206
111 215
111 262
111 279
112 115
112 118
112 195
112 209
113 153
113 162
113 239
114 120
114 138
114 184
115 118
115 134
115 137
115 139
115 186
115 212
116 128
116 148
116 150
117 162
117 264
118 135
118 217
118 234
119 130
119 141
119 144
119 184
119 236
119 247
119 261
119 279
120 144
120 162
120 220
120 240
120 243
121 164
121 176
121 181
121 238
122 166
123 192
123 203
123 225
123 250
123 267
123 284
124 183
124 292
125 150
125 192
125 210
125 235
125 252
126 145
126 183
126 285
126 297
126 299
127 162
127 180
127 210
128 274
128 290
128 291
129 147
129 200
129 282
130 141
130 144
130 199
130 273
131 211
131 251
131 279
132 245
132 253
132 263
133 170
133 256
133 285
134 273
135 159
135 164
135 219
135 261
135 294
136 178
136 196
137 186
137 201
138 139
138 234
138 291
139 140
139 269
140 182
140 236
141 201
141 221
142 222
142 237
143 152
143 216
143 300
144 149
144 237
144 240
145 154
145 299
146 147
146 205
146 220
146 238
147 170
147 171
147 238
147 250
148 196
148 209
148 220
148 265
149 151
149 198
150 156
150 178
150 240
151 160
151 172
151 187
151 208
151 216
151 238
151 245
151 265
151 289
152 256
153 221
153 224
153 288
153 294
154 166
154 244
154 245
154 251
154 263
154 268
154 288
155 286
155 295
156 178
156 220
156 266
157 159
157 171
157 183
157 190
157 296
157 298
158 169
158 176
158 259
159 166
159 183
159 215
159 268
159 269
159 295
160 204
160 279
160 289
161 189
161 263
162 192
162 193
162 236
162 238
163 191
163 238
163 246
164 190
164 243
164 254
165 204
165 244
166 241
166 268
167 175
167 224
167 240
167 262
168 201
168 213
168 217
168 250
168 252
168 254
168 270
168 291
168 293
168 298
169 259
169 270
170 249
170 289
171 176
171 190
171 197
171 213
171 239
171 240
171 250
171 253
171 270
171 271
171 275
172 193
172 198
172 211
172 236
172 283
172 284
172 289
173 188
173 208
173 215
173 226
173 267
173 280
173 300
174 185
174 215
174 222
174 241
174 249
174 267
175 203
175 224
175 271
176 179
176 237
176 238
176 270
176 291
176 299
177 191
177 245
177 264
177 280
178 199
178 218
178 220
178 266
178 297
179 202
179 231
179 237
180 200
180 291
181 185
182 218
182 259
183 191
183 210
183 238
183 256
183 296
183 298
184 247
184 257
184 287
185 200
185 248
185 249
185 252
186 227
186 229
186 279
187 208
187 209
187 216
187 289
188 267
189 233
189 263
189 268
190 243
190 254
191 192
191 238
191 265
192 238
192 259
192 260
192 283
192 284
193 236
193 254
193 282
193 294
194 202
195 221
195 230
195 233
195 243
195 268
195 295
196 202
196 209
196 216
196 233
196 247
196 268
196 279
196 290
196 295
197 237
197 239
197 240
197 278
197 293
198 233
198 262
198 265
198 273
198 285
199 221
199 233
199 275
199 285
199 291
199 293
200 213
200 244
200 291
201 217
201 248
201 254
202 233
202 290
202 295
204 231
204 244
204 263
204 279
205 225
205 240
205 253
205 282
205 283
205 290
205 294
206 208
206 238
206 248
207 220
207 225
207 254
207 260
207 290
208 209
208 215
208 226
208 282
209 216
209 247
209 282
210 256
211 283
211 300
212 248
213 215
213 223
213 250
213 262
213 283
214 240
215 223
215 226
215 242
215 246
215 249
215 299
216 225
216 240
216 271
216 281
217 270
217 298
218 259
219 229
219 234
220 223
220 226
220 236
220 246
220 260
220 291
220 299
221 233
221 282
221 294
222 225
222 226
222 267
222 276
222 278
222 281
223 246
223 262
223 273
223 291
225 250
225 253
225 271
225 282
225 284
226 299
228 237
228 251
228 275
228 283
229 277
230 295
231 237
231 263
231 271
233 268
233 273
233 282
233 284
233 285
233 295
234 263
235 237
235 238
235 264
235 295
236 258
236 261
236 272
236 283
236 284
236 294
236 299
237 253
237 293
238 260
238 264
238 265
238 285
238 286
240 278
240 293
241 255
241 268
242 249
243 268
243 287
244 245
244 289
245 251
248 252
248 267
248 290
250 270
252 279
253 293
253 294
254 279
254 283
254 290
255 264
255 286
255 293
257 287
258 272
258 277
259 260
259 265
259 270
259 285
262 273
263 271
263 278
263 288
264 280
265 275
265 279
265 285
265 292
267 276
267 278
268 287
268 295
270 288
270 291
270 299
272 277
274 286
275 293
276 281
278 288
279 285
279 290
282 287
282 290
283 284
283 290
283 300
284 290
285 286
285 293
286 292
286 293
290 294
290 300
*Classes
1
1
1
1
1
1
1
1
1
1
1
1
1
1
1
1
1
1
1
1
1
1
1
1
1
1
1
1
1
1
1
1
1
1
1
1
1
1
1
1
1
1
1
1
1
1
1
1
1
1
1
1
1
1
1
1
1
1
1
1
1
1
1
1
1
1
1
1
1
1
1
1
1
1
1
1
1
1
1
1
1
1
1
1
1
1
1
1
1
1
1
1
1
1
1
1
1
1
1
1
1
1
1
1
1
1
1
1
1
1
1
1
1
1
1
1
1
1
1
1
1
1
1
1
1
1
1
1
1
1
1
1
1
1
1
1
1
1
1
1
1
1
1
1
1
1
1
1
1
1
2
2
2
2
2
2
2
2
2
2
2
2
2
2
2
2
2
2
2
2
2
2
2
2
2
2
2
2
2
2
2
2
2
2
2
2
2
2
2
2
2
2
2
2
2
2
2
2
2
2
2
2
2
2
2
2
2
2
2
2
2
2
2
2
2
2
2
2
2
2
2
2
2
2
2
2
2
2
2
2
2
2
2
2
2
2
2
2
2
2
2
2
2
2
2
2
2
2
2
2
2
2
2
2
2
2
2
2
2
2
2
2
2
2
2
2
2
2
2
2
2
2
2
2
2
2
2
2
2
2
2
2
2
2
2
2
2
2
2
2
2
2
2
2
2
2
2
2
2
2
