*Vertices 300
*Edges
1 7
1 9
1 49
1 77
1 104
1 129
1 195
1 238
1 260
1 267
1 290
2 7
2 64
2 74
2 121
2 244
2 254
2 264
3 8
3 75
3 94
3 197
3 201
3 205
3 216
3 218
3 234
3 280
4 13
4 99
4 221
4 275
4 281
4 294
4 297
5 12
5 17
5 44
5 46
5 50
5 70
5 75
5 83
5 92
5 120
5 126
5 140
5 163
5 239
5 299
6 82
6 118
6 167
6 186
6 191
6 256
6 280
7 14
7 29
7 37
7 39
7 62
7 63
7 80
7 106
7 111
7 121
7 122
7 130
7 180
7 190
7 196
7 290
8 15
8 19
8 89
8 90
8 127
8 147
8 210
9 47
9 49
9 83
9 110
9 118
9 202
9 220
9 224
9 267
10 58
10 82
11 58
11 82
11 90
11 109
11 129
12 28
12 41
12 42
12 76
12 93
12 110
12 122
12 127
12 142
12 143
12 147
12 148
12 172
12 219
12 239
12 264
12 281
12 290
13 35
13 51
13 98
13 102
13 125
13 129
13 171
13 175
13 217
13 224
13 242
13 274
14 18
14 57
14 80
14 125
14 175
14 179
14 199
14 207
14 261
14 274
15 19
15 26
15 29
15 81
15 89
15 128
15 130
15 166
15 184
15 205
15 231
15 273
16 80
16 107
17 27
17 32
17 46
17 106
17 119
17 140
17 238
17 299
18 29
18 47
18 71
18 80
18 118
18 127
18 148
18 166
18 168
18 199
18 247
18 251
19 39
19 56
19 66
19 72
19 89
19 90
19 92
19 101
19 103
19 146
19 150
19 158
19 161
19 218
19 271
20 43
20 72
20 84
20 85
20 95
20 134
20 138
20 181
20 194
20 292
21 72
21 135
21 178
21 188
21 196
21 225
21 232
22 36
22 68
22 91
22 92
22 168
22 184
22 199
23 201
23 203
23 227
24 41
24 136
24 164
25 94
25 124
25 126
25 132
25 135
25 136
25 236
25 239
26 42
26 54
26 83
26 87
26 89
26 97
27 32
27 65
27 83
27 140
27 151
27 197
27 235
27 243
27 257
28 37
28 43
28 193
28 243
28 264
29 39
29 47
29 55
29 89
29 106
29 114
29 127
29 172
29 184
29 198
29 272
29 300
30 33
30 49
30 148
30 156
30 218
30 251
30 265
30 267
31 41
31 44
31 79
31 87
31 226
31 232
31 292
32 63
32 65
32 211
32 262
32 266
32 289
33 49
33 68
33 82
33 216
33 217
33 292
35 78
35 102
35 256
35 271
36 63
36 78
36 92
36 130
37 62
37 213
37 220
37 243
37 282
38 79
38 119
38 124
38 135
38 140
38 265
39 43
39 56
39 74
39 76
39 106
39 114
39 131
39 137
39 141
39 151
39 165
39 182
39 229
39 250
40 42
40 43
40 57
40 58
40 63
40 68
40 82
40 117
40 137
40 140
40 141
40 154
40 163
40 242
40 277
40 282
41 76
41 127
41 164
42 43
42 54
42 57
42 83
42 95
42 106
42 148
42 173
42 178
42 231
42 244
42 257
43 54
43 57
43 97
43 106
43 114
43 140
43 181
43 243
43 282
43 297
44 150
44 153
44 162
44 168
44 188
44 292
44 295
45 60
45 67
45 85
45 93
45 95
45 128
45 142
45 166
45 276
45 294
46 84
46 106
46 120
46 139
46 140
46 163
46 227
47 93
47 118
47 151
47 157
47 166
47 212
47 234
48 49
48 68
48 77
48 82
48 139
48 146
48 213
48 269
49 77
49 118
49 148
49 176
49 220
50 98
50 122
50 126
50 133
50 216
50 234
50 235
51 120
51 121
51 125
51 149
51 186
51 207
51 271
52 71
52 74
52 88
52 102
52 108
52 129
52 131
52 133
52 158
52 173
52 187
52 191
52 192
53 120
53 125
54 83
54 86
54 97
54 101
54 140
54 149
54 179
54 221
54 225
54 268
54 290
55 114
55 178
55 241
55 272
55 277
55 298
55 300
56 66
56 131
56 150
56 238
57 117
57 125
57 130
57 132
57 137
57 175
57 176
57 199
57 212
57 231
57 234
57 247
57 261
57 278
58 61
58 82
58 122
58 145
58 298
59 243
59 261
59 272
60 119
60 144
60 145
60 149
60 166
60 235
60 255
60 276
61 74
61 106
61 122
61 206
61 218
61 259
61 288
62 70
62 74
62 77
62 83
62 122
62 179
62 213
62 263
62 280
62 286
63 106
63 117
63 130
63 141
63 149
63 173
63 182
63 183
63 197
63 216
63 226
63 242
63 247
63 259
63 262
64 78
64 105
64 121
65 75
65 83
65 110
65 114
65 134
65 144
65 220
65 257
65 276
66 76
66 96
66 103
66 114
66 158
66 162
66 185
66 248
66 272
66 286
66 295
67 73
67 105
67 186
67 218
67 242
67 257
68 77
68 78
68 82
68 97
68 157
68 182
68 211
68 214
68 261
68 276
68 294
69 222
70 80
70 111
70 125
70 126
70 160
70 166
70 173
70 179
70 190
70 209
71 80
71 131
71 209
71 217
72 135
72 153
72 194
73 135
73 174
73 225
73 253
73 257
74 88
74 106
74 133
74 189
75 83
75 86
75 179
75 218
75 223
76 114
76 126
76 127
76 143
76 216
76 219
77 83
77 106
77 240
78 92
78 101
78 121
78 193
78 202
78 227
78 276
78 291
79 94
79 124
79 165
79 205
79 226
79 258
80 96
80 107
80 121
80 125
80 130
80 131
80 137
80 152
81 94
81 128
81 136
82 99
82 108
82 113
82 118
82 146
82 154
82 204
82 248
82 252
83 86
83 97
83 106
83 114
83 141
83 178
83 193
83 220
83 244
84 95
84 97
84 101
84 106
84 108
84 119
84 140
84 142
84 146
84 185
84 213
84 227
85 294
86 106
87 89
87 140
87 239
87 287
87 294
88 100
88 133
88 147
89 167
89 184
89 220
89 255
89 283
90 109
90 161
90 181
90 191
91 92
91 126
91 140
91 201
91 294
92 126
92 131
92 170
92 202
92 211
92 278
93 97
93 101
93 110
93 118
93 127
93 128
93 142
93 158
93 183
93 254
93 281
94 97
94 115
94 128
94 135
94 141
94 165
94 213
94 219
94 230
95 123
95 138
95 189
95 198
96 101
96 152
97 101
97 150
97 169
97 184
97 203
97 273
97 276
97 285
97 294
98 120
98 133
98 135
98 175
98 187
98 222
99 161
99 221
99 223
99 250
99 252
99 253
100 130
100 133
100 147
100 171
100 268
101 103
101 118
101 120
101 140
101 155
101 166
101 184
101 239
102 105
102 125
102 204
102 234
103 155
103 190
103 203
103 288
104 107
104 108
104 223
104 242
104 260
105 260
106 140
106 141
106 282
107 206
107 219
108 133
108 145
108 146
108 149
108 151
108 183
108 191
108 205
108 213
109 264
109 271
109 282
110 114
110 130
110 133
110 163
110 166
110 254
110 259
110 282
111 113
111 121
111 146
111 156
112 120
112 174
112 217
113 114
113 144
113 146
113 162
113 187
113 238
113 258
113 259
113 276
113 288
114 131
114 143
114 146
114 151
114 165
114 217
115 128
115 141
115 207
117 244
117 264
118 146
118 157
118 202
118 230
118 270
118 288
119 140
119 220
119 223
119 233
119 235
119 245
120 125
120 130
120 140
120 155
120 156
120 157
120 187
120 193
120 220
120 224
120 233
120 259
121 122
121 148
121 196
121 205
121 207
121 284
121 298
122 172
122 206
123 138
123 186
123 192
123 205
124 135
124 145
124 194
125 131
125 132
125 137
125 207
126 131
126 136
126 172
126 270
126 282
127 133
127 147
127 198
127 286
128 142
128 169
128 199
128 218
128 262
129 133
129 171
129 230
129 238
129 240
130 141
130 228
130 231
130 259
131 133
131 136
131 137
132 135
132 137
132 150
132 238
132 272
133 147
133 166
134 139
134 144
134 156
134 198
134 251
134 286
135 145
135 167
135 174
135 215
135 219
135 232
135 242
135 256
137 246
137 290
138 244
139 140
139 191
139 257
139 269
139 286
140 141
140 227
140 229
140 282
140 293
140 294
142 148
142 185
142 262
143 170
143 172
143 202
143 210
143 217
143 220
143 260
143 261
143 274
143 289
144 235
144 276
145 149
145 186
145 298
146 160
146 206
147 253
148 165
148 168
148 205
149 174
149 193
149 221
149 244
149 257
149 281
150 169
150 188
150 238
151 213
151 293
152 162
152 211
152 215
152 216
152 220
152 256
152 266
153 191
153 194
153 243
153 272
153 292
154 248
154 252
154 278
154 287
155 156
155 157
155 185
155 194
155 222
155 239
155 253
155 259
155 298
156 160
156 167
156 168
156 173
156 177
156 217
156 255
156 265
156 274
156 281
157 193
157 281
158 163
158 173
158 181
158 217
160 186
160 196
160 216
160 219
160 223
160 228
160 229
160 237
160 258
160 259
160 261
160 268
160 273
160 281
161 237
161 252
161 255
161 258
161 276
161 281
161 294
162 206
162 213
162 220
162 224
162 260
162 266
163 188
163 239
164 230
164 240
165 168
166 173
166 285
166 300
167 222
167 255
167 258
168 180
168 190
168 199
168 217
168 227
168 259
168 273
168 281
168 288
168 295
169 203
169 274
170 201
170 214
170 217
170 251
170 297
171 175
171 198
171 200
171 207
171 240
171 283
172 174
172 193
172 206
172 216
172 246
172 279
172 282
173 177
173 183
173 195
173 285
174 225
174 232
174 241
174 261
174 276
174 278
174 282
174 292
174 294
174 296
174 297
175 177
175 227
175 233
175 242
175 259
175 269
175 273
176 278
176 287
176 288
177 195
177 197
177 210
177 257
177 267
177 269
177 281
178 195
178 225
179 201
179 218
179 225
180 184
180 190
180 208
180 259
180 299
181 183
181 189
182 202
182 222
182 226
183 189
183 210
183 212
183 237
183 246
183 247
184 208
184 240
185 253
185 267
185 295
186 196
186 256
186 257
186 268
187 212
187 244
187 271
187 276
187 288
188 192
188 211
188 239
189 215
190 299
191 194
191 298
192 228
192 235
192 269
193 195
193 202
193 216
193 220
193 246
193 259
193 282
193 299
194 238
194 256
194 272
194 298
194 299
196 225
196 245
196 259
196 268
196 281
196 296
197 212
197 226
197 242
197 247
197 267
197 269
198 207
198 283
199 218
199 279
199 282
200 232
201 214
201 225
201 297
202 223
202 226
202 238
202 247
202 249
202 258
202 261
202 263
203 235
203 255
203 269
203 272
203 291
204 293
205 253
205 280
206 260
206 271
206 276
206 287
207 220
207 276
209 266
209 287
210 211
210 220
210 237
210 247
210 256
210 257
210 269
211 215
211 221
211 236
211 237
211 239
211 256
211 258
212 234
212 237
212 246
213 220
213 224
214 223
214 241
214 261
214 281
214 294
214 296
215 219
215 221
215 256
215 282
215 297
216 234
216 240
216 246
216 257
216 259
216 266
216 281
216 282
217 220
217 274
218 258
218 279
219 227
219 244
219 256
219 259
220 224
220 235
220 254
220 295
221 239
221 252
221 253
221 278
221 294
221 296
222 242
222 298
223 226
223 229
223 235
223 247
223 249
224 272
226 247
226 249
227 259
227 273
227 276
228 229
228 275
228 297
230 232
230 291
230 296
231 244
231 254
232 261
232 291
233 259
234 254
234 264
234 276
234 278
235 254
235 269
235 291
235 295
236 239
236 279
236 289
237 239
237 258
237 279
238 256
238 260
238 291
239 253
239 298
240 266
241 276
241 280
241 290
241 294
242 259
243 272
243 290
244 254
244 257
244 263
245 247
245 268
245 271
245 276
245 292
245 296
245 299
247 249
247 251
247 256
247 257
247 268
250 252
251 282
251 286
251 297
252 253
253 257
253 298
254 259
254 264
254 278
255 258
255 275
255 279
256 259
256 291
257 263
257 266
258 261
258 279
258 288
259 273
259 281
259 285
259 288
259 294
260 267
260 287
261 282
262 279
262 282
262 288
263 286
264 278
266 287
268 289
269 295
271 276
271 292
272 286
272 291
273 281
273 285
275 297
276 288
276 294
277 291
277 300
278 281
278 287
278 288
278 294
278 296
279 282
281 294
282 297
288 294
291 296
292 294
294 296
*Classes
1
1
1
1
1
1
1
1
1
1
1
1
1
1
1
1
1
1
1
1
1
1
1
1
1
1
1
1
1
1
1
1
1
1
1
1
1
1
1
1
1
1
1
1
1
1
1
1
1
1
1
1
1
1
1
1
1
1
1
1
1
1
1
1
1
1
1
1
1
1
1
1
1
1
1
1
1
1
1
1
1
1
1
1
1
1
1
1
1
1
1
1
1
1
1
1
1
1
1
1
1
1
1
1
1
1
1
1
1
1
1
1
1
1
1
1
1
1
1
1
1
1
1
1
1
1
1
1
1
1
1
1
1
1
1
1
1
1
1
1
1
1
1
1
1
1
1
1
1
1
2
2
2
2
2
2
2
2
2
2
2
2
2
2
2
2
2
2
2
2
2
2
2
2
2
2
2
2
2
2
2
2
2
2
2
2
2
2
2
2
2
2
2
2
2
2
2
2
2
2
2
2
2
2
2
2
2
2
2
2
2
2
2
2
2
2
2
2
2
2
2
2
2
2
2
2
2
2
2
2
2
2
2
2
2
2
2
2
2
2
2
2
2
2
2
2
2
2
2
2
2
2
2
2
2
2
2
2
2
2
2
2
2
2
2
2
2
2
2
2
2
2
2
2
2
2
2
2
2
2
2
2
2
2
2
2
2
2
2
2
2
2
2
2
2
2
2
2
2
2
