*Vertices 300
*Edges
1 28
1 81
1 90
1 105
1 164
1 177
1 206
1 243
1 266
2 30
2 31
2 49
2 87
2 109
2 123
2 131
2 165
2 174
2 209
2 218
2 240
3 11
3 17
3 38
3 49
3 150
3 205
3 211
3 273
3 297
4 35
4 45
4 54
4 187
5 75
5 76
5 88
5 115
5 144
5 238
5 242
6 9
6 24
6 54
6 73
6 159
6 218
6 223
6 236
6 272
6 273
7 87
7 94
7 197
7 207
8 30
8 49
8 66
8 71
8 72
8 81
8 96
8 97
8 105
8 123
8 149
8 183
8 240
8 243
8 275
8 280
9 33
9 49
9 51
9 54
9 88
9 131
9 137
9 149
9 168
9 196
9 209
9 214
9 218
9 261
10 14
10 48
10 71
10 76
10 105
10 114
10 152
10 178
10 218
10 233
10 272
10 280
10 292
11 17
11 23
11 38
11 48
11 61
11 118
11 157
11 181
11 202
11 208
11 273
11 275
11 296
12 70
12 82
12 102
12 103
12 163
12 165
12 171
12 209
12 253
13 36
13 49
13 64
13 118
13 123
13 183
13 225
13 240
13 251
13 264
14 15
14 58
14 90
14 114
14 130
14 218
14 223
14 230
14 293
15 58
15 89
15 114
15 218
15 230
15 255
15 293
16 24
16 80
16 195
16 293
17 53
17 186
17 188
17 192
17 292
18 23
18 61
18 85
18 118
18 140
18 177
18 195
18 207
18 211
18 255
18 265
18 277
18 287
19 76
19 92
19 109
19 116
19 153
19 162
19 164
19 178
19 191
19 243
19 288
20 49
20 50
20 72
20 97
20 103
20 133
20 147
20 185
20 191
20 206
20 237
20 250
20 274
21 48
21 110
21 113
21 114
21 128
21 143
21 164
21 189
21 278
22 53
22 69
22 93
22 98
22 129
22 137
22 210
22 227
22 289
23 40
23 61
23 87
23 99
23 100
23 119
23 122
23 128
23 133
23 141
23 179
23 189
23 192
23 211
23 233
23 275
24 27
24 52
24 64
24 73
24 80
24 131
24 169
24 173
24 189
24 274
25 63
25 67
25 135
25 215
25 222
25 273
25 281
25 284
26 85
26 113
26 143
26 187
26 204
26 210
26 217
26 241
26 269
26 270
26 282
27 52
27 73
27 74
27 144
27 181
27 189
27 196
28 67
28 78
28 101
28 110
28 114
28 163
28 177
28 192
28 203
28 206
28 219
28 226
28 289
28 299
29 55
29 84
29 92
29 109
29 169
30 54
30 87
30 94
30 97
30 109
30 122
30 185
31 44
31 49
31 105
31 122
31 133
31 172
31 173
31 179
31 205
31 234
31 251
31 271
31 297
32 86
32 91
32 115
32 207
32 221
32 272
33 46
33 113
33 135
33 137
33 228
33 251
33 276
33 279
34 35
34 92
34 109
34 143
34 212
34 279
34 286
34 288
34 297
35 72
35 85
35 98
35 103
35 108
35 138
35 192
35 208
35 254
35 271
36 52
36 64
36 76
36 104
36 142
36 144
37 66
37 93
37 116
37 123
37 129
37 177
37 194
37 222
37 226
37 266
38 49
38 77
38 88
38 93
38 98
38 150
38 181
38 214
38 217
38 219
38 256
38 273
38 278
38 286
38 297
38 298
39 41
39 182
40 102
40 108
40 119
40 170
40 179
40 225
40 282
40 296
41 177
42 167
42 211
42 232
42 249
42 257
42 292
43 45
43 78
43 144
43 160
43 170
43 171
43 206
43 215
44 49
44 71
44 102
44 191
44 253
44 297
45 67
45 70
45 78
45 108
45 109
45 213
45 281
46 58
46 87
46 95
46 116
46 153
46 176
46 203
46 219
46 226
46 272
46 281
47 69
47 91
47 119
47 134
47 186
47 207
47 210
47 229
47 261
48 68
48 105
48 114
48 143
48 190
48 195
48 202
48 208
48 233
48 268
48 284
49 50
49 66
49 123
49 131
49 297
50 123
50 155
50 238
50 262
51 88
51 115
51 148
51 150
51 154
51 158
51 181
51 189
51 208
51 215
51 229
51 243
52 64
52 104
52 173
52 202
53 217
54 89
54 122
54 133
54 167
54 168
54 174
54 187
54 190
54 210
54 261
54 268
55 92
55 132
55 184
55 240
55 243
56 71
56 72
56 97
56 104
56 281
57 62
57 111
57 119
57 147
57 164
57 206
57 249
57 288
57 290
57 299
58 89
58 95
58 133
58 152
58 219
58 284
59 130
59 155
59 173
59 194
59 198
59 239
61 83
61 87
61 89
61 100
61 107
61 136
61 141
61 142
61 156
61 181
61 192
61 244
61 269
61 284
61 287
61 297
62 112
62 119
62 147
62 187
62 197
62 252
62 276
62 290
63 75
63 88
63 102
63 119
63 135
63 136
63 150
63 158
63 224
63 278
64 79
64 97
64 104
64 110
64 121
64 142
64 185
64 186
64 196
64 212
64 257
64 273
64 274
65 153
65 183
65 199
66 75
66 96
66 123
66 225
66 293
67 156
67 186
67 192
67 197
67 198
67 208
67 268
67 281
68 195
68 210
68 234
68 268
68 276
69 129
69 222
70 82
70 94
70 97
70 98
70 108
70 162
70 279
70 282
70 286
71 97
71 102
71 105
71 108
71 191
71 211
71 260
72 97
72 103
72 108
72 133
72 147
72 154
72 268
72 280
73 82
73 90
73 92
73 150
73 161
73 186
73 193
73 243
73 297
74 144
74 215
75 88
75 111
75 132
75 210
75 239
75 240
75 241
75 271
76 116
76 144
76 178
76 242
76 272
76 280
77 106
77 111
77 180
77 231
77 280
77 286
78 79
78 116
78 144
78 158
78 162
78 177
78 278
79 146
79 176
79 177
79 185
79 217
79 241
79 274
80 126
80 189
80 260
81 90
81 218
81 243
82 103
82 121
82 186
82 193
82 200
82 246
82 247
82 254
83 269
83 297
84 92
84 247
84 274
85 93
85 98
85 108
85 117
85 138
85 177
85 202
85 230
85 239
85 255
85 269
85 282
85 286
87 94
87 109
87 115
87 153
87 183
87 235
87 287
88 115
88 119
88 148
88 150
88 173
88 243
89 102
89 107
89 114
89 117
89 122
89 133
89 136
89 152
89 172
89 190
89 224
89 262
89 271
89 284
90 92
90 105
90 130
90 150
90 250
91 99
91 110
91 124
91 126
91 186
91 210
91 221
91 285
92 105
92 107
92 109
92 150
92 177
92 261
92 288
92 297
93 98
93 116
93 164
93 230
93 273
94 108
94 162
94 180
94 198
94 218
94 235
94 269
94 280
94 294
95 176
96 101
96 123
96 158
96 162
96 180
96 242
96 278
97 103
97 104
97 108
97 149
97 183
97 252
97 268
98 108
98 135
98 138
98 230
98 248
98 262
99 113
99 122
99 128
99 157
99 285
100 141
100 271
101 143
101 151
101 157
101 162
101 193
101 203
101 204
101 227
101 270
102 103
102 108
102 119
102 126
102 136
102 225
102 285
103 108
103 154
103 164
103 171
103 192
103 254
103 285
103 288
104 121
104 196
104 252
105 107
105 123
105 166
105 213
105 216
105 234
105 254
106 111
106 119
106 170
106 181
106 223
106 231
106 241
106 272
107 123
107 133
107 150
107 177
107 271
108 112
108 136
108 147
108 162
108 262
108 283
109 145
109 161
109 201
109 263
109 266
109 288
110 114
110 121
110 124
110 138
110 261
110 294
111 119
111 120
111 134
111 142
111 156
111 219
111 227
111 229
112 147
112 233
112 267
112 276
113 128
113 137
113 171
113 210
113 216
114 117
114 124
114 128
114 143
114 159
114 190
114 289
115 153
115 198
116 153
116 160
116 162
116 179
116 194
116 203
116 241
116 289
117 133
117 136
117 152
117 169
117 219
117 274
118 140
118 186
118 207
118 210
118 220
118 225
118 285
119 135
119 156
119 170
119 186
119 216
119 283
120 134
120 160
120 279
121 165
121 191
121 254
121 256
121 274
122 133
122 257
122 262
122 266
122 276
122 289
123 129
123 225
124 265
124 286
124 297
125 289
126 169
126 219
126 285
128 137
128 157
128 164
128 278
129 186
129 235
130 250
131 149
131 169
131 214
132 172
132 240
133 191
133 216
133 237
134 160
134 203
134 207
134 227
134 261
134 267
134 282
134 287
134 289
135 162
135 194
135 248
135 260
136 152
136 170
136 190
136 224
136 234
136 247
136 256
136 282
137 171
137 187
137 216
137 289
137 298
138 149
138 154
138 257
138 274
139 201
139 300
140 277
141 277
142 229
143 157
143 203
143 212
143 216
143 222
143 227
143 230
143 264
143 293
143 298
144 241
144 286
145 147
145 171
145 201
145 226
145 227
145 238
145 269
146 171
146 180
146 204
146 209
146 213
146 241
146 267
146 270
146 292
147 162
147 206
147 269
147 276
147 290
147 294
148 150
148 276
149 178
149 242
149 257
151 282
152 172
152 180
152 205
152 233
152 238
152 262
152 292
153 183
153 240
153 249
153 251
153 266
153 284
153 289
155 242
156 186
156 232
156 245
156 246
156 257
156 281
157 207
157 210
157 237
157 295
158 183
158 267
158 278
158 280
158 298
159 181
159 190
159 200
159 201
159 236
159 272
160 171
160 208
160 267
160 275
161 170
161 192
161 193
161 207
161 237
161 259
161 264
161 266
161 288
161 299
162 193
162 208
162 278
163 297
164 171
164 178
164 210
164 241
164 243
164 247
164 266
164 288
165 188
165 209
165 256
166 254
167 187
167 190
167 249
167 266
168 177
168 238
168 269
169 185
169 219
169 224
169 256
169 274
170 206
170 210
170 215
170 247
170 250
170 259
170 263
170 264
170 282
170 299
171 177
171 179
171 187
171 226
171 252
172 205
172 233
172 274
172 275
173 179
173 194
173 197
173 252
173 281
173 287
174 234
174 240
175 192
175 219
175 265
175 289
175 298
177 184
177 201
177 216
177 226
177 236
177 238
177 239
177 270
177 285
178 180
178 261
178 294
179 195
179 226
179 232
179 258
179 284
179 289
179 292
180 203
180 207
180 242
180 252
180 261
180 280
180 282
180 292
181 194
181 196
181 201
181 208
181 263
181 272
181 273
181 297
182 237
183 193
183 249
183 264
183 267
183 276
183 280
184 201
184 206
185 194
185 212
185 228
185 274
186 192
186 193
186 205
186 245
186 246
186 277
186 285
187 214
187 219
187 226
187 245
187 246
187 252
187 279
187 282
189 225
189 232
189 277
189 278
189 284
190 260
191 211
191 233
192 208
192 246
192 254
192 264
192 265
192 277
192 285
192 293
192 298
193 202
193 208
193 221
193 264
193 271
193 285
194 196
194 228
194 252
194 260
194 277
194 280
194 298
195 226
195 268
196 209
196 224
196 256
196 272
196 277
197 247
197 268
197 281
197 295
198 227
198 239
198 245
199 242
201 226
201 227
201 269
201 272
201 300
202 208
202 229
202 232
202 257
202 298
203 214
203 282
203 292
204 213
204 228
204 270
204 287
204 300
205 219
205 271
207 237
208 229
208 254
208 271
208 275
210 228
210 234
210 237
210 241
210 247
210 252
210 296
211 233
211 265
211 298
212 230
212 255
212 264
213 228
213 270
213 287
213 293
214 273
214 282
216 234
216 240
216 247
216 255
216 270
217 241
218 239
218 262
219 265
219 298
221 223
221 264
221 290
222 249
222 266
223 241
223 273
223 290
224 256
225 277
226 236
226 270
227 228
227 240
227 289
227 296
228 240
228 252
228 281
228 296
228 300
229 275
230 244
230 255
231 253
231 254
231 257
231 276
232 234
232 246
232 257
232 276
232 281
232 284
232 292
232 298
233 248
233 262
233 275
234 240
234 247
234 257
234 282
234 295
235 258
237 252
237 280
238 262
238 269
238 270
238 293
240 248
240 251
240 255
240 284
241 276
241 286
242 269
242 280
242 294
244 249
244 255
244 266
244 294
245 246
245 279
245 282
247 295
248 251
248 262
248 265
248 284
249 258
249 266
249 276
249 286
251 265
252 264
252 276
252 280
252 296
252 299
253 254
253 260
253 285
253 290
254 270
254 285
255 258
256 273
257 267
257 274
257 276
257 292
259 264
260 280
260 290
261 280
261 292
261 294
262 269
262 283
262 284
263 272
263 273
263 282
264 296
264 299
265 280
265 298
266 288
266 289
267 276
267 286
269 293
269 294
270 285
272 273
272 279
274 276
276 286
276 290
278 280
280 298
280 299
281 287
281 296
286 297
287 293
287 298
289 293
289 298
293 298
*Classes
1
1
1
1
1
1
1
1
1
1
1
1
1
1
1
1
1
1
1
1
1
1
1
1
1
1
1
1
1
1
1
1
1
1
1
1
1
1
1
1
1
1
1
1
1
1
1
1
1
1
1
1
1
1
1
1
1
1
1
1
1
1
1
1
1
1
1
1
1
1
1
1
1
1
1
1
1
1
1
1
1
1
1
1
1
1
1
1
1
1
1
1
1
1
1
1
1
1
1
1
1
1
1
1
1
1
1
1
1
1
1
1
1
1
1
1
1
1
1
1
1
1
1
1
1
1
1
1
1
1
1
1
1
1
1
1
1
1
1
1
1
1
1
1
1
1
1
1
1
1
2
2
2
2
2
2
2
2
2
2
2
2
2
2
2
2
2
2
2
2
2
2
2
2
2
2
2
2
2
2
2
2
2
2
2
2
2
2
2
2
2
2
2
2
2
2
2
2
2
2
2
2
2
2
2
2
2
2
2
2
2
2
2
2
2
2
2
2
2
2
2
2
2
2
2
2
2
2
2
2
2
2
2
2
2
2
2
2
2
2
2
2
2
2
2
2
2
2
2
2
2
2
2
2
2
2
2
2
2
2
2
2
2
2
2
2
2
2
2
2
2
2
2
2
2
2
2
2
2
2
2
2
2
2
2
2
2
2
2
2
2
2
2
2
2
2
2
2
2
2
