*Vertices 300
*Edges
1 12
1 64
1 74
1 99
1 104
1 119
1 120
1 185
1 204
1 219
1 220
1 224
1 285
1 296
2 162
3 7
3 38
3 75
3 100
3 122
3 135
3 139
3 187
3 254
3 269
3 279
3 285
3 288
4 22
4 62
4 100
4 110
4 122
4 128
4 222
4 229
5 24
5 62
5 91
5 96
5 116
5 126
5 178
5 198
5 255
5 267
5 271
6 14
6 59
6 73
6 77
6 78
6 141
6 153
6 177
6 184
6 209
6 257
7 10
7 12
7 38
7 50
7 72
7 86
7 111
7 123
7 129
7 135
7 143
7 159
7 162
7 187
7 189
7 208
7 215
7 228
7 232
7 245
7 258
7 272
7 277
7 285
8 42
8 73
8 116
8 146
8 194
8 195
8 247
9 17
9 18
9 23
9 24
9 52
9 53
9 55
9 67
9 129
9 218
9 255
10 21
10 37
10 44
10 47
10 119
10 198
10 203
10 231
10 235
10 258
10 280
10 285
11 28
11 56
11 71
11 89
11 94
11 107
11 128
11 208
11 230
11 240
11 273
12 42
12 44
12 64
12 81
12 100
12 116
12 121
12 133
12 138
12 143
12 181
12 187
12 203
12 250
13 16
13 98
13 104
13 127
13 139
13 149
13 172
13 184
13 193
13 212
13 216
13 234
13 275
14 61
14 192
14 232
14 279
14 298
15 35
15 40
15 72
15 90
15 130
15 196
15 290
15 294
16 20
16 81
16 91
16 139
16 197
16 216
16 234
17 52
17 53
17 79
17 122
17 129
17 211
17 249
17 253
17 255
18 55
18 95
18 100
18 110
18 125
18 142
18 204
18 210
18 223
18 225
18 235
19 20
19 57
19 59
19 102
19 105
19 154
19 155
19 188
19 200
19 233
19 252
20 38
20 57
20 64
20 73
20 81
20 84
20 109
20 124
20 142
20 146
20 276
20 284
21 28
21 38
21 41
21 80
21 109
21 119
21 145
21 148
21 164
21 203
21 235
21 242
21 271
21 275
21 300
22 28
22 79
22 125
22 128
23 26
23 39
23 66
23 71
23 130
23 160
23 196
23 202
23 215
23 251
23 255
23 260
24 48
24 121
24 123
24 129
24 135
24 150
24 169
24 178
24 185
24 227
24 296
25 89
25 94
25 110
25 140
25 146
25 152
25 158
25 299
26 40
26 87
26 113
26 130
26 196
26 287
27 32
27 67
27 106
27 144
27 145
27 154
27 165
27 170
27 177
27 189
27 211
27 225
27 234
27 254
27 261
27 281
28 79
28 88
28 89
28 104
28 111
28 125
28 128
28 141
28 148
28 201
28 243
29 107
29 130
29 175
29 187
29 258
29 272
29 288
30 32
30 82
30 106
30 139
30 170
30 174
30 277
30 291
30 297
31 40
31 113
31 132
31 138
31 205
31 236
31 261
32 114
32 139
32 144
32 158
32 173
32 179
32 193
32 293
33 53
33 111
33 152
33 238
33 277
34 62
34 84
34 101
34 105
34 115
34 143
34 154
34 186
34 193
34 252
35 46
35 72
35 101
35 196
36 63
36 92
36 96
36 124
36 212
37 47
37 58
37 61
37 98
37 169
37 237
38 41
38 71
38 80
38 86
38 87
38 109
38 135
38 145
38 159
38 162
38 165
38 184
38 189
38 206
38 208
38 209
38 220
38 228
38 237
38 258
39 65
39 114
39 120
40 44
40 50
40 53
40 56
40 65
40 116
40 123
40 128
40 130
40 137
40 138
40 146
40 252
40 255
41 42
41 53
41 88
41 125
41 154
41 164
41 172
41 192
41 271
41 275
41 280
41 284
41 300
42 49
42 59
42 109
42 113
42 116
42 138
42 145
42 152
42 181
42 220
42 221
42 284
43 52
43 81
43 88
43 117
43 129
43 143
43 181
43 236
44 52
44 56
44 69
44 75
44 85
44 134
44 138
44 145
44 150
44 158
44 187
44 190
44 198
44 201
44 203
44 250
44 275
45 220
46 110
46 196
46 219
46 220
46 243
46 259
47 141
47 169
47 184
47 197
47 237
47 248
48 124
48 129
48 147
48 218
48 240
48 241
48 279
48 282
49 68
49 82
49 126
49 202
49 269
49 284
50 65
50 92
50 130
50 134
50 189
50 225
51 89
51 110
51 158
51 161
51 224
51 243
51 269
52 55
52 65
52 70
52 88
52 176
52 219
52 242
52 250
52 255
52 288
52 298
53 86
53 133
53 153
53 178
53 181
53 190
53 271
53 277
53 295
54 148
54 203
54 233
54 289
55 73
55 95
55 100
55 105
55 143
55 146
55 193
55 228
55 285
56 114
56 123
56 136
56 140
56 211
56 224
56 257
56 273
56 277
56 288
57 76
57 78
57 81
57 100
57 109
57 125
57 142
57 143
58 186
58 188
59 78
59 98
59 102
59 184
59 194
59 202
59 213
59 269
60 75
60 85
60 95
60 150
60 157
60 168
60 179
60 182
60 198
60 220
60 240
60 259
60 273
60 285
61 98
61 142
61 159
61 192
61 230
61 232
61 244
61 280
62 79
62 91
62 100
62 105
62 123
62 126
62 137
62 166
62 171
62 178
62 234
62 252
62 268
63 66
63 212
64 109
64 120
64 179
64 200
64 204
65 70
65 114
65 130
65 162
65 176
65 256
65 261
66 121
66 160
66 189
66 215
66 226
66 256
66 270
67 170
67 209
68 82
68 85
68 89
68 93
68 97
68 114
68 130
68 141
68 145
68 165
68 179
68 202
68 246
68 285
68 294
69 171
69 177
69 197
69 241
69 258
70 72
70 90
70 169
70 286
70 290
71 89
71 107
71 135
71 159
71 208
71 251
72 111
72 118
72 144
72 145
72 148
72 152
72 172
72 218
73 77
73 114
73 136
73 146
73 195
73 247
73 248
73 253
74 119
74 151
74 156
74 163
74 170
74 219
74 220
74 224
75 85
75 93
75 110
75 154
75 168
75 179
75 187
75 214
76 125
76 245
76 257
76 282
77 78
77 83
77 85
77 93
77 111
77 178
77 184
77 207
77 209
77 228
77 238
77 252
77 255
77 257
77 283
78 147
78 153
78 169
78 206
78 214
78 224
78 242
79 105
79 108
79 125
79 200
79 282
80 155
80 174
80 182
80 220
80 224
80 225
81 84
81 87
81 135
81 143
81 146
81 191
82 106
82 126
82 202
83 128
83 176
83 236
83 262
83 288
84 100
84 109
84 143
84 181
84 190
84 236
84 240
84 246
84 259
84 284
84 286
85 93
85 138
85 165
85 208
85 246
85 261
86 121
86 133
86 165
86 167
86 228
87 109
87 130
87 134
87 135
87 145
87 212
87 232
88 117
88 125
88 135
88 168
88 181
88 198
88 241
88 247
88 262
88 267
88 283
89 110
89 128
89 141
89 146
89 168
89 173
89 174
89 262
90 95
90 99
90 150
90 161
90 225
90 237
90 239
90 262
90 263
90 290
90 298
91 106
91 127
91 226
92 96
93 110
93 132
93 181
93 246
94 152
94 216
94 220
94 240
94 249
94 259
94 273
94 282
94 296
94 299
95 103
95 121
95 135
95 146
95 150
95 187
95 211
95 216
95 225
95 281
97 115
97 116
97 128
97 188
97 257
97 288
98 105
98 122
98 132
98 180
98 184
98 212
98 230
98 263
98 278
98 299
99 101
99 116
99 128
99 185
99 227
99 262
99 288
100 122
100 125
100 143
100 228
100 285
101 128
101 131
101 167
101 186
101 188
101 220
101 257
102 105
102 108
102 125
102 155
102 159
102 184
102 191
102 194
102 199
102 205
102 233
102 239
102 248
103 150
103 151
104 120
104 139
104 148
104 285
105 115
105 126
105 154
105 173
105 193
105 239
105 252
105 271
105 278
105 285
106 127
106 145
106 165
106 180
106 184
106 200
106 214
106 240
106 254
107 126
107 175
107 193
107 258
107 262
108 125
108 130
108 139
108 145
108 159
108 170
108 272
109 187
109 228
109 237
109 247
109 284
110 136
110 170
110 171
110 195
110 214
110 235
110 257
110 258
110 259
110 268
110 288
110 291
110 299
111 123
111 148
111 152
111 197
111 222
111 252
112 113
112 118
112 132
112 297
113 138
113 175
113 196
113 221
113 273
113 287
114 130
114 136
114 144
114 146
114 162
114 294
115 163
115 194
115 197
115 217
115 247
116 128
116 178
116 220
117 138
117 225
117 241
117 245
117 288
117 289
118 144
118 145
118 218
118 250
118 280
118 297
119 185
119 235
120 180
120 187
120 204
120 269
120 298
121 133
121 136
121 150
121 175
122 142
122 192
122 210
122 211
123 129
123 135
123 137
123 226
123 230
123 244
123 255
124 146
124 243
124 282
124 292
124 299
125 142
125 148
125 196
125 292
126 131
126 179
126 193
126 234
126 293
127 144
127 275
128 288
128 299
129 143
129 147
129 150
129 178
129 181
129 224
129 264
129 296
130 134
130 145
130 146
130 217
130 272
131 140
131 257
132 147
132 157
132 181
132 205
132 223
132 239
132 297
133 151
133 179
134 156
134 161
134 164
134 217
134 250
135 143
135 185
135 191
135 207
135 225
135 262
135 272
135 278
135 296
135 299
136 175
136 197
136 286
136 288
136 294
137 204
137 210
137 234
137 269
138 143
138 179
138 288
138 289
138 293
139 144
139 170
139 173
139 275
140 162
140 175
140 193
140 224
141 184
141 281
142 192
143 167
143 189
143 232
144 145
144 154
144 234
144 256
144 275
144 297
145 154
145 177
145 208
145 216
145 250
145 272
145 294
146 150
146 168
146 260
147 171
147 223
147 239
147 285
147 297
148 163
148 180
148 201
148 252
149 155
149 200
149 221
149 231
149 232
149 234
149 266
149 285
150 198
150 199
150 220
150 239
150 241
150 249
151 154
151 157
151 175
151 179
151 203
151 224
151 233
151 277
152 200
152 222
152 284
153 156
153 211
153 224
153 226
153 230
153 236
153 244
153 271
153 273
153 287
154 167
154 206
154 224
154 271
155 182
155 200
155 223
155 228
155 229
155 238
155 255
155 285
156 170
156 217
156 224
156 250
157 176
157 178
157 179
157 271
157 277
157 293
157 297
158 162
158 173
158 224
158 236
158 244
158 275
158 297
159 167
159 169
159 178
159 208
159 213
159 238
159 239
159 248
159 261
160 172
160 187
160 226
160 284
161 164
161 243
161 274
162 163
162 173
162 236
162 253
162 262
163 173
163 180
163 195
163 201
163 221
163 247
163 273
163 284
164 295
165 176
165 208
165 223
165 261
165 288
166 217
166 237
166 252
167 183
167 186
167 208
167 245
167 283
168 188
168 193
168 233
168 253
168 262
169 178
169 194
169 195
169 202
169 214
169 227
169 238
169 248
170 177
170 259
170 277
170 291
171 175
171 177
171 191
171 222
171 257
171 268
171 299
172 182
172 187
172 218
172 230
172 234
172 244
172 251
172 254
172 255
172 275
172 278
173 174
173 193
173 227
173 253
173 262
173 286
174 182
174 189
174 207
174 225
175 177
175 221
175 224
175 242
175 263
175 265
175 281
175 296
176 261
177 191
177 234
177 268
177 281
178 202
178 227
178 238
178 255
178 271
178 298
179 236
179 288
179 293
179 297
180 184
180 214
180 221
180 247
180 254
181 213
181 236
181 288
182 187
182 251
182 255
182 259
183 186
183 211
183 245
184 227
184 228
184 257
184 278
184 281
185 186
186 283
186 293
187 211
187 214
187 247
187 284
188 233
188 253
188 257
189 215
189 225
189 232
189 240
189 245
189 257
189 268
189 277
189 282
189 287
190 192
190 246
190 295
191 239
191 268
191 299
192 249
192 280
193 203
193 222
193 234
193 259
193 262
193 293
194 202
194 204
194 223
194 238
194 247
194 269
194 280
194 298
195 226
195 235
195 248
195 273
195 299
196 206
196 297
197 227
197 258
197 286
198 199
198 231
198 247
198 266
198 267
198 273
198 284
198 285
200 240
200 272
200 282
200 284
201 222
201 250
202 219
202 243
202 255
202 269
202 298
203 217
203 233
203 259
203 273
203 289
204 210
204 223
204 231
204 235
204 293
206 210
206 218
206 224
206 228
207 209
207 225
207 252
208 220
208 261
208 288
209 252
209 283
210 211
210 218
211 247
211 277
212 230
212 232
213 227
213 236
213 241
213 279
215 225
215 228
216 227
216 290
217 233
218 241
218 242
218 275
218 290
219 220
219 243
220 241
220 296
221 234
222 229
222 250
222 268
222 284
223 231
223 234
223 273
223 285
223 286
223 293
224 260
224 271
225 269
225 298
226 230
226 236
226 244
226 248
226 270
226 288
227 238
227 262
227 265
227 281
229 238
229 252
229 269
229 283
229 292
230 244
230 254
230 273
230 287
231 266
231 285
231 286
232 266
232 298
234 251
234 259
234 262
234 266
234 274
234 285
234 297
235 258
235 280
235 288
236 248
236 274
236 288
236 297
237 253
238 280
238 285
239 249
239 299
240 245
240 259
240 268
240 272
240 277
240 286
240 287
240 297
241 242
241 252
241 262
241 279
241 283
241 296
242 265
242 275
242 296
243 269
243 274
244 254
245 257
245 277
245 282
246 284
247 266
247 284
247 285
248 273
249 300
250 275
251 278
252 283
254 285
255 257
255 269
255 298
256 287
257 268
257 271
258 280
259 272
259 273
259 286
259 293
259 297
260 279
261 272
261 287
261 288
261 294
264 289
265 275
266 276
269 292
269 298
272 284
272 288
273 285
273 287
274 297
274 299
277 297
278 299
280 297
283 292
288 297
288 298
293 297
295 300
*Classes
1
1
1
1
1
1
1
1
1
1
1
1
1
1
1
1
1
1
1
1
1
1
1
1
1
1
1
1
1
1
1
1
1
1
1
1
1
1
1
1
1
1
1
1
1
1
1
1
1
1
1
1
1
1
1
1
1
1
1
1
1
1
1
1
1
1
1
1
1
1
1
1
1
1
1
1
1
1
1
1
1
1
1
1
1
1
1
1
1
1
1
1
1
1
1
1
1
1
1
1
1
1
1
1
1
1
1
1
1
1
1
1
1
1
1
1
1
1
1
1
1
1
1
1
1
1
1
1
1
1
1
1
1
1
1
1
1
1
1
1
1
1
1
1
1
1
1
1
1
1
2
2
2
2
2
2
2
2
2
2
2
2
2
2
2
2
2
2
2
2
2
2
2
2
2
2
2
2
2
2
2
2
2
2
2
2
2
2
2
2
2
2
2
2
2
2
2
2
2
2
2
2
2
2
2
2
2
2
2
2
2
2
2
2
2
2
2
2
2
2
2
2
2
2
2
2
2
2
2
2
2
2
2
2
2
2
2
2
2
2
2
2
2
2
2
2
2
2
2
2
2
2
2
2
2
2
2
2
2
2
2
2
2
2
2
2
2
2
2
2
2
2
2
2
2
2
2
2
2
2
2
2
2
2
2
2
2
2
2
2
2
2
2
2
2
2
2
2
2
2
