*Vertices 300
*Edges
1 4
1 7
1 24
1 59
1 61
1 72
1 94
1 120
1 160
1 208
1 243
1 276
1 281
2 22
2 31
2 45
2 73
2 120
2 133
2 225
2 270
2 274
3 35
3 39
3 70
3 126
3 131
3 185
3 228
3 267
3 283
3 290
3 294
3 300
4 59
4 202
4 230
4 243
4 253
5 6
5 8
5 29
5 41
5 106
5 143
5 206
5 207
5 228
5 233
5 275
6 28
6 108
6 171
6 185
6 232
6 272
6 282
6 288
7 23
7 24
7 26
7 59
7 72
7 135
7 165
7 217
7 222
8 111
8 135
8 141
8 162
8 206
9 19
9 142
9 216
9 255
9 284
10 13
10 15
10 18
10 25
10 26
10 37
10 80
10 87
10 90
10 101
10 122
10 137
10 148
10 168
10 183
10 202
10 209
10 277
10 278
10 279
11 76
11 99
11 125
11 130
11 134
11 147
11 200
11 244
12 80
12 102
12 127
12 161
12 208
12 262
12 270
12 282
12 292
13 14
13 19
13 36
13 45
13 71
13 101
13 104
13 127
13 131
13 147
13 152
13 230
13 250
13 272
13 282
13 290
14 27
14 55
14 80
14 112
14 115
14 127
14 147
14 196
14 256
14 266
15 34
15 68
15 83
15 90
15 127
15 145
15 148
15 174
15 194
15 252
15 272
15 281
16 23
16 31
16 36
16 43
16 55
16 71
16 74
16 85
16 86
16 89
16 102
16 112
16 113
16 123
16 150
16 173
16 176
16 189
16 217
16 220
16 244
16 264
16 270
16 296
17 32
17 34
17 44
17 48
17 53
17 120
17 137
17 149
17 165
17 218
17 242
18 25
18 75
18 76
18 122
18 170
18 257
18 273
19 24
19 35
19 59
19 64
19 108
19 131
19 142
19 199
20 76
20 87
20 110
20 122
20 126
20 130
20 141
20 147
20 187
20 189
20 199
20 216
20 244
21 38
21 46
21 53
21 165
21 214
21 248
21 296
22 33
22 69
22 73
22 96
22 107
22 248
22 251
22 270
22 287
22 295
23 24
23 56
23 58
23 67
23 77
23 85
23 96
23 117
23 120
23 125
23 132
23 146
23 296
24 123
24 171
25 68
25 75
25 78
25 84
25 122
25 149
25 205
25 212
25 232
25 233
25 236
25 265
25 271
25 284
26 44
26 49
26 95
26 101
26 112
26 216
26 242
26 261
27 96
27 155
27 206
27 251
28 101
28 106
28 157
28 206
28 233
28 255
28 268
28 282
28 299
29 31
29 57
29 151
29 168
29 182
29 228
29 233
29 300
30 69
30 100
30 104
30 128
30 168
30 181
30 225
30 252
31 40
31 41
31 45
31 57
31 63
31 74
31 82
31 123
31 131
31 143
31 176
31 229
32 66
32 67
32 95
32 118
32 195
33 43
33 180
33 251
33 279
34 40
34 54
34 109
34 174
34 286
34 292
35 51
35 89
35 98
35 99
35 108
35 158
35 186
35 240
35 286
35 294
36 43
36 150
36 164
36 220
36 264
36 267
36 294
37 53
37 58
37 90
37 92
37 99
37 120
37 226
37 235
37 256
37 281
38 46
38 83
38 122
38 251
39 40
39 51
39 70
39 84
39 184
39 186
39 242
39 297
40 41
40 74
40 83
40 84
40 116
40 160
40 170
40 184
40 195
40 198
40 286
40 295
41 116
41 117
41 133
41 143
41 166
41 169
41 184
41 211
41 222
41 295
41 297
42 49
42 50
42 190
42 198
42 238
43 52
43 61
43 90
43 124
43 134
43 165
43 173
43 189
43 276
43 279
44 64
44 68
44 84
44 88
44 95
44 149
44 216
44 242
44 265
45 57
45 77
45 131
45 184
45 189
45 294
46 53
46 152
46 234
46 254
47 171
47 288
48 53
48 65
48 102
48 156
48 171
48 294
49 50
49 99
49 112
49 154
49 180
49 223
49 248
49 268
49 279
49 295
50 118
50 143
50 194
50 198
50 242
50 297
51 84
51 98
51 169
51 199
51 260
51 265
51 286
52 81
52 188
53 58
53 74
53 120
53 129
53 142
53 171
53 203
53 234
53 288
54 83
54 179
54 273
55 69
55 82
55 85
55 87
55 89
55 90
55 104
55 112
55 115
55 137
55 171
55 176
55 212
55 244
55 276
56 58
56 76
56 77
56 100
56 102
56 110
56 146
56 156
56 196
56 199
56 205
56 244
56 258
56 260
57 77
57 131
58 74
58 164
58 203
58 221
58 230
58 258
58 266
59 96
59 160
59 177
59 199
59 267
59 270
59 286
60 74
60 164
60 230
60 246
60 260
61 72
61 96
61 100
61 117
61 120
61 130
61 165
61 170
61 174
61 259
61 273
61 292
62 77
62 79
62 107
62 148
62 238
62 298
63 82
63 139
63 190
63 214
63 217
63 222
63 269
63 270
64 70
64 78
64 131
64 134
64 160
64 164
64 178
64 184
64 204
64 242
64 253
65 75
65 121
65 126
65 169
65 187
65 216
65 253
65 289
65 297
66 68
66 78
66 98
66 101
66 121
66 153
66 180
66 204
66 238
66 247
67 77
67 100
67 118
67 125
67 135
67 154
67 163
67 195
67 198
67 264
67 298
68 77
68 84
68 114
68 148
68 180
68 184
68 189
69 82
69 87
69 90
69 102
69 112
69 123
69 128
69 161
69 170
69 176
69 188
69 192
69 232
69 244
69 248
69 295
70 88
70 102
70 242
70 248
70 259
70 261
70 294
71 80
71 108
71 113
71 122
71 146
71 194
71 221
71 265
72 94
72 114
72 120
72 139
72 179
72 182
72 186
72 275
73 113
73 117
73 152
74 113
74 123
74 260
74 296
75 96
75 187
75 216
75 231
75 253
76 100
76 122
76 141
76 143
76 210
76 244
76 256
77 85
77 93
77 104
77 122
77 142
77 146
77 160
77 171
77 176
77 184
77 216
77 248
77 272
77 284
77 298
78 84
78 103
78 114
78 186
78 193
78 204
78 226
78 247
78 291
78 293
79 107
79 115
79 216
79 219
80 90
80 92
80 97
80 122
80 146
80 155
80 189
80 196
80 220
80 222
80 237
80 247
80 270
81 137
81 151
81 176
82 139
82 140
82 165
82 244
82 265
83 100
83 103
83 122
83 174
83 190
83 195
83 213
83 255
83 286
84 87
84 98
84 103
84 149
84 186
84 202
84 231
84 247
84 265
84 279
84 282
84 293
85 89
85 103
85 121
85 132
85 142
85 224
86 90
86 119
86 150
86 151
86 168
86 194
86 295
86 299
87 101
87 190
87 202
87 209
87 214
87 216
87 235
87 282
88 91
88 157
88 259
89 108
89 121
89 150
89 247
89 286
90 92
90 99
90 112
90 151
90 176
90 183
90 189
90 191
90 205
90 241
90 243
90 271
90 275
91 157
91 236
92 221
92 252
92 255
93 125
93 143
93 160
93 166
93 172
93 184
93 194
93 244
93 248
93 252
93 253
93 275
94 135
94 182
94 183
94 191
94 195
94 223
94 252
94 260
94 269
95 137
96 98
96 102
96 117
96 150
96 177
96 251
96 299
97 143
97 155
97 156
97 196
97 197
97 209
97 210
97 229
97 273
98 118
98 136
98 149
98 159
98 181
98 201
98 238
98 294
99 104
99 112
99 130
99 134
99 158
99 177
99 186
99 237
99 286
100 122
100 128
100 174
100 223
100 249
100 264
101 131
101 174
101 230
101 235
101 238
101 250
101 290
102 110
102 117
102 187
102 192
102 199
102 217
102 225
102 270
103 190
103 224
103 264
103 272
104 128
104 151
104 176
104 206
104 208
104 268
105 300
106 157
106 182
106 197
106 207
106 233
107 115
107 148
108 159
108 268
108 282
109 163
109 208
110 199
110 239
111 141
111 153
111 162
111 241
111 296
112 140
112 154
112 182
112 210
112 268
112 277
113 117
113 168
113 169
113 173
113 212
113 265
113 296
114 180
114 226
114 256
114 275
115 212
115 216
115 234
115 278
116 118
116 133
116 258
116 274
117 132
117 139
117 143
117 155
117 163
117 169
117 209
117 275
117 278
118 136
118 183
118 190
118 197
118 198
118 215
118 220
118 226
118 246
118 285
118 300
119 150
119 181
119 194
119 252
119 282
119 288
120 128
120 130
120 132
120 133
120 149
120 165
120 274
120 281
121 132
121 142
121 162
121 173
121 214
121 289
122 128
122 171
122 176
122 220
122 257
122 274
123 162
123 268
123 274
124 139
124 160
124 167
124 185
124 237
124 248
124 271
124 276
124 285
124 293
125 172
125 182
125 239
125 271
125 293
126 130
126 141
126 169
126 267
126 299
127 141
127 154
127 235
127 270
127 272
128 133
128 167
128 176
128 188
128 252
128 300
129 152
129 250
130 142
130 167
130 169
130 170
130 174
130 185
130 191
131 151
131 242
131 243
131 267
133 149
133 174
133 190
133 242
133 249
133 274
134 200
134 242
135 165
135 195
135 213
135 250
135 282
136 178
136 183
136 252
136 269
136 285
137 176
137 198
137 207
137 279
138 140
138 146
138 176
138 196
138 241
138 272
139 163
139 210
139 238
139 260
139 275
140 151
140 184
140 185
140 232
140 233
140 265
141 147
141 154
141 156
141 199
141 232
141 287
142 171
142 176
142 191
142 216
142 255
142 283
143 222
143 228
143 229
143 244
143 297
144 167
144 220
146 183
146 205
146 231
146 241
146 258
146 266
146 270
147 169
147 244
148 188
148 218
149 159
149 177
149 180
149 184
149 197
149 217
149 222
149 223
149 262
149 268
149 269
149 276
149 282
150 251
150 295
150 299
151 168
151 170
151 176
151 184
151 245
151 248
151 265
151 279
151 287
152 232
152 250
153 156
153 159
153 180
153 183
153 241
153 248
154 191
154 219
154 231
154 258
154 266
155 163
155 205
155 206
155 209
155 211
155 227
156 169
156 192
156 196
156 280
156 294
157 215
157 300
158 171
158 186
158 237
159 207
159 248
159 285
160 170
160 184
160 185
160 262
160 263
160 267
160 291
160 292
161 170
161 227
161 246
162 167
162 173
162 268
163 184
163 193
163 264
163 286
164 167
164 179
164 204
164 221
164 225
164 230
164 246
164 264
164 267
164 281
164 290
165 170
166 180
166 268
166 289
166 295
167 173
167 185
167 221
167 224
167 252
167 269
167 281
167 289
167 297
168 181
168 182
168 224
168 245
168 293
169 196
169 220
169 299
170 184
170 232
170 257
170 273
170 275
170 295
171 176
171 255
171 288
172 194
172 211
172 239
172 253
172 294
173 221
173 230
173 281
174 179
174 190
174 259
174 262
174 292
175 180
175 189
175 193
175 299
176 189
176 206
176 229
176 272
176 287
177 269
178 183
178 184
178 242
178 283
179 186
179 273
179 281
180 189
180 243
180 268
180 278
180 279
181 194
181 271
181 293
182 197
182 210
182 227
182 284
183 186
183 189
183 190
183 221
183 224
183 228
183 237
183 241
183 249
183 252
183 261
183 275
184 193
184 198
184 214
184 222
184 234
184 241
184 245
184 248
184 268
184 273
184 275
184 284
184 290
184 295
184 298
185 190
185 191
185 232
185 233
185 237
185 283
185 289
185 297
185 300
186 194
186 231
186 245
186 252
186 255
186 265
186 271
186 279
187 199
187 214
188 235
189 193
189 205
189 206
189 216
189 243
189 287
190 235
190 249
190 261
190 300
191 260
191 278
192 221
192 280
192 294
193 195
193 246
193 247
193 258
193 266
194 221
194 252
194 289
194 297
195 206
195 213
195 247
195 255
195 282
196 222
196 229
196 237
196 241
196 297
197 229
197 276
197 285
198 300
199 205
199 216
199 225
199 233
199 246
199 286
200 206
200 209
200 220
200 249
200 298
201 238
202 230
203 223
205 211
205 212
205 233
205 244
205 260
205 271
205 286
206 211
206 227
206 233
206 254
206 282
206 287
206 292
206 300
207 261
207 285
207 296
208 241
208 275
208 292
208 297
209 233
209 277
209 287
209 300
210 231
210 258
210 260
211 217
211 252
211 253
213 230
213 252
213 300
214 235
214 236
214 244
214 248
214 276
215 230
215 239
215 252
215 300
216 219
216 294
217 222
217 231
217 232
217 252
217 255
217 270
217 284
217 300
218 262
218 269
219 247
219 295
220 246
220 261
220 298
221 224
221 225
221 230
221 252
221 280
221 289
222 268
222 275
223 262
223 268
223 269
224 252
225 242
225 246
225 252
225 294
226 256
226 259
226 285
228 233
229 245
229 276
230 242
230 281
230 290
230 293
230 296
230 300
231 258
232 250
232 265
232 273
232 282
232 284
232 289
233 254
233 291
233 300
234 248
234 254
234 263
234 275
235 244
235 267
235 281
235 290
235 296
236 242
236 243
236 248
238 275
238 294
240 256
241 248
241 275
241 297
242 246
242 248
242 274
242 293
242 300
243 253
243 282
244 248
244 276
245 271
245 279
246 264
246 294
247 295
248 275
248 285
248 295
249 298
250 284
250 285
251 295
252 255
252 269
252 283
252 297
252 299
252 300
254 288
254 291
255 283
255 299
256 285
257 292
258 266
259 261
259 285
259 290
260 265
262 269
262 291
262 292
263 278
263 279
264 286
265 273
265 282
267 290
268 277
268 299
270 287
271 293
272 281
272 282
275 290
276 277
278 279
281 290
281 296
282 288
282 292
283 300
286 292
288 299
289 295
289 297
*Classes
1
1
1
1
1
1
1
1
1
1
1
1
1
1
1
1
1
1
1
1
1
1
1
1
1
1
1
1
1
1
1
1
1
1
1
1
1
1
1
1
1
1
1
1
1
1
1
1
1
1
1
1
1
1
1
1
1
1
1
1
1
1
1
1
1
1
1
1
1
1
1
1
1
1
1
1
1
1
1
1
1
1
1
1
1
1
1
1
1
1
1
1
1
1
1
1
1
1
1
1
1
1
1
1
1
1
1
1
1
1
1
1
1
1
1
1
1
1
1
1
1
1
1
1
1
1
1
1
1
1
1
1
1
1
1
1
1
1
1
1
1
1
1
1
1
1
1
1
1
1
2
2
2
2
2
2
2
2
2
2
2
2
2
2
2
2
2
2
2
2
2
2
2
2
2
2
2
2
2
2
2
2
2
2
2
2
2
2
2
2
2
2
2
2
2
2
2
2
2
2
2
2
2
2
2
2
2
2
2
2
2
2
2
2
2
2
2
2
2
2
2
2
2
2
2
2
2
2
2
2
2
2
2
2
2
2
2
2
2
2
2
2
2
2
2
2
2
2
2
2
2
2
2
2
2
2
2
2
2
2
2
2
2
2
2
2
2
2
2
2
2
2
2
2
2
2
2
2
2
2
2
2
2
2
2
2
2
2
2
2
2
2
2
2
2
2
2
2
2
2
