*Vertices 300
*Edges
1 113
1 145
1 195
2 21
2 43
2 48
2 94
2 97
2 108
2 147
2 168
2 202
2 245
3 16
3 44
3 51
3 56
3 101
3 140
3 165
3 222
3 285
4 8
4 29
4 57
4 60
4 109
4 176
4 189
4 191
4 215
4 272
4 284
4 297
5 37
5 38
5 52
5 72
5 90
5 91
5 107
5 116
5 120
5 132
5 140
5 151
6 26
6 27
6 31
6 37
6 40
6 63
6 84
6 92
6 144
6 150
6 213
6 290
7 68
7 81
7 87
7 182
7 197
8 50
8 57
8 62
8 182
9 15
9 19
9 37
9 63
9 94
9 133
9 252
9 281
10 55
10 59
10 109
10 123
10 152
10 166
10 258
10 286
10 288
11 34
11 39
11 170
11 177
11 182
11 246
11 279
12 69
12 110
13 29
13 31
13 80
13 136
13 138
14 37
14 65
14 68
14 108
14 112
14 118
14 147
14 206
14 240
14 257
14 289
15 16
15 18
15 19
15 58
15 71
15 78
15 102
15 106
15 109
15 124
15 134
15 169
15 277
16 17
16 38
16 39
16 49
16 78
16 84
16 101
16 118
16 133
16 134
16 141
16 143
16 238
16 245
16 263
16 271
17 30
17 39
17 58
17 69
17 98
17 136
17 147
17 204
17 209
17 230
17 262
17 264
17 297
18 19
18 109
18 226
19 78
19 85
19 164
19 170
20 50
20 75
20 130
20 163
20 217
20 219
20 247
20 299
21 39
21 58
21 88
21 97
21 101
21 106
21 152
21 156
21 192
21 281
22 40
22 150
22 186
22 195
22 222
22 258
22 277
23 96
23 114
23 210
23 242
23 246
23 272
23 274
23 288
24 32
24 84
24 194
24 213
24 235
24 255
24 262
25 60
25 82
25 106
25 108
25 122
25 131
25 143
25 149
25 276
25 279
26 45
26 103
26 229
26 235
26 241
26 277
27 31
27 44
27 51
27 78
27 103
27 110
27 113
27 250
27 270
28 38
28 91
28 102
28 121
28 125
28 129
28 150
28 206
28 236
28 300
29 80
29 138
29 142
29 149
29 191
29 228
29 264
29 283
30 68
30 81
30 122
30 131
30 238
30 255
30 260
30 284
30 296
31 35
31 42
31 51
31 92
31 103
31 113
31 119
31 132
31 136
31 141
31 164
31 166
31 189
31 230
32 90
32 135
32 170
32 188
32 213
32 214
32 294
33 100
34 246
34 257
34 287
35 51
35 101
35 220
36 68
36 248
37 71
37 75
37 107
37 134
37 143
37 147
37 252
37 287
37 290
38 91
38 111
38 129
38 137
38 143
38 219
39 58
39 68
39 71
39 81
39 101
39 102
39 124
39 143
39 182
39 262
39 282
40 43
40 45
40 59
40 71
40 99
40 102
40 103
40 121
40 150
40 183
40 211
40 267
40 294
41 105
41 149
41 229
41 289
41 298
42 43
42 78
42 117
42 119
42 136
42 139
42 149
42 181
42 228
42 234
42 283
43 45
43 49
43 70
43 83
43 119
43 138
43 156
43 168
43 197
43 232
43 235
43 262
43 275
44 56
44 78
44 104
44 120
44 140
44 163
44 189
44 208
44 230
44 296
45 57
45 73
45 83
45 103
45 105
45 121
45 124
45 138
45 140
45 153
46 88
46 95
46 170
47 59
47 115
47 124
47 172
47 207
48 62
48 97
48 105
48 123
48 126
48 291
49 80
49 143
50 62
50 109
50 132
50 229
50 241
50 289
51 92
51 98
51 101
51 154
51 190
52 66
52 74
52 107
52 231
52 248
53 56
53 179
53 242
54 70
54 83
55 123
55 153
55 162
55 195
56 79
56 105
56 140
56 168
56 211
56 232
56 250
57 83
57 141
58 88
58 106
58 136
58 142
58 177
58 228
59 123
59 124
59 294
60 106
60 133
60 139
60 143
60 218
60 227
60 275
60 281
60 283
61 133
61 179
61 237
61 281
62 112
62 126
62 258
63 133
63 134
64 102
64 150
64 153
64 163
64 189
64 262
64 276
65 80
65 128
65 145
65 147
65 165
65 243
65 286
66 70
66 101
66 171
66 227
66 244
66 246
67 82
67 122
67 204
67 205
67 245
68 81
68 118
68 131
68 147
69 98
69 299
70 83
70 119
70 148
70 197
70 246
70 263
71 99
71 102
71 105
71 121
71 124
71 134
71 180
71 187
71 250
71 293
71 296
72 107
72 210
72 243
72 295
73 138
73 140
73 239
73 284
74 107
74 135
74 173
75 77
75 134
75 143
75 195
75 255
75 276
75 287
75 290
76 100
76 120
76 165
76 243
76 267
77 135
77 143
77 167
77 239
77 260
78 103
78 110
78 119
78 126
78 296
79 103
80 128
80 145
80 149
82 107
82 110
82 116
82 122
82 125
82 271
82 279
83 103
83 138
83 290
83 297
84 87
84 91
84 94
84 143
84 145
84 165
84 167
84 168
84 213
84 227
84 273
84 286
85 95
85 112
85 138
85 188
85 235
85 292
86 165
86 238
86 247
87 197
88 95
88 103
88 178
89 193
89 209
89 286
89 293
90 107
90 214
91 107
91 120
91 132
91 137
91 161
91 219
91 286
92 100
92 102
92 132
92 151
92 164
92 247
92 275
93 136
93 141
93 162
93 254
93 264
94 128
94 133
94 168
94 231
94 293
95 138
96 114
96 118
96 246
96 274
96 288
97 101
97 139
97 142
97 154
97 172
97 209
97 236
97 277
98 136
98 154
98 200
98 240
98 262
98 264
99 180
99 261
99 276
99 290
100 112
100 133
100 213
100 243
100 268
100 300
101 108
101 111
101 116
101 150
101 172
101 190
101 246
101 257
102 121
102 127
102 134
102 143
102 150
102 151
102 179
102 196
102 199
102 213
102 284
103 113
103 121
103 127
103 138
103 165
103 178
103 261
104 105
104 137
104 152
104 208
104 291
105 124
105 138
105 168
105 181
105 202
105 220
105 291
105 298
106 116
106 142
106 165
106 169
106 289
107 116
107 164
107 173
107 245
108 121
108 133
108 229
108 257
108 274
108 276
109 191
109 201
109 202
109 253
109 258
109 298
110 126
110 149
110 151
110 212
111 114
111 143
111 150
111 159
111 277
111 285
112 118
112 133
112 134
112 153
112 154
112 206
112 235
113 130
113 145
113 293
114 226
114 285
115 165
116 165
116 190
116 192
116 270
117 160
117 168
117 214
118 191
118 233
118 281
119 126
119 192
120 175
120 184
120 189
120 243
121 150
121 151
121 204
121 229
122 125
122 126
122 131
123 124
123 249
123 290
123 293
124 134
124 222
124 291
124 299
125 264
126 131
126 179
126 183
127 192
127 196
127 213
127 225
127 263
128 131
128 157
128 181
128 223
128 254
129 144
129 186
129 263
130 188
130 261
130 296
131 174
131 180
131 182
131 183
131 217
132 137
132 193
132 229
132 237
132 247
133 134
133 228
133 274
133 281
133 285
133 292
134 141
134 246
134 252
134 270
135 173
135 182
135 232
135 250
135 260
136 141
136 244
137 220
138 207
138 215
138 237
138 278
139 142
139 179
139 236
139 283
140 218
140 221
140 284
141 245
142 228
143 288
143 289
143 296
144 187
144 231
145 221
146 198
146 202
146 269
147 149
147 236
147 262
148 160
148 201
148 214
148 228
148 248
148 261
148 263
149 152
149 172
149 181
149 197
149 212
149 245
149 251
149 268
149 279
150 218
150 277
151 170
151 204
151 222
151 271
152 155
152 166
152 171
152 181
152 196
152 202
152 231
152 265
153 189
153 256
154 181
154 206
154 225
154 273
155 166
155 217
155 240
155 274
156 192
156 288
157 186
157 220
158 179
158 215
158 226
158 278
159 178
159 179
159 188
159 192
159 213
159 227
159 268
159 289
159 290
159 296
160 225
160 266
161 172
161 179
161 192
161 210
161 214
161 219
161 229
161 294
162 163
162 181
162 197
162 219
162 254
163 177
163 179
163 188
163 192
163 208
163 219
163 243
163 247
164 173
164 174
164 278
164 280
165 168
165 190
165 241
165 258
165 265
165 282
165 285
166 171
166 270
166 277
166 289
167 202
167 208
167 223
167 238
167 250
167 253
167 259
167 271
168 181
168 232
168 254
168 285
168 292
169 174
169 237
169 282
170 174
170 177
170 232
170 237
171 172
171 202
171 254
171 259
171 286
172 179
172 192
172 226
172 227
172 233
172 239
172 268
173 245
173 271
174 217
174 237
174 280
175 224
175 258
176 191
176 201
176 207
176 250
176 258
176 277
176 291
176 294
177 188
177 207
177 219
177 221
177 241
177 245
177 297
178 192
178 221
178 230
178 237
178 280
178 285
179 192
179 201
179 221
179 226
179 229
179 234
179 237
179 263
179 283
179 288
180 250
181 182
181 197
181 198
181 254
181 273
182 230
182 254
182 280
182 294
183 240
183 246
183 261
183 266
183 274
184 193
184 276
184 292
185 192
185 196
185 211
185 259
185 262
185 269
185 290
186 249
186 253
187 202
187 275
187 278
188 192
188 193
188 221
188 235
188 236
188 249
188 281
188 290
188 296
189 193
189 195
189 196
189 198
189 228
189 256
189 300
191 218
192 193
192 213
192 229
192 235
192 290
193 228
193 234
193 276
193 285
195 198
195 209
195 255
195 258
195 296
195 300
196 202
196 256
196 265
196 274
196 290
197 232
198 209
198 227
198 254
198 300
199 202
199 219
199 220
201 207
201 208
201 229
201 250
201 262
202 219
202 223
202 234
202 238
202 245
202 253
202 259
202 265
202 280
202 284
204 221
204 283
204 288
204 297
205 207
205 245
205 273
205 280
206 236
206 282
207 217
207 229
207 240
207 245
208 250
208 253
208 260
208 284
209 230
209 260
209 278
209 284
210 214
210 215
210 244
210 254
210 286
210 294
211 212
211 282
212 289
213 268
213 291
213 300
214 215
214 234
214 248
214 262
214 286
214 297
215 231
215 251
215 278
215 297
216 233
216 239
216 248
216 261
216 266
216 288
216 290
216 293
216 300
217 219
217 280
218 221
218 227
218 250
219 234
219 247
219 259
220 239
220 242
221 229
221 236
221 249
221 261
221 263
221 281
221 288
223 225
223 266
224 258
225 226
225 264
225 266
225 273
226 258
227 254
227 268
229 234
229 263
229 288
230 237
230 254
230 280
231 248
231 251
231 257
232 250
233 239
233 281
234 262
234 297
235 255
235 262
235 281
235 292
236 265
236 277
238 261
238 266
239 242
239 261
239 290
239 300
240 245
240 257
240 274
241 282
242 272
243 248
243 286
243 300
244 264
244 274
244 286
244 297
245 263
245 268
245 271
246 249
246 252
247 285
248 273
250 292
251 257
252 260
252 266
252 284
253 271
253 298
254 286
255 275
255 293
255 296
256 294
257 289
258 282
258 298
259 262
259 286
260 278
260 284
261 266
261 288
262 275
262 292
264 266
264 286
266 276
267 279
271 279
272 285
272 288
274 278
274 286
274 287
274 288
274 289
274 292
274 295
275 278
275 293
275 300
277 291
278 284
278 297
280 284
286 297
289 295
289 296
290 293
293 300
*Classes
1
1
1
1
1
1
1
1
1
1
1
1
1
1
1
1
1
1
1
1
1
1
1
1
1
1
1
1
1
1
1
1
1
1
1
1
1
1
1
1
1
1
1
1
1
1
1
1
1
1
1
1
1
1
1
1
1
1
1
1
1
1
1
1
1
1
1
1
1
1
1
1
1
1
1
1
1
1
1
1
1
1
1
1
1
1
1
1
1
1
1
1
1
1
1
1
1
1
1
1
1
1
1
1
1
1
1
1
1
1
1
1
1
1
1
1
1
1
1
1
1
1
1
1
1
1
1
1
1
1
1
1
1
1
1
1
1
1
1
1
1
1
1
1
1
1
1
1
1
1
2
2
2
2
2
2
2
2
2
2
2
2
2
2
2
2
2
2
2
2
2
2
2
2
2
2
2
2
2
2
2
2
2
2
2
2
2
2
2
2
2
2
2
2
2
2
2
2
2
2
2
2
2
2
2
2
2
2
2
2
2
2
2
2
2
2
2
2
2
2
2
2
2
2
2
2
2
2
2
2
2
2
2
2
2
2
2
2
2
2
2
2
2
2
2
2
2
2
2
2
2
2
2
2
2
2
2
2
2
2
2
2
2
2
2
2
2
2
2
2
2
2
2
2
2
2
2
2
2
2
2
2
2
2
2
2
2
2
2
2
2
2
2
2
2
2
2
2
2
2
