*Vertices 300
*Edges
1 2
1 91
1 103
1 137
1 175
1 204
1 219
2 42
2 47
2 56
2 115
2 119
2 124
2 132
2 137
2 178
2 211
2 218
2 258
2 262
2 277
3 30
3 73
3 106
3 168
3 201
3 205
3 222
3 258
4 8
4 9
4 15
4 20
4 50
4 64
4 74
4 109
4 130
4 134
4 141
4 152
4 179
4 245
5 30
5 70
5 263
6 13
6 18
6 27
6 59
6 68
6 102
6 127
6 137
6 143
6 161
6 191
6 208
6 246
6 261
7 10
7 29
7 61
7 63
7 82
7 115
7 145
7 293
7 299
8 9
8 25
8 58
8 100
8 102
8 107
8 130
8 196
8 224
8 226
8 257
9 16
9 50
9 70
9 127
9 130
9 214
9 249
9 296
10 18
10 21
10 63
10 73
10 106
10 139
10 165
10 184
10 274
11 12
11 98
11 126
11 222
12 29
12 33
12 54
12 88
12 99
12 118
12 128
12 146
12 167
12 214
13 28
13 29
13 31
13 68
13 77
13 104
13 164
13 170
13 194
14 40
14 64
14 120
14 155
14 159
14 199
14 216
15 44
15 75
15 80
15 83
15 96
15 106
15 108
15 116
15 141
15 180
15 189
16 69
16 98
16 176
16 199
16 254
16 264
16 276
17 49
17 134
17 216
17 218
17 245
17 276
18 21
18 27
18 34
18 44
18 65
18 89
18 106
18 137
18 144
18 148
18 171
18 183
18 194
18 260
19 107
19 130
19 142
19 143
19 166
19 189
19 212
19 234
19 261
20 59
20 74
20 112
20 225
21 99
21 106
21 136
21 151
21 153
21 174
21 195
21 201
21 244
22 25
22 45
22 228
23 52
23 63
23 83
23 98
23 154
24 202
24 204
24 244
24 251
24 256
24 265
25 45
25 46
25 58
25 157
25 257
25 266
26 107
26 248
26 253
26 290
27 30
27 64
27 65
27 113
27 195
27 204
27 219
27 296
27 299
28 29
28 54
28 60
28 68
28 80
28 131
28 139
28 143
28 145
28 218
28 220
28 258
29 33
29 63
29 68
29 152
29 232
29 244
29 293
30 64
30 87
30 98
30 113
30 151
30 209
30 231
31 33
31 77
31 140
31 150
31 189
31 272
31 274
32 72
32 76
32 142
32 151
32 204
32 284
33 114
33 146
33 174
33 239
33 246
34 86
34 89
34 137
34 198
34 208
35 133
35 170
35 176
35 240
35 252
36 90
36 107
36 130
36 132
36 138
36 142
36 168
36 258
37 119
37 123
37 124
37 126
37 188
37 194
37 204
37 236
38 101
38 108
38 109
38 197
38 218
38 231
38 272
39 43
39 74
39 125
39 269
39 297
40 109
40 120
40 175
40 180
40 216
41 55
41 62
41 88
41 90
41 96
41 97
41 117
41 138
41 142
41 144
41 226
42 59
42 65
42 99
42 124
42 133
42 178
42 194
42 218
42 240
43 80
43 263
44 49
44 65
44 72
44 85
44 90
44 125
44 141
44 285
44 286
44 292
44 296
45 48
45 49
45 111
45 164
45 233
45 259
45 264
45 275
46 63
46 83
46 108
46 270
47 76
47 100
47 107
47 193
47 213
48 64
48 65
48 87
48 93
48 131
48 201
48 218
48 275
48 299
49 90
49 187
49 259
49 297
50 70
50 170
50 196
51 104
51 153
51 166
51 188
52 98
52 165
52 277
53 58
54 93
54 128
54 131
54 180
54 220
55 119
55 230
55 278
55 285
56 92
56 218
56 274
57 85
57 89
57 180
57 282
58 202
58 209
59 68
59 73
59 99
59 266
59 290
60 61
60 139
60 163
60 195
60 214
60 286
61 140
61 190
61 194
61 251
62 69
62 105
63 73
63 83
63 91
63 99
63 124
63 143
63 154
63 245
64 87
64 98
65 210
65 273
65 280
65 299
66 84
66 97
66 110
66 151
66 155
66 174
66 243
67 83
67 100
67 156
67 161
67 201
67 207
67 210
67 235
67 276
67 279
68 91
68 102
68 105
68 112
68 137
68 143
68 225
69 105
69 199
69 272
70 127
70 150
70 154
70 210
70 263
71 116
71 126
71 250
72 125
72 137
72 142
72 161
73 99
73 106
73 108
73 124
73 128
74 125
74 185
74 201
74 205
74 238
74 249
74 265
75 106
75 198
75 209
76 93
76 147
76 214
76 277
77 86
77 92
77 140
77 147
77 228
79 82
79 97
79 98
79 119
79 169
79 171
79 239
79 265
80 94
80 96
81 175
81 225
81 244
81 254
82 132
82 187
82 197
82 207
82 243
82 300
83 91
83 116
83 209
83 255
84 139
84 284
85 105
85 116
85 137
85 166
85 195
85 218
86 92
87 124
87 148
87 175
88 110
88 144
88 175
88 181
88 272
89 116
89 251
90 96
90 105
90 117
90 142
91 102
91 105
91 113
91 204
91 258
92 230
92 238
92 287
93 131
93 142
93 167
93 208
93 300
94 96
94 122
94 130
94 135
94 179
94 197
94 213
94 219
94 234
95 114
95 173
96 117
96 189
96 193
97 98
97 164
97 170
97 243
97 255
97 266
97 271
98 165
98 169
98 251
99 110
99 115
99 128
99 153
99 165
99 175
99 214
99 255
100 101
100 172
100 174
100 193
100 262
100 276
100 281
101 104
101 171
101 225
101 228
101 272
102 138
102 257
103 122
103 127
103 216
103 295
104 212
104 225
104 230
104 246
105 113
105 116
105 117
105 167
105 201
105 257
106 162
106 168
106 175
106 187
106 205
107 130
107 204
107 213
107 263
107 287
108 116
108 207
108 219
108 248
108 267
108 282
109 130
109 201
109 226
109 236
109 250
109 257
109 278
110 159
110 175
110 212
110 219
110 253
111 131
111 159
111 177
111 207
111 219
112 139
112 171
112 178
112 231
112 286
113 142
113 169
113 219
113 258
113 263
114 170
114 186
114 238
114 266
115 126
115 128
115 132
115 145
115 233
115 258
115 297
116 209
117 155
117 202
117 208
117 229
117 278
118 122
118 127
118 138
118 146
118 292
119 126
119 178
120 148
120 149
120 150
120 199
121 203
121 239
121 249
122 127
122 135
122 205
122 214
122 217
122 223
122 237
122 256
124 134
124 149
124 256
124 289
125 159
125 214
126 128
126 258
126 264
127 137
127 177
127 193
127 232
128 184
128 203
128 242
128 271
129 138
129 268
130 132
130 158
130 163
131 192
131 251
132 178
132 218
132 224
132 255
132 289
133 135
133 168
134 148
134 149
134 155
134 158
134 260
134 273
134 290
135 168
135 176
135 207
135 247
135 267
135 269
137 155
137 156
137 192
137 236
137 273
138 155
138 177
138 257
138 285
139 189
139 206
139 283
139 286
139 296
140 227
140 240
140 269
141 195
141 219
141 292
142 143
142 261
143 147
143 155
143 160
143 255
143 277
143 289
144 148
144 159
144 176
144 181
144 194
145 171
145 227
145 252
146 179
146 203
146 208
146 280
146 292
147 241
147 267
148 149
148 202
148 209
148 250
150 202
150 226
150 281
151 155
151 231
152 209
152 267
153 249
153 261
154 189
154 194
154 210
154 222
154 230
154 253
154 280
154 289
154 295
155 156
155 158
155 159
155 167
155 170
155 186
155 258
155 285
155 290
156 160
156 241
156 255
156 260
157 184
157 220
157 231
158 225
158 226
158 232
158 246
158 265
159 190
159 237
160 179
160 182
160 186
160 223
160 234
160 240
160 255
160 260
160 293
161 203
161 205
161 208
161 251
161 261
163 175
163 221
163 298
164 182
164 189
164 198
164 225
164 264
165 236
165 259
166 183
166 287
167 187
167 214
167 221
167 233
167 242
167 258
167 277
169 179
169 184
169 210
169 251
169 274
170 179
170 180
170 194
170 196
170 246
170 259
170 280
171 178
171 194
171 213
171 245
171 279
171 280
171 291
173 185
173 202
173 235
173 285
174 196
174 200
174 220
174 244
174 274
174 293
174 296
174 298
174 299
175 221
175 238
175 264
175 274
176 192
176 206
176 238
176 255
176 264
176 270
177 182
177 189
177 193
177 255
178 235
178 240
178 245
178 252
178 279
178 289
179 194
179 204
179 208
179 210
179 217
179 220
179 234
179 251
179 253
179 294
180 247
180 287
181 207
181 242
181 243
182 189
182 198
182 225
182 255
183 199
183 206
183 216
183 221
183 285
183 287
184 203
184 271
184 274
184 279
185 235
185 285
186 196
186 260
186 285
187 224
187 248
187 253
187 277
189 241
190 237
190 255
190 263
190 288
190 297
191 193
191 270
191 272
191 290
191 297
192 206
192 233
192 243
192 247
192 289
193 250
193 272
193 273
193 290
194 210
194 217
194 220
194 230
194 280
195 204
195 222
195 224
196 197
196 220
196 248
196 279
196 298
197 279
197 298
199 216
199 272
200 228
200 299
201 241
201 250
201 276
201 281
202 209
202 231
202 250
202 268
202 271
202 296
203 274
203 299
204 205
204 213
204 220
204 222
204 226
204 232
204 251
205 226
205 251
207 219
207 242
207 262
207 282
208 210
208 218
208 231
209 231
209 250
210 235
211 222
211 276
212 215
212 230
212 287
212 288
213 222
213 228
213 256
213 291
214 220
214 248
214 256
214 298
216 221
216 276
216 285
216 295
217 237
217 247
218 231
218 245
219 233
219 246
219 276
219 282
221 224
221 230
221 254
221 258
221 298
222 276
222 289
223 237
223 240
223 252
223 295
224 226
224 273
225 235
225 238
225 245
225 246
225 276
226 232
226 251
226 265
226 266
227 250
227 252
227 255
227 291
227 293
228 234
228 272
228 294
229 265
229 298
230 254
230 295
232 293
233 243
233 282
233 298
234 251
234 253
234 294
235 245
236 270
237 288
238 253
238 264
239 245
240 252
240 283
240 287
240 295
242 264
242 276
245 262
246 259
246 285
246 293
247 269
247 287
248 253
248 274
248 298
249 282
250 268
250 293
250 300
252 283
252 291
254 297
255 270
255 293
258 263
258 300
261 283
261 286
261 290
263 284
263 300
264 283
266 284
267 285
268 292
268 300
269 297
270 297
271 295
271 296
274 299
277 294
278 285
279 284
279 289
282 298
283 286
284 300
286 292
287 295
288 297
289 300
292 300
296 300
*Classes
1
1
1
1
1
1
1
1
1
1
1
1
1
1
1
1
1
1
1
1
1
1
1
1
1
1
1
1
1
1
1
1
1
1
1
1
1
1
1
1
1
1
1
1
1
1
1
1
1
1
1
1
1
1
1
1
1
1
1
1
1
1
1
1
1
1
1
1
1
1
1
1
1
1
1
1
1
1
1
1
1
1
1
1
1
1
1
1
1
1
1
1
1
1
1
1
1
1
1
1
1
1
1
1
1
1
1
1
1
1
1
1
1
1
1
1
1
1
1
1
1
1
1
1
1
1
1
1
1
1
1
1
1
1
1
1
1
1
1
1
1
1
1
1
1
1
1
1
1
1
2
2
2
2
2
2
2
2
2
2
2
2
2
2
2
2
2
2
2
2
2
2
2
2
2
2
2
2
2
2
2
2
2
2
2
2
2
2
2
2
2
2
2
2
2
2
2
2
2
2
2
2
2
2
2
2
2
2
2
2
2
2
2
2
2
2
2
2
2
2
2
2
2
2
2
2
2
2
2
2
2
2
2
2
2
2
2
2
2
2
2
2
2
2
2
2
2
2
2
2
2
2
2
2
2
2
2
2
2
2
2
2
2
2
2
2
2
2
2
2
2
2
2
2
2
2
2
2
2
2
2
2
2
2
2
2
2
2
2
2
2
2
2
2
2
2
2
2
2
2
