*Vertices 300
*Edges
1 4
1 29
1 35
1 36
1 82
1 86
1 115
1 138
1 200
2 181
2 199
3 24
3 44
3 53
3 55
3 71
3 104
3 106
3 126
3 194
3 223
3 246
3 250
4 5
4 47
4 54
4 68
4 81
4 86
4 98
4 110
4 118
4 126
4 136
4 145
4 180
4 188
4 193
4 212
4 216
4 243
4 254
4 295
5 8
5 35
5 75
5 86
5 234
5 267
6 15
6 74
6 83
6 175
6 216
7 102
7 128
7 129
7 143
7 149
7 179
7 182
7 229
7 239
7 281
7 282
8 16
8 26
8 35
8 43
8 75
8 87
8 94
8 123
8 184
8 198
8 234
9 52
9 76
9 114
9 153
9 167
9 210
10 48
10 96
10 143
10 151
10 175
10 230
11 57
11 240
11 296
12 14
12 59
12 152
12 156
13 20
13 21
13 62
13 120
13 145
13 151
13 165
13 180
13 243
13 259
14 21
14 42
14 59
14 68
14 83
14 101
14 118
14 123
14 163
14 167
14 176
14 183
14 198
14 233
14 255
14 260
14 270
14 281
14 297
15 34
15 83
15 95
15 121
15 136
15 183
15 239
15 255
16 26
16 68
16 88
16 92
16 94
16 100
16 141
16 186
16 197
16 248
17 73
17 100
17 195
17 217
17 232
18 64
18 279
19 26
19 92
19 97
19 101
19 138
19 142
19 145
19 276
20 40
20 55
20 66
20 83
20 90
20 107
20 116
20 120
20 251
21 42
21 62
21 64
21 68
21 85
21 87
21 105
21 109
21 118
21 119
21 132
21 176
21 238
22 80
22 93
22 117
22 156
22 226
22 245
22 258
23 257
24 26
24 52
24 53
24 74
24 92
24 122
24 129
24 148
24 193
24 276
25 263
26 53
26 74
26 92
26 94
26 97
26 99
26 100
26 129
26 188
26 210
26 236
26 238
26 240
26 258
26 259
27 80
27 156
27 169
27 198
27 199
27 214
27 249
27 273
27 289
27 300
28 48
28 203
28 207
28 240
28 258
28 261
28 269
28 283
29 42
29 82
29 86
29 88
29 119
29 202
29 261
29 272
29 283
29 290
30 55
30 72
30 116
30 118
30 207
30 208
30 263
31 46
31 59
31 82
31 86
31 98
31 119
31 193
31 254
32 79
32 195
32 201
32 270
33 64
33 78
33 91
33 101
33 113
33 115
33 121
33 128
33 149
33 169
33 182
33 225
33 226
34 121
34 125
34 154
34 218
34 227
34 299
35 46
35 87
35 115
35 128
35 177
35 188
35 211
35 222
35 232
36 46
36 61
36 82
36 115
36 119
36 136
36 142
36 168
36 173
36 190
36 191
36 217
36 228
36 239
36 253
36 278
36 294
37 71
37 108
37 124
37 150
37 280
37 298
38 45
38 60
38 118
38 148
38 164
38 175
38 201
38 220
38 228
38 234
38 274
39 79
39 119
39 257
40 57
40 65
40 66
40 71
40 126
40 175
40 190
40 203
40 213
40 223
40 224
40 244
40 258
41 56
41 91
41 132
41 139
41 167
41 178
41 214
41 221
41 224
41 225
41 284
42 64
42 79
42 82
42 85
42 87
42 88
42 119
42 173
42 238
42 253
43 123
43 124
43 136
43 137
43 141
43 164
43 181
43 198
43 235
43 261
44 55
44 71
44 77
44 108
44 118
44 126
44 160
44 212
44 220
44 230
44 236
44 273
44 275
44 288
44 291
44 292
44 298
45 61
45 164
45 168
45 227
45 266
46 71
46 82
46 100
46 104
46 113
46 115
46 138
46 145
46 183
46 249
46 255
47 61
47 64
47 98
47 131
47 197
47 251
48 78
48 99
48 120
48 129
48 142
48 145
48 149
48 163
48 187
48 207
48 227
48 255
48 258
48 266
48 283
49 72
49 94
49 130
49 171
49 223
49 248
50 93
50 216
50 282
50 299
51 56
51 83
51 87
51 102
51 111
51 113
51 150
51 160
51 173
51 214
51 267
52 53
52 110
52 114
52 198
52 264
53 81
53 86
53 110
53 111
53 122
53 127
53 134
53 148
53 152
53 172
53 181
53 199
53 266
53 281
54 92
54 165
54 180
54 193
54 296
55 71
55 72
55 104
55 116
55 135
55 203
55 208
55 252
55 260
55 263
55 288
56 87
56 111
56 150
56 175
56 182
56 202
56 214
56 220
56 225
56 251
56 284
57 240
57 258
57 269
57 274
58 68
58 152
58 244
59 82
59 85
59 93
59 163
59 165
59 182
59 191
59 208
59 219
59 220
59 233
59 239
59 272
59 280
60 107
60 118
60 153
60 197
60 206
60 207
60 282
60 291
60 292
61 131
61 168
61 249
61 256
62 120
62 145
62 147
62 160
62 165
62 235
62 261
63 174
63 191
63 201
63 230
63 232
63 242
63 259
63 270
63 290
63 293
63 300
64 86
64 98
64 128
64 133
64 149
64 178
64 273
64 279
65 71
65 85
65 104
65 126
65 203
65 210
65 258
65 262
65 266
66 90
66 107
66 132
66 207
66 211
66 215
66 259
66 286
66 292
67 78
67 90
67 138
67 181
67 227
67 259
67 273
67 279
68 123
68 124
68 186
68 198
68 199
68 212
68 270
69 132
69 135
69 163
69 191
69 252
69 292
69 295
69 297
70 126
70 176
70 181
70 266
71 72
71 104
71 216
71 236
71 247
71 254
71 288
71 298
72 80
72 120
72 130
72 177
72 204
72 262
72 263
72 273
72 298
73 208
73 241
73 268
74 91
74 101
74 129
74 172
74 210
74 236
74 259
74 267
75 80
75 86
75 137
75 141
75 142
75 152
75 154
75 172
75 235
75 245
75 267
75 281
76 101
76 109
76 110
76 127
76 166
76 167
76 189
76 209
76 212
76 221
76 277
76 282
76 285
77 108
77 141
77 142
77 237
77 244
77 299
78 90
78 117
78 145
78 149
78 216
78 237
78 241
78 247
78 279
78 287
79 81
79 82
79 95
79 119
79 184
79 195
79 271
80 137
80 140
80 251
80 263
81 91
81 95
81 98
81 110
81 111
82 86
82 113
82 119
82 220
82 239
82 255
82 293
82 297
82 298
83 87
83 120
83 136
83 152
83 177
83 180
83 183
83 216
83 251
83 260
83 263
83 279
84 187
84 298
85 105
85 109
85 132
85 139
85 181
85 210
86 98
86 110
86 182
86 200
86 202
87 109
87 222
87 252
87 267
88 100
88 117
88 119
88 122
88 232
88 259
88 283
89 225
89 280
90 107
90 117
90 184
90 211
90 292
91 101
91 110
91 121
91 174
91 252
91 267
91 276
92 239
92 258
92 297
93 219
93 245
93 261
93 282
93 293
94 97
94 129
94 140
94 188
94 222
94 244
94 246
94 289
95 110
95 111
95 201
95 230
95 255
96 103
96 124
96 136
96 143
96 159
96 194
96 215
96 245
96 265
96 297
97 244
98 118
98 131
98 138
98 145
98 182
98 193
98 200
98 223
98 243
98 295
99 108
99 124
99 129
99 130
99 131
99 142
99 144
99 189
99 282
100 138
100 141
100 145
100 177
100 188
100 212
100 232
100 285
101 121
101 166
101 167
101 177
101 226
102 111
102 150
103 198
103 217
103 277
103 280
103 297
104 126
104 135
104 164
104 192
104 255
104 288
105 189
105 197
105 215
105 228
105 229
106 129
106 175
106 177
106 187
106 233
106 251
107 132
107 153
107 215
107 219
107 239
107 249
107 264
107 277
107 284
108 124
108 126
108 137
108 142
108 204
108 212
109 127
109 209
110 127
110 158
110 174
110 199
110 218
110 234
110 260
110 266
110 276
110 298
111 134
111 149
111 241
111 242
111 258
112 245
113 137
113 145
113 150
113 169
113 181
113 217
113 241
113 242
114 152
114 199
114 205
114 240
114 242
114 264
114 266
115 128
115 145
115 185
116 120
116 212
117 119
117 149
117 169
117 204
117 216
117 226
118 138
118 182
118 228
118 270
119 122
119 184
119 220
119 239
119 253
119 257
119 283
120 123
120 148
120 182
120 192
120 204
120 266
120 300
121 125
121 127
121 135
121 142
121 169
121 222
121 299
122 193
122 198
122 283
122 297
123 124
123 137
123 164
123 175
123 192
123 249
123 298
124 131
124 143
124 150
124 187
124 203
124 213
125 156
125 227
125 252
125 265
125 266
125 299
126 193
126 197
126 229
126 262
126 266
127 171
127 209
127 222
127 234
127 273
128 129
128 130
128 148
128 182
128 229
128 262
128 277
128 282
129 130
129 144
129 163
129 187
129 240
129 282
129 293
130 148
130 154
130 162
130 171
130 209
130 219
130 222
130 223
130 247
130 262
130 277
131 143
132 139
132 182
132 206
132 216
132 238
132 242
132 277
132 285
133 178
133 232
133 300
134 149
134 204
134 242
134 249
134 264
135 142
135 163
135 216
135 220
135 223
135 225
135 252
135 288
135 292
135 297
136 142
136 181
136 188
136 203
136 239
136 283
136 290
137 141
137 142
137 152
137 164
137 169
137 217
137 239
137 261
138 142
138 145
138 146
138 160
138 195
138 227
138 238
138 247
138 257
138 261
138 271
138 276
139 178
139 225
139 259
140 190
140 214
140 244
141 157
141 177
141 190
141 198
141 252
141 258
141 283
142 144
142 145
142 152
142 166
142 185
142 203
142 204
142 273
142 290
143 151
143 212
143 258
143 280
143 285
144 187
144 189
144 192
144 239
145 146
145 147
145 219
145 247
145 261
145 287
145 295
147 160
147 224
148 154
148 171
148 201
148 219
148 227
148 244
148 266
148 295
149 156
149 179
149 194
149 241
149 282
149 300
150 173
150 224
150 241
150 242
150 244
150 249
150 269
150 293
151 160
151 190
151 201
151 221
151 230
151 238
152 180
152 195
152 281
153 167
153 172
153 173
153 201
153 261
153 269
153 270
154 182
154 183
154 218
154 244
154 245
154 246
154 263
154 280
156 214
156 226
156 254
156 265
156 300
157 168
157 169
157 181
158 167
158 182
158 208
158 234
158 268
159 199
159 207
159 295
160 164
160 181
160 196
160 200
160 210
160 221
160 224
160 230
160 235
160 240
160 270
161 198
161 294
162 171
162 184
162 233
162 237
162 281
163 233
163 282
164 192
164 196
164 212
165 169
165 180
165 182
165 217
165 280
166 167
166 187
166 214
166 224
166 290
167 172
167 176
167 177
167 221
167 233
167 268
168 196
168 210
168 214
168 227
168 238
168 256
168 285
168 293
169 180
169 181
169 212
169 216
169 266
170 203
170 208
170 267
171 185
171 188
171 211
171 222
171 223
171 228
171 244
171 253
171 286
172 267
173 190
173 221
173 240
173 269
174 208
174 252
174 264
175 177
175 220
175 249
175 273
175 286
176 181
176 210
177 185
177 190
177 208
177 251
177 273
177 279
177 290
178 211
178 229
179 235
179 239
179 281
179 282
181 199
181 210
181 216
181 242
181 259
181 266
181 283
182 194
182 204
182 244
182 245
182 254
182 255
182 263
182 265
182 268
182 272
182 277
182 280
183 263
184 189
184 206
184 235
184 272
184 275
184 281
184 291
184 299
185 188
185 204
185 256
185 273
185 279
185 292
187 188
187 206
187 214
188 191
188 222
188 228
188 232
188 256
188 259
188 274
188 285
189 283
189 291
190 191
190 221
190 224
190 232
190 257
190 270
190 278
191 206
191 232
191 257
191 272
193 202
193 223
193 254
193 265
193 285
193 297
194 199
194 239
194 244
194 247
194 254
194 289
194 297
195 231
195 267
195 271
195 281
196 205
196 210
196 214
196 256
196 285
197 206
197 208
197 219
197 228
197 233
197 248
197 257
197 291
197 295
197 299
198 258
198 289
198 292
198 294
198 297
199 216
199 227
199 240
199 242
199 255
199 260
199 262
199 266
199 269
199 274
199 289
200 202
200 248
200 269
201 221
201 230
201 244
201 266
201 270
201 289
202 212
202 214
202 265
202 285
203 208
203 213
203 232
203 235
203 260
203 268
204 226
204 242
204 254
204 280
204 298
205 285
206 219
206 227
206 228
206 232
206 235
206 238
206 243
206 249
206 272
206 282
206 293
207 235
207 256
207 261
207 285
207 286
207 292
207 295
208 228
208 233
208 251
208 260
208 264
208 268
208 281
208 290
210 235
210 256
210 266
210 270
211 215
211 228
211 259
212 216
212 225
212 231
212 256
212 277
212 280
212 285
212 287
212 292
213 223
213 247
213 276
213 278
213 286
214 232
214 256
214 285
214 300
215 252
215 273
215 279
215 283
215 292
216 225
216 242
216 264
216 299
217 267
217 280
218 278
219 247
219 254
219 279
219 280
219 282
219 293
220 249
220 292
220 293
221 238
221 240
221 270
221 278
222 244
222 289
223 228
223 278
223 286
224 244
224 278
227 238
227 255
227 262
227 265
227 266
227 294
228 229
228 253
228 280
228 295
229 253
229 280
230 261
230 289
231 280
231 285
231 287
232 235
232 256
232 259
232 286
232 300
233 251
233 268
233 281
235 249
235 261
235 281
235 282
237 281
238 259
238 272
238 294
239 258
239 267
239 297
239 298
240 243
240 269
240 270
240 272
240 274
241 249
241 268
241 286
242 264
242 290
242 293
243 259
243 269
243 272
243 274
243 286
244 289
245 261
246 263
247 254
247 279
249 286
249 298
251 268
251 273
251 290
252 265
254 277
254 297
255 262
255 266
255 277
256 285
256 300
257 271
258 261
258 283
259 286
261 295
262 266
262 273
264 284
264 293
265 268
265 297
266 283
268 277
268 297
269 270
269 274
270 289
272 277
272 281
272 291
273 279
273 292
275 286
275 291
277 285
279 291
279 296
280 298
281 291
283 290
285 286
285 295
286 292
286 295
286 298
291 298
291 299
292 297
*Classes
1
1
1
1
1
1
1
1
1
1
1
1
1
1
1
1
1
1
1
1
1
1
1
1
1
1
1
1
1
1
1
1
1
1
1
1
1
1
1
1
1
1
1
1
1
1
1
1
1
1
1
1
1
1
1
1
1
1
1
1
1
1
1
1
1
1
1
1
1
1
1
1
1
1
1
1
1
1
1
1
1
1
1
1
1
1
1
1
1
1
1
1
1
1
1
1
1
1
1
1
1
1
1
1
1
1
1
1
1
1
1
1
1
1
1
1
1
1
1
1
1
1
1
1
1
1
1
1
1
1
1
1
1
1
1
1
1
1
1
1
1
1
1
1
1
1
1
1
1
1
2
2
2
2
2
2
2
2
2
2
2
2
2
2
2
2
2
2
2
2
2
2
2
2
2
2
2
2
2
2
2
2
2
2
2
2
2
2
2
2
2
2
2
2
2
2
2
2
2
2
2
2
2
2
2
2
2
2
2
2
2
2
2
2
2
2
2
2
2
2
2
2
2
2
2
2
2
2
2
2
2
2
2
2
2
2
2
2
2
2
2
2
2
2
2
2
2
2
2
2
2
2
2
2
2
2
2
2
2
2
2
2
2
2
2
2
2
2
2
2
2
2
2
2
2
2
2
2
2
2
2
2
2
2
2
2
2
2
2
2
2
2
2
2
2
2
2
2
2
2
