*Vertices 300
*Edges
1 16
1 22
1 117
1 130
1 135
1 150
1 159
1 240
2 35
2 37
2 67
2 75
3 30
3 68
3 143
3 233
4 14
4 105
4 106
4 174
4 184
4 195
4 262
4 296
5 14
5 27
5 34
5 54
5 74
5 97
5 118
5 136
5 143
5 147
5 268
6 38
6 40
6 56
6 81
6 172
6 190
6 206
6 229
6 281
6 285
6 298
7 65
7 112
7 142
7 158
7 185
7 218
7 269
8 48
8 107
8 121
8 126
8 162
9 139
9 165
9 175
9 192
9 296
10 51
10 70
10 89
10 98
10 113
10 155
10 157
10 184
10 202
11 12
11 73
11 77
11 83
11 121
11 147
11 186
11 252
11 256
11 259
11 293
12 43
12 77
12 106
12 140
12 179
12 255
12 289
13 29
13 59
13 96
13 130
13 198
13 203
13 262
14 31
14 74
14 143
14 251
14 291
14 296
15 23
15 52
15 62
15 74
15 124
16 37
16 39
16 75
16 87
16 94
16 116
16 150
16 223
16 282
16 297
17 83
17 154
17 204
17 243
17 252
17 287
18 45
18 60
18 64
18 82
18 97
18 105
18 106
18 118
18 123
18 135
18 153
18 200
19 23
19 34
19 38
19 48
19 59
19 118
19 128
19 196
19 213
19 272
20 80
20 85
20 101
20 126
20 132
20 148
20 186
20 235
20 269
20 289
21 46
21 51
21 93
21 94
21 97
21 108
21 118
21 123
21 202
21 229
22 24
22 38
22 40
22 49
22 56
22 58
22 68
22 101
22 112
22 113
22 114
22 118
22 125
22 130
22 188
22 197
22 272
23 60
23 61
23 62
23 95
23 128
23 267
24 29
24 46
24 50
24 51
24 68
24 76
24 88
24 112
24 114
24 130
24 136
24 167
24 200
24 213
24 246
24 261
24 295
24 296
24 299
25 33
25 87
25 92
25 98
25 117
25 141
25 168
25 210
25 246
25 280
26 45
26 53
26 59
26 131
26 147
26 181
26 262
27 49
27 55
27 63
27 97
27 106
27 147
27 234
28 58
28 73
28 89
28 108
28 210
28 215
28 220
29 60
29 63
29 64
29 68
29 71
29 83
29 96
29 98
29 114
29 120
29 137
29 145
29 146
29 156
29 215
29 242
30 51
30 60
30 117
30 143
30 144
30 169
30 233
30 263
31 85
31 122
31 129
31 156
31 171
31 181
31 185
31 216
31 223
31 226
31 275
32 50
32 165
32 201
32 219
32 245
32 248
32 259
32 268
32 299
33 95
33 227
33 257
33 269
33 277
33 280
34 60
34 114
34 118
34 128
34 206
34 212
34 219
34 232
34 235
34 248
34 255
35 75
35 110
35 141
35 149
35 196
35 209
36 50
36 52
36 129
36 138
36 142
36 144
36 225
37 43
37 67
37 73
37 80
37 89
37 97
37 123
37 128
37 231
37 238
37 244
37 246
37 254
37 284
38 128
38 172
38 200
38 272
39 57
39 86
39 100
39 118
39 139
39 143
39 167
39 186
39 196
39 223
39 269
40 58
40 61
40 168
40 233
40 260
40 276
41 49
41 108
41 125
41 160
41 184
41 215
42 73
42 75
42 93
42 95
42 123
42 159
42 169
42 188
42 190
42 248
42 271
43 73
43 77
43 82
43 128
43 132
43 222
43 238
43 241
43 282
43 284
43 289
44 98
44 139
44 219
44 228
44 267
44 268
45 106
45 207
45 224
45 229
45 263
45 286
46 50
46 90
46 109
46 138
46 159
46 229
46 258
46 294
46 298
47 83
47 148
47 233
47 248
47 297
48 83
48 98
48 128
48 139
48 154
49 63
49 73
49 104
49 113
49 125
49 219
49 234
49 286
49 288
50 51
50 108
50 112
50 114
50 138
50 181
50 243
50 268
50 283
51 80
51 88
51 93
51 128
51 133
51 155
51 208
51 233
51 273
51 298
52 74
52 142
52 143
52 152
52 194
52 195
52 252
53 131
53 140
53 143
53 185
53 204
54 57
54 84
54 87
54 111
54 114
54 116
54 134
54 138
54 155
54 184
54 206
54 256
54 268
54 288
54 291
54 299
55 71
55 87
55 106
55 120
55 121
55 134
55 145
55 276
56 57
56 68
56 101
56 143
56 213
57 68
57 84
57 106
57 121
57 210
57 226
57 280
58 89
58 103
58 105
58 137
58 186
58 187
59 110
59 181
59 242
59 278
60 118
60 123
60 194
60 247
61 77
61 81
61 95
61 115
61 150
61 205
61 249
61 272
61 276
62 119
62 121
62 226
62 286
63 78
63 83
63 84
63 86
63 96
63 98
63 117
63 118
63 120
63 273
63 288
64 71
64 77
64 87
64 97
64 120
64 131
64 136
64 137
64 140
64 145
64 263
64 265
64 274
65 131
65 179
65 254
65 276
65 287
66 87
66 99
66 116
66 135
66 189
66 248
66 266
66 293
67 269
68 76
68 94
68 112
68 136
68 172
69 70
69 72
69 92
69 157
69 191
69 221
70 118
70 187
70 219
70 221
70 272
70 298
71 80
71 86
71 113
71 118
71 134
71 233
71 239
71 260
71 272
72 238
72 245
72 260
73 80
73 97
73 188
73 202
73 220
73 256
73 286
73 289
74 83
74 98
74 104
74 125
74 143
74 171
74 261
74 290
74 297
75 91
75 120
75 159
75 240
75 262
75 279
75 297
76 197
76 217
76 230
77 85
77 95
77 110
77 131
77 132
77 140
77 144
77 161
77 179
77 199
78 107
78 117
78 141
78 207
78 298
79 84
79 94
79 95
79 132
79 134
79 186
79 197
80 113
80 123
80 128
80 132
80 149
80 212
80 222
80 260
81 119
81 224
81 246
81 273
81 279
82 94
82 106
82 129
82 134
82 135
82 136
82 213
82 267
82 274
82 289
83 96
83 126
83 171
83 190
83 226
83 237
83 239
83 252
83 255
83 282
84 169
84 197
84 210
84 254
85 104
85 121
85 126
85 165
86 102
86 118
86 167
86 269
86 286
87 89
87 92
87 106
87 116
87 121
87 137
87 140
88 133
88 197
88 243
88 246
88 266
89 104
89 105
89 137
89 155
89 213
89 231
89 286
90 112
90 129
90 213
90 225
91 159
91 246
92 98
92 157
92 229
92 266
93 108
93 122
93 123
93 150
93 158
93 170
93 184
93 261
94 118
94 136
94 150
94 175
94 227
94 276
95 101
96 211
97 135
97 136
97 140
97 208
97 229
97 287
98 139
98 151
98 157
98 261
98 280
99 115
99 154
99 248
99 263
99 274
100 143
100 149
100 163
100 186
101 124
101 143
101 188
101 239
101 269
101 272
102 147
102 155
102 158
103 230
103 237
103 264
103 268
104 105
104 136
104 152
104 165
104 186
104 190
104 213
104 218
104 234
104 238
104 269
104 290
105 106
105 206
106 137
106 153
106 162
106 196
107 117
107 170
107 298
108 123
108 170
108 214
108 288
110 131
110 186
110 229
110 278
111 130
111 138
111 152
111 188
112 127
112 135
112 142
112 184
112 190
112 200
112 211
112 213
112 216
112 229
112 230
112 299
113 123
113 125
113 128
113 140
113 184
113 192
113 212
113 221
114 138
114 212
114 288
115 142
116 212
116 236
116 266
116 272
117 127
117 135
117 141
117 169
117 197
117 203
117 226
117 237
117 250
118 130
118 153
118 175
118 212
118 260
118 266
118 272
118 273
118 287
119 121
119 162
119 206
119 224
119 226
120 135
120 159
120 170
120 180
121 122
121 137
121 145
121 165
121 169
121 217
121 276
121 283
122 123
122 151
122 217
122 242
122 265
123 150
123 178
123 192
124 152
125 143
125 198
126 128
126 132
126 162
126 170
126 191
126 242
127 231
127 241
128 172
128 175
128 232
128 242
128 245
128 282
129 191
130 188
130 203
130 216
130 225
130 234
130 236
130 260
130 296
131 137
131 186
131 199
131 254
132 140
132 178
132 186
133 159
134 200
134 211
134 213
134 240
134 246
134 256
134 267
135 200
135 215
135 243
136 143
136 150
136 186
136 275
137 183
137 186
137 223
138 142
138 144
138 194
138 210
139 196
139 205
139 236
140 161
140 275
141 181
143 300
144 199
144 241
144 247
144 286
145 158
145 271
146 238
146 263
146 272
148 292
148 297
150 167
150 238
150 244
150 278
150 280
151 157
151 249
151 271
151 285
152 163
152 165
152 188
152 194
152 195
152 247
152 252
152 277
152 299
153 181
153 220
153 229
153 243
153 253
153 259
153 271
153 281
154 156
154 167
154 178
154 191
154 194
154 216
154 225
154 251
154 263
154 279
155 288
156 170
156 171
156 226
156 251
156 263
157 249
157 285
158 162
158 183
158 191
158 200
158 238
159 179
159 188
159 202
159 205
159 240
160 188
160 214
160 296
161 180
161 205
161 233
161 279
162 174
162 183
162 209
162 226
162 238
163 221
164 205
164 272
165 275
165 285
166 189
166 211
166 216
166 225
166 281
167 225
167 232
167 240
168 196
168 207
168 210
168 218
168 220
168 227
168 280
169 170
169 210
170 211
170 251
170 258
171 261
171 281
172 186
172 190
172 200
172 228
173 202
173 261
174 209
174 232
175 202
175 276
175 294
176 286
177 200
177 289
177 293
178 209
178 213
178 216
178 225
178 249
178 262
178 264
178 278
178 294
180 185
180 208
180 213
180 279
180 288
180 295
181 216
181 226
181 239
181 259
181 268
181 278
182 229
182 266
182 286
183 186
184 197
184 198
184 199
184 212
184 215
184 216
184 255
184 262
184 291
184 292
185 191
185 219
185 228
185 234
185 269
185 275
185 285
185 292
186 199
186 200
186 207
186 228
186 229
186 248
186 291
186 299
187 252
187 264
188 214
188 248
189 204
189 254
189 287
189 294
190 226
191 196
191 200
191 219
191 225
191 227
191 239
191 245
191 258
191 266
191 284
191 286
193 215
193 267
193 273
193 274
193 300
194 208
194 210
194 213
194 222
194 253
194 263
195 213
195 262
195 289
196 209
196 227
196 281
197 198
197 203
197 226
197 237
197 243
197 246
197 264
198 199
198 215
199 286
200 245
200 256
200 267
200 284
200 293
201 206
201 245
201 255
201 272
201 278
201 282
201 283
201 299
202 209
202 229
202 240
202 262
203 204
203 221
203 245
203 270
205 219
205 242
205 263
205 272
205 274
205 292
206 235
206 248
206 255
206 256
206 271
206 272
206 298
207 210
207 213
207 215
207 219
207 228
207 247
207 263
207 271
208 213
208 228
208 241
209 243
209 256
209 262
209 281
210 220
210 227
210 242
210 274
211 225
211 258
211 275
212 255
212 291
213 221
213 223
213 228
213 230
213 233
213 236
213 241
213 246
213 278
214 254
214 288
214 298
215 273
215 292
216 225
216 232
217 230
217 236
217 265
219 236
219 263
219 267
219 275
219 292
219 294
220 260
221 235
221 246
221 270
222 229
222 253
222 294
223 233
223 254
223 265
224 244
225 232
225 240
225 243
225 258
225 281
225 294
226 237
227 242
227 274
227 277
228 229
228 233
228 234
228 241
228 263
228 271
229 250
229 253
229 266
229 286
229 294
230 237
231 252
231 254
232 248
233 241
233 268
233 279
234 248
234 269
234 290
236 241
236 292
237 255
238 241
238 246
241 247
242 274
243 281
245 248
245 282
245 298
246 261
247 271
247 277
247 280
248 271
248 298
249 262
249 276
250 252
251 258
252 261
252 264
253 263
253 289
253 294
254 257
254 272
254 276
254 298
255 299
256 288
258 266
258 275
258 285
259 296
260 273
260 289
261 281
262 281
263 294
263 297
266 272
266 293
268 279
269 290
271 280
272 298
275 285
275 292
277 299
278 283
285 295
290 297
291 299
294 298
297 300
*Classes
1
1
1
1
1
1
1
1
1
1
1
1
1
1
1
1
1
1
1
1
1
1
1
1
1
1
1
1
1
1
1
1
1
1
1
1
1
1
1
1
1
1
1
1
1
1
1
1
1
1
1
1
1
1
1
1
1
1
1
1
1
1
1
1
1
1
1
1
1
1
1
1
1
1
1
1
1
1
1
1
1
1
1
1
1
1
1
1
1
1
1
1
1
1
1
1
1
1
1
1
1
1
1
1
1
1
1
1
1
1
1
1
1
1
1
1
1
1
1
1
1
1
1
1
1
1
1
1
1
1
1
1
1
1
1
1
1
1
1
1
1
1
1
1
1
1
1
1
1
1
2
2
2
2
2
2
2
2
2
2
2
2
2
2
2
2
2
2
2
2
2
2
2
2
2
2
2
2
2
2
2
2
2
2
2
2
2
2
2
2
2
2
2
2
2
2
2
2
2
2
2
2
2
2
2
2
2
2
2
2
2
2
2
2
2
2
2
2
2
2
2
2
2
2
2
2
2
2
2
2
2
2
2
2
2
2
2
2
2
2
2
2
2
2
2
2
2
2
2
2
2
2
2
2
2
2
2
2
2
2
2
2
2
2
2
2
2
2
2
2
2
2
2
2
2
2
2
2
2
2
2
2
2
2
2
2
2
2
2
2
2
2
2
2
2
2
2
2
2
2
