*Vertices 300
*Edges
1 8
1 27
1 33
1 35
1 66
1 74
1 94
1 128
1 187
1 192
1 210
1 284
2 73
2 111
2 135
2 201
2 223
2 249
2 251
2 259
2 260
3 33
3 162
3 266
3 286
3 293
4 22
4 100
4 231
4 237
4 257
5 7
5 24
5 104
5 178
5 229
5 282
6 35
6 38
6 71
6 132
6 143
6 210
6 249
6 273
6 286
7 91
7 104
7 151
7 164
7 182
7 209
7 214
7 216
8 14
8 37
8 47
8 66
8 121
8 187
9 36
9 77
9 83
9 86
9 122
9 155
9 188
9 245
9 246
10 16
10 51
10 177
10 198
11 20
11 31
11 33
11 111
11 126
11 150
11 175
11 191
12 39
12 42
12 59
12 78
12 120
12 130
12 162
12 175
13 22
13 66
13 133
13 253
14 17
14 40
14 66
14 155
14 226
15 79
15 95
15 99
15 191
15 202
15 249
16 51
16 57
16 62
16 118
16 180
16 203
17 51
17 66
17 119
18 44
18 87
18 88
18 216
18 273
18 279
19 75
19 96
19 119
19 124
19 151
19 217
19 224
19 261
20 32
20 33
20 111
20 223
20 248
20 280
20 287
21 26
21 46
21 79
21 83
21 117
21 161
21 287
22 62
22 76
22 112
22 123
22 208
22 210
22 267
22 277
23 280
23 288
24 74
24 79
24 83
24 104
24 152
24 174
24 295
25 30
25 74
25 86
25 114
25 183
26 51
26 79
26 82
26 83
26 121
26 126
26 205
26 261
26 277
26 282
27 123
27 134
27 182
27 197
27 201
27 204
27 229
27 285
28 44
28 54
28 66
28 134
28 142
28 176
28 215
28 224
29 45
29 57
29 78
29 189
29 209
29 245
30 94
30 266
31 33
31 53
31 63
31 79
31 110
31 118
31 126
31 145
31 146
31 174
31 203
32 63
32 92
32 106
32 158
32 194
32 224
32 291
33 61
33 62
33 113
33 118
33 126
33 141
33 143
33 160
33 251
33 298
34 49
34 54
34 56
34 99
34 108
34 109
34 123
34 148
34 161
34 173
34 178
34 250
34 264
35 62
35 71
35 82
35 141
35 143
35 157
35 237
35 249
36 47
36 48
36 86
36 96
36 135
36 148
36 189
36 215
36 286
37 163
37 166
37 299
38 107
38 203
38 204
38 287
39 42
39 60
39 79
39 95
39 97
39 131
39 208
39 267
40 66
40 70
40 122
40 139
40 156
40 236
40 282
41 121
42 131
42 175
42 227
42 243
43 48
43 62
43 67
43 122
43 143
43 240
44 88
44 104
44 111
44 156
44 162
45 64
45 109
45 155
45 171
45 235
45 269
45 272
45 274
45 296
46 110
46 195
46 258
46 281
47 67
47 91
47 128
47 167
47 203
47 207
48 118
48 122
48 148
48 156
48 213
48 218
48 232
48 277
49 99
49 148
49 156
49 158
49 168
49 175
49 181
49 195
49 282
51 59
51 78
51 85
51 118
51 119
51 121
52 62
52 76
52 111
52 138
52 145
52 159
52 181
52 202
52 203
52 228
52 259
52 298
53 95
53 96
53 110
53 150
53 228
54 56
54 105
54 108
54 132
54 136
54 149
54 218
54 253
54 276
54 290
55 69
55 77
55 115
55 176
55 178
55 180
55 206
56 116
56 137
56 195
56 220
56 241
56 259
57 165
57 198
58 60
58 86
58 89
58 129
58 236
59 96
59 98
59 130
59 199
59 226
59 271
60 89
60 115
60 216
61 62
61 67
61 83
61 84
61 103
61 110
61 126
61 137
61 171
61 185
61 280
62 76
62 82
62 110
63 73
63 92
63 140
63 166
63 211
63 216
63 228
63 267
64 159
64 234
64 261
65 100
65 155
65 160
65 216
65 237
65 240
65 275
65 281
66 75
66 86
66 127
66 133
66 134
66 135
66 222
66 240
66 270
67 70
67 86
67 130
67 171
68 97
68 179
68 256
68 264
68 280
68 293
69 104
69 106
69 140
69 195
69 242
69 252
70 139
70 152
70 274
71 75
71 84
71 103
71 119
71 185
71 262
72 128
72 198
72 249
73 93
73 278
73 293
74 76
74 123
74 145
74 278
75 100
75 103
75 119
75 143
75 169
75 190
75 245
76 110
76 138
76 145
76 151
76 210
76 222
77 83
77 122
77 155
77 236
77 259
77 260
77 268
78 85
78 130
78 190
78 223
78 267
79 83
79 95
79 142
79 145
79 185
79 203
79 244
80 114
80 146
80 159
80 177
80 187
80 197
80 249
80 266
80 294
80 299
81 87
81 138
81 171
81 244
81 258
81 260
81 271
82 121
82 180
82 185
82 196
83 89
83 117
83 121
83 132
83 136
83 190
83 233
84 103
84 129
84 147
85 141
85 147
85 185
85 222
85 233
85 247
85 287
86 133
86 164
86 210
86 211
86 223
86 236
86 296
87 89
87 209
87 227
87 255
87 281
88 116
88 119
88 157
88 252
88 284
89 115
89 118
89 216
90 110
90 124
90 126
90 128
91 104
91 180
91 191
91 222
92 129
92 273
93 105
93 158
93 203
93 266
94 113
94 125
94 132
94 137
94 139
94 195
94 205
94 260
94 266
95 97
95 110
95 271
96 98
96 178
96 190
96 197
96 262
96 277
97 160
98 151
98 168
98 240
98 291
99 100
99 123
99 173
100 249
100 293
100 298
101 164
101 165
101 214
102 166
102 241
102 286
102 300
103 119
103 200
103 246
104 111
104 140
104 146
104 175
104 236
105 132
105 181
105 230
105 246
105 294
106 125
106 140
106 178
106 230
106 262
106 263
107 117
107 166
107 293
108 151
108 176
108 273
108 287
109 153
109 175
109 272
110 126
110 150
110 223
110 224
111 126
111 130
111 136
111 146
111 197
111 219
111 271
112 123
112 160
112 216
112 258
112 274
112 292
112 298
113 132
113 137
113 149
113 160
113 165
113 194
113 208
113 260
113 269
113 291
114 205
114 262
115 259
115 268
116 119
116 124
116 137
116 191
117 200
118 143
118 222
118 258
119 124
119 185
120 172
120 194
120 231
120 244
121 231
121 250
122 143
123 196
124 126
124 141
124 152
124 164
124 169
124 239
124 270
125 139
125 215
126 141
126 161
126 165
126 275
127 133
127 156
127 158
127 172
127 232
127 291
128 210
129 161
129 185
129 256
129 263
130 136
130 175
131 154
131 179
131 181
131 248
131 259
131 285
132 136
132 181
132 217
132 227
132 261
132 262
132 291
132 293
133 235
133 287
134 173
134 179
135 249
135 258
136 169
136 190
136 197
136 211
136 225
136 251
136 264
137 166
137 227
137 269
138 192
138 232
138 259
139 144
139 209
139 238
139 262
140 178
140 211
140 264
141 147
141 216
142 254
143 161
143 266
144 162
144 258
144 271
144 289
145 246
146 264
146 269
146 296
147 214
148 156
148 178
148 215
148 279
149 171
149 208
149 298
150 206
151 240
151 298
152 154
152 162
152 189
152 214
152 215
152 225
152 227
152 258
152 271
152 288
153 172
153 184
153 227
153 243
154 156
154 162
154 194
154 243
154 261
154 270
154 298
154 299
155 169
155 249
156 158
156 183
156 184
156 203
156 218
156 219
156 233
156 239
156 241
156 245
156 258
156 264
156 298
157 163
157 168
157 187
158 168
158 175
158 202
158 215
158 277
158 295
159 187
159 211
159 263
159 291
160 199
160 201
160 244
161 217
161 239
161 292
162 185
162 208
162 212
162 214
162 216
162 231
162 238
162 264
162 280
162 288
162 297
163 168
163 187
163 206
163 223
164 277
164 283
165 185
165 208
165 251
165 290
166 224
166 235
166 254
166 281
166 283
167 270
167 274
167 289
168 197
168 202
168 217
168 228
168 246
168 275
168 276
169 200
169 230
169 261
169 276
170 202
170 271
170 277
170 278
171 197
171 271
171 297
172 175
172 202
172 227
172 256
172 277
173 219
173 237
173 271
174 211
175 187
175 240
175 277
175 295
176 186
176 192
176 193
176 251
177 271
177 277
177 280
178 182
178 194
178 220
178 228
178 263
178 298
179 181
179 192
179 231
179 286
180 196
180 231
180 296
181 203
181 246
181 255
181 265
181 288
182 202
182 270
182 278
182 298
183 197
183 230
183 233
183 275
184 239
185 208
185 214
185 297
186 196
186 214
187 224
187 240
187 253
187 259
187 263
187 280
187 299
188 192
188 203
188 278
188 286
189 287
189 288
190 223
190 232
190 251
190 284
190 294
191 228
192 203
192 231
192 251
192 286
193 212
193 231
193 239
193 247
193 251
193 280
193 287
194 239
194 241
194 243
194 289
195 196
195 215
195 233
195 294
197 262
197 275
197 276
197 297
198 235
198 242
201 218
201 257
201 264
201 281
202 264
202 278
203 246
205 206
205 211
205 256
205 259
205 274
205 294
206 209
206 223
207 245
207 255
207 264
207 288
208 255
208 288
209 238
209 242
209 269
209 283
210 224
211 221
211 242
211 256
211 291
211 294
212 217
212 263
212 280
213 246
214 238
214 268
215 227
215 233
215 234
215 256
215 258
216 231
216 265
217 263
218 257
218 279
218 281
219 264
220 253
220 259
220 274
222 259
222 282
222 296
223 298
224 228
224 280
225 276
225 288
226 236
226 248
226 249
227 233
227 271
228 275
230 261
230 270
231 296
232 268
232 284
234 256
235 281
236 254
236 285
237 268
237 271
238 242
238 289
238 299
239 241
239 251
239 273
240 281
241 273
242 253
242 281
242 284
243 299
244 281
245 248
245 264
246 270
246 289
247 253
247 264
247 280
247 292
247 293
247 299
248 249
249 262
250 282
251 266
251 290
252 278
253 271
253 280
253 287
253 291
253 299
254 265
254 283
254 285
255 261
255 288
255 299
256 258
257 268
257 293
258 287
259 274
259 294
260 262
261 276
261 280
261 299
262 297
263 293
264 292
265 278
266 290
269 283
270 278
270 289
270 298
271 277
271 280
271 296
274 276
280 296
280 299
281 284
283 284
284 294
289 298
*Classes
1
1
1
1
1
1
1
1
1
1
1
1
1
1
1
1
1
1
1
1
1
1
1
1
1
1
1
1
1
1
1
1
1
1
1
1
1
1
1
1
1
1
1
1
1
1
1
1
1
1
1
1
1
1
1
1
1
1
1
1
1
1
1
1
1
1
1
1
1
1
1
1
1
1
1
1
1
1
1
1
1
1
1
1
1
1
1
1
1
1
1
1
1
1
1
1
1
1
1
1
1
1
1
1
1
1
1
1
1
1
1
1
1
1
1
1
1
1
1
1
1
1
1
1
1
1
1
1
1
1
1
1
1
1
1
1
1
1
1
1
1
1
1
1
1
1
1
1
1
1
2
2
2
2
2
2
2
2
2
2
2
2
2
2
2
2
2
2
2
2
2
2
2
2
2
2
2
2
2
2
2
2
2
2
2
2
2
2
2
2
2
2
2
2
2
2
2
2
2
2
2
2
2
2
2
2
2
2
2
2
2
2
2
2
2
2
2
2
2
2
2
2
2
2
2
2
2
2
2
2
2
2
2
2
2
2
2
2
2
2
2
2
2
2
2
2
2
2
2
2
2
2
2
2
2
2
2
2
2
2
2
2
2
2
2
2
2
2
2
2
2
2
2
2
2
2
2
2
2
2
2
2
2
2
2
2
2
2
2
2
2
2
2
2
2
2
2
2
2
2
