*Vertices 300
*Edges
1 14
1 22
1 64
1 87
1 120
1 127
1 131
1 147
1 253
2 127
2 149
2 171
2 188
2 189
2 211
2 248
2 254
2 266
3 11
3 17
3 76
3 92
3 94
3 103
3 134
3 138
3 205
3 241
3 273
3 293
4 17
4 19
4 32
4 80
4 83
4 84
4 128
4 143
4 145
4 172
4 180
4 181
4 188
4 190
4 207
4 230
4 246
4 249
4 253
4 292
5 8
5 88
5 114
5 120
5 134
5 147
5 158
5 163
5 225
5 235
5 245
5 297
6 30
6 262
7 13
7 22
7 40
7 43
7 49
7 58
7 62
7 85
7 97
7 111
7 112
7 115
7 133
7 141
7 150
7 176
7 184
7 227
7 240
7 264
7 278
8 14
8 24
8 97
8 120
8 122
8 147
8 212
8 216
8 243
8 262
8 284
9 11
9 17
9 19
9 40
9 53
9 73
9 103
9 110
9 127
9 137
9 144
9 177
9 181
9 203
9 272
9 283
9 284
10 111
10 234
10 244
10 279
10 280
11 17
11 20
11 57
11 63
11 109
11 120
11 121
11 144
11 184
11 193
11 237
11 247
11 268
12 276
13 45
13 58
13 60
13 62
13 70
13 74
13 112
13 149
13 158
13 170
13 222
13 237
13 296
14 23
14 29
14 33
14 56
14 87
14 101
14 118
14 120
14 147
14 189
14 202
14 214
14 233
14 252
14 287
15 39
15 73
15 76
15 96
15 98
15 228
15 231
15 293
16 28
16 48
16 74
16 78
16 80
16 107
16 139
16 144
16 145
16 210
16 252
16 276
16 298
17 19
17 20
17 33
17 53
17 56
17 57
17 64
17 103
17 104
17 106
17 122
17 127
17 137
17 146
17 165
17 177
17 210
17 237
17 240
17 246
17 255
17 273
17 282
17 283
18 153
18 167
18 188
18 218
18 219
18 240
18 249
18 271
18 299
19 32
19 33
19 48
19 66
19 75
19 99
19 118
19 124
19 128
19 139
19 153
19 154
19 213
20 54
20 56
20 64
20 67
20 86
20 110
20 113
20 196
20 208
20 209
20 277
20 282
21 77
21 81
21 118
21 177
21 296
22 85
22 87
22 123
22 150
22 163
22 174
22 197
22 202
22 241
23 51
23 120
23 217
24 31
24 33
24 62
24 67
24 70
24 79
24 110
24 145
24 157
24 190
24 196
24 216
24 253
24 256
24 290
25 57
25 67
25 124
25 176
25 183
25 192
25 193
25 197
25 255
25 277
26 75
26 110
26 155
26 172
26 222
27 29
27 35
27 62
27 78
27 82
27 101
27 126
27 215
28 31
28 48
28 67
28 88
28 148
28 159
29 37
29 43
29 49
29 68
29 81
29 126
29 129
29 143
29 177
30 41
30 46
30 51
30 62
30 67
30 70
30 89
30 273
31 113
31 216
32 52
32 85
32 118
32 134
32 153
32 183
32 187
32 210
33 45
33 52
33 67
33 79
33 93
33 94
33 108
33 110
33 116
33 141
33 154
33 157
33 180
33 202
33 254
33 256
33 263
33 266
33 272
33 296
34 40
34 45
34 76
34 115
34 152
34 196
34 247
35 78
35 101
36 45
36 51
36 89
36 126
36 180
36 183
36 191
36 210
36 221
36 232
36 257
36 294
37 47
37 73
37 88
37 89
37 107
37 129
37 137
37 145
37 146
37 162
37 173
37 197
37 246
38 58
38 96
38 97
38 151
38 172
38 173
38 211
38 220
38 221
38 238
38 248
38 254
38 255
38 256
38 278
38 288
38 294
39 54
39 80
39 124
39 138
39 176
39 252
39 274
39 282
40 59
40 68
40 83
40 88
40 110
40 115
40 116
40 126
40 132
40 138
40 165
40 216
41 59
41 70
41 132
41 143
41 281
41 283
42 173
42 179
42 245
42 277
43 49
43 167
43 216
43 249
44 104
44 109
44 120
44 211
45 52
45 60
45 70
45 105
45 141
45 154
45 158
45 173
45 188
45 196
45 204
45 210
45 232
45 239
45 254
45 262
45 263
45 272
45 287
45 291
45 296
46 66
46 67
46 98
46 113
46 166
46 230
46 251
46 283
47 53
47 97
47 100
47 102
47 112
47 129
47 167
47 225
47 290
47 294
48 67
48 98
48 102
48 110
48 139
48 145
48 222
48 271
49 52
49 58
49 59
49 68
49 82
49 111
49 113
49 134
49 147
49 150
49 216
51 191
51 217
51 229
51 273
51 281
51 291
52 61
52 72
52 76
52 84
52 85
52 108
52 118
52 134
52 135
52 141
52 143
52 167
52 198
52 247
52 249
52 258
52 262
52 263
53 71
53 73
53 112
53 144
53 149
53 176
53 181
53 195
53 203
53 213
53 216
53 229
53 272
53 290
54 110
54 170
54 223
54 271
54 274
54 281
54 289
55 77
55 175
55 178
55 228
55 229
55 296
56 89
56 101
56 118
56 119
56 174
56 192
56 196
56 203
56 209
56 247
56 259
56 282
57 67
57 102
57 109
57 124
57 165
57 184
57 193
57 203
57 216
57 266
57 280
57 282
58 75
58 96
58 97
58 141
58 224
58 240
58 278
59 68
59 82
59 163
59 199
59 281
60 61
60 62
60 72
60 97
60 108
60 112
60 140
60 158
60 170
60 175
60 241
60 243
61 84
61 99
61 100
61 167
61 212
61 247
62 70
62 74
62 79
62 82
62 112
62 169
62 192
62 250
62 258
62 265
62 283
62 284
62 299
63 109
63 209
63 237
63 243
63 247
63 268
64 72
64 97
64 110
64 113
64 120
64 123
64 142
64 163
64 213
64 277
64 293
65 87
65 134
65 136
65 142
65 146
65 180
65 242
65 246
65 269
65 270
65 279
65 284
65 285
65 294
66 69
66 113
66 128
66 139
66 230
66 275
67 98
67 102
67 110
67 169
67 203
67 216
67 255
68 82
68 83
68 113
68 163
68 176
68 263
68 277
68 284
68 293
69 112
69 113
69 231
70 145
70 216
70 258
70 265
71 75
71 131
71 144
71 189
71 211
71 230
71 252
71 298
72 108
72 135
72 142
72 161
72 219
72 233
72 242
72 247
72 259
72 263
73 76
73 90
73 119
73 132
73 146
73 174
73 195
73 202
73 214
73 229
73 245
74 79
74 95
74 191
74 193
74 223
74 249
74 258
74 272
74 276
74 277
75 97
75 175
75 184
75 188
75 189
75 213
75 225
75 245
76 90
76 138
76 152
76 198
76 202
76 293
77 100
77 101
77 132
77 143
77 191
77 201
77 219
77 220
77 233
77 245
77 259
77 296
78 101
78 145
78 171
78 275
79 130
79 167
79 193
79 253
79 273
79 276
79 281
80 107
80 145
80 207
80 240
80 252
81 177
82 169
82 201
82 209
82 221
82 224
82 263
82 283
82 284
82 295
83 84
83 99
83 100
83 105
83 128
83 229
84 295
85 134
85 150
85 198
86 97
86 110
86 115
86 120
86 139
86 225
86 239
86 250
87 105
87 165
87 173
87 197
87 246
87 257
87 266
87 271
88 92
88 107
88 108
88 118
88 138
88 148
88 158
88 159
88 209
88 241
88 255
88 258
89 127
89 133
89 146
89 162
89 179
89 190
89 191
89 192
89 230
89 282
90 135
90 146
90 192
90 239
90 244
91 93
91 94
91 116
91 139
91 171
91 182
91 248
91 262
91 293
92 138
92 156
92 235
92 243
92 267
92 282
93 94
93 110
93 116
93 154
93 165
93 178
93 293
94 116
94 123
94 138
94 159
94 241
94 264
94 269
94 279
95 153
95 182
95 223
95 229
95 280
95 293
96 98
96 185
96 221
96 231
96 261
97 120
97 129
97 140
97 147
98 202
98 255
99 100
99 128
99 205
99 228
99 259
100 131
100 142
100 167
100 171
100 178
100 209
100 211
100 212
100 217
100 228
100 268
101 119
101 137
101 195
101 259
102 110
102 112
102 146
102 169
102 179
103 135
103 164
103 172
103 206
103 228
103 255
104 169
105 161
105 164
105 204
105 216
105 229
105 231
105 254
105 257
106 283
107 108
107 137
107 189
107 197
107 210
107 282
108 141
108 159
108 161
108 164
108 232
108 241
108 259
108 290
109 120
109 139
109 211
109 271
109 274
110 120
110 196
110 225
111 147
111 161
111 164
111 234
111 280
112 158
112 193
112 222
112 231
112 234
112 288
113 181
113 185
113 277
114 120
114 154
114 156
114 214
114 235
114 256
114 287
115 116
115 120
115 215
115 225
116 126
116 132
116 143
116 165
116 192
116 293
116 295
117 171
117 175
117 188
117 228
117 251
117 254
117 293
117 300
118 159
118 210
118 255
118 287
118 295
119 120
119 137
119 142
119 147
119 160
119 191
119 203
119 214
119 221
119 224
119 238
119 257
119 278
119 289
119 299
120 122
120 139
120 147
120 239
120 252
120 260
121 136
121 144
121 252
121 296
122 165
122 173
122 242
122 262
122 273
122 284
123 150
123 163
123 213
123 219
123 241
123 264
123 293
123 300
124 139
124 176
124 255
124 279
124 285
125 198
126 150
126 182
126 191
126 241
126 300
127 131
127 146
127 170
127 215
127 220
127 227
127 230
127 232
127 246
127 266
127 296
128 157
128 188
128 205
128 206
128 219
128 259
129 162
129 173
129 272
130 168
130 171
130 211
130 245
130 273
130 281
130 291
131 146
131 167
131 209
131 268
131 298
132 143
132 229
133 152
133 176
133 177
133 184
133 188
133 230
133 239
133 287
134 135
134 235
135 161
135 164
135 172
135 192
135 200
135 212
135 244
135 264
135 290
136 145
136 229
136 290
136 296
137 142
137 199
137 207
137 239
137 261
137 284
137 289
138 156
138 200
138 255
138 281
138 282
139 153
139 242
139 252
139 271
139 274
140 159
140 174
140 193
140 201
140 212
140 233
140 259
141 202
141 227
141 230
141 239
141 291
142 234
142 268
142 285
142 289
143 249
143 259
143 299
144 191
144 222
144 233
144 252
144 257
144 281
145 171
145 207
145 237
145 245
145 290
146 179
146 190
146 201
146 242
146 245
147 162
147 163
147 167
147 203
147 247
147 277
147 278
147 298
148 150
148 160
148 220
148 221
148 234
148 241
148 270
148 300
149 170
149 171
149 189
149 194
149 208
149 216
149 230
149 243
149 255
149 292
150 202
150 230
150 241
150 250
151 174
151 216
151 288
151 297
152 167
152 180
152 188
152 198
152 247
152 249
153 223
154 156
154 163
154 269
155 218
155 219
156 162
156 167
156 198
156 212
156 213
156 243
156 248
156 263
156 271
156 274
156 287
157 175
157 188
157 190
157 196
157 211
157 240
157 244
157 254
157 257
157 282
158 170
158 198
158 247
159 164
159 264
160 168
160 189
160 221
161 164
161 168
161 189
161 202
161 204
161 265
161 286
162 163
162 191
162 238
162 247
162 258
162 263
162 272
163 175
163 179
163 188
163 235
163 263
163 269
163 277
163 293
164 168
164 200
164 218
164 264
164 265
164 286
165 184
165 192
165 228
165 257
165 258
165 271
165 293
165 295
166 236
166 283
166 294
167 188
167 198
167 217
167 233
167 254
167 268
167 273
168 189
168 211
168 225
168 260
169 185
170 194
170 199
170 237
171 189
171 197
171 211
171 218
171 246
171 296
172 181
172 203
172 212
172 243
172 288
172 298
173 226
173 230
173 254
174 175
174 282
175 188
175 225
175 237
175 238
175 243
175 245
175 268
175 279
175 282
176 216
177 185
177 242
177 256
177 259
179 277
180 218
180 230
180 236
180 246
180 247
180 249
180 254
180 286
180 294
181 185
181 203
181 261
182 258
183 194
183 199
183 253
183 258
183 263
183 265
183 286
183 294
184 192
184 210
184 213
184 223
185 217
185 220
185 239
185 255
185 256
185 261
185 278
185 279
185 296
186 194
186 250
186 263
188 198
188 211
188 220
188 225
188 226
188 240
188 244
188 247
188 254
188 257
188 283
189 202
189 219
189 226
189 246
189 296
190 192
190 245
190 257
191 208
191 210
191 233
191 238
191 257
191 263
191 272
191 278
191 284
191 300
192 197
192 228
192 230
192 239
192 258
192 263
193 212
193 272
194 199
194 209
194 215
194 237
194 242
194 263
194 274
194 284
195 244
195 279
196 253
196 275
196 279
197 206
197 218
197 219
197 239
197 246
197 300
198 206
198 208
198 214
198 233
198 243
198 247
198 273
199 209
199 242
199 250
199 284
199 299
200 205
200 215
200 217
200 227
200 297
201 212
201 237
201 245
201 263
201 296
202 204
202 226
203 221
203 273
204 237
204 243
204 261
205 227
205 259
206 214
206 217
206 219
206 233
206 255
206 258
207 213
207 220
207 224
207 240
207 261
208 233
208 243
208 255
208 259
209 247
209 255
209 299
210 223
210 238
210 282
211 225
211 226
211 246
211 248
211 260
212 243
213 219
213 225
213 240
213 245
213 264
213 281
213 287
214 224
214 233
214 255
214 256
215 220
215 227
215 242
215 268
216 231
216 243
217 227
217 244
217 255
217 256
217 268
217 273
217 279
217 284
218 219
218 223
218 286
218 296
219 226
219 230
219 241
219 255
219 259
219 265
219 271
219 300
220 227
220 240
220 241
220 254
220 256
220 279
220 285
220 296
221 232
221 295
222 228
222 252
222 278
222 283
224 233
224 256
225 239
225 243
225 244
225 245
225 269
225 279
225 282
226 230
226 239
226 283
227 254
228 252
228 293
228 296
229 293
230 239
230 246
230 270
230 292
230 297
232 295
233 255
233 259
234 251
235 258
235 263
235 267
235 288
236 239
236 294
237 243
237 245
238 282
239 270
239 274
239 278
239 289
239 292
239 294
239 297
240 273
240 287
241 293
241 300
242 257
242 259
242 270
242 284
243 263
244 267
244 273
244 275
244 279
245 263
245 277
246 249
246 292
247 298
248 266
249 250
249 299
250 299
252 281
252 290
253 275
254 288
255 256
255 258
255 261
255 278
255 279
256 258
256 271
256 272
257 284
258 263
261 289
262 263
263 265
265 286
266 272
267 288
268 273
268 282
268 284
269 279
269 300
270 294
271 274
271 284
273 288
274 284
274 289
274 297
275 279
278 279
280 281
280 283
281 283
281 287
281 291
283 287
284 289
285 294
288 299
289 297
290 294
293 300
*Classes
1
1
1
1
1
1
1
1
1
1
1
1
1
1
1
1
1
1
1
1
1
1
1
1
1
1
1
1
1
1
1
1
1
1
1
1
1
1
1
1
1
1
1
1
1
1
1
1
1
1
1
1
1
1
1
1
1
1
1
1
1
1
1
1
1
1
1
1
1
1
1
1
1
1
1
1
1
1
1
1
1
1
1
1
1
1
1
1
1
1
1
1
1
1
1
1
1
1
1
1
1
1
1
1
1
1
1
1
1
1
1
1
1
1
1
1
1
1
1
1
1
1
1
1
1
1
1
1
1
1
1
1
1
1
1
1
1
1
1
1
1
1
1
1
1
1
1
1
1
1
2
2
2
2
2
2
2
2
2
2
2
2
2
2
2
2
2
2
2
2
2
2
2
2
2
2
2
2
2
2
2
2
2
2
2
2
2
2
2
2
2
2
2
2
2
2
2
2
2
2
2
2
2
2
2
2
2
2
2
2
2
2
2
2
2
2
2
2
2
2
2
2
2
2
2
2
2
2
2
2
2
2
2
2
2
2
2
2
2
2
2
2
2
2
2
2
2
2
2
2
2
2
2
2
2
2
2
2
2
2
2
2
2
2
2
2
2
2
2
2
2
2
2
2
2
2
2
2
2
2
2
2
2
2
2
2
2
2
2
2
2
2
2
2
2
2
2
2
2
2
