*Vertices 300
*Edges
1 2
1 12
1 38
1 46
1 47
1 56
1 149
1 210
1 220
1 234
2 30
2 46
2 89
2 94
2 103
2 116
2 150
2 164
2 180
2 183
2 218
2 231
2 234
3 30
3 67
3 77
3 78
3 127
3 143
3 178
3 221
3 266
4 25
4 75
4 101
4 121
4 127
4 135
4 146
4 192
4 209
4 237
4 245
4 247
4 248
4 280
5 26
5 60
5 101
5 186
5 239
6 10
6 46
6 128
6 129
6 161
6 174
6 200
6 234
6 240
7 61
7 75
7 238
7 244
7 257
7 277
8 23
8 76
8 79
8 109
8 161
8 170
8 203
8 243
8 250
8 252
9 12
9 21
9 34
9 39
9 45
9 46
9 65
9 66
9 73
9 76
9 89
9 96
9 101
9 105
9 129
9 137
9 140
9 145
9 163
9 176
9 205
9 245
9 254
9 283
9 299
10 13
10 113
10 127
10 140
10 153
10 154
10 174
10 195
10 224
10 239
10 243
10 291
10 297
11 17
11 157
11 181
11 208
11 223
11 261
11 300
12 36
12 74
12 78
12 86
12 132
12 146
12 161
12 214
12 257
12 258
12 298
12 299
12 300
13 19
13 27
13 43
13 47
13 89
13 113
13 124
13 127
13 133
13 154
13 192
13 195
13 205
13 224
13 243
13 291
14 38
14 136
14 149
14 177
14 220
14 234
14 246
14 267
14 285
15 35
15 57
15 102
15 105
15 109
15 118
15 138
15 203
15 207
15 239
15 277
16 117
16 125
16 153
16 161
16 244
16 248
16 275
16 277
17 113
17 130
17 133
17 240
17 248
18 46
18 82
18 84
18 114
18 182
18 205
18 237
18 265
19 33
19 89
19 124
19 233
19 244
19 254
21 39
21 46
21 69
21 73
21 134
21 139
21 158
21 166
21 181
21 183
21 198
21 202
21 205
21 214
21 244
21 277
21 284
22 24
22 114
22 136
22 161
22 197
22 212
22 235
22 242
22 251
22 269
22 271
22 273
22 297
22 299
23 56
23 62
23 170
23 177
24 55
24 133
24 154
24 161
24 186
25 49
25 57
25 84
25 88
25 102
25 132
25 138
25 210
25 238
25 290
25 292
26 62
26 101
26 105
26 193
27 65
27 100
27 104
27 118
27 127
27 140
27 211
28 107
28 143
28 186
28 199
28 207
28 221
28 239
28 278
29 123
29 141
30 32
30 150
30 212
31 66
31 71
31 77
31 95
31 138
31 151
31 180
31 269
32 137
32 163
32 171
32 249
32 299
33 128
33 150
34 65
34 176
34 219
34 222
34 239
34 269
34 297
35 41
35 57
35 89
35 92
35 99
35 134
35 237
35 238
35 255
35 264
35 293
36 63
36 78
36 84
36 164
36 300
37 50
37 53
37 89
37 156
37 255
38 44
38 104
38 135
38 136
38 199
38 210
38 220
38 285
39 91
39 157
39 168
39 221
39 252
39 262
39 300
40 68
40 124
40 172
40 202
40 257
40 284
40 294
41 88
41 99
41 156
41 161
41 212
41 250
42 75
42 96
42 99
42 149
42 173
42 188
43 66
43 71
43 79
43 89
43 101
43 110
43 113
43 125
43 148
43 151
43 225
43 240
43 243
43 256
43 286
44 45
44 50
44 75
44 81
44 135
44 162
44 182
44 191
44 192
44 210
44 211
44 254
44 279
45 81
45 89
45 142
46 56
46 62
46 69
46 93
46 99
46 107
46 113
46 121
46 128
46 158
46 185
46 186
46 192
46 205
46 214
46 223
46 257
47 49
47 51
47 70
47 85
47 96
47 155
47 224
47 241
47 262
48 56
48 62
48 106
48 119
48 170
48 223
48 262
49 138
49 174
49 289
49 293
50 53
50 60
50 80
50 135
50 218
51 65
51 94
51 96
51 140
51 146
51 174
51 185
51 249
51 294
52 166
53 89
53 95
53 129
53 188
53 218
53 224
53 245
54 93
54 103
54 130
54 156
54 174
54 184
54 250
54 252
54 255
54 261
55 116
55 133
55 227
55 241
56 62
56 121
56 128
56 186
56 239
57 62
57 73
57 80
57 81
57 229
57 271
57 286
57 287
57 292
58 61
58 107
58 111
58 115
58 209
58 232
58 287
59 75
59 98
59 106
59 195
59 228
59 236
59 264
59 274
60 236
61 63
61 111
61 115
61 128
61 175
61 181
61 185
61 223
61 281
61 287
62 250
62 278
62 286
63 102
63 109
63 130
63 153
63 161
63 175
64 97
64 123
64 154
64 155
64 167
64 187
64 244
64 289
65 73
65 76
65 84
65 104
65 105
65 120
65 140
65 245
65 281
65 299
66 77
66 89
66 95
66 106
66 127
66 180
66 206
66 218
66 229
66 252
67 69
67 71
67 127
67 134
67 143
67 178
67 215
67 223
67 252
67 262
67 275
67 283
67 296
67 300
68 84
68 256
68 294
69 73
69 134
69 150
69 159
70 85
70 110
70 122
70 171
70 200
70 288
71 129
71 151
71 174
71 253
71 267
71 275
71 278
72 81
72 154
73 74
73 98
73 115
73 134
73 151
73 159
73 163
73 183
73 198
73 211
73 245
73 260
73 271
74 127
74 132
75 96
75 135
75 190
75 205
75 212
75 228
75 237
75 256
75 276
75 277
76 109
76 194
76 203
76 211
76 223
76 233
76 252
76 281
77 106
77 127
77 282
78 81
78 110
78 186
78 191
78 193
78 220
78 233
78 258
78 266
78 287
78 298
79 161
79 175
79 201
79 225
79 256
79 257
80 81
80 159
80 164
80 168
80 211
80 229
80 251
80 252
80 286
80 292
81 159
81 181
81 258
81 260
81 279
82 84
82 99
82 114
82 117
82 135
82 167
82 190
82 300
83 88
83 96
83 106
83 197
83 264
84 102
84 117
84 158
84 211
84 241
84 256
84 262
84 300
85 110
85 117
85 122
85 277
86 146
86 161
86 170
86 214
86 289
86 298
87 106
87 117
87 158
87 164
87 196
88 96
88 115
88 116
88 129
88 143
88 155
88 156
88 232
88 294
89 92
89 129
89 145
89 146
89 150
89 156
89 177
89 188
89 191
89 224
89 237
89 254
89 255
90 131
90 136
90 148
90 199
90 239
91 215
91 290
92 121
92 125
92 129
92 134
92 160
92 176
92 214
92 248
93 156
93 158
93 196
93 205
93 257
93 280
94 101
94 140
94 146
94 147
94 150
94 210
95 97
95 180
95 270
96 105
96 167
96 239
96 276
96 294
97 139
97 144
97 190
97 196
97 262
97 263
97 289
98 109
98 115
98 143
98 175
98 194
98 198
98 209
98 236
99 128
99 135
99 173
99 185
99 188
99 264
100 125
100 126
100 155
100 186
100 210
100 224
100 242
100 248
100 263
100 298
101 146
101 181
101 240
101 247
101 283
102 109
102 118
102 138
102 144
102 151
102 158
102 162
102 207
102 241
102 245
102 277
102 290
102 292
102 300
103 183
103 198
103 204
103 246
103 250
103 295
104 140
104 220
104 234
104 242
104 278
105 203
105 254
105 294
105 299
106 117
106 119
106 122
106 144
106 184
106 195
106 202
106 209
106 247
106 262
106 264
106 285
107 128
107 239
108 151
108 154
108 161
108 174
108 226
108 240
108 248
108 257
109 162
109 194
109 195
109 201
109 281
110 148
110 170
110 177
110 179
110 257
110 277
111 121
112 182
112 205
113 126
113 133
113 174
113 192
113 195
113 205
113 258
114 197
114 242
114 249
114 276
115 128
115 129
115 143
115 162
115 169
115 185
115 222
115 279
116 140
116 185
116 232
116 241
116 262
116 282
117 144
117 170
117 200
117 244
118 122
118 138
118 177
118 215
118 242
119 171
119 184
119 241
119 262
120 128
120 189
121 131
121 145
121 192
121 223
122 126
122 202
122 298
123 141
123 154
123 229
123 289
123 292
124 172
124 231
124 233
125 155
125 164
125 176
125 189
125 248
125 286
126 133
126 174
126 186
126 203
126 205
126 207
126 224
127 128
127 248
127 259
127 283
128 150
128 181
128 185
128 193
128 283
128 287
129 143
129 169
129 204
129 224
129 237
130 156
130 184
130 240
130 280
131 165
131 199
131 247
131 293
132 138
132 172
132 200
132 203
132 238
132 240
132 290
133 143
133 148
133 159
133 186
133 249
133 261
133 288
134 257
134 282
135 210
135 220
135 237
136 148
136 161
136 199
136 239
136 269
136 275
136 284
137 152
137 294
137 299
138 238
139 140
139 166
139 196
139 245
139 295
140 174
140 245
140 249
140 282
142 268
143 159
143 176
143 249
143 266
144 152
144 157
144 183
144 226
144 290
144 293
145 183
145 237
146 153
146 237
146 238
146 274
147 155
147 187
147 213
147 292
148 162
148 191
148 266
148 288
148 293
149 179
149 239
149 246
149 267
150 164
150 191
150 210
150 214
150 299
151 174
151 245
151 253
151 269
151 275
151 288
151 297
151 299
152 183
152 216
153 161
153 168
153 197
153 237
153 252
153 264
154 226
155 156
155 164
155 187
155 189
155 210
155 289
155 298
156 184
156 210
156 255
157 163
157 184
157 252
157 262
157 275
157 300
158 196
158 264
158 265
158 277
159 163
159 181
159 185
159 204
159 209
159 227
159 244
159 250
159 253
159 267
159 293
160 214
161 175
161 180
161 225
161 237
161 243
161 250
161 257
161 268
161 284
161 299
162 185
162 191
162 195
162 222
162 287
162 292
163 184
163 196
163 242
163 249
163 265
163 279
163 299
164 165
164 210
164 300
165 199
165 207
165 223
166 211
166 289
167 187
167 190
167 204
167 250
167 255
167 294
168 194
168 237
168 262
169 185
169 221
169 251
169 271
170 171
170 177
170 215
170 289
171 247
171 289
172 200
172 203
172 233
172 288
172 290
173 198
173 222
174 178
174 179
174 205
174 226
174 228
174 261
174 293
174 294
174 299
175 209
175 225
175 241
176 214
176 239
176 253
176 269
177 214
177 215
177 234
177 260
177 267
178 191
178 227
178 293
179 204
179 238
179 239
179 261
180 218
180 252
180 299
181 204
181 208
181 244
181 253
182 292
183 193
184 202
184 252
184 267
184 279
185 241
185 267
185 287
186 207
186 222
186 239
186 258
186 261
187 191
187 196
187 244
187 280
188 245
189 248
190 247
190 276
191 244
191 254
191 264
191 266
191 293
192 210
193 231
193 269
194 198
194 201
194 231
194 288
195 240
195 248
196 209
196 217
196 263
196 265
196 280
196 295
197 277
198 228
198 231
198 246
198 262
198 274
198 288
198 294
199 247
199 278
199 292
200 240
200 288
201 272
201 288
202 244
202 247
202 257
202 284
203 252
203 290
204 209
204 250
204 261
205 223
205 237
205 258
206 229
207 239
207 246
207 276
208 257
208 284
208 300
209 232
209 285
210 211
210 217
210 295
211 245
211 246
211 256
211 281
212 251
212 264
212 269
213 230
214 215
214 260
215 223
215 281
217 218
217 222
217 246
217 274
217 295
218 246
218 265
218 294
218 295
218 298
219 226
219 234
219 269
220 222
220 228
220 234
220 258
220 274
220 294
221 251
221 271
222 224
222 239
222 274
223 261
223 262
223 281
223 287
224 263
225 256
225 263
225 272
226 227
226 269
226 293
227 246
227 293
227 297
228 235
228 261
228 289
228 294
229 278
231 290
232 260
233 287
233 299
234 269
235 297
236 274
236 280
237 238
237 248
237 262
237 274
238 239
238 292
238 293
238 297
239 258
239 297
240 248
240 257
241 262
242 249
242 263
242 272
242 273
244 253
244 254
244 264
244 296
245 248
245 260
245 280
245 281
246 250
246 267
246 276
248 280
248 283
250 296
251 252
252 264
252 283
253 288
253 297
257 260
257 277
257 282
257 284
257 299
259 272
260 292
261 293
262 263
262 275
262 296
262 300
263 272
263 288
264 286
265 294
266 293
266 296
267 275
267 279
268 299
269 273
269 293
269 297
270 271
271 284
272 288
275 277
275 296
275 300
276 289
276 298
276 300
287 292
288 290
288 297
289 298
*Classes
1
1
1
1
1
1
1
1
1
1
1
1
1
1
1
1
1
1
1
1
1
1
1
1
1
1
1
1
1
1
1
1
1
1
1
1
1
1
1
1
1
1
1
1
1
1
1
1
1
1
1
1
1
1
1
1
1
1
1
1
1
1
1
1
1
1
1
1
1
1
1
1
1
1
1
1
1
1
1
1
1
1
1
1
1
1
1
1
1
1
1
1
1
1
1
1
1
1
1
1
1
1
1
1
1
1
1
1
1
1
1
1
1
1
1
1
1
1
1
1
1
1
1
1
1
1
1
1
1
1
1
1
1
1
1
1
1
1
1
1
1
1
1
1
1
1
1
1
1
1
2
2
2
2
2
2
2
2
2
2
2
2
2
2
2
2
2
2
2
2
2
2
2
2
2
2
2
2
2
2
2
2
2
2
2
2
2
2
2
2
2
2
2
2
2
2
2
2
2
2
2
2
2
2
2
2
2
2
2
2
2
2
2
2
2
2
2
2
2
2
2
2
2
2
2
2
2
2
2
2
2
2
2
2
2
2
2
2
2
2
2
2
2
2
2
2
2
2
2
2
2
2
2
2
2
2
2
2
2
2
2
2
2
2
2
2
2
2
2
2
2
2
2
2
2
2
2
2
2
2
2
2
2
2
2
2
2
2
2
2
2
2
2
2
2
2
2
2
2
2
