*Vertices 300
*Edges
1 19
1 67
1 69
1 104
1 107
1 147
1 222
1 273
2 5
2 20
2 32
2 42
2 60
2 62
2 75
2 121
2 122
2 149
2 157
2 196
2 216
2 227
2 233
2 249
2 255
2 293
3 23
3 43
3 48
3 64
3 97
3 101
3 131
3 134
3 228
4 13
4 23
4 122
4 128
4 135
4 183
4 189
4 228
4 239
4 264
4 292
5 18
5 24
5 32
5 42
5 62
5 75
5 103
5 111
5 199
5 204
5 233
6 38
6 153
6 175
6 246
6 248
6 258
6 271
6 273
7 51
7 141
7 142
7 168
7 182
7 224
7 245
7 249
7 264
7 277
8 15
8 41
8 220
9 30
9 103
9 112
9 127
9 157
9 170
9 180
9 268
9 274
9 282
10 46
10 57
10 62
10 94
10 174
10 186
10 242
10 255
10 280
11 98
11 119
11 130
11 136
11 156
11 234
11 242
11 275
12 108
12 139
12 155
12 157
12 235
12 274
12 296
13 47
13 76
13 80
13 91
13 128
13 132
13 147
13 212
13 280
13 284
13 290
14 16
14 20
14 27
14 61
14 90
14 121
14 154
14 176
14 206
14 223
14 246
14 274
14 278
15 40
15 148
15 216
15 220
15 283
16 67
16 214
16 221
16 278
17 28
17 147
17 238
17 269
17 297
18 29
18 47
18 72
18 91
18 97
18 103
18 138
18 172
18 191
18 195
18 199
18 235
18 242
19 78
19 85
19 147
19 170
19 175
19 269
19 293
20 83
20 90
20 121
20 123
20 206
20 219
20 226
20 233
20 258
21 27
21 50
21 96
21 195
21 198
21 248
22 25
22 53
22 68
22 81
22 110
22 112
22 139
22 210
22 237
22 284
23 74
23 96
23 97
23 124
23 153
23 154
23 157
23 194
23 228
23 235
23 249
23 298
24 50
24 80
24 82
24 152
24 154
24 169
24 174
24 190
24 191
24 192
24 204
24 206
24 230
24 259
24 295
25 51
25 53
25 68
25 91
25 116
25 117
25 203
25 229
25 234
25 251
25 263
25 268
25 282
25 286
26 97
26 109
26 140
26 246
27 59
27 81
27 95
27 97
27 104
27 154
27 168
27 170
27 175
27 215
27 220
27 222
27 243
27 289
27 290
27 291
28 87
28 150
28 156
28 180
28 197
28 224
28 234
28 238
29 168
29 172
29 287
30 64
30 91
30 112
30 127
30 134
30 157
30 159
30 180
30 194
30 268
30 287
31 63
31 114
31 169
32 75
32 187
32 193
32 231
32 255
32 293
33 34
33 68
33 88
33 142
33 214
33 272
33 286
34 143
34 151
34 159
34 198
34 296
35 214
36 164
36 215
36 231
37 52
37 123
37 194
38 40
38 62
38 131
38 145
38 184
38 185
38 209
38 216
38 235
38 288
38 290
39 70
39 73
39 87
39 96
39 107
39 116
39 158
39 166
39 185
39 214
40 48
40 86
40 121
40 162
40 253
40 259
40 283
40 291
40 292
41 202
41 223
41 266
41 292
42 60
42 67
42 80
42 97
42 123
42 138
42 170
42 197
42 279
43 101
43 134
44 175
44 228
44 259
45 230
45 276
46 48
46 56
46 98
46 113
46 146
46 186
46 256
46 293
47 76
47 103
47 199
47 212
48 72
48 101
48 175
48 195
48 214
48 235
48 238
48 240
48 248
48 256
48 287
48 288
49 55
49 77
49 80
49 144
49 154
49 158
49 178
49 225
49 233
49 236
49 256
49 268
50 53
50 95
50 184
50 198
50 235
50 243
50 251
50 259
51 87
51 95
51 116
51 149
51 198
51 240
51 243
51 263
53 76
53 165
53 167
53 184
53 185
53 235
53 259
53 268
53 283
54 66
54 72
54 74
54 143
54 159
54 178
54 179
54 232
54 242
55 95
55 97
55 192
55 297
56 92
56 98
56 104
56 133
56 135
56 146
56 235
56 285
56 293
57 94
57 146
57 179
57 217
57 255
57 276
57 278
58 85
58 90
58 123
58 140
58 143
58 206
58 215
58 219
58 222
58 254
58 262
58 267
58 281
58 288
59 95
59 168
59 172
59 185
59 230
59 245
59 277
59 290
59 291
60 108
60 119
60 121
60 203
60 208
60 216
60 247
60 280
60 283
60 284
61 84
61 90
61 94
61 158
61 193
62 230
62 252
62 254
62 276
62 288
62 293
63 89
63 111
63 204
63 218
63 230
63 261
63 263
63 275
63 288
64 150
64 173
64 200
64 222
64 229
64 243
64 250
64 254
64 267
64 268
64 282
64 287
65 114
65 123
65 162
65 173
65 246
65 272
67 80
67 104
67 195
67 207
67 223
67 229
67 246
68 142
68 159
68 199
68 214
68 251
68 286
69 72
69 165
69 178
69 186
69 291
70 161
70 173
70 282
70 285
70 293
71 155
72 74
72 143
72 172
72 209
72 235
72 259
72 287
72 291
73 143
73 173
73 204
73 230
73 242
73 250
73 252
74 96
74 97
74 103
74 124
74 140
74 154
74 179
74 198
75 111
75 226
76 89
76 96
76 97
76 102
76 132
76 140
76 145
76 147
76 153
76 162
76 190
76 290
77 102
77 123
77 144
77 154
77 178
77 194
77 233
77 255
78 170
78 173
78 181
78 183
78 185
78 203
78 209
78 212
78 229
78 232
78 270
79 103
79 299
79 300
80 91
80 191
80 206
80 233
80 245
80 256
80 284
81 84
81 89
81 121
81 139
81 156
81 173
81 175
81 212
81 253
81 288
82 107
82 165
82 259
82 293
83 131
83 145
84 193
84 218
84 253
84 291
85 123
86 135
86 201
86 205
86 239
86 257
86 259
87 88
87 95
87 107
87 108
87 116
87 142
87 143
87 206
87 241
87 242
87 262
87 296
88 99
88 108
88 142
88 161
88 206
88 241
88 242
88 252
88 258
88 284
88 294
89 110
89 140
89 145
89 202
89 218
89 221
89 240
89 261
89 275
89 295
90 124
90 142
90 188
90 203
90 215
90 246
90 267
91 117
91 176
91 206
91 274
91 294
92 96
92 133
92 157
92 194
92 199
92 235
92 236
92 286
93 102
93 114
93 123
93 134
93 151
93 161
93 166
93 211
93 250
94 146
94 193
94 197
94 218
94 224
94 280
95 97
95 104
95 114
95 149
95 196
95 198
95 243
95 263
95 286
96 116
96 151
96 153
96 194
96 203
96 212
96 268
96 295
96 296
97 133
97 138
97 154
97 178
97 192
97 239
97 298
98 130
98 137
98 156
98 253
98 256
98 280
99 210
99 252
99 285
100 145
100 185
100 191
100 192
100 265
100 266
100 284
101 214
102 114
102 117
102 146
102 196
102 203
102 223
102 230
102 232
102 276
102 290
103 124
103 172
103 199
103 242
103 299
104 107
104 135
104 222
104 254
105 113
105 128
105 132
105 165
105 169
105 181
105 184
105 188
105 199
105 217
105 239
105 257
105 279
105 289
106 184
106 190
106 217
106 269
106 296
107 185
107 192
107 223
107 229
107 246
107 259
107 290
107 293
108 139
108 233
109 140
109 155
109 204
109 219
109 242
109 265
110 211
110 237
110 252
110 253
110 254
110 276
110 288
110 290
110 295
110 296
111 113
111 138
111 207
111 239
111 253
111 256
111 275
112 122
112 139
112 163
112 172
112 182
112 194
112 206
112 213
112 246
112 250
112 291
112 294
112 300
113 145
113 188
113 256
113 297
114 123
114 170
114 185
114 220
114 294
115 173
115 250
115 253
115 273
116 287
117 124
117 135
117 146
117 203
117 229
117 231
117 246
117 276
117 289
117 293
117 294
118 160
118 168
119 230
119 276
119 283
120 148
120 150
120 162
120 180
120 183
120 190
120 242
120 243
120 268
120 297
121 122
121 155
121 196
121 212
121 226
121 253
121 255
121 288
122 159
122 161
122 173
122 192
122 213
122 250
122 286
123 128
123 138
123 154
123 194
123 206
123 226
123 227
123 255
123 258
123 280
123 287
124 198
124 203
124 215
124 226
124 229
124 289
125 196
125 207
126 149
126 156
127 170
128 132
128 146
128 153
128 161
128 194
128 199
128 228
128 231
128 236
128 241
128 250
128 287
129 294
130 224
131 145
131 162
131 167
131 183
131 190
131 235
131 272
131 290
131 300
132 154
132 198
132 202
132 257
133 138
133 171
133 175
133 260
133 262
134 148
134 163
134 181
134 186
134 211
134 254
134 279
134 295
134 300
135 174
135 201
135 246
135 273
135 289
136 148
136 156
136 214
136 274
136 279
137 138
137 141
137 154
137 186
137 206
137 223
137 239
137 254
137 284
138 175
138 191
138 239
139 184
139 209
139 237
139 265
139 274
139 283
140 262
140 275
140 281
141 178
141 179
141 217
141 233
141 242
141 245
141 257
142 150
142 204
142 242
142 248
142 259
142 294
143 165
143 198
143 242
143 262
143 277
143 296
144 212
144 229
144 270
145 185
146 203
146 231
147 190
147 273
148 163
148 186
148 244
148 251
148 279
148 297
149 155
149 230
150 180
150 204
150 243
150 266
150 299
151 232
151 250
151 279
152 177
152 259
152 277
153 161
153 188
153 201
153 248
154 186
154 191
154 192
154 268
155 159
155 194
155 212
155 213
155 230
155 238
155 262
155 265
155 283
155 286
155 289
155 292
156 171
156 212
157 191
157 235
157 249
157 268
157 274
157 281
158 175
158 180
158 198
158 228
158 236
158 242
158 268
159 213
159 232
159 250
159 262
159 265
159 282
159 296
160 191
160 253
160 268
160 280
161 250
161 290
162 163
162 183
162 190
162 197
162 202
162 291
163 173
163 206
163 230
163 250
163 252
163 271
163 291
165 167
165 240
165 257
165 291
165 292
166 215
166 230
166 276
166 290
167 171
167 182
167 294
168 267
168 277
168 287
169 184
169 188
169 190
169 239
170 171
170 178
170 185
170 192
170 197
170 208
170 209
170 224
170 227
171 208
171 228
171 294
173 181
173 191
173 205
173 250
173 252
173 253
173 268
173 276
173 281
173 287
174 246
174 280
175 198
175 228
175 240
175 269
176 274
177 234
177 235
177 259
177 291
178 179
178 192
178 197
178 217
178 219
178 227
179 233
179 254
180 185
180 203
180 217
180 234
181 185
181 192
181 238
181 250
181 279
181 300
182 197
182 234
182 294
183 202
183 222
183 241
183 254
183 270
184 188
184 209
184 248
184 251
184 273
184 294
185 191
185 192
185 217
185 223
185 227
185 230
185 290
186 208
186 209
186 251
188 201
188 215
189 292
190 243
190 269
190 271
191 192
191 194
191 268
191 295
191 297
192 217
192 219
193 218
194 206
194 208
194 209
194 212
194 223
194 260
194 268
194 278
194 297
195 198
195 229
195 235
195 250
195 263
196 206
196 209
196 215
196 222
196 243
196 249
196 254
196 292
197 208
197 224
197 234
198 217
198 219
198 240
198 266
198 299
199 236
199 242
199 291
201 212
203 213
203 234
203 284
203 296
204 230
204 295
205 253
205 291
206 223
206 233
206 254
206 278
206 284
206 291
207 215
207 240
207 248
207 255
207 256
208 209
208 228
208 232
208 247
208 260
209 215
209 231
209 232
209 258
209 292
209 294
210 237
210 284
211 216
211 230
211 252
211 258
211 269
211 295
212 229
212 234
212 265
212 275
213 227
213 234
213 255
214 266
214 274
215 231
215 240
216 220
217 219
217 253
217 291
218 248
218 261
219 240
219 262
220 283
221 275
222 231
222 254
222 297
223 246
223 265
223 284
223 290
223 292
223 294
224 258
225 256
227 243
227 255
227 284
227 294
227 298
228 249
228 264
229 234
229 237
229 250
229 275
230 251
230 276
230 284
230 290
230 291
230 295
232 258
232 276
232 279
233 254
233 284
234 236
234 266
234 275
234 291
234 294
234 299
235 249
235 274
235 292
236 242
236 246
236 291
237 252
237 275
237 295
238 272
238 283
238 300
240 248
240 261
240 299
241 270
242 246
242 248
243 254
243 286
243 298
244 251
244 273
249 252
249 258
249 264
250 276
250 282
250 286
250 295
251 273
252 258
252 264
252 285
253 256
253 280
253 281
253 291
253 296
254 288
254 292
255 280
255 293
255 294
256 293
259 277
260 261
260 262
261 282
262 278
263 288
264 277
265 284
265 292
266 299
267 281
268 295
268 297
269 271
272 300
276 295
280 296
286 289
290 292
290 294
291 292
291 300
292 294
295 297
*Classes
1
1
1
1
1
1
1
1
1
1
1
1
1
1
1
1
1
1
1
1
1
1
1
1
1
1
1
1
1
1
1
1
1
1
1
1
1
1
1
1
1
1
1
1
1
1
1
1
1
1
1
1
1
1
1
1
1
1
1
1
1
1
1
1
1
1
1
1
1
1
1
1
1
1
1
1
1
1
1
1
1
1
1
1
1
1
1
1
1
1
1
1
1
1
1
1
1
1
1
1
1
1
1
1
1
1
1
1
1
1
1
1
1
1
1
1
1
1
1
1
1
1
1
1
1
1
1
1
1
1
1
1
1
1
1
1
1
1
1
1
1
1
1
1
1
1
1
1
1
1
2
2
2
2
2
2
2
2
2
2
2
2
2
2
2
2
2
2
2
2
2
2
2
2
2
2
2
2
2
2
2
2
2
2
2
2
2
2
2
2
2
2
2
2
2
2
2
2
2
2
2
2
2
2
2
2
2
2
2
2
2
2
2
2
2
2
2
2
2
2
2
2
2
2
2
2
2
2
2
2
2
2
2
2
2
2
2
2
2
2
2
2
2
2
2
2
2
2
2
2
2
2
2
2
2
2
2
2
2
2
2
2
2
2
2
2
2
2
2
2
2
2
2
2
2
2
2
2
2
2
2
2
2
2
2
2
2
2
2
2
2
2
2
2
2
2
2
2
2
2
