*Vertices 300
*Edges
1 39
1 249
1 282
1 300
2 9
2 59
2 153
2 188
2 207
2 222
2 279
3 8
3 22
3 81
3 86
3 88
3 92
3 96
3 109
3 120
3 227
3 228
3 236
3 273
4 37
4 108
4 129
4 274
5 14
6 52
6 72
6 76
6 83
6 122
6 159
6 179
6 199
6 258
7 74
7 174
7 224
7 270
7 274
8 25
8 37
8 55
8 88
8 109
8 180
8 273
9 142
9 152
9 165
9 188
9 196
9 207
9 212
9 225
9 226
9 230
9 264
9 279
9 281
9 300
10 24
10 26
10 28
10 34
10 56
10 65
10 75
10 88
10 147
10 164
10 178
10 186
10 187
10 191
10 218
10 245
11 56
11 72
11 81
11 131
11 142
11 158
11 215
11 228
11 231
11 245
11 295
12 63
12 117
12 172
12 175
12 186
12 216
12 256
12 262
12 265
12 273
12 286
12 291
13 61
13 67
13 74
13 159
13 200
13 239
14 18
14 22
14 51
14 79
14 87
14 122
14 130
14 134
14 164
14 219
14 269
14 293
15 49
15 50
15 108
15 123
15 135
15 138
15 145
15 158
15 203
15 209
15 210
15 230
15 251
15 262
15 265
15 288
15 294
16 19
16 36
16 67
16 75
16 97
16 121
16 153
16 183
16 189
16 206
16 220
16 252
16 298
17 26
17 34
17 171
17 190
17 211
17 212
18 44
18 57
18 134
18 155
18 170
18 241
18 249
19 27
19 87
19 100
19 216
19 221
19 223
19 275
20 34
20 46
20 86
20 99
20 106
20 192
20 251
20 287
20 290
21 24
21 82
21 92
21 97
21 218
21 251
21 252
21 290
22 28
22 50
22 56
22 58
22 63
22 64
22 71
22 87
22 92
22 99
22 109
22 164
22 165
22 201
22 231
22 279
23 291
24 26
24 56
24 75
24 76
24 92
24 124
24 147
25 35
25 63
25 78
25 109
25 112
25 142
25 155
25 277
26 34
26 36
26 57
26 187
26 200
26 211
26 212
26 297
27 57
27 70
27 88
27 100
27 106
27 107
27 115
27 138
27 227
27 229
27 257
27 279
28 48
28 56
28 81
28 128
28 152
28 174
28 176
28 261
28 285
28 293
28 299
29 30
29 84
29 95
29 142
29 190
29 249
30 31
30 75
30 84
30 143
30 196
30 227
30 250
30 253
30 265
30 297
31 64
31 84
31 91
31 104
31 149
31 230
31 237
31 250
31 265
31 277
31 291
31 298
32 197
32 234
32 251
33 61
33 64
33 145
33 183
34 50
34 89
34 122
34 132
34 178
34 191
34 203
34 225
34 227
34 230
34 245
34 265
35 63
35 112
35 298
35 300
36 47
36 57
36 113
36 118
36 121
36 131
36 195
37 129
37 197
37 251
37 274
37 298
38 40
38 101
38 143
38 144
38 162
38 171
38 180
38 239
39 78
39 113
39 118
39 133
39 164
39 168
39 251
39 276
40 144
40 162
40 180
40 227
40 239
40 293
41 55
41 174
41 188
41 210
42 49
42 112
42 128
42 203
42 208
42 215
42 227
42 233
43 74
43 79
43 83
43 226
43 237
43 297
44 57
44 202
45 73
45 93
45 174
45 214
45 300
46 91
46 130
46 139
46 143
46 166
46 177
46 251
46 264
47 57
47 86
47 93
47 121
47 122
47 168
47 177
47 217
47 223
47 233
48 82
48 136
48 138
48 175
48 207
48 266
48 281
49 145
49 182
49 233
50 56
50 113
50 122
50 123
50 140
50 142
50 144
50 149
50 177
50 178
50 191
50 196
50 197
50 226
50 265
51 74
51 79
51 84
51 85
51 103
51 116
51 219
51 293
52 62
52 66
52 72
52 114
52 115
52 193
52 222
52 256
52 280
53 66
53 71
53 72
53 86
53 122
53 177
53 198
53 200
53 205
53 224
53 243
54 87
54 99
54 111
54 161
54 170
54 252
55 86
55 109
55 122
55 207
56 65
56 93
56 114
56 118
56 142
56 149
56 177
56 186
56 261
56 285
56 299
57 113
57 150
58 69
58 73
58 92
58 97
58 163
58 220
58 248
58 255
58 294
59 127
60 160
61 67
61 70
61 145
61 178
61 200
61 205
61 284
62 84
62 114
62 116
62 118
62 136
62 205
62 232
62 299
63 64
63 92
63 102
63 111
63 114
63 117
63 142
63 163
63 164
63 204
63 231
63 241
63 276
63 294
64 94
64 104
64 114
64 117
64 145
64 226
64 237
64 241
64 294
65 93
65 153
65 169
65 172
65 192
66 72
66 237
67 121
67 178
67 219
67 227
67 260
68 69
68 96
68 104
68 270
68 277
69 86
69 114
69 122
69 148
69 163
69 187
69 257
69 258
70 88
70 159
70 168
70 174
70 210
70 221
70 285
70 293
71 87
71 93
71 99
71 101
71 200
71 262
71 274
71 298
72 115
72 159
72 172
72 193
72 199
72 231
73 93
73 97
73 131
73 169
73 206
73 266
73 289
73 292
74 79
74 185
74 199
75 84
75 88
75 97
75 212
75 239
75 248
75 257
75 268
75 284
75 285
75 289
76 117
76 122
76 124
76 171
76 172
76 181
76 225
76 265
76 293
77 85
77 249
78 83
78 100
78 108
78 131
78 133
78 153
78 194
78 277
78 279
78 295
78 297
79 172
79 198
79 199
79 220
79 249
79 276
80 87
80 110
80 145
80 148
80 190
80 214
80 239
80 289
81 92
81 129
81 131
81 151
81 174
81 210
81 245
81 260
81 279
82 97
82 138
82 189
82 207
82 218
82 227
82 275
82 291
83 100
83 213
83 230
83 266
83 286
83 297
84 103
84 142
84 228
84 232
84 253
84 265
84 298
85 105
85 116
85 245
85 248
85 249
86 107
86 122
86 130
86 168
86 186
86 217
86 233
86 236
86 246
87 99
87 145
87 178
87 190
87 216
87 231
87 279
88 96
88 120
88 225
88 236
88 257
88 267
89 101
89 156
89 208
89 246
89 250
89 279
89 281
90 141
90 155
90 173
90 184
90 190
90 200
90 218
90 219
90 221
90 246
90 251
90 266
90 277
90 279
91 130
91 149
92 186
92 255
92 272
92 299
93 101
93 105
93 149
93 192
93 223
94 151
94 183
94 184
94 204
94 223
94 225
94 238
94 257
94 274
94 283
95 198
95 199
95 231
95 279
96 257
96 267
96 300
97 191
97 197
97 206
97 253
97 282
97 289
98 101
98 164
98 181
98 191
98 219
98 256
98 260
98 269
98 288
99 106
99 116
99 142
99 178
99 203
99 222
99 270
99 276
99 292
100 106
100 115
100 138
100 166
100 213
100 224
100 225
100 250
101 141
101 167
101 191
101 203
101 298
102 110
102 111
102 117
102 253
103 156
103 179
103 228
103 279
103 293
103 295
103 299
104 156
104 163
104 233
104 277
104 298
105 129
105 146
105 149
105 157
105 177
105 204
105 249
105 255
105 279
105 295
105 300
106 183
106 206
106 248
106 276
106 289
107 138
107 234
108 153
108 297
109 114
110 112
110 145
110 151
110 157
110 190
110 191
110 239
110 246
111 155
111 170
112 127
112 139
112 148
112 203
113 118
113 131
114 298
115 166
115 172
115 185
115 224
115 256
115 273
116 118
116 175
116 197
116 218
116 284
117 162
117 212
117 260
117 269
117 272
117 293
117 294
117 299
119 139
119 144
119 299
120 138
120 171
120 263
120 279
120 281
120 290
121 132
121 183
121 189
121 220
122 130
122 151
122 172
122 190
122 205
122 207
122 209
122 215
122 224
122 250
122 265
123 126
123 159
123 189
123 203
123 213
123 224
123 228
123 229
123 247
123 270
124 154
124 158
124 167
124 181
124 212
124 223
125 253
126 141
126 194
126 211
126 228
126 295
127 139
127 211
128 194
128 215
128 227
128 233
128 269
128 285
128 299
129 164
129 219
129 222
129 251
129 274
129 282
129 288
130 149
130 162
130 166
130 186
130 207
130 230
130 246
131 153
131 194
131 285
131 297
132 165
132 175
132 178
132 179
132 189
132 191
132 202
132 203
132 209
132 236
132 253
132 258
132 265
132 267
132 290
132 291
132 292
133 168
133 252
133 267
134 212
134 241
134 260
134 293
135 196
135 208
135 224
135 225
135 248
135 299
136 202
136 217
136 237
137 175
137 258
138 153
138 184
138 207
138 218
138 229
139 143
139 148
139 204
139 270
139 276
139 299
139 300
140 188
140 239
141 165
141 200
141 207
141 225
141 270
141 279
142 152
142 155
142 224
142 231
142 253
142 283
142 295
143 201
143 297
144 227
145 148
145 183
145 215
145 264
145 292
146 156
147 239
148 187
148 215
148 223
148 246
148 270
148 273
149 157
149 163
149 234
149 298
150 225
150 257
150 290
150 293
151 161
151 203
151 210
151 246
151 287
151 292
151 296
152 165
152 296
153 188
153 234
153 296
153 297
154 164
154 191
154 197
154 245
154 283
155 170
155 214
156 163
156 195
156 230
156 250
156 254
157 213
157 234
157 268
158 176
158 191
158 210
158 218
159 168
159 181
159 188
159 239
159 280
160 204
160 218
160 241
160 272
161 252
161 260
161 279
161 292
162 173
162 230
163 165
163 180
163 258
163 299
164 199
164 219
164 245
164 266
164 276
164 281
164 298
165 168
165 181
165 231
165 233
165 256
165 279
165 290
165 296
166 180
166 185
166 198
166 282
167 223
167 231
168 219
168 225
168 269
168 290
169 172
169 190
169 199
169 228
169 243
170 174
170 214
170 244
170 250
170 283
170 284
171 297
172 193
172 199
172 212
172 230
172 256
172 271
172 296
173 226
173 230
173 251
174 188
174 214
174 224
174 251
174 269
175 217
175 262
176 183
176 191
176 285
177 254
178 200
178 262
179 194
179 201
179 235
179 258
179 264
180 253
181 212
181 223
181 239
181 256
181 280
183 285
184 219
184 244
184 246
184 261
184 264
185 190
185 228
185 255
186 255
186 266
186 286
187 191
187 197
187 213
187 232
187 297
188 191
188 239
188 254
188 280
188 297
189 213
189 245
189 254
189 291
190 212
190 228
190 240
190 250
190 264
191 197
191 202
191 210
191 213
191 218
193 199
193 205
194 207
194 228
194 259
195 211
195 227
195 250
195 253
195 258
196 219
196 226
196 250
196 251
196 279
196 281
196 286
197 274
197 283
197 295
198 199
198 243
198 263
199 235
199 249
199 256
199 276
200 205
200 262
200 268
200 272
201 235
201 269
202 281
203 215
203 251
203 294
203 298
204 206
204 223
204 248
204 249
204 272
204 283
204 287
204 294
204 300
205 275
206 248
206 252
207 209
207 219
207 225
207 229
207 288
209 253
209 265
210 296
212 256
212 260
212 285
212 300
213 245
215 231
215 294
216 223
216 226
216 231
216 265
216 291
217 257
219 222
219 259
219 260
219 265
219 266
219 269
219 288
219 291
219 295
220 297
222 269
222 270
222 295
223 231
223 287
224 229
224 248
224 253
224 287
225 257
225 279
225 288
225 290
225 299
226 230
227 228
227 250
228 249
228 250
228 259
228 264
228 295
229 247
229 279
229 287
230 254
230 271
230 288
232 289
233 256
234 268
234 274
235 249
237 263
238 246
239 264
242 282
243 274
244 250
244 266
244 286
246 296
247 279
248 289
248 294
249 295
249 300
250 258
251 290
253 282
254 291
255 259
255 295
258 264
258 279
258 281
258 289
259 261
260 279
260 295
261 272
262 265
262 268
262 275
264 289
265 291
266 267
266 269
266 281
266 286
269 291
270 273
270 295
271 299
279 281
279 290
279 295
281 289
281 295
282 300
283 284
284 287
285 293
*Classes
1
1
1
1
1
1
1
1
1
1
1
1
1
1
1
1
1
1
1
1
1
1
1
1
1
1
1
1
1
1
1
1
1
1
1
1
1
1
1
1
1
1
1
1
1
1
1
1
1
1
1
1
1
1
1
1
1
1
1
1
1
1
1
1
1
1
1
1
1
1
1
1
1
1
1
1
1
1
1
1
1
1
1
1
1
1
1
1
1
1
1
1
1
1
1
1
1
1
1
1
1
1
1
1
1
1
1
1
1
1
1
1
1
1
1
1
1
1
1
1
1
1
1
1
1
1
1
1
1
1
1
1
1
1
1
1
1
1
1
1
1
1
1
1
1
1
1
1
1
1
2
2
2
2
2
2
2
2
2
2
2
2
2
2
2
2
2
2
2
2
2
2
2
2
2
2
2
2
2
2
2
2
2
2
2
2
2
2
2
2
2
2
2
2
2
2
2
2
2
2
2
2
2
2
2
2
2
2
2
2
2
2
2
2
2
2
2
2
2
2
2
2
2
2
2
2
2
2
2
2
2
2
2
2
2
2
2
2
2
2
2
2
2
2
2
2
2
2
2
2
2
2
2
2
2
2
2
2
2
2
2
2
2
2
2
2
2
2
2
2
2
2
2
2
2
2
2
2
2
2
2
2
2
2
2
2
2
2
2
2
2
2
2
2
2
2
2
2
2
2
