*Vertices 300
*Edges
1 61
1 145
1 151
1 213
1 296
2 54
2 70
2 135
2 141
2 162
2 222
3 24
3 133
3 162
3 172
3 209
3 250
4 27
4 57
4 91
4 108
4 144
4 166
4 221
4 242
4 288
4 291
4 293
5 54
5 83
5 90
5 107
5 134
5 145
5 150
5 159
5 180
5 209
5 227
5 246
5 248
5 282
6 15
6 48
6 159
6 162
6 202
7 23
7 205
7 250
7 289
8 122
8 147
9 111
9 179
9 192
10 29
10 39
10 46
10 62
10 102
10 103
10 105
10 128
10 147
10 167
10 223
10 237
10 278
11 52
11 65
11 114
11 158
11 165
11 198
11 225
12 84
12 107
12 132
12 136
12 139
12 140
12 161
12 163
12 225
12 230
12 241
13 37
13 97
13 103
13 137
13 144
13 167
14 46
14 122
14 189
15 25
15 130
15 144
15 221
15 222
15 244
15 258
16 42
16 45
16 77
16 92
16 123
16 138
16 184
16 189
16 213
16 252
16 264
16 291
17 23
17 26
17 86
17 118
17 164
17 239
17 246
17 260
18 35
18 36
18 64
18 105
18 181
18 188
18 217
18 252
18 280
19 160
19 179
19 210
20 32
20 56
20 60
20 101
20 153
20 182
20 199
20 219
20 227
20 236
20 266
21 38
21 89
21 137
21 144
21 163
21 191
22 35
22 89
22 121
22 194
22 262
22 272
23 41
23 43
23 89
23 121
23 123
23 133
23 158
23 167
23 184
23 206
23 230
23 260
23 289
23 291
24 45
24 106
24 253
24 254
24 297
25 130
25 161
25 163
25 209
25 222
25 238
25 244
25 250
25 278
25 282
25 287
26 29
26 61
26 107
26 118
26 121
26 142
26 145
26 167
26 261
26 279
27 102
27 144
27 155
27 169
27 189
27 214
27 221
28 44
28 72
28 73
28 102
28 109
28 128
28 131
28 133
28 135
28 145
28 177
28 184
28 213
28 230
28 240
28 248
28 290
29 30
29 62
29 65
29 108
29 121
29 128
29 140
29 145
29 147
30 45
30 56
30 65
30 85
30 171
30 192
30 243
31 87
31 95
31 107
31 164
31 223
31 239
31 293
32 50
32 138
32 195
32 220
32 235
33 42
33 129
33 171
33 183
33 187
33 202
33 204
33 217
33 221
33 226
33 227
34 54
34 76
34 174
34 177
34 251
34 272
35 89
35 177
35 217
35 291
36 105
36 139
36 142
36 181
36 187
36 191
36 229
36 246
36 265
36 267
36 294
37 97
37 215
38 66
38 71
38 89
38 100
38 105
38 109
38 131
38 135
38 137
38 181
38 186
38 241
38 266
38 285
38 294
38 297
39 40
39 58
39 90
39 100
39 104
39 117
39 120
39 166
39 300
40 71
40 83
40 96
40 98
40 149
40 156
40 161
40 169
40 181
40 189
40 193
40 208
40 225
40 251
41 43
41 133
41 145
41 150
41 183
41 269
41 272
41 293
42 45
42 61
42 85
42 117
42 129
42 153
42 226
42 252
42 255
42 297
43 123
43 184
43 206
43 289
43 293
44 73
44 102
44 118
44 128
44 152
44 173
44 201
44 216
44 228
44 239
44 254
44 292
45 48
45 106
45 157
45 163
45 245
45 262
45 263
45 271
45 273
45 282
45 290
46 148
46 234
46 237
46 278
46 298
47 74
47 76
47 83
47 101
47 128
47 165
47 186
47 199
47 249
48 59
48 81
48 149
48 159
48 183
48 213
48 237
48 238
48 244
48 271
48 296
49 183
49 218
49 243
49 282
49 296
50 126
50 178
50 190
50 211
50 235
50 247
51 117
51 120
51 167
51 207
51 273
52 77
52 92
52 114
52 148
52 251
52 258
53 54
53 63
53 76
53 91
53 104
53 114
53 163
53 241
53 253
53 286
54 76
54 98
54 124
54 134
54 135
54 183
54 219
54 222
54 230
54 237
54 253
55 107
55 141
55 190
55 195
55 262
55 273
56 65
56 88
56 101
56 116
56 153
56 163
56 183
56 212
57 95
57 201
57 223
57 234
57 235
57 242
57 287
58 100
58 104
58 136
58 149
58 169
58 173
58 179
58 208
58 288
58 289
59 159
60 112
60 155
60 219
60 223
60 266
60 271
60 280
61 63
61 81
61 85
61 145
61 149
61 151
61 160
61 182
61 206
61 208
61 282
62 102
62 218
63 70
63 80
63 109
63 145
63 220
63 262
63 287
64 93
64 134
64 154
64 249
65 73
65 114
65 116
65 140
65 153
65 157
65 163
65 173
65 282
66 80
66 84
66 89
66 140
66 221
66 273
67 136
67 168
67 298
68 79
68 123
68 138
68 181
68 186
68 193
68 261
68 265
68 277
69 183
69 195
69 273
70 141
70 212
70 222
70 255
70 268
70 280
70 287
70 300
71 72
71 83
71 156
71 163
71 179
71 181
71 189
71 193
71 218
71 282
72 188
73 116
73 168
73 181
73 184
73 188
73 213
73 230
73 237
73 279
73 287
73 291
73 296
74 186
74 190
74 212
74 224
74 295
75 139
75 172
75 206
75 223
76 90
76 98
76 110
76 124
76 144
76 149
76 183
76 210
76 298
77 92
77 107
77 218
77 231
77 291
77 296
78 211
79 132
79 169
79 196
79 232
79 255
79 261
80 109
80 136
80 220
80 221
80 258
80 287
81 134
81 149
81 151
81 198
81 208
81 226
82 172
82 183
82 199
82 224
82 256
82 274
82 288
82 290
82 295
83 101
83 112
83 125
83 150
83 160
83 169
83 176
83 221
83 224
83 229
83 236
84 107
84 140
84 147
84 162
84 199
84 200
84 223
84 230
85 224
85 245
85 295
86 91
86 98
86 156
86 187
86 211
86 258
86 262
86 272
87 89
87 90
87 107
87 115
87 117
87 145
87 152
87 218
87 237
87 243
87 273
88 103
88 105
88 177
88 249
89 105
89 121
89 187
89 191
89 203
89 294
89 297
89 299
90 107
90 166
91 98
91 104
91 144
91 220
91 288
92 93
92 105
92 195
92 204
92 220
92 221
92 224
92 251
92 258
92 262
92 263
92 273
92 295
93 184
93 205
93 222
93 238
93 249
93 252
93 263
93 265
93 270
93 297
94 154
94 292
95 140
95 176
95 210
95 223
95 235
96 98
96 103
96 155
96 172
96 177
96 208
96 259
97 103
97 151
97 154
97 167
97 215
97 226
97 251
98 144
98 149
98 156
98 240
99 105
99 121
99 132
99 135
99 165
99 173
99 258
100 131
100 183
100 199
100 224
100 267
101 149
101 160
101 176
101 199
101 244
101 249
102 122
102 192
102 208
102 239
102 254
103 105
103 149
103 151
103 167
103 172
103 180
103 208
103 237
103 251
103 266
104 120
104 167
104 182
104 207
104 224
104 273
105 119
105 121
105 126
105 149
105 169
105 181
105 214
105 223
105 229
105 265
105 278
105 294
106 180
106 242
106 262
106 263
106 273
106 278
106 283
106 284
106 290
107 199
107 223
108 145
108 161
108 163
108 253
108 265
108 291
108 293
109 120
109 135
110 115
110 184
110 263
111 192
111 218
112 125
112 155
112 169
112 243
112 269
112 271
112 284
113 154
113 155
113 211
113 229
113 237
113 296
114 158
114 286
115 117
115 147
115 184
115 218
115 268
115 294
116 153
116 181
116 237
116 252
117 137
117 156
117 160
117 194
117 220
117 272
117 273
118 186
118 231
119 123
119 138
119 152
119 176
119 213
119 216
119 229
119 238
119 290
120 135
120 183
120 199
120 201
120 222
120 279
120 300
121 132
121 145
121 187
121 215
121 232
121 254
121 264
121 294
122 147
122 208
122 216
122 281
123 138
123 197
123 264
124 155
124 174
124 180
124 186
124 196
124 198
124 199
124 210
124 252
124 255
124 266
124 281
124 298
125 155
125 156
125 193
125 233
125 236
125 243
125 284
125 292
128 148
128 167
128 197
128 252
129 153
129 182
129 187
129 195
129 217
129 221
129 226
129 264
129 293
130 144
130 146
130 189
130 201
130 254
130 285
130 298
131 137
131 240
131 248
131 259
132 139
132 172
132 174
132 199
132 205
132 206
132 213
132 232
132 254
133 145
133 158
133 162
133 172
133 237
133 253
133 260
134 159
134 183
134 198
134 222
134 235
135 149
135 173
135 174
135 258
136 141
136 149
136 161
136 173
136 239
136 291
136 298
137 144
137 155
137 161
137 163
137 224
137 295
138 229
138 252
138 285
139 189
140 147
140 176
140 199
140 210
140 216
140 281
141 151
141 173
141 177
141 195
141 222
141 264
141 272
141 300
142 181
142 218
142 283
142 294
143 209
143 212
144 149
144 228
144 236
145 150
145 204
145 248
145 253
145 269
145 272
146 189
146 202
146 268
147 208
147 218
147 260
147 294
148 175
148 178
148 237
148 254
148 297
148 298
149 219
149 244
149 271
150 159
150 176
150 179
150 199
150 200
150 221
151 163
151 182
151 264
151 282
152 167
152 170
152 186
152 216
152 267
153 189
153 218
153 227
153 297
155 160
155 171
155 189
155 192
155 206
155 236
155 243
155 269
155 279
155 295
156 193
156 238
156 262
156 272
156 299
157 161
157 163
157 189
157 282
158 205
158 257
158 260
159 213
159 217
159 237
159 275
159 296
159 297
160 206
160 229
161 163
161 225
161 239
161 242
161 282
162 236
163 181
163 282
164 179
164 229
164 239
164 247
164 289
165 249
165 260
165 270
165 272
165 300
166 228
166 269
166 285
167 186
167 187
167 207
167 216
167 224
167 260
167 274
167 279
168 198
168 230
168 240
168 249
168 260
168 270
168 291
168 297
169 196
169 208
169 214
169 244
169 252
170 201
170 219
170 221
170 235
170 236
170 241
170 267
170 284
170 285
171 182
171 202
171 220
171 243
172 175
172 199
172 213
172 238
172 268
172 284
172 289
174 180
174 185
174 232
174 251
174 252
174 278
174 295
175 213
175 227
175 257
176 210
176 286
176 298
177 217
177 236
177 295
178 235
178 262
178 278
178 282
178 290
178 297
179 280
179 284
179 289
180 196
180 227
180 237
180 243
180 251
180 284
180 285
180 289
181 209
181 228
181 246
181 267
182 196
182 224
182 233
182 243
182 293
183 199
183 212
183 269
183 290
184 213
184 263
186 187
186 209
186 213
186 261
186 266
186 281
187 211
187 229
187 241
187 264
187 265
187 281
187 292
187 293
188 279
188 280
189 295
189 298
190 195
190 247
190 262
190 268
190 273
190 292
191 197
192 269
193 265
193 299
194 272
195 220
195 262
195 263
195 264
195 272
195 273
196 225
196 248
196 282
196 284
196 293
197 205
197 249
197 257
197 300
198 252
199 200
200 239
200 247
200 276
201 219
201 221
201 228
201 235
201 254
201 281
202 258
202 264
203 216
204 244
204 253
204 259
204 273
205 219
205 249
205 289
207 224
207 256
207 273
207 274
208 214
208 244
209 246
209 250
209 259
209 281
209 299
210 257
210 298
211 265
211 292
212 268
213 238
213 255
213 263
213 281
213 287
213 290
213 296
214 252
214 257
214 272
216 253
216 281
218 227
218 294
218 296
219 235
219 236
219 249
219 263
220 224
220 262
220 272
220 275
220 277
220 300
221 235
221 242
221 258
221 286
221 298
222 238
224 267
224 290
224 295
225 238
225 274
227 251
228 236
228 242
228 246
228 258
228 285
229 233
229 281
229 292
230 240
230 291
230 297
232 252
233 259
233 281
233 293
233 295
235 241
235 282
235 287
236 267
236 295
237 243
237 282
238 245
238 257
238 262
238 274
239 242
239 247
239 257
239 276
240 243
240 248
240 259
240 260
240 282
240 297
241 264
241 293
243 251
243 269
243 270
243 282
243 294
244 299
245 255
245 271
245 274
245 280
246 299
247 268
248 282
249 260
249 270
250 285
251 256
252 257
252 272
253 273
253 281
254 288
255 280
255 281
255 290
258 264
258 286
259 282
259 293
260 297
262 273
262 290
263 273
263 283
264 265
267 290
268 292
269 279
272 277
272 300
273 290
274 279
275 277
278 295
278 297
280 281
280 289
281 296
281 299
283 294
284 285
284 289
286 298
290 296
*Classes
1
1
1
1
1
1
1
1
1
1
1
1
1
1
1
1
1
1
1
1
1
1
1
1
1
1
1
1
1
1
1
1
1
1
1
1
1
1
1
1
1
1
1
1
1
1
1
1
1
1
1
1
1
1
1
1
1
1
1
1
1
1
1
1
1
1
1
1
1
1
1
1
1
1
1
1
1
1
1
1
1
1
1
1
1
1
1
1
1
1
1
1
1
1
1
1
1
1
1
1
1
1
1
1
1
1
1
1
1
1
1
1
1
1
1
1
1
1
1
1
1
1
1
1
1
1
1
1
1
1
1
1
1
1
1
1
1
1
1
1
1
1
1
1
1
1
1
1
1
1
2
2
2
2
2
2
2
2
2
2
2
2
2
2
2
2
2
2
2
2
2
2
2
2
2
2
2
2
2
2
2
2
2
2
2
2
2
2
2
2
2
2
2
2
2
2
2
2
2
2
2
2
2
2
2
2
2
2
2
2
2
2
2
2
2
2
2
2
2
2
2
2
2
2
2
2
2
2
2
2
2
2
2
2
2
2
2
2
2
2
2
2
2
2
2
2
2
2
2
2
2
2
2
2
2
2
2
2
2
2
2
2
2
2
2
2
2
2
2
2
2
2
2
2
2
2
2
2
2
2
2
2
2
2
2
2
2
2
2
2
2
2
2
2
2
2
2
2
2
2
