*Vertices 300
*Edges
1 17
1 38
1 43
1 73
1 77
1 109
1 136
1 141
1 144
1 200
1 287
1 299
2 15
2 16
2 20
2 46
2 54
2 80
2 98
2 109
2 115
2 128
2 136
2 192
2 251
3 84
3 115
3 126
3 134
3 157
3 202
3 214
4 84
4 85
4 111
4 174
4 252
5 18
5 50
5 91
5 146
5 154
5 198
5 213
6 68
6 79
6 200
6 250
6 283
7 39
7 125
7 276
7 300
8 19
8 24
8 30
8 62
8 68
8 91
8 98
8 105
8 194
9 51
9 106
9 172
9 204
9 284
10 46
10 104
10 123
10 192
10 244
11 53
11 78
11 103
11 187
11 195
11 221
11 273
11 297
13 91
13 272
13 285
14 31
14 94
14 95
14 151
14 195
14 217
14 220
14 243
14 246
14 247
14 257
14 278
15 53
15 59
15 68
15 82
15 86
15 115
15 127
15 136
15 187
15 189
15 246
15 282
16 30
16 41
16 77
16 94
16 177
16 205
16 250
16 252
17 33
17 76
17 79
17 87
17 105
17 120
17 181
17 215
17 241
17 287
19 26
19 79
19 91
19 118
19 149
19 195
19 204
20 27
20 51
20 66
20 72
20 103
20 162
20 186
20 192
20 212
20 275
20 297
21 35
21 67
21 94
21 95
21 98
21 178
21 184
21 185
21 203
21 245
21 290
22 75
22 174
22 195
22 246
23 28
23 101
23 109
23 113
23 128
23 134
23 144
23 152
23 157
23 231
23 265
23 284
24 27
24 60
24 100
25 35
25 63
25 79
25 122
25 169
25 243
25 248
25 290
26 37
26 51
26 118
26 160
26 165
26 193
26 275
26 297
27 162
27 196
27 207
27 247
28 135
28 148
28 208
28 231
28 235
28 263
29 32
29 55
29 184
30 62
30 210
30 269
30 271
31 32
31 66
32 36
32 66
32 103
32 167
33 55
33 86
33 156
33 172
33 197
33 263
34 44
34 127
34 195
34 203
34 233
34 274
35 41
35 63
35 80
35 87
35 94
35 98
35 122
35 171
35 182
35 185
35 197
36 48
36 56
36 94
36 173
36 273
37 51
37 52
37 62
37 134
37 137
37 144
37 171
37 217
37 219
37 242
38 100
38 141
38 144
38 146
39 61
39 107
39 150
39 152
39 153
39 169
39 246
39 300
41 73
41 88
41 89
42 68
42 127
42 161
42 192
42 231
43 67
43 69
43 109
43 112
43 125
43 141
43 227
43 228
43 235
43 239
43 251
43 269
43 299
44 52
44 62
44 72
44 73
44 118
44 123
44 125
44 139
44 164
44 179
44 195
44 218
44 255
44 256
44 271
44 289
45 51
45 102
45 116
45 118
45 204
45 247
46 54
46 56
46 72
46 104
46 107
46 124
46 128
46 261
46 272
47 84
47 85
47 99
47 125
47 190
47 212
47 216
47 228
48 150
48 241
48 250
49 91
49 110
49 145
49 148
49 151
49 166
49 199
49 211
49 236
50 54
50 94
50 97
50 177
50 184
50 200
50 246
50 266
51 62
51 124
51 132
51 137
51 147
51 204
51 205
51 219
51 264
52 62
52 64
52 71
52 78
52 87
52 120
52 163
53 115
53 132
53 176
53 219
53 273
54 55
54 96
54 107
54 128
54 155
54 256
55 92
55 95
55 184
55 197
55 294
56 94
56 124
56 176
56 206
56 288
56 297
57 127
57 252
58 95
58 144
58 153
59 127
59 136
59 189
59 196
59 246
59 268
60 90
60 110
60 192
60 295
61 75
61 76
61 77
61 113
61 129
61 136
61 239
61 246
61 262
61 286
61 290
62 72
62 132
62 147
63 70
63 79
63 80
63 87
63 98
63 122
63 129
64 71
64 78
64 109
64 174
64 211
64 293
65 84
65 93
65 292
66 72
66 87
66 103
66 120
66 144
66 217
66 266
67 97
67 125
67 149
67 185
67 224
68 79
68 98
68 99
68 105
68 107
68 127
68 200
68 284
69 112
69 115
69 129
69 208
69 214
70 78
70 106
70 145
70 168
70 208
70 257
70 288
71 78
71 96
72 116
72 123
72 243
72 256
73 77
73 86
73 165
73 175
73 179
73 215
74 89
74 96
74 119
74 288
75 76
75 77
75 143
75 157
75 219
76 81
76 90
76 180
76 290
77 86
77 93
77 94
77 164
77 168
77 205
77 235
77 262
77 266
77 296
78 153
78 211
78 221
79 87
79 99
79 122
79 195
79 286
80 87
80 98
80 105
80 109
80 128
80 136
80 210
80 212
80 215
80 241
81 83
81 102
81 115
81 158
81 176
81 214
81 229
81 279
82 86
82 98
82 100
82 101
82 169
82 184
83 178
83 279
84 85
84 202
85 182
85 226
85 235
85 252
86 152
86 178
87 120
87 129
87 141
87 147
87 175
87 185
87 234
87 252
88 89
88 177
88 180
88 188
88 233
88 242
88 246
88 254
89 129
89 151
89 186
89 190
90 109
90 180
90 284
91 98
91 126
91 149
91 154
91 257
91 280
91 285
92 208
92 232
92 250
92 265
92 283
92 298
93 144
93 145
93 177
93 216
93 232
93 299
94 95
94 220
94 234
94 245
94 250
94 277
94 283
95 99
95 124
95 154
95 197
95 249
95 292
96 119
96 299
97 175
97 184
97 200
98 100
98 101
98 109
98 182
99 102
99 107
99 121
99 190
99 276
100 149
100 194
100 239
100 274
101 113
102 223
102 265
103 105
103 124
103 144
103 163
103 172
103 189
103 215
103 297
104 163
104 167
104 272
105 131
105 162
105 180
105 215
105 253
105 289
106 224
106 257
106 277
107 121
107 126
107 128
107 188
107 260
107 300
108 126
108 154
108 224
109 168
109 239
109 284
110 148
110 157
110 203
110 241
110 295
111 170
111 174
111 189
111 292
112 125
112 193
112 206
112 208
113 136
113 293
115 127
115 128
115 141
115 147
115 149
115 214
115 225
115 251
115 255
115 261
115 270
115 289
116 118
116 168
116 243
116 245
117 138
117 182
117 191
117 230
117 236
117 251
117 269
118 125
118 236
118 245
118 248
118 269
118 281
118 287
119 139
119 216
119 227
119 253
119 281
120 129
120 189
121 149
121 210
121 245
121 251
121 280
122 129
122 191
122 206
122 290
123 125
123 223
123 232
123 264
124 128
124 137
124 169
124 172
124 176
125 145
125 190
125 257
125 294
126 143
126 146
126 150
126 154
126 214
126 300
127 199
127 203
127 229
128 289
129 136
129 137
129 139
129 186
129 240
130 235
130 296
131 142
131 159
131 227
131 255
132 147
132 157
132 219
133 265
133 279
134 157
135 176
135 177
135 203
135 215
136 137
136 200
136 272
136 273
137 139
137 147
137 150
137 277
138 173
138 236
138 268
138 297
139 220
139 230
139 240
139 255
139 277
140 170
140 171
140 210
140 224
140 264
140 279
141 147
141 284
142 149
142 155
142 227
143 184
143 199
143 219
144 171
145 148
145 155
145 174
145 175
145 195
145 205
145 216
145 229
145 257
146 213
146 282
147 187
147 222
147 241
147 266
147 270
147 286
147 290
148 275
149 251
150 160
150 205
150 217
150 230
151 155
151 160
151 226
151 241
151 285
152 188
152 234
152 270
153 220
153 221
153 222
153 231
153 294
153 300
154 209
155 158
155 170
155 187
155 190
155 193
155 205
155 216
155 226
155 278
156 166
156 168
156 174
156 195
156 220
156 249
156 263
157 206
157 234
157 248
157 270
157 281
157 295
158 184
158 273
158 275
159 225
159 255
160 170
160 205
160 242
160 288
161 219
161 226
161 240
162 223
162 253
163 167
163 172
163 198
164 168
164 204
164 213
164 266
164 267
164 268
164 271
164 273
164 274
164 294
165 175
165 176
165 194
165 230
165 236
165 271
166 168
166 195
166 197
166 199
166 249
167 174
167 198
167 203
167 226
167 293
168 181
168 197
168 205
168 279
169 178
169 184
169 239
169 243
169 246
170 172
170 176
170 192
170 205
170 279
171 197
171 237
171 240
171 242
172 176
172 182
172 188
172 193
172 215
172 221
172 231
172 268
172 289
172 294
173 176
173 297
174 203
174 220
174 229
175 185
175 195
175 252
176 182
176 192
176 194
176 214
176 264
176 271
177 186
177 204
177 215
177 221
177 234
177 257
177 274
177 285
177 294
177 299
178 185
178 251
179 207
179 215
179 216
179 218
179 256
180 192
180 210
180 237
180 252
180 254
181 215
181 245
181 288
182 221
182 266
182 268
183 205
184 200
184 233
184 241
184 249
184 273
186 193
186 194
186 280
186 285
186 289
186 294
187 195
187 256
187 275
187 278
187 282
187 290
188 201
188 233
188 246
188 251
188 268
189 196
189 233
189 240
189 266
189 268
189 276
189 286
190 194
190 208
190 228
190 235
190 269
190 278
191 206
191 236
191 261
191 269
192 212
192 220
192 231
192 237
192 254
192 255
192 291
192 295
193 194
193 278
193 287
193 289
194 207
194 213
194 228
194 263
194 271
194 289
195 204
195 218
195 252
195 255
195 271
195 289
196 246
196 268
196 273
196 297
197 207
197 224
197 242
197 249
197 254
197 290
198 203
198 213
198 249
199 208
199 231
199 236
199 246
199 253
199 288
200 227
200 250
201 290
203 290
204 205
204 294
205 222
205 242
205 278
205 286
206 208
206 218
206 223
206 248
207 224
207 248
207 271
208 229
208 232
208 237
208 248
208 260
208 269
208 272
208 288
210 237
210 254
210 264
210 271
211 219
211 226
211 229
211 282
211 290
211 293
213 228
213 247
213 263
213 266
213 267
213 294
215 245
215 257
215 294
215 299
216 235
216 238
216 242
216 254
216 257
216 288
217 230
217 257
218 223
219 226
219 228
219 235
219 242
219 296
220 294
221 242
221 256
221 259
221 261
221 294
222 266
222 276
222 286
224 228
224 248
224 254
224 286
224 287
224 290
225 239
225 257
225 261
225 274
226 282
226 290
227 245
227 263
227 269
228 235
228 239
228 287
228 295
228 296
229 237
229 257
229 260
229 272
229 290
229 293
230 251
230 271
231 253
231 291
231 292
231 294
232 287
232 295
233 249
233 273
233 274
233 276
234 236
234 270
234 283
234 285
234 294
235 238
235 296
236 283
237 240
237 250
237 252
237 270
237 276
237 286
237 288
239 251
239 257
240 276
241 285
241 295
241 298
242 254
242 262
242 288
242 294
243 247
244 270
244 282
244 285
245 273
246 266
247 261
247 266
247 274
248 281
248 286
250 277
250 283
252 262
254 262
255 271
257 268
257 274
259 277
265 285
265 298
266 267
266 271
268 274
270 280
270 286
271 273
271 297
272 273
273 297
275 278
276 286
278 287
285 298
287 295
294 299
*Classes
1
1
1
1
1
1
1
1
1
1
1
1
1
1
1
1
1
1
1
1
1
1
1
1
1
1
1
1
1
1
1
1
1
1
1
1
1
1
1
1
1
1
1
1
1
1
1
1
1
1
1
1
1
1
1
1
1
1
1
1
1
1
1
1
1
1
1
1
1
1
1
1
1
1
1
1
1
1
1
1
1
1
1
1
1
1
1
1
1
1
1
1
1
1
1
1
1
1
1
1
1
1
1
1
1
1
1
1
1
1
1
1
1
1
1
1
1
1
1
1
1
1
1
1
1
1
1
1
1
1
1
1
1
1
1
1
1
1
1
1
1
1
1
1
1
1
1
1
1
1
2
2
2
2
2
2
2
2
2
2
2
2
2
2
2
2
2
2
2
2
2
2
2
2
2
2
2
2
2
2
2
2
2
2
2
2
2
2
2
2
2
2
2
2
2
2
2
2
2
2
2
2
2
2
2
2
2
2
2
2
2
2
2
2
2
2
2
2
2
2
2
2
2
2
2
2
2
2
2
2
2
2
2
2
2
2
2
2
2
2
2
2
2
2
2
2
2
2
2
2
2
2
2
2
2
2
2
2
2
2
2
2
2
2
2
2
2
2
2
2
2
2
2
2
2
2
2
2
2
2
2
2
2
2
2
2
2
2
2
2
2
2
2
2
2
2
2
2
2
2
