*Vertices 300
*Edges
1 11
1 28
1 42
1 49
1 64
1 69
1 81
1 88
1 99
1 119
1 120
1 124
1 171
1 221
1 251
1 255
1 256
1 257
1 283
2 14
2 22
2 36
2 113
2 114
2 154
2 189
2 266
3 22
3 25
3 146
3 178
3 247
3 290
4 14
4 16
4 24
4 48
4 61
4 112
4 130
4 142
4 150
4 169
5 9
5 14
5 21
5 123
5 130
5 186
5 236
5 275
5 291
6 29
6 51
6 60
6 135
6 206
6 227
6 232
6 253
6 261
6 300
7 53
7 86
7 256
7 262
8 22
8 31
8 33
8 46
8 53
8 61
8 70
8 128
8 187
8 237
8 297
9 14
9 32
9 39
9 93
9 106
9 110
9 272
9 276
9 284
10 20
10 38
10 92
10 112
10 204
11 69
11 98
11 99
11 187
11 277
11 291
12 45
12 56
12 59
12 83
12 86
12 108
12 132
12 175
12 188
12 263
12 276
12 285
12 289
13 16
13 42
13 74
13 108
14 21
14 30
14 56
14 87
14 106
14 123
14 149
14 171
14 225
14 291
15 22
15 25
15 75
15 113
15 148
15 152
15 288
16 52
16 61
16 84
16 90
16 108
16 155
16 159
16 160
16 179
16 216
17 42
17 95
17 96
17 107
17 122
17 150
17 156
17 184
17 188
17 259
17 266
17 277
17 279
17 291
18 38
18 174
18 201
19 64
19 173
19 206
19 212
19 251
20 40
20 71
20 92
20 109
20 175
20 188
21 30
21 72
21 115
21 149
21 152
21 201
21 225
21 253
21 282
21 298
22 25
22 30
22 31
22 46
22 53
22 94
22 113
22 142
22 156
23 66
23 78
23 99
23 132
23 157
23 165
23 193
23 251
23 280
23 281
23 295
24 41
24 56
24 84
24 86
24 114
24 126
24 130
24 141
24 142
24 160
24 166
24 293
24 298
25 30
25 38
25 142
25 251
26 64
26 69
26 181
26 187
26 256
27 47
27 101
27 137
27 141
27 176
27 217
27 229
27 237
28 64
28 69
28 97
28 119
28 175
28 280
29 101
29 120
29 135
29 184
29 191
29 226
29 254
30 36
30 37
30 48
30 56
30 75
30 91
30 94
30 112
30 123
30 130
30 195
30 224
30 225
31 33
31 64
31 70
31 88
31 128
31 139
31 152
31 186
31 209
31 278
31 297
32 39
32 71
32 99
32 100
32 109
32 215
32 245
33 64
33 88
33 117
33 124
33 180
33 233
33 286
34 47
34 50
34 220
34 253
35 84
35 196
35 227
35 276
35 284
35 288
36 56
36 100
36 113
36 114
36 154
36 234
36 252
36 298
37 42
37 51
37 55
37 67
37 94
37 110
37 138
37 147
37 158
37 169
37 263
37 278
37 287
38 92
38 106
38 112
38 127
38 251
38 295
39 104
39 161
39 173
39 179
39 221
39 248
40 134
40 149
40 184
40 263
41 157
41 160
41 227
41 300
42 55
42 74
42 88
42 92
42 93
42 103
42 124
42 279
43 124
43 153
43 199
43 252
43 277
43 290
44 47
44 67
44 119
44 121
45 86
45 181
45 290
46 65
46 178
46 273
46 282
46 297
47 50
47 53
47 117
47 119
47 128
47 137
47 155
47 176
47 295
48 111
48 112
48 142
48 193
48 205
48 237
48 267
48 290
48 296
49 58
49 62
49 69
49 81
49 88
49 92
49 171
49 179
49 207
49 272
49 283
50 74
50 128
50 202
50 208
50 214
51 169
51 206
51 213
51 261
52 86
52 181
52 219
52 237
52 283
52 285
52 291
53 103
53 128
53 295
53 297
54 191
54 296
55 74
55 138
55 263
55 266
56 83
56 85
56 108
56 112
56 130
57 62
57 95
57 101
57 102
57 125
57 146
57 147
57 177
57 198
57 204
57 212
57 221
57 241
57 243
57 273
57 297
58 92
58 120
58 144
58 176
58 283
59 66
59 87
59 132
59 181
60 135
60 145
60 164
60 192
60 195
61 90
61 142
61 159
61 187
61 192
61 223
61 240
61 265
62 81
62 110
62 127
62 147
62 173
62 198
63 69
63 287
64 86
64 90
64 113
64 117
64 119
64 128
64 147
64 182
64 190
64 200
64 247
64 251
65 149
65 272
66 78
66 87
66 109
66 151
66 264
66 280
66 281
66 290
66 295
67 106
67 108
67 110
67 121
67 147
67 175
67 196
67 261
67 271
68 93
68 121
68 126
68 186
68 221
68 229
68 246
69 72
69 100
69 120
69 147
69 154
69 187
69 221
69 255
69 267
70 117
70 141
70 185
70 258
71 103
71 109
71 127
71 175
71 192
71 268
71 273
71 275
72 100
72 195
72 221
72 229
72 253
73 84
73 217
73 260
73 270
74 112
74 134
74 181
74 202
74 205
74 253
74 288
74 291
75 94
75 205
75 263
75 277
76 114
76 166
77 83
77 136
77 156
77 163
77 188
77 203
77 218
77 251
78 132
78 165
79 82
79 176
79 192
79 295
80 89
80 106
80 245
80 251
81 127
81 203
81 227
81 250
81 274
81 275
82 101
83 133
83 156
83 298
84 160
84 161
84 217
84 229
84 253
84 267
85 163
85 165
85 244
85 246
86 117
86 188
86 234
86 260
86 262
86 265
86 266
86 283
87 155
87 164
87 258
87 300
88 92
88 97
88 116
88 119
88 124
88 143
88 166
88 180
88 181
88 195
88 232
88 266
89 106
89 174
89 268
89 269
90 100
90 128
90 142
90 151
90 181
90 213
90 261
90 268
90 281
91 94
91 140
91 166
91 279
92 120
92 144
92 204
93 103
93 106
93 133
93 139
93 157
93 174
93 186
93 292
94 166
94 189
94 225
94 242
94 256
94 297
95 102
95 147
95 204
95 242
95 243
96 182
96 190
97 99
97 180
97 191
97 208
97 292
98 119
99 105
99 109
99 118
99 128
99 159
99 165
99 187
99 211
99 260
99 280
99 291
100 111
100 129
100 130
100 138
100 158
100 181
100 195
100 215
100 279
101 120
101 147
101 162
101 217
101 227
101 229
101 246
102 239
102 297
103 106
103 125
103 127
103 138
103 146
103 157
104 124
104 163
104 166
104 217
104 298
105 109
105 118
105 134
105 190
105 216
105 229
105 237
106 110
106 113
106 133
106 148
106 168
106 218
106 219
106 284
107 155
107 177
107 183
107 222
107 249
107 287
107 298
108 175
108 202
109 128
109 169
109 214
109 220
109 221
109 238
109 245
109 290
109 298
110 147
110 148
110 175
110 196
110 200
110 224
111 138
111 193
111 211
111 241
112 142
112 186
112 202
112 204
112 219
112 296
113 133
113 166
113 168
113 189
113 251
114 130
114 154
114 222
114 271
115 137
115 141
115 142
115 149
115 157
115 231
115 240
115 249
116 124
116 153
116 168
116 181
116 221
116 245
116 246
117 137
117 171
117 190
118 150
118 162
118 190
118 191
118 278
119 155
119 196
120 154
120 187
120 223
120 267
121 166
121 237
121 246
122 150
122 177
122 234
122 277
122 288
123 155
123 171
123 224
123 229
123 231
123 239
123 242
123 254
124 143
124 162
124 163
124 180
124 266
124 276
124 288
125 137
125 138
125 146
125 167
125 241
126 137
126 225
126 234
126 274
127 134
127 251
127 283
128 261
128 274
129 173
129 251
129 258
129 276
129 278
130 138
130 228
130 251
131 136
131 137
131 256
132 168
132 266
133 218
133 247
133 298
134 151
134 199
134 205
134 216
134 229
134 293
135 145
135 192
135 216
135 253
135 255
135 272
136 188
136 203
136 234
137 140
137 141
137 188
138 158
138 235
138 241
138 298
139 186
139 196
139 292
140 143
140 171
140 185
140 212
140 216
140 250
141 154
141 171
141 185
141 200
141 209
141 231
141 265
141 277
141 283
142 160
142 257
142 271
143 154
143 177
143 250
143 265
143 276
144 190
144 258
145 174
145 295
146 251
147 183
147 198
147 200
147 204
147 227
147 267
148 152
148 209
149 226
149 242
149 253
150 241
150 266
150 292
151 175
151 181
151 207
151 295
152 163
152 176
152 209
152 220
152 237
152 282
152 298
152 300
153 163
153 181
153 199
153 245
153 293
154 172
154 265
155 162
155 169
155 183
155 196
155 217
155 228
156 173
156 176
156 183
156 192
156 195
156 203
156 211
156 217
156 249
156 251
156 254
156 255
156 292
156 295
157 165
157 244
158 178
158 199
158 212
158 220
158 228
159 220
159 231
159 239
160 235
160 253
160 267
160 271
161 208
162 177
162 190
162 196
162 217
162 228
162 293
163 178
163 181
163 199
163 209
163 212
163 217
163 246
163 262
163 265
163 271
163 287
163 288
164 258
164 269
164 276
165 233
165 244
166 237
166 238
166 242
166 261
166 268
166 298
167 169
167 182
167 190
167 196
167 200
167 209
167 210
167 233
168 207
168 236
168 266
169 196
169 197
169 277
170 281
170 300
171 184
171 203
171 207
171 208
171 254
171 277
171 280
171 281
172 187
172 258
172 259
172 269
173 247
173 251
174 222
174 271
174 274
174 295
175 207
175 254
175 258
175 276
175 288
175 295
176 179
176 192
176 209
176 217
176 220
177 217
177 222
177 234
177 273
177 298
178 212
178 233
178 273
178 286
179 221
179 256
180 187
180 246
180 255
180 260
180 274
181 199
181 228
181 261
181 290
181 291
181 293
181 300
182 190
182 200
182 243
182 257
182 277
183 185
183 192
183 194
183 198
183 202
183 232
183 234
183 272
184 191
184 203
184 208
184 229
184 254
184 281
184 291
184 296
185 210
185 228
185 232
185 239
185 241
185 248
185 252
187 246
187 265
187 269
187 283
187 291
188 190
188 203
188 232
188 265
188 266
188 280
188 283
189 198
189 297
190 233
190 277
190 278
190 280
190 286
191 208
191 278
191 296
192 194
192 195
192 254
192 275
193 215
193 272
193 283
193 290
194 195
194 275
195 213
196 209
196 221
196 227
196 229
196 292
197 225
197 246
197 262
197 281
199 204
199 208
199 228
199 239
199 245
199 252
199 265
199 293
200 210
201 225
201 261
202 214
203 277
204 219
204 228
204 243
204 265
204 299
205 245
206 211
206 266
206 299
207 236
207 254
207 281
208 225
208 229
208 290
209 233
209 287
210 232
211 217
211 249
211 255
211 271
211 291
211 293
211 299
212 246
212 271
213 224
213 235
213 239
213 266
213 281
213 292
214 260
215 279
216 254
216 282
217 260
217 293
219 237
219 267
220 234
220 238
220 272
220 279
220 286
220 289
221 229
221 248
221 273
222 271
222 295
224 235
224 255
224 295
225 262
225 264
225 286
225 298
226 242
226 289
227 284
228 232
228 239
228 252
228 273
230 270
231 242
231 299
232 266
233 234
233 244
233 277
233 286
234 272
234 285
234 286
235 271
235 274
236 275
236 294
237 267
237 285
237 289
239 273
240 248
240 261
240 268
240 273
241 248
241 257
241 292
242 283
242 289
243 283
245 274
246 262
246 265
246 291
247 251
247 286
248 273
248 275
250 296
251 295
251 299
253 282
254 277
254 280
254 295
255 292
255 295
256 283
256 297
258 259
258 266
258 267
258 276
259 266
261 268
261 271
262 275
265 266
265 269
265 283
265 293
266 283
266 292
266 299
267 289
267 296
269 300
271 274
271 299
272 283
272 284
272 286
273 275
274 299
276 288
277 293
278 287
279 289
281 292
281 300
283 289
285 286
291 299
*Classes
1
1
1
1
1
1
1
1
1
1
1
1
1
1
1
1
1
1
1
1
1
1
1
1
1
1
1
1
1
1
1
1
1
1
1
1
1
1
1
1
1
1
1
1
1
1
1
1
1
1
1
1
1
1
1
1
1
1
1
1
1
1
1
1
1
1
1
1
1
1
1
1
1
1
1
1
1
1
1
1
1
1
1
1
1
1
1
1
1
1
1
1
1
1
1
1
1
1
1
1
1
1
1
1
1
1
1
1
1
1
1
1
1
1
1
1
1
1
1
1
1
1
1
1
1
1
1
1
1
1
1
1
1
1
1
1
1
1
1
1
1
1
1
1
1
1
1
1
1
1
2
2
2
2
2
2
2
2
2
2
2
2
2
2
2
2
2
2
2
2
2
2
2
2
2
2
2
2
2
2
2
2
2
2
2
2
2
2
2
2
2
2
2
2
2
2
2
2
2
2
2
2
2
2
2
2
2
2
2
2
2
2
2
2
2
2
2
2
2
2
2
2
2
2
2
2
2
2
2
2
2
2
2
2
2
2
2
2
2
2
2
2
2
2
2
2
2
2
2
2
2
2
2
2
2
2
2
2
2
2
2
2
2
2
2
2
2
2
2
2
2
2
2
2
2
2
2
2
2
2
2
2
2
2
2
2
2
2
2
2
2
2
2
2
2
2
2
2
2
2
