*Vertices 300
*Edges
1 52
1 113
1 117
1 121
1 215
1 230
1 264
1 272
2 5
2 23
2 24
2 62
2 68
2 75
2 97
2 111
2 125
2 128
2 134
2 165
2 185
2 236
2 244
2 248
3 6
3 13
3 53
3 63
3 78
3 99
3 104
3 115
3 160
3 174
3 188
3 211
3 224
3 259
3 261
3 290
4 47
4 59
4 75
4 129
4 152
4 163
4 206
4 223
4 282
5 12
5 29
5 74
5 115
5 122
5 125
5 131
5 134
5 249
5 293
6 46
6 72
6 88
6 94
6 102
6 106
6 118
6 136
6 155
6 253
6 290
7 14
7 46
7 62
7 64
7 80
7 82
7 104
7 127
7 139
7 288
8 9
8 27
8 53
8 60
8 81
8 121
8 129
8 183
8 218
9 52
9 82
9 107
9 148
9 183
9 198
9 215
9 227
9 235
9 267
10 83
10 119
10 179
10 239
10 265
11 14
11 68
11 202
11 252
12 15
12 68
12 121
12 129
12 142
12 152
12 177
13 54
13 90
13 115
13 290
14 44
14 57
14 58
14 68
14 70
14 127
14 135
14 146
14 156
14 161
14 275
14 284
15 58
15 60
15 177
15 288
16 41
16 48
16 61
16 92
16 101
16 196
16 221
16 247
17 32
17 57
17 106
17 147
17 209
17 215
17 240
17 269
17 295
18 44
18 49
18 153
19 30
19 59
19 64
19 69
19 90
19 100
19 105
19 163
19 185
19 192
19 196
19 268
19 272
20 50
20 67
20 199
21 37
21 146
22 156
22 222
22 286
23 65
23 74
23 122
23 129
23 219
23 244
23 262
23 280
24 107
24 149
24 165
24 173
24 207
24 219
24 231
24 248
24 264
25 43
25 125
25 136
25 211
26 80
26 98
26 110
26 120
26 159
26 170
26 233
26 282
26 287
27 39
27 53
27 60
27 65
27 88
27 90
27 91
27 103
27 118
27 139
27 188
27 201
28 33
28 43
28 62
28 118
28 137
28 215
29 109
29 144
29 150
30 74
30 92
30 100
30 173
30 229
30 246
31 66
31 90
31 113
31 117
31 125
31 126
31 129
31 181
31 204
31 295
32 59
32 66
32 75
32 95
32 96
32 141
32 149
32 192
32 205
32 229
33 61
33 66
33 90
33 117
34 139
35 42
35 60
35 87
35 103
35 131
35 201
35 215
35 254
35 270
35 278
35 289
35 295
36 38
36 49
36 69
36 113
36 142
37 54
37 146
37 181
37 194
38 98
38 143
38 144
38 147
38 169
39 124
39 201
39 216
39 232
40 64
40 100
40 127
41 165
41 196
42 60
42 66
42 87
42 92
42 103
42 113
42 204
42 287
43 65
43 88
43 100
43 102
43 111
43 125
43 136
43 137
44 49
44 68
44 70
44 93
44 101
44 136
44 149
44 202
44 280
44 290
45 113
45 117
45 194
45 207
45 264
45 294
46 51
46 67
46 80
46 81
46 106
46 136
46 152
46 184
46 210
46 218
46 224
46 263
46 296
47 59
47 89
47 100
47 116
47 142
47 149
47 212
47 217
47 257
48 49
48 101
48 128
48 217
48 278
49 51
49 65
49 69
49 93
49 100
49 101
49 113
49 120
49 127
49 290
50 52
50 75
50 91
50 93
50 102
50 109
50 122
50 176
50 199
50 205
50 279
50 297
51 69
51 136
52 80
52 82
52 87
52 107
52 120
52 127
52 209
52 247
52 285
53 59
53 60
53 74
53 76
53 78
53 91
53 98
53 195
53 209
53 232
53 258
53 300
54 77
54 81
54 90
54 96
54 112
54 113
54 114
54 130
54 141
54 143
54 174
54 177
54 214
54 217
54 233
54 248
54 260
54 277
55 151
55 263
56 69
56 70
56 79
56 105
56 134
56 137
56 267
57 106
57 120
57 146
57 149
57 161
57 171
57 209
57 219
58 69
58 70
58 102
58 175
58 219
58 236
58 244
58 248
58 268
58 288
59 78
59 98
59 142
59 145
59 187
59 192
59 214
59 219
59 229
59 232
59 257
60 82
60 87
60 103
60 113
60 139
60 151
60 160
60 176
61 66
61 95
61 100
61 152
61 161
61 180
61 246
61 272
62 80
62 118
62 123
62 137
62 166
62 235
62 285
62 289
63 66
63 104
63 107
63 113
63 114
63 142
63 162
63 295
64 70
64 77
64 87
64 100
64 127
64 133
64 165
64 248
65 88
65 101
65 153
65 262
65 280
66 82
66 84
66 90
66 95
66 96
66 113
66 126
66 142
66 144
66 203
66 216
66 272
66 299
67 106
67 132
67 191
67 224
67 245
67 264
67 278
68 100
68 125
68 134
68 144
68 146
68 159
68 180
68 204
68 224
68 243
69 70
69 90
69 105
69 115
69 137
69 300
70 73
70 101
70 105
70 114
70 129
70 154
70 184
70 243
70 248
70 250
71 99
71 145
71 150
71 274
72 94
72 273
73 98
73 116
73 122
73 151
73 154
73 225
74 98
74 101
74 122
74 129
74 155
74 173
74 176
74 180
74 195
74 244
74 280
75 81
75 91
75 94
75 95
75 96
75 97
75 111
75 128
75 129
75 134
75 159
75 195
75 229
75 254
75 264
76 98
76 195
76 226
77 96
77 130
77 159
77 230
78 98
78 163
78 194
79 113
79 114
79 125
79 157
79 294
80 82
80 262
80 266
81 89
81 190
81 218
81 231
81 233
81 254
81 269
82 95
82 174
82 189
82 221
82 247
82 283
83 119
84 126
84 132
84 248
84 255
85 126
85 134
85 144
85 190
85 234
85 280
85 292
86 109
86 119
86 152
86 165
86 169
86 192
86 232
87 97
87 133
87 160
87 198
87 285
87 286
87 290
88 90
88 102
88 118
88 125
88 132
89 95
89 100
89 113
89 114
89 116
89 146
89 163
89 188
89 189
89 190
89 204
89 270
90 91
90 208
90 228
90 281
90 282
91 109
91 139
91 297
92 287
93 120
93 297
93 298
94 143
94 162
94 163
94 264
94 281
95 100
95 116
95 130
95 146
95 234
95 243
96 113
96 114
96 203
97 133
97 167
97 228
97 250
97 281
98 110
98 120
98 122
98 124
98 133
98 169
98 258
99 150
99 160
99 186
99 281
100 113
100 125
100 134
100 146
100 180
100 224
100 290
101 128
101 129
101 189
102 156
102 191
102 199
102 262
102 279
103 130
103 139
103 213
103 214
103 237
104 107
104 121
104 127
104 129
104 139
104 162
104 164
104 219
104 225
105 183
105 229
106 203
106 229
106 265
106 267
107 150
107 162
107 195
107 231
107 266
107 292
108 154
108 171
109 134
110 120
110 124
110 133
110 299
111 125
111 143
111 147
111 178
111 193
112 113
112 114
112 130
112 141
112 142
112 149
112 175
112 186
112 221
112 230
112 289
113 114
113 116
113 138
113 142
113 194
113 272
114 123
114 125
114 127
114 130
114 135
114 186
114 248
115 139
115 216
115 218
115 249
115 261
116 151
116 203
116 286
117 143
117 166
117 181
117 225
117 262
117 294
118 132
118 137
118 191
118 198
118 273
118 297
119 155
120 178
120 209
121 129
121 136
121 152
121 155
121 162
121 172
121 173
121 211
121 262
122 129
122 161
122 198
122 237
122 241
123 166
123 168
123 200
123 231
124 158
125 134
125 136
125 137
125 164
125 196
125 230
125 277
126 134
126 144
126 205
127 135
127 180
127 241
127 285
127 296
128 136
128 148
128 169
128 175
129 175
129 204
129 212
129 225
129 255
129 257
130 233
130 243
131 173
131 203
131 293
132 264
133 213
133 242
134 137
134 144
134 156
135 198
136 149
136 175
137 185
137 219
138 228
138 276
139 162
139 211
139 216
140 167
140 243
141 148
141 149
141 174
141 186
141 250
142 151
142 186
142 296
143 144
143 147
143 166
143 233
143 271
143 281
144 146
144 234
144 258
144 278
144 292
145 214
146 209
146 220
146 292
147 175
148 227
149 219
149 279
150 238
150 292
151 210
151 212
151 219
151 240
151 263
152 154
152 169
152 172
152 211
152 223
152 230
152 270
152 281
153 188
153 195
153 225
153 231
153 240
153 286
154 188
154 190
154 207
154 211
154 271
154 276
155 203
155 205
155 210
155 211
155 214
155 241
155 253
155 285
155 290
156 174
156 191
156 220
156 238
156 240
156 273
156 275
156 280
157 190
157 213
157 224
158 164
158 169
158 172
158 174
158 217
158 221
158 229
158 236
158 272
158 297
159 162
159 169
159 229
159 247
159 284
160 162
160 174
160 180
160 191
160 204
161 164
161 175
161 180
161 234
161 253
161 258
161 267
162 180
162 207
162 211
162 259
162 282
163 176
163 198
163 249
163 269
163 281
164 169
164 200
164 213
164 214
164 217
164 219
164 220
164 250
164 253
164 280
165 168
165 169
165 217
165 244
166 223
166 256
166 280
166 281
166 291
167 173
167 175
167 180
167 189
167 204
167 267
167 281
168 249
169 172
169 192
169 200
169 210
169 229
169 232
169 244
169 247
169 285
170 187
170 261
171 188
171 195
171 209
172 199
172 299
173 180
173 189
173 201
173 203
174 176
174 183
174 191
174 209
174 219
174 221
174 226
174 241
174 280
174 283
175 251
175 257
175 267
175 289
176 191
176 213
176 238
176 242
176 297
177 233
177 248
177 274
177 290
178 193
178 195
178 209
179 181
179 240
179 244
179 273
180 214
180 231
180 235
180 238
180 246
181 244
182 183
182 206
182 243
182 254
182 275
182 279
183 191
183 221
183 224
183 231
183 250
183 254
183 255
183 267
183 270
183 280
183 281
184 263
184 296
184 297
184 299
184 300
185 190
185 210
185 295
186 206
186 226
186 230
187 196
187 245
187 258
187 274
187 286
188 190
188 195
188 200
188 211
188 285
188 295
189 204
189 211
189 228
189 234
189 266
190 210
190 211
190 213
190 254
190 291
190 292
190 295
191 209
191 213
191 271
191 276
191 278
191 287
192 260
192 293
193 251
193 255
193 293
194 277
195 213
195 266
195 285
195 286
196 205
196 248
196 272
196 274
196 292
196 296
197 230
197 278
198 235
198 248
198 249
198 252
198 268
198 269
198 286
198 287
199 262
199 299
200 241
200 244
200 247
200 285
200 286
201 210
201 212
201 224
201 231
202 208
202 266
202 280
203 216
203 241
203 253
203 267
203 285
204 217
204 234
204 245
204 266
204 270
204 295
205 214
205 241
205 253
205 285
205 297
206 226
206 275
206 281
207 211
207 234
207 259
207 274
207 278
207 282
208 210
208 212
208 228
208 266
208 281
209 271
210 212
210 214
210 217
210 219
210 247
210 253
210 295
211 216
211 228
211 230
211 261
211 262
211 281
212 219
213 242
213 286
214 217
214 237
214 253
214 277
214 285
214 290
215 235
215 248
215 252
216 232
217 236
217 245
217 253
217 260
218 233
218 249
218 254
219 220
219 236
219 280
219 288
220 238
220 250
220 273
221 236
221 247
221 284
222 286
223 241
223 280
224 231
224 243
224 244
226 254
226 280
226 281
227 267
228 256
228 257
228 269
228 271
228 276
229 272
229 281
229 297
230 264
230 277
230 278
231 235
231 250
231 264
231 292
232 268
233 265
233 271
234 243
234 274
235 238
235 264
235 267
235 276
235 288
236 272
237 257
237 300
238 240
238 254
238 264
238 270
238 273
238 293
240 273
241 253
241 276
241 280
241 286
242 299
243 276
244 262
244 286
246 265
246 279
247 252
247 284
248 252
248 264
248 268
248 269
248 274
248 286
248 290
249 261
249 271
249 293
251 255
251 267
251 292
252 295
253 258
253 285
253 290
253 297
254 269
254 270
254 273
254 277
254 281
254 293
257 269
258 274
258 290
260 293
262 265
263 297
266 292
268 300
269 286
271 276
274 286
274 290
274 292
275 279
276 280
278 284
282 289
296 297
*Classes
1
1
1
1
1
1
1
1
1
1
1
1
1
1
1
1
1
1
1
1
1
1
1
1
1
1
1
1
1
1
1
1
1
1
1
1
1
1
1
1
1
1
1
1
1
1
1
1
1
1
1
1
1
1
1
1
1
1
1
1
1
1
1
1
1
1
1
1
1
1
1
1
1
1
1
1
1
1
1
1
1
1
1
1
1
1
1
1
1
1
1
1
1
1
1
1
1
1
1
1
1
1
1
1
1
1
1
1
1
1
1
1
1
1
1
1
1
1
1
1
1
1
1
1
1
1
1
1
1
1
1
1
1
1
1
1
1
1
1
1
1
1
1
1
1
1
1
1
1
1
2
2
2
2
2
2
2
2
2
2
2
2
2
2
2
2
2
2
2
2
2
2
2
2
2
2
2
2
2
2
2
2
2
2
2
2
2
2
2
2
2
2
2
2
2
2
2
2
2
2
2
2
2
2
2
2
2
2
2
2
2
2
2
2
2
2
2
2
2
2
2
2
2
2
2
2
2
2
2
2
2
2
2
2
2
2
2
2
2
2
2
2
2
2
2
2
2
2
2
2
2
2
2
2
2
2
2
2
2
2
2
2
2
2
2
2
2
2
2
2
2
2
2
2
2
2
2
2
2
2
2
2
2
2
2
2
2
2
2
2
2
2
2
2
2
2
2
2
2
2
