*Vertices 300
*Edges
1 21
1 25
1 57
1 67
1 93
1 127
1 134
1 146
1 216
1 217
1 218
1 226
1 231
1 239
1 261
1 262
2 54
2 109
2 188
2 194
2 202
2 212
2 289
3 20
3 52
3 122
3 157
3 162
3 207
3 222
3 281
4 10
4 36
4 40
4 50
4 131
4 135
4 161
4 169
4 177
4 255
4 278
4 283
5 23
5 37
5 46
5 61
5 107
5 121
5 269
5 276
5 277
6 10
6 32
6 58
6 119
6 121
6 198
6 235
6 246
6 247
6 259
7 80
7 181
7 260
7 293
8 21
8 24
8 29
8 58
8 63
8 94
8 151
8 168
8 199
8 260
9 39
9 175
9 236
10 19
10 25
10 32
10 50
10 81
10 88
10 93
10 111
10 122
10 136
10 157
10 168
10 202
10 207
10 235
10 239
10 256
10 259
10 273
10 286
10 297
11 17
11 23
11 43
11 76
11 79
11 81
11 92
11 125
11 139
11 146
11 166
11 170
11 193
11 222
11 223
11 226
11 235
12 16
12 19
12 23
12 44
12 93
12 116
12 161
12 270
12 275
13 14
13 48
13 55
13 63
13 68
13 102
13 112
13 115
13 127
13 169
13 249
13 276
14 28
14 67
14 68
14 70
14 83
14 88
14 127
14 136
14 169
14 175
14 277
14 292
15 20
15 75
15 111
15 129
15 168
15 290
16 44
16 49
16 64
16 68
16 101
16 102
16 113
16 116
16 117
16 169
16 193
16 246
16 281
16 291
17 40
17 54
17 57
17 69
17 122
17 125
17 126
17 216
18 74
18 85
18 91
18 112
18 129
18 220
18 222
18 254
18 259
18 264
18 289
19 25
19 30
19 74
19 93
19 113
19 121
19 181
19 195
19 199
19 224
19 235
19 262
19 280
20 22
20 32
20 48
20 61
20 64
20 104
20 111
20 162
20 200
20 221
20 240
20 244
20 249
20 254
20 282
20 290
21 34
21 59
21 62
21 84
21 113
21 116
21 149
21 168
21 175
21 181
21 215
21 218
21 232
21 239
21 286
22 31
22 42
22 103
22 117
22 120
22 145
22 249
22 264
23 44
23 46
23 68
23 118
23 164
23 169
23 198
23 226
23 250
23 281
23 283
23 297
24 34
24 44
24 54
24 85
24 94
24 149
24 150
24 179
25 47
25 81
25 86
25 127
25 130
25 168
25 215
25 226
25 227
25 250
25 273
26 100
26 167
26 195
26 199
26 210
26 234
26 286
26 288
26 291
27 153
27 204
27 271
28 59
28 67
28 68
28 97
29 63
29 73
29 105
29 130
29 160
29 190
29 250
30 63
30 90
30 94
30 96
30 105
30 165
30 173
30 179
30 181
30 188
30 191
30 223
30 230
30 243
30 260
31 51
31 60
31 71
31 141
31 146
31 239
31 249
31 288
32 69
32 115
32 157
32 221
32 246
32 286
33 37
33 59
33 185
33 297
33 298
34 38
34 52
34 59
34 63
34 69
34 73
34 79
34 84
34 122
34 123
34 138
34 141
34 145
34 149
34 150
34 164
34 175
34 186
34 216
34 221
34 263
34 285
35 97
35 127
35 224
36 46
36 64
36 69
36 126
36 177
36 204
36 255
37 48
37 80
37 185
37 260
37 263
37 268
38 50
38 59
38 68
38 88
38 93
38 138
38 164
38 171
38 239
38 256
38 279
38 283
39 55
39 75
39 103
39 111
39 145
39 258
40 54
40 94
40 95
40 131
40 141
40 157
40 206
40 223
40 272
41 64
41 70
41 209
41 247
41 250
42 47
42 59
42 63
42 66
42 68
42 73
42 76
42 109
42 120
42 172
42 176
42 193
42 209
42 212
42 263
42 270
43 118
43 150
43 201
43 223
43 248
44 64
44 73
44 94
44 130
44 140
44 250
44 275
44 281
44 291
45 139
45 196
45 208
45 253
46 68
46 255
46 277
47 68
47 76
47 82
47 237
48 53
48 96
48 104
48 108
48 115
48 249
48 299
49 50
49 79
49 101
49 135
49 208
49 221
49 231
49 236
49 267
50 66
50 88
50 97
50 111
50 135
50 147
50 201
50 228
50 235
50 242
50 248
51 92
51 141
51 146
51 155
51 170
51 203
51 218
51 288
52 84
52 100
52 122
52 162
52 164
52 172
52 192
52 211
52 235
52 250
52 265
52 266
52 286
53 67
53 88
53 119
53 269
54 94
54 141
55 63
55 88
55 104
55 112
55 127
55 133
55 143
55 184
55 209
55 241
55 249
55 258
56 66
56 69
56 70
56 136
56 162
56 297
56 298
57 82
57 99
57 109
57 119
57 124
57 126
57 134
57 178
57 209
57 218
57 220
58 72
58 91
58 107
58 121
58 179
58 216
58 226
58 267
59 64
59 68
59 110
59 147
59 172
59 181
59 182
59 192
59 195
59 211
59 217
59 231
59 265
59 269
59 275
59 296
60 245
61 132
61 200
61 254
61 299
62 70
62 84
62 90
62 162
62 163
62 186
62 240
62 297
62 299
63 85
63 90
63 212
63 223
63 242
63 260
63 263
63 267
64 73
64 81
64 88
64 105
64 121
64 123
64 128
64 169
64 209
64 245
64 252
64 255
64 265
64 282
65 71
65 86
65 89
65 103
65 120
65 125
65 145
65 170
65 180
65 188
65 227
65 265
65 288
66 71
66 81
66 85
66 86
66 111
66 118
66 121
66 128
66 136
66 137
66 172
66 193
66 227
66 228
66 273
67 68
67 75
67 88
67 97
67 119
67 127
67 141
67 169
67 181
67 200
67 269
67 278
67 286
67 293
68 73
68 93
68 116
68 195
68 226
68 239
68 270
68 283
68 297
69 79
69 99
69 126
69 136
69 221
70 78
70 83
70 136
71 78
71 121
71 125
71 135
71 163
71 256
71 260
71 290
72 91
72 133
72 150
72 151
72 152
72 170
72 183
72 206
72 212
72 216
72 224
72 226
72 237
72 261
72 269
73 81
73 84
73 108
73 130
73 138
73 152
73 164
73 169
73 176
73 262
73 264
73 286
74 159
74 181
74 232
74 262
74 289
75 111
75 115
75 238
76 77
76 82
76 114
76 152
76 171
76 238
76 265
76 266
77 82
77 122
77 131
77 212
77 215
77 216
77 291
78 83
78 121
78 125
78 137
78 157
78 196
78 199
78 234
78 243
78 261
78 285
79 101
79 122
79 263
80 187
80 260
80 267
80 274
81 83
81 85
81 92
81 138
81 171
81 187
81 193
81 247
81 262
81 264
81 273
82 124
82 214
82 222
82 224
82 265
83 88
83 134
83 187
84 91
84 95
84 108
84 162
84 176
84 221
84 222
84 235
84 281
84 286
85 103
85 130
85 152
85 187
85 238
85 260
85 263
85 289
86 89
86 120
86 125
86 162
86 209
86 211
86 227
86 243
86 272
86 288
87 212
87 213
87 261
88 97
88 134
88 178
88 209
88 241
88 269
88 278
89 102
89 122
89 144
89 167
89 171
89 192
89 211
89 233
89 252
89 274
89 298
90 96
90 162
90 222
90 240
91 98
91 100
91 106
91 115
91 126
91 152
91 216
91 222
91 237
92 125
92 136
92 139
92 196
92 262
92 284
93 99
93 127
93 188
93 226
93 256
94 141
94 150
94 179
94 213
94 291
95 272
96 115
96 182
96 227
97 102
97 127
97 137
97 141
97 146
97 170
97 201
97 203
97 224
97 254
97 285
98 118
98 135
98 136
98 166
98 173
98 178
98 233
98 255
99 134
99 188
99 189
99 221
99 231
100 112
100 150
100 155
100 199
100 237
100 246
100 298
101 154
101 210
101 293
102 117
102 127
102 135
102 173
102 181
102 211
102 217
102 222
102 233
102 242
102 245
102 246
102 292
103 111
103 145
103 149
103 263
104 110
104 143
104 204
104 215
104 221
104 235
104 249
104 263
104 271
104 276
105 119
105 121
105 144
105 160
105 200
105 223
106 129
106 145
106 162
106 210
106 222
106 257
106 261
107 121
107 123
107 145
107 258
107 280
108 165
108 191
108 221
108 258
108 264
108 297
109 126
109 130
109 140
109 190
109 217
109 220
109 289
110 126
110 182
110 184
110 185
110 197
110 220
110 240
110 263
110 267
110 282
110 294
110 297
111 115
111 137
111 144
111 171
111 249
111 252
111 274
112 135
112 155
112 184
112 207
112 224
112 280
112 289
113 116
113 172
113 218
113 232
113 265
114 128
114 234
114 274
115 152
115 182
115 222
116 232
116 265
116 270
117 135
117 181
117 198
117 235
117 246
117 289
118 166
118 214
118 228
118 258
118 275
118 287
119 121
119 171
119 218
119 277
120 145
121 125
121 127
121 171
121 223
121 252
121 255
121 266
121 280
122 141
122 144
122 149
122 157
122 167
122 204
122 216
122 231
122 252
122 285
123 131
123 145
123 158
123 195
123 250
123 252
123 281
124 130
124 134
124 140
124 214
124 234
125 143
125 235
125 265
126 195
126 220
126 252
127 141
127 143
127 171
127 181
127 201
127 217
127 224
127 242
127 256
127 290
127 291
127 293
128 136
128 140
128 195
128 209
129 176
129 212
129 248
129 261
129 264
129 281
129 290
130 138
130 140
130 152
130 155
130 218
130 227
130 250
131 145
131 169
131 171
131 206
131 216
131 250
131 256
131 266
132 299
133 143
133 171
133 194
133 197
133 199
133 224
133 234
133 255
134 158
134 161
134 178
134 191
134 205
134 231
134 233
135 145
135 155
135 173
135 181
135 242
135 245
135 260
136 139
136 273
137 144
137 200
137 204
137 234
137 254
137 285
138 164
138 167
138 191
138 198
138 208
138 221
138 247
139 152
139 153
139 183
139 188
139 196
139 198
139 247
139 249
139 258
139 299
140 146
140 210
140 218
140 227
140 231
140 239
140 271
140 291
141 217
142 235
142 249
143 175
143 195
143 252
143 258
143 291
144 157
144 200
144 216
144 218
144 243
144 291
145 170
145 181
145 222
145 263
146 170
146 206
146 216
146 254
146 261
146 264
146 265
146 291
146 296
147 156
147 171
147 242
147 258
147 275
148 232
149 151
149 162
149 164
149 297
150 164
150 212
150 216
150 230
150 248
150 298
151 170
151 185
151 186
151 199
151 234
151 240
151 242
151 294
152 153
152 222
152 238
152 250
153 223
153 243
153 299
154 155
154 225
154 293
154 295
155 173
155 218
155 239
157 159
157 182
157 204
157 250
157 260
157 285
158 161
158 240
158 250
158 253
159 204
159 241
159 285
160 168
160 193
160 232
161 175
161 177
161 187
161 207
161 233
161 270
161 275
161 297
162 164
162 222
162 250
162 256
162 281
163 237
163 240
163 260
164 170
164 191
164 198
164 247
164 256
164 263
165 171
165 191
165 224
165 237
165 252
165 253
165 263
165 264
165 265
165 274
165 295
165 297
166 178
166 180
166 207
166 222
166 233
166 255
167 199
167 233
167 255
167 277
167 297
168 207
168 235
169 170
169 209
169 242
169 252
169 283
170 195
170 200
170 203
170 216
170 242
170 247
170 254
170 265
170 289
171 173
171 187
171 191
171 224
171 226
171 230
171 242
171 245
171 247
171 252
171 256
171 266
171 274
172 176
172 184
172 209
172 212
172 226
172 256
172 264
172 265
172 266
173 230
173 260
173 279
175 199
175 218
175 236
175 239
175 246
175 259
175 269
175 297
176 184
176 195
176 200
176 241
176 261
176 267
176 281
177 278
178 217
178 267
178 275
178 284
179 209
179 213
179 239
179 268
179 273
180 256
180 288
181 182
181 195
181 199
181 231
181 269
181 296
182 204
182 282
183 226
183 254
184 185
184 235
184 249
185 216
185 240
185 244
185 267
185 282
185 297
185 298
186 203
186 222
186 242
186 294
187 263
187 274
188 223
188 299
189 213
189 221
190 217
190 281
190 289
190 294
191 205
191 221
191 223
191 226
191 231
191 253
191 274
192 211
192 278
193 214
193 232
193 298
194 197
194 202
194 212
195 199
195 200
195 201
195 203
195 211
195 216
195 252
196 211
196 223
196 227
196 243
196 257
196 258
198 247
199 234
199 297
200 201
200 248
200 249
200 269
201 215
201 230
201 241
201 242
201 248
201 252
202 259
202 264
203 294
204 271
205 214
205 231
206 226
206 269
207 233
207 256
207 280
208 221
208 284
208 298
209 218
209 241
209 268
209 272
210 227
210 288
210 293
211 217
211 227
211 275
211 295
212 216
212 224
212 261
212 270
213 240
213 257
213 273
214 220
215 216
215 218
215 249
215 259
215 291
216 231
216 247
216 261
216 285
217 230
217 241
217 248
217 281
218 235
218 239
218 246
218 286
218 299
220 262
220 282
221 253
221 255
222 223
222 233
222 245
222 250
222 253
222 261
222 292
222 294
223 243
223 248
224 234
224 246
224 252
224 280
224 281
224 291
226 245
226 247
226 256
226 262
226 264
226 265
227 243
227 257
227 258
227 271
227 288
229 234
229 237
229 287
230 248
230 252
230 264
230 267
230 271
230 277
230 292
231 236
231 239
231 267
231 271
232 247
232 289
232 298
233 252
233 294
234 237
235 246
235 249
236 237
236 267
237 246
237 287
237 295
238 249
238 269
238 283
238 299
239 254
239 273
239 288
239 299
240 244
240 297
240 298
241 248
241 252
241 264
241 266
241 272
241 281
241 285
242 256
242 260
242 291
246 286
247 264
247 266
247 289
247 292
248 264
249 263
249 271
249 276
249 283
249 299
250 252
250 253
250 256
250 260
250 281
250 287
250 294
251 283
252 256
252 266
252 274
253 264
256 266
256 273
256 287
256 288
256 290
257 293
258 275
259 263
259 264
259 295
260 267
260 281
260 292
261 281
262 265
262 270
263 264
263 265
263 271
263 274
263 276
264 265
264 266
264 276
264 281
267 275
267 277
267 281
267 292
268 274
268 300
271 279
271 283
273 289
274 276
275 281
275 287
275 295
277 289
277 292
278 286
279 283
282 294
286 291
288 299
289 292
289 298
290 291
290 296
297 298
*Classes
1
1
1
1
1
1
1
1
1
1
1
1
1
1
1
1
1
1
1
1
1
1
1
1
1
1
1
1
1
1
1
1
1
1
1
1
1
1
1
1
1
1
1
1
1
1
1
1
1
1
1
1
1
1
1
1
1
1
1
1
1
1
1
1
1
1
1
1
1
1
1
1
1
1
1
1
1
1
1
1
1
1
1
1
1
1
1
1
1
1
1
1
1
1
1
1
1
1
1
1
1
1
1
1
1
1
1
1
1
1
1
1
1
1
1
1
1
1
1
1
1
1
1
1
1
1
1
1
1
1
1
1
1
1
1
1
1
1
1
1
1
1
1
1
1
1
1
1
1
1
2
2
2
2
2
2
2
2
2
2
2
2
2
2
2
2
2
2
2
2
2
2
2
2
2
2
2
2
2
2
2
2
2
2
2
2
2
2
2
2
2
2
2
2
2
2
2
2
2
2
2
2
2
2
2
2
2
2
2
2
2
2
2
2
2
2
2
2
2
2
2
2
2
2
2
2
2
2
2
2
2
2
2
2
2
2
2
2
2
2
2
2
2
2
2
2
2
2
2
2
2
2
2
2
2
2
2
2
2
2
2
2
2
2
2
2
2
2
2
2
2
2
2
2
2
2
2
2
2
2
2
2
2
2
2
2
2
2
2
2
2
2
2
2
2
2
2
2
2
2
