*Vertices 300
*Edges
1 7
1 8
1 30
1 48
1 124
1 146
1 158
1 176
1 199
1 211
1 214
1 228
1 246
1 269
1 279
1 282
2 72
2 208
2 237
2 271
3 50
3 111
3 156
3 178
3 239
3 282
3 295
4 49
4 115
4 188
4 189
4 202
4 203
4 212
4 228
4 277
4 297
5 28
5 42
5 115
5 124
5 132
5 159
5 226
5 227
5 236
5 254
5 292
6 277
7 97
7 107
7 124
7 191
7 197
7 214
7 234
7 245
8 22
8 39
8 48
8 63
8 97
8 157
8 179
8 205
8 211
8 218
8 256
8 281
9 18
9 37
9 65
9 100
9 148
9 163
9 199
9 247
9 271
10 11
10 29
10 38
10 59
10 114
10 151
10 250
10 254
10 259
10 275
10 297
11 15
11 23
11 77
11 80
11 111
11 119
11 140
11 146
11 151
11 163
11 208
11 222
11 241
11 297
12 87
12 135
12 283
13 28
13 42
13 66
13 86
13 113
13 142
13 156
13 190
13 247
13 259
13 288
13 292
14 26
14 67
14 85
14 114
14 159
14 173
14 195
14 199
14 210
14 217
14 226
14 251
14 253
14 262
15 31
15 54
15 78
15 165
15 175
15 184
15 255
15 287
16 51
16 75
16 140
16 207
16 249
17 114
17 132
17 189
17 231
17 250
18 208
18 237
18 271
19 20
19 67
19 102
19 142
19 170
19 283
20 74
20 96
20 102
20 123
20 130
20 137
20 215
20 235
20 287
21 22
21 35
21 41
21 72
21 74
21 75
21 126
21 130
21 137
21 170
21 179
21 203
21 234
21 285
21 292
22 39
22 138
22 154
22 172
22 285
23 69
23 80
23 139
23 140
23 158
23 174
24 37
24 48
24 97
24 165
24 235
24 271
25 33
25 44
25 45
25 49
25 85
25 95
25 114
25 166
25 174
25 193
26 31
26 33
26 42
26 67
26 91
26 122
26 135
26 147
26 199
26 236
26 265
26 268
26 280
26 283
27 36
27 68
27 81
27 176
27 214
28 31
28 42
28 65
28 66
28 74
28 82
28 105
28 109
28 118
28 143
28 155
28 156
28 168
28 185
28 208
28 257
28 282
29 30
29 58
29 107
29 120
29 254
29 270
30 199
30 225
30 265
31 41
31 54
31 76
31 109
31 110
31 149
31 152
31 155
31 191
31 199
31 202
31 247
31 250
31 276
31 297
31 299
32 67
32 104
32 144
32 167
32 170
32 274
32 289
32 299
33 44
33 48
33 49
33 95
33 164
33 167
33 176
33 179
33 199
33 248
34 84
34 209
34 215
35 50
35 80
35 111
35 137
35 156
35 224
35 251
35 293
36 81
36 144
36 299
37 85
37 149
37 235
37 271
37 282
38 50
38 114
38 118
38 129
38 172
39 172
39 274
40 42
40 68
40 83
40 93
40 120
40 169
40 176
40 209
40 220
40 238
40 239
40 277
41 54
41 76
41 112
41 131
41 194
41 213
41 247
41 252
41 292
42 65
42 68
42 115
42 220
42 254
42 292
43 60
43 85
43 149
43 181
43 193
43 205
43 233
43 248
43 254
43 297
44 45
44 85
44 114
44 179
44 220
44 266
45 87
45 114
45 156
46 62
46 131
46 180
46 274
47 124
47 132
47 133
47 224
47 234
47 240
47 241
47 252
48 49
48 67
48 85
48 97
48 115
48 167
48 199
48 262
48 269
48 281
48 285
49 57
49 136
49 148
49 164
49 176
49 218
49 221
49 248
49 261
49 297
49 298
50 111
50 118
50 122
50 129
50 147
50 148
50 172
50 261
50 288
51 52
51 112
51 148
51 161
51 182
51 187
51 206
51 213
51 215
51 225
51 233
51 249
51 252
51 296
52 56
52 76
52 86
52 100
52 110
52 112
52 174
52 175
52 205
52 208
52 226
52 272
53 57
53 73
53 88
53 90
53 112
53 123
53 172
53 221
53 229
53 274
53 279
54 123
54 165
54 250
54 255
54 256
54 283
54 297
55 96
55 181
55 217
56 58
56 67
56 171
56 211
56 270
56 299
57 69
57 73
57 117
57 136
57 145
57 158
57 162
57 191
57 203
57 227
57 244
57 255
57 298
58 162
58 209
58 239
58 246
58 270
59 99
59 105
59 118
59 220
59 222
59 254
59 294
60 110
60 232
61 146
61 155
61 168
61 211
62 120
62 121
62 129
62 132
62 163
62 167
62 239
62 247
62 258
62 274
62 278
62 287
63 79
63 102
63 173
63 179
63 187
63 262
63 265
63 276
64 70
64 138
64 195
64 226
64 288
65 82
65 115
65 148
65 169
65 199
65 204
65 230
65 267
66 197
66 223
66 259
66 270
67 76
67 112
67 144
67 167
67 188
67 199
67 200
67 274
68 72
68 75
68 83
68 93
68 99
68 116
68 118
68 135
68 149
68 155
68 176
68 220
68 238
68 276
69 92
69 98
69 117
69 132
69 144
69 171
69 217
69 219
70 138
70 191
70 197
71 80
71 172
71 179
71 185
71 250
71 287
71 293
72 75
72 140
72 153
72 179
72 213
72 237
72 249
72 251
72 258
73 90
73 171
73 197
73 221
73 285
74 76
74 82
74 118
74 152
74 174
74 194
74 203
74 264
75 85
75 99
75 103
75 140
75 153
75 155
75 198
75 205
75 239
75 249
75 276
75 277
76 87
76 108
76 112
76 148
76 202
76 214
76 245
76 255
76 285
77 80
77 122
77 203
77 219
77 231
77 251
78 82
78 108
78 163
79 181
80 106
80 111
80 119
80 140
80 144
80 179
80 185
80 208
80 222
80 234
80 241
80 257
80 295
81 105
81 125
81 223
81 273
82 105
82 113
83 118
83 119
83 231
83 236
83 251
83 271
84 134
84 161
84 179
84 206
84 209
84 252
84 256
84 264
84 269
84 280
85 91
85 97
85 103
85 115
85 166
85 193
85 210
85 232
85 288
86 112
86 123
86 137
86 142
86 184
86 186
86 220
86 266
87 97
87 98
87 105
87 106
87 135
87 140
87 214
87 258
87 263
87 285
87 286
88 90
88 122
88 203
88 259
88 276
89 148
89 149
89 151
89 162
89 175
89 179
89 210
89 245
89 262
89 285
90 127
90 147
90 188
90 202
90 211
90 229
91 101
91 115
91 134
91 221
91 222
91 290
92 104
92 121
92 144
92 167
92 213
92 270
92 288
93 120
93 169
93 187
93 209
93 268
94 101
94 180
94 184
94 200
94 258
95 176
96 99
96 166
96 213
96 215
96 217
97 105
97 157
97 191
97 192
97 198
97 265
98 106
98 122
98 132
98 135
98 140
98 147
98 173
98 196
98 217
98 236
98 263
99 136
99 142
99 154
99 175
99 183
99 198
99 213
99 242
99 244
99 255
99 273
99 275
99 294
100 112
100 120
100 121
100 167
100 178
100 199
100 232
100 269
100 280
100 285
101 183
101 258
101 260
101 284
102 130
102 144
102 195
102 233
103 176
103 179
103 186
103 193
103 214
103 259
103 275
104 131
104 170
104 184
104 258
104 278
105 155
105 223
105 273
106 118
106 132
106 140
106 170
106 222
106 262
107 108
107 214
108 190
108 202
109 128
109 155
110 152
110 191
110 226
110 253
111 147
111 199
111 222
111 293
112 123
112 131
112 158
112 161
112 167
112 202
112 215
112 220
112 256
113 139
113 164
113 209
113 290
114 173
114 220
114 250
114 277
115 146
115 181
115 201
115 221
115 228
115 244
115 288
115 294
115 298
116 170
116 226
116 258
116 276
117 158
117 197
117 217
117 223
117 252
118 119
118 129
118 170
118 203
118 222
118 223
118 264
119 144
119 185
119 194
119 223
119 235
119 270
119 286
119 295
120 121
120 129
120 163
120 196
120 197
120 215
120 255
120 287
120 293
121 129
121 144
121 175
121 203
121 215
121 255
122 147
122 173
122 203
122 219
122 227
123 129
123 158
123 215
123 249
123 256
123 287
124 132
124 234
124 289
125 146
125 166
125 201
125 217
126 130
126 154
126 289
127 202
127 211
127 232
127 270
128 147
128 174
128 202
128 272
128 281
129 161
129 189
129 192
129 201
129 223
129 271
129 290
129 298
130 139
130 258
130 278
131 169
131 184
131 194
131 225
131 241
131 247
131 256
131 288
132 236
132 239
132 244
132 274
133 134
133 214
133 217
133 263
134 190
134 217
134 296
134 300
135 265
136 164
136 200
136 203
136 205
136 210
136 244
136 275
137 142
137 190
137 215
138 226
138 268
138 283
139 258
139 295
140 198
140 208
140 294
141 163
141 186
141 208
141 225
141 292
142 283
143 177
143 185
143 249
143 254
143 273
144 195
144 278
144 299
145 203
146 177
146 181
146 206
146 249
146 288
147 175
147 195
147 202
147 252
148 153
148 167
148 195
148 202
148 206
148 218
148 238
148 245
148 248
148 254
148 261
148 298
149 155
149 169
149 182
149 205
149 282
150 198
150 214
150 282
151 158
151 282
152 209
152 297
152 299
153 178
153 204
153 235
153 238
153 296
154 205
154 233
154 273
155 169
155 176
155 182
155 191
155 293
156 190
156 206
156 239
156 286
157 191
157 197
157 218
157 300
158 162
158 219
158 223
158 236
158 256
158 282
159 207
159 216
159 246
159 283
160 241
160 252
160 286
161 184
161 186
161 256
162 166
162 169
162 217
162 223
162 238
163 196
163 258
163 280
163 292
164 200
164 209
164 277
164 291
165 180
165 212
165 236
165 240
165 252
165 255
166 177
166 193
166 217
166 266
166 268
167 177
167 179
167 183
167 248
167 260
167 288
168 172
168 185
168 203
168 255
169 194
169 217
169 293
170 276
171 270
171 272
171 281
171 285
173 182
173 204
174 194
174 205
174 220
174 231
174 288
174 300
175 195
175 252
175 255
175 262
176 214
176 226
176 232
176 295
177 193
177 206
177 224
177 247
177 249
177 262
177 266
177 288
177 298
178 208
178 232
178 235
179 187
179 224
179 262
179 276
180 184
180 296
181 243
181 245
182 204
182 217
182 296
183 242
183 270
183 272
183 278
183 284
183 298
184 186
184 199
184 214
184 264
185 257
185 270
185 273
186 248
186 264
187 225
187 268
187 295
188 202
188 248
188 249
188 260
188 286
189 223
189 228
189 298
190 206
190 259
190 275
191 197
191 228
191 249
191 287
191 296
192 198
192 223
192 253
192 298
194 198
194 205
194 235
194 288
194 293
195 199
195 233
195 252
195 254
195 255
196 263
197 223
197 287
197 289
198 205
198 214
198 282
199 214
199 241
199 247
199 252
199 254
199 287
199 288
199 293
200 239
200 277
201 298
203 212
203 250
203 255
203 274
204 267
205 233
205 241
205 248
205 272
205 277
205 278
205 288
205 297
206 218
207 216
207 245
208 216
208 226
208 237
208 257
209 218
210 234
210 300
211 270
212 236
212 253
213 219
213 247
213 252
213 274
214 263
215 220
216 229
216 237
216 246
216 259
217 224
217 225
217 262
217 268
217 296
218 245
218 254
218 280
218 300
219 274
220 231
220 266
220 272
220 278
221 294
222 291
224 234
224 251
224 253
224 262
224 272
224 288
224 292
224 298
225 256
225 265
225 268
225 283
225 292
225 295
226 237
226 258
226 278
227 244
228 291
229 249
229 250
229 277
229 300
230 259
230 272
230 298
231 239
231 251
231 255
231 270
232 280
234 243
234 245
234 292
235 238
236 253
237 259
238 267
238 296
239 255
239 258
239 277
241 247
241 252
241 272
243 245
243 299
245 259
245 275
246 269
246 285
247 274
247 288
247 297
248 260
248 264
248 297
249 284
249 296
249 300
250 272
250 274
250 277
250 278
250 283
251 258
251 278
251 293
252 256
252 280
253 298
254 297
258 277
258 278
258 280
258 291
259 264
259 275
260 291
262 268
262 296
262 297
264 277
264 291
264 297
266 288
267 287
267 289
268 283
268 292
269 285
270 299
271 299
272 278
272 281
272 298
273 290
274 277
274 279
277 291
278 298
278 299
279 288
284 295
284 296
286 295
287 289
287 293
288 300
297 298
*Classes
1
1
1
1
1
1
1
1
1
1
1
1
1
1
1
1
1
1
1
1
1
1
1
1
1
1
1
1
1
1
1
1
1
1
1
1
1
1
1
1
1
1
1
1
1
1
1
1
1
1
1
1
1
1
1
1
1
1
1
1
1
1
1
1
1
1
1
1
1
1
1
1
1
1
1
1
1
1
1
1
1
1
1
1
1
1
1
1
1
1
1
1
1
1
1
1
1
1
1
1
1
1
1
1
1
1
1
1
1
1
1
1
1
1
1
1
1
1
1
1
1
1
1
1
1
1
1
1
1
1
1
1
1
1
1
1
1
1
1
1
1
1
1
1
1
1
1
1
1
1
2
2
2
2
2
2
2
2
2
2
2
2
2
2
2
2
2
2
2
2
2
2
2
2
2
2
2
2
2
2
2
2
2
2
2
2
2
2
2
2
2
2
2
2
2
2
2
2
2
2
2
2
2
2
2
2
2
2
2
2
2
2
2
2
2
2
2
2
2
2
2
2
2
2
2
2
2
2
2
2
2
2
2
2
2
2
2
2
2
2
2
2
2
2
2
2
2
2
2
2
2
2
2
2
2
2
2
2
2
2
2
2
2
2
2
2
2
2
2
2
2
2
2
2
2
2
2
2
2
2
2
2
2
2
2
2
2
2
2
2
2
2
2
2
2
2
2
2
2
2
