*Vertices 300
*Edges
1 3
1 79
1 98
1 101
1 103
1 134
2 15
2 187
2 190
2 229
2 233
2 243
3 18
3 68
3 98
3 146
3 162
3 171
3 243
4 25
4 45
4 53
4 106
4 114
4 131
4 176
4 180
4 181
4 194
4 207
4 255
4 266
4 273
4 277
4 287
5 13
5 25
5 30
5 64
5 71
5 72
5 87
5 89
5 100
5 109
5 166
5 174
5 246
5 254
5 265
5 279
5 283
6 10
6 16
6 28
6 33
6 67
6 91
6 99
6 105
6 148
6 205
6 244
6 281
7 33
7 69
7 70
7 82
7 108
7 237
7 276
8 19
8 74
8 83
8 188
8 263
8 278
8 288
8 291
9 13
9 17
9 54
9 71
9 180
9 210
9 243
9 256
10 148
10 161
10 236
10 283
11 18
11 87
11 124
11 158
11 160
11 198
11 242
11 273
12 24
12 26
12 45
12 51
12 52
12 60
12 84
12 104
12 115
12 117
12 162
12 182
12 217
12 223
12 246
12 267
12 280
12 289
12 296
13 27
13 71
13 89
13 147
13 202
13 218
13 241
13 251
14 86
14 114
14 138
14 149
14 164
14 175
14 214
14 223
14 228
14 239
14 266
14 288
15 26
15 56
15 132
15 161
15 189
15 208
15 226
15 229
15 266
15 278
16 31
16 99
16 201
16 236
16 245
16 261
16 274
16 291
17 54
17 59
17 81
17 95
17 257
17 267
17 278
17 291
17 300
18 68
18 87
18 91
18 158
18 160
18 198
18 200
18 217
18 260
18 265
18 276
18 290
19 63
19 83
19 87
19 188
19 204
20 24
20 28
20 50
20 58
20 62
20 76
20 80
20 83
20 121
20 170
20 203
20 206
20 209
20 217
20 218
20 263
20 277
21 28
21 30
21 33
21 70
21 105
21 125
21 205
21 260
21 269
22 84
22 98
22 128
22 227
22 232
22 292
23 51
23 84
23 87
23 90
23 93
23 99
23 130
23 134
23 136
23 179
23 196
23 213
23 242
23 247
23 261
23 281
24 32
24 51
24 114
24 117
24 143
24 193
24 217
24 246
24 252
24 258
25 86
25 87
25 89
25 100
25 109
25 166
25 249
25 276
25 297
26 38
26 53
26 88
26 104
26 126
26 161
26 288
27 46
27 58
27 68
27 89
27 97
27 113
27 115
27 120
27 157
28 42
28 55
28 70
28 76
28 79
28 80
28 92
28 105
28 120
28 125
28 142
28 265
28 267
29 42
29 65
29 73
29 75
29 94
29 105
29 111
29 168
29 208
29 227
30 32
30 66
30 78
30 89
30 101
30 108
30 127
30 180
30 260
31 52
31 59
31 72
31 84
31 99
31 110
31 129
31 133
31 159
31 225
31 271
31 286
31 296
32 66
32 73
32 78
32 108
32 145
32 222
32 266
33 40
33 42
33 47
33 52
33 62
33 82
33 108
33 112
33 275
33 277
33 281
33 282
33 284
34 100
34 199
34 293
35 54
35 83
35 87
35 90
35 102
35 152
35 168
35 214
36 101
36 113
36 178
36 182
36 191
36 199
36 280
37 77
37 110
37 141
37 174
37 178
37 191
37 202
37 213
37 218
37 297
38 62
38 81
38 88
38 104
38 126
38 139
39 184
39 196
39 263
40 47
40 157
40 187
40 196
40 221
40 282
41 61
41 122
41 162
41 224
41 274
42 46
42 61
42 78
42 79
42 94
42 111
42 160
42 213
42 284
43 169
43 172
43 239
44 52
44 66
44 79
44 91
44 92
44 96
44 124
44 212
45 56
45 61
45 79
45 114
45 131
45 144
45 186
45 194
45 199
45 202
45 213
45 219
45 287
45 295
46 111
46 113
46 120
46 154
46 231
46 294
47 68
47 153
47 198
47 202
47 235
47 275
47 282
48 65
48 72
48 103
48 150
48 162
48 215
48 228
48 235
48 246
48 270
48 283
49 79
49 112
49 121
49 134
49 197
49 213
49 231
49 296
50 65
50 104
50 121
50 170
50 207
50 217
50 252
50 276
51 99
51 109
51 117
51 125
51 150
51 156
51 174
51 228
51 235
51 268
51 276
52 72
52 79
52 82
52 91
52 104
52 105
52 153
52 171
52 177
52 225
53 135
53 153
53 174
53 230
53 250
53 252
53 273
54 202
54 280
54 292
55 92
55 105
55 120
55 256
55 267
56 60
56 123
56 124
56 144
56 189
56 200
56 234
56 242
56 259
56 262
56 289
56 295
57 66
57 133
57 188
57 216
58 63
58 82
58 120
58 125
58 138
58 170
58 189
58 199
58 217
58 255
58 260
58 298
59 74
59 81
59 133
59 143
59 146
59 163
59 235
59 253
59 264
59 288
60 63
60 104
60 109
60 131
60 179
60 236
60 257
60 259
61 73
61 78
61 182
61 202
61 208
62 66
62 80
62 139
62 143
62 163
62 172
62 188
62 239
62 281
63 67
63 82
63 83
63 131
63 201
63 257
63 274
63 281
64 87
64 102
64 109
64 133
64 162
64 183
64 267
65 72
65 73
65 109
65 170
65 208
65 227
65 230
65 231
65 290
66 80
66 139
66 143
66 145
66 149
66 188
66 235
67 105
67 107
67 110
67 131
67 167
67 200
67 212
67 245
67 257
67 284
68 113
68 115
68 120
68 171
68 205
68 218
68 235
68 296
69 70
69 145
69 170
69 174
69 193
69 252
69 261
69 270
70 125
70 165
70 172
70 237
71 109
71 110
71 191
71 210
72 77
72 99
72 103
72 109
72 112
72 170
72 187
72 201
72 250
72 255
73 109
73 165
73 274
74 84
74 98
74 147
74 188
74 204
74 209
74 255
75 97
75 101
75 111
75 235
75 269
76 80
76 114
76 143
76 144
76 233
76 246
76 262
76 287
76 291
77 96
77 103
77 112
77 121
77 124
77 127
77 241
77 275
78 94
78 101
78 117
78 127
78 152
78 167
78 180
78 196
79 103
79 105
79 120
79 134
79 142
79 206
79 228
79 249
80 83
80 88
80 139
80 144
80 201
80 218
80 233
81 107
81 143
82 104
82 127
82 138
82 139
82 152
82 169
82 189
82 228
83 87
83 88
83 131
83 238
83 260
84 98
84 99
84 101
84 115
84 128
84 160
84 179
84 223
84 245
84 298
84 300
85 96
85 205
85 210
85 213
85 258
86 87
86 104
86 121
86 123
86 157
86 196
86 218
86 241
86 255
86 266
87 90
87 130
87 152
87 175
87 217
87 238
87 266
88 151
88 218
88 262
88 275
89 109
89 120
89 220
89 232
89 241
89 251
89 265
89 288
90 93
90 130
90 150
90 179
90 187
90 213
90 220
90 223
90 237
91 92
91 124
91 196
91 204
91 265
92 120
92 193
92 267
92 297
93 96
93 107
93 115
93 165
93 176
93 186
93 188
93 211
93 247
94 111
94 162
94 168
94 289
95 98
95 101
95 120
95 146
95 168
95 182
95 210
95 255
95 300
96 107
96 117
96 121
96 124
96 127
96 137
96 210
96 257
97 101
97 113
97 153
97 162
98 99
98 101
98 146
98 216
99 105
99 128
99 136
99 148
99 171
99 209
99 225
99 237
99 245
99 260
100 139
100 166
100 214
100 249
100 259
100 276
101 111
101 210
102 214
102 263
102 283
102 287
103 170
103 181
103 201
103 250
103 254
103 290
104 105
104 121
104 156
104 161
104 166
104 179
104 291
105 244
105 264
106 138
106 158
106 169
106 186
106 266
107 115
107 143
107 147
107 186
107 200
107 247
108 143
108 189
108 267
109 132
109 174
109 195
109 203
109 246
109 282
110 129
110 191
110 257
111 116
111 154
111 168
111 172
111 179
111 235
111 295
112 121
112 124
112 140
112 157
112 275
112 289
113 115
113 254
113 289
114 125
114 138
114 143
114 172
114 175
114 199
114 239
114 268
115 117
115 128
115 147
115 179
115 280
116 162
116 166
116 192
116 217
117 127
117 150
117 174
117 176
117 228
117 258
117 259
117 269
117 280
118 251
118 259
118 281
119 138
119 141
119 144
119 153
119 235
120 125
120 133
120 146
120 157
120 198
120 260
120 290
121 156
121 158
121 253
121 291
122 188
122 212
123 124
123 145
123 218
123 241
123 262
124 131
124 140
124 158
124 176
124 182
124 255
124 268
125 139
125 193
125 201
125 205
125 215
125 225
125 268
125 285
126 183
127 152
127 176
127 193
127 211
127 213
127 269
128 242
128 295
129 133
129 149
129 159
130 132
130 153
130 223
130 253
130 299
131 181
131 186
131 255
131 271
131 279
131 281
131 286
132 160
132 223
133 146
133 162
133 181
133 197
133 206
133 211
133 243
133 255
133 258
133 272
133 280
133 289
134 197
134 249
135 155
135 175
135 180
135 271
136 172
136 205
136 220
136 235
136 284
136 292
137 200
137 233
137 274
137 276
138 139
138 165
138 169
138 202
138 213
138 270
138 286
139 163
139 171
139 214
139 251
139 287
140 156
140 177
140 180
140 247
140 268
141 144
141 157
141 192
141 241
141 246
141 276
142 295
143 158
143 217
144 192
144 221
144 234
144 245
144 249
145 149
145 174
145 176
145 207
145 261
146 167
146 255
146 290
148 237
148 239
149 180
149 227
149 229
149 250
149 255
149 263
149 266
149 272
149 286
149 290
149 295
150 235
150 237
151 176
151 182
151 185
151 201
151 206
151 207
151 219
151 220
151 273
152 228
152 232
152 269
152 276
153 169
153 171
153 174
153 183
153 198
153 202
153 224
153 234
153 253
153 264
154 155
154 175
154 193
154 240
154 258
154 277
155 254
156 177
156 268
156 300
157 187
157 192
157 212
157 246
157 254
157 279
157 283
158 185
158 197
158 209
158 217
159 230
159 231
159 241
159 275
160 171
160 172
160 182
160 217
160 223
161 226
161 236
161 286
162 192
162 210
162 246
163 239
163 251
163 288
164 181
164 208
164 264
164 288
165 172
165 213
165 269
165 298
166 171
166 185
166 187
166 192
166 197
166 208
166 231
166 291
166 297
167 184
167 200
167 271
168 227
168 265
169 201
169 224
169 243
169 253
169 265
169 278
170 174
170 176
170 216
170 230
170 252
170 254
171 182
171 185
171 191
171 208
171 236
171 241
171 251
171 260
171 276
171 296
172 180
172 208
172 217
172 234
172 239
172 271
172 295
173 251
174 213
174 216
174 252
175 180
175 207
175 238
175 240
175 253
175 262
175 264
175 277
175 284
175 287
176 182
176 185
176 186
176 189
176 207
176 211
176 219
176 230
176 240
176 295
177 179
177 183
177 191
177 280
177 300
178 197
178 209
178 233
178 243
178 245
178 288
179 183
179 191
179 194
179 202
179 293
180 200
180 207
180 208
180 217
180 220
180 236
180 250
180 252
180 267
180 277
181 221
181 254
181 277
181 280
181 282
181 288
181 289
182 208
182 280
182 297
183 202
183 231
184 200
184 235
184 263
184 282
184 294
185 193
185 207
185 210
185 211
185 217
185 260
185 280
186 206
186 207
186 238
186 261
187 197
187 212
187 252
187 254
187 276
187 279
188 204
188 209
188 229
188 237
188 248
189 211
189 279
190 217
190 233
190 277
190 284
190 287
191 199
191 202
191 217
191 280
191 297
191 299
192 248
192 256
192 271
192 278
193 217
193 258
194 293
195 199
195 215
195 248
195 278
195 285
196 204
196 213
196 224
196 260
196 261
197 209
197 213
197 256
198 242
198 293
198 299
199 202
199 216
199 248
199 280
199 298
200 208
200 212
200 217
200 238
200 263
200 267
200 271
200 280
200 286
200 287
201 207
201 261
201 265
201 266
201 274
201 278
201 294
202 204
202 241
202 280
202 286
203 263
204 222
204 241
204 248
204 250
205 296
206 207
206 217
207 208
207 220
207 234
207 242
207 271
207 273
207 274
207 278
207 294
208 236
208 248
209 237
209 288
210 213
210 237
210 248
210 263
210 273
211 257
211 258
212 282
213 263
213 269
213 273
213 294
214 279
214 283
215 235
215 272
215 285
216 255
216 298
217 221
217 277
217 280
218 235
219 222
219 240
219 278
219 295
220 250
220 271
220 283
221 249
221 254
221 271
221 277
221 282
221 286
222 250
222 255
225 285
225 296
226 264
226 286
227 232
227 265
227 266
227 299
229 248
229 272
230 231
230 250
230 274
231 296
232 244
232 276
232 288
233 274
234 253
234 271
234 278
234 295
235 246
235 282
235 288
236 258
236 259
236 286
237 239
238 253
238 256
238 261
238 267
238 287
240 261
241 250
241 260
242 271
242 281
242 295
242 299
243 245
243 272
245 257
246 252
246 262
246 270
246 283
247 262
248 263
248 278
248 285
250 252
250 255
250 264
250 283
250 291
251 259
252 264
252 276
252 284
252 291
253 262
253 264
253 285
254 277
254 279
255 281
256 261
256 297
257 272
257 284
258 259
259 289
260 276
260 284
261 265
263 267
263 287
265 278
266 274
266 296
266 298
267 287
267 291
271 278
271 286
271 295
271 299
272 273
276 284
276 288
277 280
277 284
277 287
278 291
282 286
282 292
282 294
283 285
286 294
292 294
295 299
297 299
*Classes
1
1
1
1
1
1
1
1
1
1
1
1
1
1
1
1
1
1
1
1
1
1
1
1
1
1
1
1
1
1
1
1
1
1
1
1
1
1
1
1
1
1
1
1
1
1
1
1
1
1
1
1
1
1
1
1
1
1
1
1
1
1
1
1
1
1
1
1
1
1
1
1
1
1
1
1
1
1
1
1
1
1
1
1
1
1
1
1
1
1
1
1
1
1
1
1
1
1
1
1
1
1
1
1
1
1
1
1
1
1
1
1
1
1
1
1
1
1
1
1
1
1
1
1
1
1
1
1
1
1
1
1
1
1
1
1
1
1
1
1
1
1
1
1
1
1
1
1
1
1
2
2
2
2
2
2
2
2
2
2
2
2
2
2
2
2
2
2
2
2
2
2
2
2
2
2
2
2
2
2
2
2
2
2
2
2
2
2
2
2
2
2
2
2
2
2
2
2
2
2
2
2
2
2
2
2
2
2
2
2
2
2
2
2
2
2
2
2
2
2
2
2
2
2
2
2
2
2
2
2
2
2
2
2
2
2
2
2
2
2
2
2
2
2
2
2
2
2
2
2
2
2
2
2
2
2
2
2
2
2
2
2
2
2
2
2
2
2
2
2
2
2
2
2
2
2
2
2
2
2
2
2
2
2
2
2
2
2
2
2
2
2
2
2
2
2
2
2
2
2
