*Vertices 300
*Edges
1 6
1 12
1 13
1 20
1 22
1 24
1 47
1 61
1 78
1 98
1 181
1 186
1 187
1 204
1 231
1 263
2 34
2 43
2 61
2 62
2 90
2 105
2 131
2 137
2 139
2 156
2 188
2 204
2 245
2 251
2 254
2 255
2 280
3 69
3 78
3 100
3 159
3 178
3 196
3 207
3 224
3 254
3 282
3 283
4 31
4 35
4 86
4 147
4 187
4 263
4 288
5 47
5 241
5 252
6 12
6 22
6 65
6 78
6 93
6 263
6 300
7 27
7 32
7 37
7 52
7 142
7 166
7 176
7 214
7 245
7 251
7 278
8 13
8 20
8 22
8 63
8 96
8 108
8 130
8 143
8 152
8 169
8 174
8 187
8 269
8 294
9 19
9 29
9 32
9 49
9 91
9 113
9 148
9 157
9 277
9 295
10 43
10 47
10 81
10 97
10 110
10 155
10 168
10 170
10 220
10 221
10 245
10 254
10 297
11 14
11 156
11 188
11 243
11 271
11 275
12 47
12 62
12 109
12 115
12 147
12 161
12 241
12 290
13 22
13 63
13 91
13 107
13 114
13 124
13 148
13 172
13 200
13 223
13 280
14 93
14 171
14 243
14 271
14 281
14 292
15 54
15 147
15 174
15 177
15 186
15 223
15 236
15 237
15 249
15 265
16 19
16 21
16 27
16 32
16 85
16 92
16 104
16 125
16 139
16 154
16 157
16 221
16 246
16 277
16 287
17 47
17 53
17 83
17 87
17 91
17 94
17 132
17 133
17 157
17 159
17 232
17 235
17 276
17 288
18 243
18 245
18 253
18 268
18 271
18 291
19 118
19 125
19 146
19 148
19 183
20 38
20 75
20 99
20 118
20 129
20 134
20 136
20 143
20 187
20 197
21 27
21 32
21 44
21 92
21 139
21 246
21 251
21 252
21 268
22 24
22 42
22 46
22 63
22 164
22 181
22 186
22 198
22 259
22 290
23 74
23 164
23 175
23 202
23 226
23 263
24 146
24 158
24 160
24 204
24 265
25 64
25 67
25 77
25 106
25 190
25 228
25 277
25 288
25 291
26 42
26 47
26 77
26 95
26 109
26 116
26 122
26 130
26 155
26 160
26 171
26 192
26 224
26 235
26 241
27 33
27 41
27 43
27 44
27 56
27 61
27 80
27 101
27 102
27 103
27 122
27 131
27 241
27 278
27 299
28 79
28 96
28 108
28 117
28 143
28 149
28 192
28 222
28 229
29 83
29 84
29 113
29 169
29 217
29 241
29 257
29 295
30 34
30 51
30 134
30 143
30 289
31 35
31 60
31 100
31 104
31 139
31 171
31 187
31 197
31 247
31 288
32 50
32 107
32 113
32 139
32 142
32 199
32 200
32 214
32 264
32 268
33 44
33 124
33 138
33 231
33 237
33 249
34 35
34 48
34 62
34 65
34 80
34 81
34 110
34 135
34 184
34 188
34 249
34 264
35 36
35 45
35 147
35 192
35 223
35 242
35 266
35 290
35 297
36 45
36 120
36 137
36 155
36 160
36 192
36 196
36 220
36 223
36 238
36 241
37 111
37 134
37 176
37 192
37 220
37 246
37 252
37 264
38 39
38 40
38 54
38 58
38 129
38 143
38 279
38 298
39 49
39 58
39 105
39 112
39 144
39 146
39 213
39 239
39 266
39 298
40 50
40 58
40 64
40 91
40 98
40 131
40 141
40 148
40 149
40 181
40 189
40 209
40 230
40 248
41 44
41 55
41 93
41 106
41 123
41 129
41 131
41 143
41 149
41 198
41 199
41 201
41 232
41 241
41 267
41 287
42 50
42 56
42 92
42 127
42 131
42 179
42 198
42 211
42 235
42 267
42 282
43 47
43 56
43 94
43 109
43 122
43 137
43 161
43 221
43 288
43 295
43 299
44 238
44 250
44 280
45 49
45 164
45 179
45 198
45 219
45 223
45 228
45 266
45 290
46 98
46 101
46 152
46 242
46 262
46 291
46 295
47 53
47 56
47 58
47 62
47 77
47 132
47 133
47 137
47 157
47 163
47 187
47 231
47 241
47 278
47 288
47 290
48 98
48 110
48 123
48 192
48 196
48 212
48 270
48 286
49 84
49 99
49 146
49 213
49 266
49 284
50 87
50 91
50 127
50 140
50 148
50 268
50 270
50 291
51 265
52 96
52 102
52 142
52 170
52 294
53 67
53 159
53 163
53 202
53 234
54 72
54 177
54 197
54 212
54 259
54 298
55 59
55 113
55 118
55 119
55 129
55 131
55 198
55 237
55 266
56 62
56 127
56 131
56 173
56 178
56 179
56 198
56 210
56 235
56 273
56 282
57 74
57 220
57 229
58 62
58 81
58 141
58 198
59 119
59 130
59 198
59 228
59 277
60 78
60 100
60 139
60 141
60 197
60 200
60 212
60 236
60 250
61 70
61 75
61 87
61 105
61 106
61 108
61 110
61 122
61 143
61 155
61 187
61 225
61 265
61 299
62 81
62 121
62 172
62 264
62 268
62 271
63 96
63 114
63 172
63 259
63 280
64 74
64 76
64 104
64 123
64 140
64 164
64 179
64 195
64 230
64 271
64 277
64 288
65 78
65 110
65 133
65 163
65 167
65 194
65 248
65 251
66 115
66 197
67 81
67 97
67 106
67 155
67 187
67 197
67 231
67 234
67 260
68 70
68 78
68 81
68 158
68 233
68 268
69 71
69 159
70 78
70 81
70 106
70 174
70 187
70 207
70 223
70 255
70 262
70 278
71 237
71 248
71 249
72 138
72 234
73 127
73 174
73 193
73 195
73 219
73 247
73 252
73 273
74 140
74 163
74 164
74 187
74 218
74 220
74 278
75 87
75 101
75 110
75 173
75 265
75 272
75 286
76 104
76 140
76 174
76 195
76 228
76 247
77 85
77 86
77 109
77 137
77 184
77 210
77 283
77 286
77 288
77 291
78 100
78 274
79 229
79 281
80 135
81 97
81 98
81 99
81 101
81 114
81 158
81 222
81 268
81 292
82 85
82 89
82 104
82 255
82 277
83 84
83 113
83 157
83 169
83 187
83 219
83 225
83 241
83 247
83 263
84 94
84 112
84 137
84 146
84 167
84 173
84 217
84 257
85 120
85 169
85 174
85 203
85 221
86 280
86 288
87 95
87 98
87 102
87 106
87 107
87 122
87 136
87 157
87 163
87 167
87 198
87 204
87 208
87 268
87 272
87 286
88 97
88 114
88 129
88 154
88 180
89 91
89 119
89 127
89 162
89 208
89 219
89 243
89 246
89 277
90 97
90 131
90 172
90 190
90 204
90 222
91 123
91 131
91 132
91 134
91 148
91 149
91 165
91 223
91 246
91 247
91 297
93 94
93 117
93 163
93 171
93 194
93 201
93 216
93 281
94 132
94 137
94 176
95 103
95 122
95 160
95 226
95 280
96 99
96 102
96 104
96 108
96 110
96 111
96 117
96 131
96 134
96 143
96 159
96 184
96 222
97 99
97 101
97 114
97 145
97 155
97 170
97 209
97 222
97 268
98 126
98 158
98 189
98 286
99 101
99 111
99 131
99 143
99 145
99 168
99 208
99 259
99 292
99 299
100 199
100 241
100 274
101 109
101 115
101 123
101 131
101 143
101 165
101 189
101 265
102 167
102 215
102 237
102 248
102 279
102 295
103 131
103 226
103 237
103 248
103 258
103 272
103 278
104 123
104 139
104 140
104 159
104 202
104 255
104 270
105 108
105 144
106 110
106 167
106 225
106 232
106 268
107 171
107 251
107 255
107 268
107 280
107 287
108 110
108 131
108 143
108 159
108 161
108 177
108 178
108 195
108 201
108 225
108 230
108 241
108 257
108 274
108 279
108 293
108 299
109 115
109 123
109 145
109 147
109 161
109 168
109 171
109 179
109 195
109 197
109 261
110 133
110 138
110 184
110 224
110 230
110 240
110 248
110 249
110 251
110 253
110 276
110 278
110 292
110 293
111 134
111 142
111 143
111 200
111 264
111 296
112 115
112 138
112 144
112 146
112 163
112 180
112 185
112 204
112 257
112 271
112 278
113 119
113 123
113 148
113 160
113 179
113 195
113 283
113 295
114 162
114 225
114 226
114 265
115 145
115 147
115 162
115 185
115 197
115 259
115 273
116 165
116 241
116 283
117 164
117 186
117 236
118 129
118 136
118 148
119 123
119 127
119 131
119 184
119 193
119 209
119 231
119 237
120 149
120 169
120 173
120 196
120 213
120 269
120 279
120 284
120 286
121 131
121 149
121 269
122 163
122 173
122 208
122 223
122 224
122 230
122 235
122 242
122 244
122 268
122 274
122 280
122 298
122 299
123 131
123 136
123 139
123 145
123 149
123 193
123 221
123 230
123 231
123 239
123 257
124 187
124 223
124 231
124 245
124 255
125 171
125 175
125 212
125 237
125 252
125 284
125 287
125 295
126 178
126 189
126 201
126 231
126 236
127 193
127 247
127 273
127 281
127 298
128 134
128 141
128 143
128 188
128 253
128 279
129 136
129 143
129 289
130 174
130 192
130 217
130 228
130 284
131 132
131 143
131 148
131 149
131 189
131 192
131 213
131 239
131 264
131 266
132 159
133 238
133 240
133 251
133 253
134 142
134 143
134 233
134 297
135 153
135 188
136 143
136 145
136 284
137 139
137 170
137 173
137 220
137 221
137 269
138 180
138 225
138 234
138 249
138 267
139 154
139 177
139 180
140 144
140 230
140 270
141 175
141 180
141 250
142 166
142 192
142 226
143 149
143 189
143 195
143 279
143 292
144 146
145 147
145 160
145 168
145 209
145 257
145 292
145 299
146 183
146 204
147 182
147 198
147 232
147 249
147 263
147 266
149 269
152 172
152 203
152 221
152 269
153 174
153 227
153 253
155 218
155 234
155 241
155 256
155 258
155 299
156 174
156 228
156 254
156 255
156 260
156 275
156 278
157 164
157 165
157 218
157 225
157 258
157 277
157 291
158 183
159 202
159 232
159 235
159 254
159 270
160 238
161 178
161 198
161 221
162 163
162 173
162 184
162 185
162 210
162 213
162 226
162 248
162 298
163 184
163 185
163 186
163 194
163 229
163 241
163 248
163 255
163 278
163 298
164 186
164 192
164 232
164 236
164 258
164 263
164 266
164 271
164 275
164 278
164 282
164 291
164 298
165 175
165 258
166 192
167 178
167 198
167 266
167 274
167 279
168 209
168 220
168 297
169 187
169 208
169 214
169 219
169 235
169 257
169 280
169 294
170 173
170 178
170 201
170 254
170 294
171 237
171 239
171 247
171 261
171 287
172 203
172 269
173 210
173 234
173 242
173 269
174 196
174 203
174 215
174 223
174 228
174 247
177 180
177 212
177 216
177 226
177 250
177 265
177 276
177 279
177 293
178 198
178 201
178 222
178 257
178 282
178 293
179 193
179 195
179 198
179 290
180 216
180 225
180 247
180 293
181 209
181 290
182 263
184 186
184 193
184 210
184 236
184 261
184 270
185 259
186 236
186 263
186 265
186 271
187 197
187 214
187 231
187 257
187 280
188 253
188 271
188 276
189 286
190 194
190 204
190 277
191 273
192 220
192 266
192 270
192 297
193 195
193 208
193 220
193 256
193 296
194 248
194 252
194 297
195 236
195 293
195 296
196 203
196 215
196 224
196 238
197 212
197 228
197 260
198 266
199 214
199 241
199 274
199 287
200 203
200 253
200 264
200 276
200 279
201 213
201 227
202 232
202 250
203 264
204 206
204 222
204 265
205 220
206 265
207 242
207 243
207 245
207 262
207 292
208 219
208 244
208 259
208 268
208 280
209 283
210 269
210 283
210 286
211 235
212 286
212 298
213 239
213 284
214 216
214 268
214 280
215 250
216 226
218 234
218 238
218 250
218 256
218 258
218 299
219 238
219 242
219 244
219 247
219 253
219 284
219 285
219 291
220 256
220 297
222 262
222 281
222 282
223 229
223 287
224 230
224 241
224 243
224 257
224 292
225 247
226 265
226 293
227 238
227 242
227 253
227 297
228 255
228 260
228 263
228 290
229 241
229 246
229 278
229 287
230 241
230 248
230 249
230 257
230 267
230 276
230 285
231 241
232 263
232 282
235 241
235 242
235 244
235 253
235 267
235 276
235 294
236 261
236 266
236 271
236 275
236 282
237 246
237 248
237 249
237 287
238 250
238 253
238 255
238 280
238 293
239 261
239 266
239 276
239 284
241 242
241 257
241 267
241 278
241 288
241 292
242 262
242 269
242 294
242 297
243 253
243 281
243 292
244 259
244 295
244 299
245 251
245 254
245 255
245 262
245 268
245 292
246 247
246 252
246 287
247 287
247 291
248 286
250 253
250 258
250 292
250 293
251 278
253 276
255 260
255 278
255 280
255 292
256 258
256 273
257 285
258 272
258 285
261 270
261 276
262 295
263 282
263 290
266 270
266 290
266 298
267 276
268 274
268 279
269 286
271 278
271 288
272 285
273 298
274 276
274 279
274 286
274 293
275 282
276 279
278 292
278 298
279 286
281 282
282 290
282 297
284 285
284 296
285 296
288 291
292 293
295 299
*Classes
1
1
1
1
1
1
1
1
1
1
1
1
1
1
1
1
1
1
1
1
1
1
1
1
1
1
1
1
1
1
1
1
1
1
1
1
1
1
1
1
1
1
1
1
1
1
1
1
1
1
1
1
1
1
1
1
1
1
1
1
1
1
1
1
1
1
1
1
1
1
1
1
1
1
1
1
1
1
1
1
1
1
1
1
1
1
1
1
1
1
1
1
1
1
1
1
1
1
1
1
1
1
1
1
1
1
1
1
1
1
1
1
1
1
1
1
1
1
1
1
1
1
1
1
1
1
1
1
1
1
1
1
1
1
1
1
1
1
1
1
1
1
1
1
1
1
1
1
1
1
2
2
2
2
2
2
2
2
2
2
2
2
2
2
2
2
2
2
2
2
2
2
2
2
2
2
2
2
2
2
2
2
2
2
2
2
2
2
2
2
2
2
2
2
2
2
2
2
2
2
2
2
2
2
2
2
2
2
2
2
2
2
2
2
2
2
2
2
2
2
2
2
2
2
2
2
2
2
2
2
2
2
2
2
2
2
2
2
2
2
2
2
2
2
2
2
2
2
2
2
2
2
2
2
2
2
2
2
2
2
2
2
2
2
2
2
2
2
2
2
2
2
2
2
2
2
2
2
2
2
2
2
2
2
2
2
2
2
2
2
2
2
2
2
2
2
2
2
2
2
