*Vertices 300
*Edges
1 14
1 25
1 197
1 271
1 290
2 47
2 69
2 95
2 111
2 152
2 186
2 231
2 234
2 275
3 18
3 51
3 53
3 58
3 99
3 100
3 132
3 152
3 159
3 193
3 208
3 292
4 136
4 169
4 188
4 191
4 266
5 17
5 34
5 38
5 45
5 69
5 80
5 95
5 111
5 149
5 159
5 168
5 191
5 241
6 82
6 86
6 116
6 120
6 141
6 247
6 269
7 49
7 111
7 203
7 214
7 295
8 24
8 53
8 77
8 102
8 103
8 124
8 148
8 178
8 200
8 201
8 278
8 280
9 37
9 46
9 52
9 108
9 110
9 178
9 224
9 229
10 25
10 47
10 77
10 95
10 100
10 124
10 286
10 297
11 38
11 93
11 102
11 160
11 216
11 235
12 38
12 53
12 117
12 135
12 158
12 160
13 182
13 210
13 218
13 242
13 281
13 286
13 298
14 41
14 70
14 93
14 187
15 49
15 71
15 89
15 209
15 215
15 246
15 295
16 33
16 38
16 64
16 213
16 225
16 279
16 290
17 32
17 33
17 38
17 117
17 137
17 244
18 99
18 131
18 182
18 206
18 212
18 237
18 256
18 271
19 53
19 70
19 138
19 142
20 31
20 64
20 89
20 142
20 143
20 144
20 182
20 258
20 282
20 284
21 73
21 141
21 149
21 283
21 290
22 25
22 49
22 84
22 110
22 113
22 135
22 153
22 196
22 200
22 211
23 62
23 138
23 165
24 41
24 59
24 85
24 103
24 124
25 47
25 162
25 182
25 286
26 52
26 176
26 194
26 297
27 46
27 51
27 120
27 123
27 215
27 274
27 289
28 41
28 60
28 155
28 242
28 260
28 264
29 98
29 130
29 212
30 42
30 61
30 71
30 119
30 185
30 199
30 201
30 300
31 105
31 132
31 188
31 208
31 239
31 282
32 38
32 113
32 132
32 201
32 251
33 38
33 43
33 47
33 82
33 102
33 158
33 233
33 241
33 280
34 36
34 59
34 83
34 100
34 111
34 160
34 186
34 220
34 275
35 65
35 74
35 75
35 144
35 207
35 216
35 290
36 38
36 54
36 91
36 141
36 243
36 248
36 269
36 275
37 41
37 42
37 106
37 108
37 110
37 123
37 140
37 166
37 296
38 47
38 77
38 82
38 137
38 158
38 166
38 203
38 204
38 275
38 279
39 196
40 55
40 144
40 170
40 189
40 216
41 42
41 94
41 98
41 142
41 166
42 71
42 77
42 100
42 105
42 183
42 231
42 253
42 257
43 47
43 96
43 117
43 121
44 46
44 51
44 89
44 141
44 226
44 285
45 81
46 50
46 52
46 70
46 88
46 120
46 121
46 139
46 141
46 143
46 157
46 158
46 224
46 233
47 97
47 292
48 66
48 104
48 198
48 292
49 96
49 122
49 145
49 229
49 277
49 292
50 57
50 59
50 63
50 65
50 69
50 86
50 123
50 147
50 157
50 166
50 187
50 228
51 82
51 89
51 141
51 159
51 233
51 300
52 61
52 72
52 79
52 88
52 108
52 123
52 148
52 165
52 178
52 195
52 217
52 224
52 236
53 70
53 84
53 100
53 132
53 135
53 159
53 180
53 280
54 85
54 123
54 125
54 224
55 85
55 169
55 271
56 61
56 71
56 81
56 121
56 196
56 258
57 65
57 103
57 125
57 130
58 63
58 103
58 109
58 147
58 152
58 205
58 235
58 261
59 65
59 98
59 111
59 157
59 222
59 280
60 91
60 108
60 117
60 155
60 193
60 208
60 230
60 285
60 291
61 72
61 129
61 185
61 258
61 260
62 72
62 153
63 130
63 169
63 193
63 281
64 84
64 110
64 116
64 120
64 147
64 187
64 239
64 268
64 284
65 75
65 89
65 125
65 163
65 173
65 219
65 235
65 261
65 287
66 201
66 228
66 243
66 246
66 292
67 75
67 170
68 114
68 115
68 125
68 197
68 211
68 230
68 269
68 296
69 78
69 111
69 116
69 197
69 204
69 227
69 270
69 295
70 88
70 90
70 93
70 131
70 143
70 279
71 77
71 89
71 119
71 215
71 255
71 268
72 88
72 89
72 202
72 219
73 299
74 114
74 184
74 247
74 279
74 293
75 182
75 265
75 278
76 85
76 118
76 148
76 211
77 107
77 157
77 249
77 257
77 279
78 223
78 251
78 270
78 296
79 126
79 137
79 157
79 216
79 257
79 279
80 120
80 166
80 168
80 247
80 252
80 255
81 86
81 105
81 123
81 148
81 278
82 159
82 247
82 262
82 278
83 124
83 128
83 147
83 181
83 203
83 277
83 286
84 135
84 237
85 101
85 142
85 211
86 101
86 123
86 146
86 224
86 239
86 263
87 105
88 94
88 110
88 129
88 165
88 183
88 210
88 243
88 249
89 160
89 170
89 228
89 261
89 294
90 98
90 211
90 250
91 117
91 144
91 255
92 132
92 242
93 105
93 129
93 145
93 147
93 289
94 98
94 108
94 110
94 150
94 227
94 243
94 261
95 106
95 166
95 194
95 198
95 275
95 293
95 297
96 202
96 229
97 154
98 107
98 167
98 212
98 223
98 268
99 116
99 178
99 230
99 285
100 152
100 200
100 299
101 113
101 149
101 228
101 231
101 254
101 266
102 135
102 148
102 196
102 200
102 201
103 261
104 134
104 237
104 268
104 279
105 148
105 170
105 188
105 253
105 289
106 275
107 239
108 115
108 117
108 141
108 150
108 155
108 242
108 250
109 116
109 131
109 146
109 239
109 282
110 116
110 123
110 129
110 135
110 156
110 211
113 117
113 127
113 142
113 188
113 210
113 218
113 251
114 211
114 238
114 270
114 281
115 214
115 226
115 249
116 178
116 180
116 204
116 212
116 276
116 282
116 296
117 135
117 247
117 251
119 176
119 220
119 295
119 298
120 147
120 187
120 223
120 265
121 189
121 252
121 258
122 221
122 292
123 130
123 151
123 166
123 178
123 201
123 204
123 214
123 237
123 244
124 149
124 181
124 203
124 278
124 286
125 180
125 190
125 197
125 287
125 299
126 137
126 140
126 185
126 197
126 202
126 219
127 149
127 176
127 200
127 225
127 244
128 137
128 143
128 147
128 150
128 166
128 219
129 145
129 249
129 262
130 149
130 151
130 196
130 216
130 220
131 143
131 146
131 160
131 228
131 237
132 206
133 159
133 167
133 232
133 289
134 232
135 156
135 160
135 175
135 211
135 263
136 167
136 189
136 232
136 234
136 250
136 264
137 140
137 198
137 247
137 262
138 141
138 191
138 206
138 273
139 209
140 163
140 167
140 175
140 197
140 230
140 276
140 290
141 206
141 235
141 243
141 269
141 282
142 182
142 192
142 210
142 231
142 251
143 166
143 206
143 243
143 281
143 283
144 153
144 216
144 239
146 150
146 152
146 206
146 255
146 263
147 187
149 151
149 197
149 228
149 279
149 283
150 192
150 260
151 166
151 168
151 176
151 179
151 223
151 243
151 276
152 156
152 159
152 288
153 214
153 253
154 275
155 208
155 235
155 248
156 159
156 170
156 185
156 219
157 187
157 236
157 279
158 167
158 192
158 233
158 246
158 250
158 271
158 272
159 170
159 221
159 232
159 241
159 288
159 300
160 194
160 201
160 228
160 259
160 283
161 217
161 295
162 210
162 226
163 168
163 173
163 229
163 248
163 251
164 221
164 228
164 244
164 266
164 294
165 178
165 243
165 280
166 194
166 213
166 293
166 296
167 232
167 246
168 202
168 215
168 231
168 243
168 248
169 188
169 191
169 281
170 258
170 261
171 196
173 266
173 300
174 218
174 269
175 197
175 224
175 230
175 240
175 277
176 179
176 223
176 242
176 254
176 276
176 295
176 297
177 184
177 197
177 205
177 224
177 257
178 182
178 201
178 211
178 214
178 217
178 219
178 222
178 224
178 237
178 298
179 221
179 224
179 295
180 187
180 197
180 206
180 223
180 255
180 299
182 187
182 214
182 222
182 224
182 281
183 231
184 204
184 213
184 277
184 293
184 296
185 202
185 212
185 219
185 258
188 282
189 199
189 234
190 202
190 211
190 268
190 287
191 201
191 225
192 214
192 221
193 194
193 275
193 288
193 291
193 299
194 198
194 288
196 216
197 227
197 228
198 212
199 225
199 244
199 266
199 275
200 242
201 243
201 259
202 222
202 223
202 240
202 267
202 268
202 299
203 214
204 228
205 243
206 255
206 289
208 219
208 224
208 263
208 276
208 282
208 292
209 222
209 267
210 286
211 298
212 268
213 225
213 293
214 221
214 222
214 224
214 226
215 243
215 246
215 254
215 271
216 239
216 279
216 282
217 237
218 273
219 240
219 261
219 263
219 282
220 285
220 298
222 224
222 229
222 263
222 267
222 284
223 296
224 257
224 263
224 284
225 244
226 232
227 228
227 261
228 246
228 254
228 294
229 284
230 285
230 296
230 297
231 257
232 236
232 275
232 286
236 267
236 286
237 256
237 298
239 243
239 282
240 263
241 280
242 254
242 258
245 275
245 277
245 286
246 272
247 263
247 300
248 287
249 275
249 286
249 293
253 279
253 285
255 289
256 271
257 279
263 265
266 275
269 280
270 278
271 272
272 296
273 281
274 279
274 285
275 277
275 286
275 291
275 293
276 290
278 284
279 293
281 298
285 298
293 296
*Classes
1
1
1
1
1
1
1
1
1
1
1
1
1
1
1
1
1
1
1
1
1
1
1
1
1
1
1
1
1
1
1
1
1
1
1
1
1
1
1
1
1
1
1
1
1
1
1
1
1
1
1
1
1
1
1
1
1
1
1
1
1
1
1
1
1
1
1
1
1
1
1
1
1
1
1
1
1
1
1
1
1
1
1
1
1
1
1
1
1
1
1
1
1
1
1
1
1
1
1
1
1
1
1
1
1
1
1
1
1
1
1
1
1
1
1
1
1
1
1
1
1
1
1
1
1
1
1
1
1
1
1
1
1
1
1
1
1
1
1
1
1
1
1
1
1
1
1
1
1
1
2
2
2
2
2
2
2
2
2
2
2
2
2
2
2
2
2
2
2
2
2
2
2
2
2
2
2
2
2
2
2
2
2
2
2
2
2
2
2
2
2
2
2
2
2
2
2
2
2
2
2
2
2
2
2
2
2
2
2
2
2
2
2
2
2
2
2
2
2
2
2
2
2
2
2
2
2
2
2
2
2
2
2
2
2
2
2
2
2
2
2
2
2
2
2
2
2
2
2
2
2
2
2
2
2
2
2
2
2
2
2
2
2
2
2
2
2
2
2
2
2
2
2
2
2
2
2
2
2
2
2
2
2
2
2
2
2
2
2
2
2
2
2
2
2
2
2
2
2
2
