*Vertices 300
*Edges
1 47
1 83
1 215
1 277
1 289
2 107
2 136
2 148
2 155
2 186
2 189
2 219
2 300
3 28
3 31
3 32
3 44
3 45
3 58
3 64
3 80
3 94
3 128
3 153
3 204
3 233
3 258
3 297
4 121
5 9
5 13
5 59
5 73
5 87
5 165
5 191
5 232
6 24
6 140
6 177
6 188
6 198
6 216
6 233
6 241
6 271
7 43
7 78
7 128
7 145
7 201
7 217
7 239
7 257
8 16
8 31
8 39
8 41
8 77
8 114
8 136
8 188
8 189
8 196
8 279
8 282
9 87
9 180
9 219
9 232
10 46
10 48
10 103
10 111
10 138
10 216
10 268
11 13
11 36
11 55
11 73
11 105
11 132
11 138
11 150
12 21
12 23
12 27
12 62
12 65
12 71
12 127
12 142
12 276
12 297
13 49
13 66
13 68
13 73
13 88
13 89
13 92
13 150
13 189
13 247
13 280
14 31
14 126
14 144
14 159
14 200
14 228
15 28
15 50
15 90
15 124
15 216
15 250
15 273
16 31
16 51
16 55
16 80
16 103
16 159
16 170
16 173
16 244
16 250
16 270
17 35
17 67
17 176
18 171
18 197
18 233
18 244
18 273
19 56
19 95
19 97
19 133
19 247
19 251
20 63
20 83
20 109
20 149
20 153
20 213
20 220
20 222
20 242
20 248
21 105
21 125
21 172
21 215
21 259
22 26
22 27
22 38
22 79
22 117
22 164
22 172
22 174
22 190
22 203
22 209
22 263
22 280
23 75
23 80
23 88
23 171
23 184
23 226
23 230
23 250
23 297
24 25
24 57
24 84
24 89
24 100
24 114
24 197
24 257
25 42
25 57
25 175
25 202
25 209
25 238
26 27
26 38
26 54
26 55
26 101
26 106
26 111
26 113
26 124
26 131
26 135
26 190
26 233
27 29
27 47
27 54
27 65
27 74
27 87
27 94
27 97
27 103
27 137
27 144
27 235
27 288
28 30
28 32
28 54
28 164
28 248
28 250
28 294
29 45
29 97
29 127
29 135
29 149
29 258
29 298
29 299
30 54
30 58
30 97
30 110
30 113
30 128
30 135
30 185
30 187
30 202
30 222
30 250
30 285
30 293
30 295
30 298
31 77
31 149
31 159
31 204
31 234
31 241
32 80
32 105
32 150
33 81
33 96
33 130
33 139
33 163
33 173
33 179
33 256
33 269
34 41
34 45
34 95
34 106
34 111
34 125
34 161
34 203
35 81
35 91
35 104
35 122
35 131
35 139
35 167
35 176
35 195
35 228
35 262
35 292
36 159
37 46
37 67
37 88
37 91
37 104
37 186
37 246
37 290
37 299
38 105
38 108
38 150
38 172
38 249
39 62
39 83
39 96
39 104
39 188
39 230
39 267
39 269
40 117
40 124
41 45
41 49
41 137
41 156
41 168
41 188
41 246
42 57
42 77
42 109
42 118
42 129
42 180
42 278
42 283
43 190
43 276
43 287
44 45
44 88
44 112
44 175
45 54
45 98
45 111
45 121
45 149
45 150
45 175
45 176
45 240
45 248
46 48
46 71
46 88
46 125
46 138
46 157
46 241
47 56
47 83
47 137
48 108
48 125
49 68
49 69
49 74
49 85
49 93
49 178
49 196
49 250
49 258
49 281
50 107
50 124
50 148
50 217
50 260
51 80
51 81
51 82
51 125
51 139
51 296
52 60
52 74
52 207
52 223
53 54
53 81
53 89
53 144
53 167
53 262
54 94
54 96
54 103
54 104
54 128
54 144
54 163
54 172
54 173
54 185
54 240
54 259
54 285
55 69
55 110
55 124
55 135
55 150
55 173
55 266
56 166
56 202
56 247
56 278
57 72
57 105
57 175
57 278
57 296
58 128
58 170
59 70
59 87
59 275
60 160
61 126
61 135
61 173
61 177
61 210
61 293
62 65
62 67
62 80
62 97
62 104
62 115
62 132
62 152
62 175
62 205
62 224
62 237
63 76
63 126
63 193
63 222
63 246
64 94
64 145
64 179
65 73
65 74
65 127
65 149
65 189
65 256
65 297
66 172
66 231
66 232
66 258
66 265
66 276
67 91
67 132
67 244
68 85
68 105
68 106
68 110
68 271
69 85
69 135
69 250
70 187
70 281
70 293
71 88
71 142
71 164
71 180
71 186
71 189
71 221
71 246
71 281
72 105
72 195
72 208
72 281
73 74
73 79
73 89
73 94
73 102
73 108
73 127
73 148
73 178
73 210
73 216
73 237
73 261
73 264
73 267
74 81
74 89
74 92
74 93
74 97
74 101
74 102
74 127
74 137
74 163
74 195
74 221
74 223
74 288
75 122
75 160
75 179
75 200
75 226
75 248
76 173
76 187
76 190
76 218
76 221
76 281
77 81
77 129
77 149
77 279
78 201
79 140
79 209
79 247
79 249
79 280
80 88
80 139
80 175
80 184
80 195
80 244
81 139
81 235
82 99
82 125
82 139
82 275
82 294
83 100
83 114
83 149
83 184
83 269
84 89
84 104
84 216
84 226
84 275
85 93
85 220
85 226
85 295
86 100
86 142
87 97
87 183
88 112
88 157
88 166
88 193
88 214
88 246
88 263
88 277
88 280
88 286
88 295
89 92
89 93
89 114
89 133
89 152
89 167
90 134
90 150
90 162
90 186
90 187
90 190
90 203
90 217
90 277
91 104
91 111
91 125
91 176
91 255
91 273
92 94
92 147
92 183
92 247
93 102
93 135
93 203
94 235
94 247
95 98
95 111
95 133
95 138
95 174
95 191
95 216
95 243
95 244
96 104
96 122
96 130
96 166
96 187
96 194
96 207
96 254
96 274
97 137
97 199
97 237
97 277
98 133
98 150
98 178
98 209
99 122
99 207
99 280
100 142
100 149
100 203
100 218
100 250
100 251
100 263
100 272
101 111
101 115
101 132
101 286
102 141
102 238
103 111
103 155
103 173
103 229
103 244
103 259
103 264
105 106
105 141
105 150
105 161
105 220
105 263
105 296
106 141
107 148
107 204
108 270
109 271
110 135
110 157
110 298
111 124
111 125
111 214
111 296
112 161
112 220
113 124
113 208
113 290
113 293
115 122
115 132
115 134
115 138
115 164
115 201
115 230
115 261
115 272
116 144
116 168
116 271
117 124
117 228
117 259
117 267
118 129
118 173
118 210
118 282
120 155
120 240
120 273
121 135
121 175
121 194
121 237
121 297
122 139
122 168
122 200
122 209
122 222
122 257
122 261
122 280
123 153
123 284
123 287
124 131
125 126
125 138
125 154
125 182
126 182
126 193
127 137
127 149
127 181
127 200
128 172
128 196
128 247
128 298
129 166
129 269
129 271
131 137
131 167
131 179
131 256
132 138
132 197
132 257
132 262
133 243
134 143
134 150
134 153
134 254
134 258
134 261
134 270
134 273
134 281
135 157
135 210
135 237
135 273
135 299
136 151
137 141
137 167
137 200
137 249
137 278
138 150
138 182
138 198
138 214
138 216
138 238
138 262
138 274
138 285
140 180
140 184
140 218
140 249
140 275
141 151
141 196
141 222
141 261
142 149
142 155
142 202
142 205
142 216
142 242
142 273
142 286
142 300
143 151
143 152
143 199
143 235
144 203
144 263
146 158
146 168
146 267
146 290
147 176
147 183
147 203
147 238
147 270
148 213
148 216
149 182
150 158
150 161
150 185
150 198
152 157
152 162
152 167
152 244
153 178
153 222
153 273
153 277
153 281
153 297
154 156
154 161
154 245
155 178
155 187
156 188
156 202
156 249
156 256
156 267
157 159
157 241
157 265
158 209
158 253
158 298
159 168
159 190
159 193
159 228
159 240
159 248
159 265
159 293
160 200
161 189
161 193
161 268
162 167
162 217
162 227
162 244
162 254
162 261
162 270
162 274
162 285
163 173
163 176
163 188
163 213
164 166
164 170
164 181
164 190
164 203
164 246
164 261
164 295
164 296
165 170
165 218
165 238
165 261
165 284
166 194
166 202
166 203
166 256
166 271
166 295
167 204
167 262
168 190
168 196
168 293
169 235
170 181
170 261
170 286
171 205
172 211
172 258
172 259
172 277
172 280
172 298
173 176
173 188
173 256
173 282
174 178
174 184
174 190
174 191
174 209
174 265
175 180
175 278
176 200
176 206
176 213
176 240
176 293
177 180
177 181
177 251
177 258
177 277
177 282
177 297
177 300
178 209
178 276
179 197
179 200
179 227
179 231
179 236
179 243
180 181
180 188
180 225
180 264
180 271
181 208
181 242
181 250
181 258
181 272
182 183
182 226
182 241
183 203
183 217
183 247
183 252
183 259
184 209
184 261
185 188
185 200
185 214
185 227
185 249
185 274
185 285
186 190
186 212
186 219
186 238
186 246
186 270
187 218
187 296
188 225
189 196
189 219
189 263
189 276
190 214
190 287
191 244
191 273
192 294
193 234
193 268
194 205
194 237
194 251
194 263
195 202
195 221
195 232
195 271
196 264
197 227
197 235
198 228
198 256
198 300
199 216
199 242
200 206
200 248
200 277
200 297
201 211
201 278
201 293
202 210
202 231
202 232
202 251
202 252
202 256
202 258
202 271
202 278
202 295
202 300
203 209
203 217
203 260
203 277
203 295
204 207
204 258
204 262
205 216
206 293
207 266
208 221
208 225
208 239
208 245
208 247
208 258
209 241
209 249
209 276
209 298
210 212
210 238
210 256
210 258
210 277
210 280
210 289
210 300
211 219
211 229
211 234
211 259
211 269
211 298
212 256
213 222
213 234
213 241
213 283
213 298
214 248
214 276
214 285
214 296
215 229
216 226
216 232
216 233
216 238
216 248
216 260
216 287
217 239
217 244
217 257
217 260
217 274
217 277
217 284
218 223
218 275
218 298
219 229
219 246
219 276
220 295
221 231
221 239
221 251
221 264
221 280
222 236
222 243
222 293
222 295
224 288
225 247
225 264
225 270
226 241
227 285
228 259
228 262
228 287
229 243
229 269
230 261
230 267
230 279
230 297
231 278
232 239
232 251
232 252
233 271
234 241
234 268
234 298
235 288
236 243
237 239
237 264
237 273
237 277
237 289
238 246
238 270
239 251
239 264
239 290
239 294
240 244
240 248
240 273
240 282
241 271
241 286
242 258
242 300
244 264
244 270
244 273
244 285
244 298
245 258
246 288
247 258
248 259
248 287
248 296
249 256
249 298
250 272
251 252
251 258
251 263
251 294
252 259
253 263
253 271
254 261
255 256
256 280
256 282
258 281
258 294
258 300
259 262
259 287
261 273
261 284
262 289
263 276
264 298
266 297
267 279
270 281
271 278
273 277
274 278
274 285
276 285
277 289
277 297
282 297
285 296
287 296
289 300
293 294
*Classes
1
1
1
1
1
1
1
1
1
1
1
1
1
1
1
1
1
1
1
1
1
1
1
1
1
1
1
1
1
1
1
1
1
1
1
1
1
1
1
1
1
1
1
1
1
1
1
1
1
1
1
1
1
1
1
1
1
1
1
1
1
1
1
1
1
1
1
1
1
1
1
1
1
1
1
1
1
1
1
1
1
1
1
1
1
1
1
1
1
1
1
1
1
1
1
1
1
1
1
1
1
1
1
1
1
1
1
1
1
1
1
1
1
1
1
1
1
1
1
1
1
1
1
1
1
1
1
1
1
1
1
1
1
1
1
1
1
1
1
1
1
1
1
1
1
1
1
1
1
1
2
2
2
2
2
2
2
2
2
2
2
2
2
2
2
2
2
2
2
2
2
2
2
2
2
2
2
2
2
2
2
2
2
2
2
2
2
2
2
2
2
2
2
2
2
2
2
2
2
2
2
2
2
2
2
2
2
2
2
2
2
2
2
2
2
2
2
2
2
2
2
2
2
2
2
2
2
2
2
2
2
2
2
2
2
2
2
2
2
2
2
2
2
2
2
2
2
2
2
2
2
2
2
2
2
2
2
2
2
2
2
2
2
2
2
2
2
2
2
2
2
2
2
2
2
2
2
2
2
2
2
2
2
2
2
2
2
2
2
2
2
2
2
2
2
2
2
2
2
2
