*Vertices 300
*Edges
1 5
1 19
1 32
1 60
1 93
1 127
1 163
1 201
1 216
1 217
1 243
1 251
1 266
1 270
1 286
2 11
2 15
2 21
2 23
2 28
2 80
2 126
2 137
2 140
2 161
2 199
2 203
2 253
2 258
2 263
2 293
3 57
3 60
3 105
3 110
3 136
3 168
3 270
4 15
4 127
4 161
4 174
4 234
4 240
4 247
4 271
4 284
4 288
4 290
5 30
5 50
5 53
5 92
5 93
5 97
5 99
5 123
5 135
5 150
5 155
5 160
5 208
5 236
5 243
5 251
6 200
6 245
6 250
6 255
6 287
7 45
7 85
7 94
7 95
7 126
7 148
7 161
7 191
7 195
7 266
7 271
7 296
8 9
8 75
8 80
8 118
8 120
8 170
8 218
8 223
8 279
9 10
9 16
9 25
9 84
9 138
9 170
9 218
9 228
9 279
10 25
10 36
10 174
10 213
10 251
10 298
11 53
11 58
11 70
11 73
11 84
11 121
11 164
11 180
11 224
11 253
11 267
12 37
12 105
12 106
12 207
13 103
13 141
13 142
13 155
13 170
13 174
13 176
13 178
13 182
13 191
13 210
13 229
13 262
13 266
13 280
13 300
14 33
14 84
14 138
14 164
14 213
14 258
14 286
15 65
15 80
15 88
15 127
15 134
15 135
15 140
15 146
15 163
15 201
15 238
15 258
15 263
15 284
16 25
16 298
17 52
17 54
17 115
17 116
17 147
17 151
17 159
17 160
17 223
17 234
17 283
17 289
18 23
18 28
18 63
18 67
18 73
18 79
18 121
18 131
18 136
18 182
18 183
18 194
18 233
18 274
18 298
19 21
19 24
19 77
19 137
19 143
19 201
19 220
19 247
20 71
20 101
20 120
20 148
20 195
20 265
20 268
20 269
21 23
21 38
21 61
21 70
21 75
21 89
21 133
21 148
21 172
21 191
21 194
21 195
21 223
21 247
21 260
21 261
21 268
21 290
22 63
22 70
22 83
22 111
22 132
22 183
22 203
22 221
22 240
22 249
22 272
22 282
22 283
22 284
22 287
23 28
23 50
23 90
23 116
23 126
23 135
23 172
23 183
23 192
23 198
23 213
23 233
23 235
23 293
24 34
24 50
24 62
24 77
24 100
24 125
24 136
24 137
24 143
24 153
24 162
24 194
24 199
24 282
25 36
25 67
25 90
25 141
25 148
25 197
25 199
25 200
25 228
25 232
26 72
26 83
26 95
26 130
26 154
26 205
26 244
26 245
26 287
27 32
27 49
27 86
27 122
27 193
27 218
27 220
27 286
28 131
28 135
28 142
28 160
28 180
28 183
28 192
28 225
28 233
28 251
28 267
28 284
28 291
29 102
29 123
29 137
29 150
29 160
29 198
29 278
30 51
30 53
30 71
30 73
30 76
30 97
30 179
30 187
30 268
31 67
31 71
31 82
31 117
31 123
31 150
31 155
31 167
31 195
31 236
31 257
32 45
32 88
32 93
32 100
32 101
32 127
32 169
32 218
32 278
33 49
33 70
33 76
33 142
33 143
33 159
33 164
33 229
34 53
34 58
34 98
34 108
34 121
34 124
34 125
34 137
34 153
34 198
34 214
34 235
34 256
35 39
35 44
35 53
35 118
35 148
35 152
35 165
35 200
35 212
35 213
35 228
35 261
35 279
35 298
35 300
36 51
36 52
36 62
36 88
36 100
36 116
36 118
36 120
36 125
36 129
36 134
36 139
36 145
36 174
36 192
36 196
36 262
36 285
36 294
37 45
37 88
37 90
37 94
37 107
37 190
37 267
38 52
38 69
38 101
38 136
38 144
38 212
38 222
38 261
39 111
39 116
39 172
39 203
39 213
39 227
39 261
39 283
40 112
40 116
40 134
40 145
40 213
40 214
40 248
40 281
40 298
41 58
41 81
41 109
41 224
41 267
42 48
42 50
42 78
42 87
42 128
42 138
42 142
42 205
42 215
42 229
42 233
42 245
43 64
43 89
43 161
44 54
44 55
44 65
44 83
44 119
44 140
44 155
44 186
44 226
44 228
44 252
45 85
45 93
45 101
45 107
45 118
45 135
45 165
45 169
45 190
46 121
46 132
46 133
46 139
46 158
46 164
46 184
46 212
47 74
47 131
47 138
48 78
48 252
48 263
48 273
49 193
49 206
49 240
49 243
49 244
49 266
49 276
49 294
49 295
50 100
50 107
50 123
50 135
50 271
51 75
51 102
51 120
51 137
51 173
51 179
51 193
51 196
51 240
51 277
52 70
52 96
52 104
52 120
52 158
52 176
52 190
52 289
53 68
53 87
53 92
53 124
53 148
53 152
53 159
53 187
53 253
54 104
54 121
54 129
54 147
54 154
54 231
54 246
54 251
54 272
54 277
54 298
55 77
55 81
55 119
55 125
55 132
55 134
55 178
55 192
55 227
55 242
55 292
56 58
56 60
56 91
56 138
56 244
56 245
56 287
57 110
57 116
57 128
57 136
57 164
57 228
57 232
57 238
57 251
57 275
57 293
58 65
58 81
58 98
58 106
58 119
58 121
58 124
58 134
58 135
58 136
58 137
58 202
58 203
58 208
58 217
58 224
58 244
58 254
58 267
58 293
59 151
59 225
59 269
59 278
60 93
60 156
60 243
60 256
60 270
61 76
61 97
61 133
61 164
61 290
62 69
62 88
62 100
62 236
62 246
62 286
62 292
63 70
63 79
63 87
63 183
63 194
63 262
64 86
64 88
64 89
64 90
64 163
64 171
64 184
64 221
64 286
65 98
65 146
65 147
66 75
66 103
66 131
66 145
66 160
66 204
66 265
67 117
67 134
67 141
67 152
67 188
67 225
67 226
67 236
67 292
67 298
68 148
68 203
69 88
69 101
69 119
69 129
69 134
69 136
69 139
69 158
69 212
69 263
69 284
69 285
69 288
69 296
70 71
70 104
70 138
70 164
70 180
70 181
70 190
70 214
70 239
70 268
71 79
71 123
71 187
71 268
72 114
72 158
72 210
72 238
72 258
72 284
72 287
72 288
73 84
73 179
73 253
73 259
73 276
74 84
74 138
74 285
74 287
75 179
75 195
75 220
75 277
75 283
76 97
76 110
76 118
76 142
76 147
76 206
76 262
76 266
76 288
76 300
77 173
77 178
77 194
77 231
77 261
77 272
78 163
78 254
78 258
78 274
78 300
79 123
79 131
79 145
79 150
79 177
79 183
79 206
80 90
80 111
80 132
80 146
80 150
80 170
80 171
80 214
80 245
80 261
81 192
81 227
81 259
82 95
82 207
82 236
83 240
83 252
84 138
84 164
84 176
84 194
84 231
84 245
85 94
85 109
85 126
85 157
85 164
85 195
85 219
85 227
85 232
85 282
86 90
86 117
86 175
86 208
86 275
86 286
87 92
87 97
87 102
87 112
87 116
87 123
87 170
87 215
87 260
88 93
88 103
88 246
88 258
88 286
89 161
89 184
89 221
89 268
90 94
90 133
90 171
90 200
90 223
90 235
90 266
90 289
91 115
91 221
91 245
91 246
92 155
92 170
92 190
92 206
92 217
92 219
92 232
92 253
92 254
92 266
92 280
92 295
93 101
93 102
93 127
93 219
93 264
93 278
93 281
94 109
94 126
94 133
94 186
94 219
94 223
95 114
95 144
95 161
95 176
95 177
95 191
95 195
95 207
95 227
95 253
95 266
95 271
95 295
95 296
96 120
96 201
96 226
96 241
96 289
97 112
97 116
97 150
97 164
97 283
99 149
99 172
99 187
99 227
99 251
99 257
99 291
99 296
100 107
100 117
100 134
100 136
100 143
100 162
100 169
100 190
100 192
100 203
100 260
100 286
100 292
101 178
101 252
101 263
102 118
102 125
102 127
102 137
102 160
102 198
102 219
102 232
102 260
102 296
103 155
103 171
103 174
103 176
103 205
103 216
103 289
104 129
104 158
104 246
104 252
105 108
106 135
106 181
106 204
106 213
107 151
107 162
107 202
107 225
107 238
107 241
108 124
108 214
108 226
108 255
109 126
109 205
109 227
109 243
110 130
110 147
110 244
110 250
110 275
110 288
110 300
111 116
111 132
111 168
111 203
111 225
111 245
111 261
111 282
111 283
111 289
111 292
111 297
112 118
112 123
112 170
112 180
112 196
112 214
112 215
112 223
112 254
113 187
113 226
113 237
113 265
114 135
114 140
114 144
114 150
114 158
114 161
114 163
114 241
114 245
114 259
114 283
115 118
115 127
115 147
115 195
115 201
115 246
116 128
116 134
116 136
116 150
116 160
116 197
116 216
116 235
116 283
116 285
116 293
117 125
117 134
117 139
117 152
117 162
117 257
117 259
117 270
118 125
118 134
118 139
118 145
118 146
118 147
118 153
118 166
118 180
118 190
118 206
118 213
118 223
118 273
119 122
119 129
119 132
119 178
119 218
119 235
119 285
119 293
120 134
120 148
120 170
120 176
120 191
120 196
120 225
121 123
121 133
121 136
121 139
121 212
121 254
121 267
121 293
121 298
122 193
122 208
122 210
122 263
122 293
123 133
123 150
123 167
123 262
123 268
123 284
123 288
124 200
124 214
124 227
124 233
124 261
125 134
125 153
125 205
125 256
125 267
126 156
126 157
127 147
127 170
127 284
128 154
128 168
128 180
128 233
128 281
128 298
129 130
129 178
129 194
129 218
129 244
129 246
129 262
129 276
129 281
129 282
130 131
130 137
130 147
130 160
130 163
130 244
130 250
130 275
130 300
131 137
131 142
131 145
131 177
131 193
131 215
131 233
131 284
132 170
132 184
132 231
132 292
133 196
133 223
133 284
134 139
134 140
134 144
134 263
135 163
135 181
135 183
135 213
135 271
136 149
136 217
136 288
136 298
137 143
137 199
137 219
137 250
137 275
137 279
137 296
138 203
138 231
138 239
138 245
138 259
138 278
138 295
140 146
140 163
140 201
140 226
140 241
141 155
141 199
141 200
141 201
141 226
141 229
141 231
141 299
142 145
142 169
142 179
142 184
142 229
143 144
143 160
143 206
143 234
143 262
143 282
144 160
144 207
145 169
145 247
145 248
145 273
145 294
146 153
146 166
146 201
146 258
146 291
147 159
147 234
148 152
148 159
148 195
148 200
148 228
148 233
148 253
148 300
149 187
149 196
149 219
149 221
149 240
149 247
149 254
149 255
150 151
150 207
150 212
150 245
150 261
150 284
151 160
151 175
151 207
151 225
151 255
151 272
151 277
152 188
153 166
153 197
153 206
153 216
153 223
153 273
153 285
154 231
154 244
154 265
154 272
154 281
154 287
155 205
155 259
155 299
156 263
157 190
157 224
157 236
157 278
157 282
157 300
158 212
158 258
158 288
158 289
159 213
159 298
160 163
160 204
160 219
160 227
160 244
160 262
160 267
161 162
161 245
161 271
162 167
162 179
162 192
162 231
162 249
162 290
163 175
163 237
163 244
163 274
163 286
163 294
164 191
164 227
164 229
164 250
164 258
164 293
166 177
166 180
166 189
166 194
166 199
166 206
167 249
167 254
167 258
167 262
168 180
168 203
168 208
170 205
170 215
170 219
170 256
170 280
171 214
171 266
171 289
171 296
171 297
172 191
172 227
173 178
173 193
173 240
174 228
174 262
174 271
175 188
175 214
175 225
175 286
176 191
176 250
176 280
177 206
177 266
177 296
178 276
178 290
178 300
179 184
179 192
179 196
179 219
179 231
179 254
180 268
180 281
181 201
181 291
182 233
182 236
182 251
183 215
183 235
183 262
183 276
184 196
184 241
184 254
185 250
185 288
189 194
189 251
190 200
190 203
190 208
190 237
190 245
190 266
190 273
191 273
191 275
192 196
192 251
193 215
193 220
193 234
193 240
193 248
193 284
193 288
194 223
194 239
194 272
194 274
194 280
195 271
196 254
196 259
197 216
198 209
198 219
198 235
198 282
199 206
200 228
200 233
200 237
200 250
200 266
200 280
201 229
201 291
202 252
202 267
202 271
202 275
202 290
203 208
203 224
203 245
203 283
203 297
205 210
205 216
205 273
206 213
206 222
206 231
206 262
206 266
206 273
206 290
206 295
206 298
207 236
207 266
207 271
207 272
209 221
209 240
209 282
211 284
212 228
212 289
213 223
213 246
213 255
213 286
213 298
215 233
215 260
215 294
216 269
216 278
216 285
217 243
217 266
218 240
218 243
218 270
218 294
219 232
219 254
219 256
219 266
220 235
220 247
220 248
220 277
221 230
221 240
221 286
222 251
222 266
222 298
223 239
223 267
225 238
225 264
225 282
226 236
226 237
226 253
226 297
227 233
227 242
227 244
227 283
228 232
228 271
229 263
231 265
231 272
231 290
233 250
233 261
233 267
233 281
234 247
234 284
235 248
235 285
236 251
236 253
236 297
237 280
237 286
239 267
240 247
240 258
240 272
240 294
242 266
242 295
243 260
243 270
244 275
244 294
245 287
246 272
247 271
247 273
248 249
248 259
248 277
248 287
248 292
249 287
249 292
250 258
250 288
251 298
252 257
252 263
252 271
254 258
255 259
255 283
257 263
257 296
259 270
259 283
259 292
259 299
261 272
262 284
262 285
263 273
264 282
265 272
266 280
266 289
266 295
267 275
269 278
270 294
271 290
271 296
272 282
274 280
275 286
277 298
278 300
281 282
281 298
282 300
283 289
283 292
284 288
*Classes
1
1
1
1
1
1
1
1
1
1
1
1
1
1
1
1
1
1
1
1
1
1
1
1
1
1
1
1
1
1
1
1
1
1
1
1
1
1
1
1
1
1
1
1
1
1
1
1
1
1
1
1
1
1
1
1
1
1
1
1
1
1
1
1
1
1
1
1
1
1
1
1
1
1
1
1
1
1
1
1
1
1
1
1
1
1
1
1
1
1
1
1
1
1
1
1
1
1
1
1
1
1
1
1
1
1
1
1
1
1
1
1
1
1
1
1
1
1
1
1
1
1
1
1
1
1
1
1
1
1
1
1
1
1
1
1
1
1
1
1
1
1
1
1
1
1
1
1
1
1
2
2
2
2
2
2
2
2
2
2
2
2
2
2
2
2
2
2
2
2
2
2
2
2
2
2
2
2
2
2
2
2
2
2
2
2
2
2
2
2
2
2
2
2
2
2
2
2
2
2
2
2
2
2
2
2
2
2
2
2
2
2
2
2
2
2
2
2
2
2
2
2
2
2
2
2
2
2
2
2
2
2
2
2
2
2
2
2
2
2
2
2
2
2
2
2
2
2
2
2
2
2
2
2
2
2
2
2
2
2
2
2
2
2
2
2
2
2
2
2
2
2
2
2
2
2
2
2
2
2
2
2
2
2
2
2
2
2
2
2
2
2
2
2
2
2
2
2
2
2
