*Vertices 300
*Edges
1 20
1 57
1 59
1 96
1 113
1 146
1 157
1 179
1 237
1 250
2 159
2 200
3 121
3 206
3 210
3 216
3 292
4 35
4 127
4 140
4 198
4 292
5 17
5 18
5 130
5 168
5 177
5 241
6 66
6 141
6 224
6 277
7 18
7 20
7 38
7 51
7 71
7 81
7 87
7 172
7 222
8 21
8 72
8 208
8 216
8 238
9 91
10 12
10 23
10 35
10 56
10 91
10 106
10 121
10 122
10 146
10 160
10 193
10 200
10 233
10 234
10 268
11 27
11 65
11 175
11 192
11 217
11 284
12 122
12 134
12 155
12 166
12 200
12 214
12 215
12 220
12 254
13 36
13 39
13 90
13 144
13 186
13 204
13 208
13 252
14 138
14 160
14 183
14 194
14 217
14 239
14 288
14 294
14 296
15 43
15 91
15 164
15 197
15 212
15 269
15 279
16 32
16 101
16 165
16 170
16 295
17 44
17 49
17 167
17 238
17 263
18 56
18 87
18 130
18 168
18 177
18 189
18 202
18 206
18 225
18 252
18 282
19 84
19 184
19 209
19 236
19 240
19 246
20 47
20 51
20 57
20 81
20 156
20 202
21 72
21 80
21 95
21 158
22 68
22 105
22 120
22 125
22 172
22 176
22 192
22 234
22 271
22 278
23 38
23 56
23 58
23 61
23 74
23 76
23 127
23 240
23 274
24 63
24 85
24 129
24 140
24 142
24 152
24 178
24 223
24 237
25 39
25 142
25 156
25 186
25 212
25 229
25 243
25 261
25 262
25 296
26 278
26 300
27 65
27 133
27 134
27 160
27 175
27 246
27 276
27 289
27 298
28 38
28 39
28 50
28 58
28 71
28 81
28 87
28 97
28 99
28 133
28 135
28 150
28 157
28 187
28 229
28 230
28 294
29 104
29 156
29 242
29 243
29 244
30 111
30 127
30 137
30 154
30 157
30 262
30 291
30 292
30 298
31 38
31 71
31 72
31 89
31 95
31 108
31 114
31 119
31 126
31 144
31 201
31 248
31 261
31 274
31 280
32 43
32 49
32 96
32 165
32 215
32 295
33 43
33 54
33 70
33 96
33 111
33 134
33 148
33 207
34 37
34 130
34 169
34 196
34 271
35 40
35 97
35 202
35 205
35 221
35 271
35 280
35 286
36 121
36 144
36 164
36 186
36 226
36 232
37 160
37 185
37 196
37 249
37 288
37 296
38 56
38 61
38 71
38 82
38 126
38 139
38 194
39 69
39 122
39 151
39 186
39 192
39 223
39 229
39 231
39 252
39 285
40 45
40 46
40 97
40 104
40 116
40 161
40 187
40 228
40 229
40 245
40 288
40 296
40 300
41 157
41 188
41 229
41 231
41 264
42 48
42 114
42 126
42 133
42 168
42 171
42 251
43 62
43 72
43 77
43 79
43 91
43 111
43 118
43 146
43 148
43 183
43 197
43 200
43 254
43 269
43 291
43 296
44 167
44 195
44 234
44 259
44 262
45 73
45 94
45 104
45 115
45 116
45 161
45 171
45 187
45 196
45 220
45 242
45 268
45 288
46 202
46 217
46 288
47 106
47 242
47 275
47 282
47 297
47 298
48 52
48 59
48 83
48 148
48 153
48 168
48 293
49 52
49 75
49 116
49 143
49 154
49 167
49 225
50 66
50 74
50 79
50 93
50 131
50 133
50 168
50 207
50 214
50 273
51 62
51 81
51 87
51 119
51 124
51 167
51 219
51 245
51 290
52 127
52 154
52 178
52 182
52 241
52 275
53 205
53 250
54 123
54 176
54 261
54 282
55 83
55 106
55 145
55 173
55 216
55 240
56 58
56 76
56 127
56 146
56 274
56 282
56 296
57 162
57 179
57 207
57 247
57 273
58 97
58 127
58 133
58 163
58 187
58 230
58 265
59 83
59 148
59 178
59 184
59 211
59 219
59 261
59 293
60 87
60 285
61 71
61 174
61 244
61 298
61 299
62 74
62 81
62 100
62 101
62 110
62 147
62 159
62 200
62 207
62 264
62 267
63 157
63 175
63 187
63 237
63 241
63 248
64 85
64 114
64 188
64 198
64 215
65 103
65 222
65 266
65 296
66 107
66 117
66 131
66 168
66 254
66 261
67 90
67 161
67 231
67 253
68 84
68 103
68 127
68 153
68 258
69 86
69 87
69 118
69 143
69 164
69 230
69 272
69 285
70 134
70 148
70 177
70 203
70 227
71 81
71 97
71 150
71 167
71 201
71 293
72 80
72 95
72 158
72 175
72 198
72 291
73 116
73 175
73 193
73 226
73 254
73 265
74 76
74 87
74 100
74 110
74 124
74 131
74 132
74 145
74 147
74 205
74 274
74 283
74 299
75 125
75 143
75 253
75 272
75 292
76 80
76 110
76 131
76 158
76 176
76 193
76 240
77 118
77 171
77 188
78 79
78 119
78 121
78 144
78 146
78 199
78 289
79 89
79 97
79 146
79 150
79 200
79 216
79 221
79 274
80 130
80 209
80 247
80 255
80 260
80 261
80 288
81 99
81 101
81 118
81 133
81 245
81 281
81 290
82 139
82 173
82 295
83 96
83 106
83 112
83 192
83 258
84 103
84 153
84 164
84 190
84 218
84 238
84 248
85 95
85 129
85 152
85 178
85 190
85 213
85 215
86 109
86 126
86 143
86 219
86 224
86 234
86 247
86 260
86 288
86 298
87 119
87 124
87 138
87 143
87 198
87 216
87 240
87 251
87 296
88 100
88 151
88 225
88 236
88 238
88 281
88 287
89 105
89 107
89 119
89 152
89 247
89 274
89 292
89 296
90 128
90 182
90 203
90 204
90 231
90 263
90 275
91 113
91 121
91 164
91 217
91 279
91 299
92 122
92 140
92 146
92 175
92 187
92 201
93 155
93 157
93 269
93 296
94 109
94 115
94 161
94 164
94 211
95 119
95 204
95 209
95 213
95 271
96 113
96 192
96 193
96 217
96 250
97 172
97 175
97 286
98 108
98 142
98 192
98 209
98 249
98 251
99 158
99 231
100 222
100 287
100 290
101 149
101 158
101 169
101 199
101 264
101 270
102 220
102 227
103 125
103 190
103 196
103 262
103 284
103 297
104 174
104 195
104 229
105 173
105 176
105 234
105 236
105 239
105 292
106 275
106 284
107 185
107 247
107 266
107 272
107 300
108 126
108 168
108 285
109 170
109 211
109 214
109 216
109 219
109 232
109 236
109 249
109 298
110 154
110 274
111 137
111 157
111 219
112 158
112 261
113 205
113 217
113 296
114 190
114 191
114 198
114 219
115 119
115 211
115 263
115 272
115 280
116 186
116 193
116 220
117 148
117 230
117 244
117 261
117 265
117 272
117 282
118 160
118 166
118 275
119 138
119 146
119 213
119 216
120 145
120 200
120 225
120 271
120 284
121 144
121 216
121 299
122 140
122 201
122 260
123 225
123 257
124 131
124 132
124 160
124 198
124 240
124 264
124 296
125 143
125 189
125 223
125 275
126 144
126 168
126 215
126 219
126 261
127 134
127 137
127 221
127 222
127 258
127 292
127 294
128 192
128 202
128 203
128 221
128 279
128 294
129 147
129 167
129 178
129 200
129 274
130 154
130 288
130 292
131 229
133 134
133 176
134 137
134 200
134 274
135 170
135 255
135 294
136 158
136 165
136 277
137 167
137 202
137 215
137 222
137 233
137 300
138 146
138 223
138 247
138 295
139 173
139 295
140 142
141 163
141 229
141 236
142 156
142 172
142 192
142 204
142 212
142 230
142 242
142 262
142 277
143 272
144 160
144 176
144 222
145 147
145 178
145 202
145 235
145 260
145 261
145 284
145 290
145 296
146 171
146 183
146 197
146 201
146 275
147 223
147 230
147 274
147 283
147 285
148 173
148 218
148 244
148 265
149 158
149 205
150 167
151 281
151 284
152 232
152 240
152 243
152 247
152 251
152 260
152 276
153 163
153 276
154 241
154 290
154 292
155 157
155 173
155 229
155 254
155 269
156 202
156 208
156 212
156 221
156 244
157 173
157 229
158 162
158 231
158 291
159 264
160 166
160 175
160 187
160 194
160 226
160 250
160 296
161 164
161 207
161 256
161 267
162 166
163 203
163 214
164 228
164 248
165 189
165 215
165 260
165 277
165 298
166 207
166 214
166 221
166 269
166 275
167 184
167 219
167 225
167 233
168 196
168 268
168 287
168 295
169 177
169 256
169 292
170 229
170 234
170 236
170 245
170 263
170 284
170 295
171 275
172 190
173 234
174 195
174 234
174 277
174 293
174 298
175 235
175 240
175 243
176 240
176 243
176 283
177 252
178 187
178 197
178 209
178 249
178 254
178 261
178 271
179 241
179 245
180 183
181 253
182 225
182 275
183 288
184 195
184 225
184 240
184 274
184 283
184 291
185 220
186 199
186 240
186 283
187 191
187 226
187 228
187 249
187 250
187 291
187 292
187 296
187 299
188 198
188 269
189 212
189 252
189 260
189 277
189 290
189 298
190 198
190 217
190 219
190 267
190 284
191 208
191 210
191 215
191 239
191 251
191 289
191 299
192 204
192 217
192 223
192 243
192 262
192 271
192 280
192 281
192 293
193 226
193 227
193 230
193 233
193 238
193 279
195 225
195 244
195 248
196 220
196 264
196 268
196 279
197 207
197 245
197 249
197 267
198 217
198 267
198 269
198 284
199 209
199 213
199 230
199 276
200 222
200 228
200 261
200 274
200 296
201 280
202 208
202 221
202 228
202 248
202 260
202 261
202 281
202 282
203 259
203 265
204 223
205 237
206 246
206 251
207 214
207 266
207 267
208 215
208 251
208 299
209 213
209 254
209 265
210 215
210 233
210 248
210 287
211 219
211 235
211 242
211 244
211 250
211 259
211 266
211 275
214 254
214 267
215 229
215 263
215 272
215 288
215 300
216 220
217 223
217 262
217 267
219 244
219 261
219 266
219 288
219 300
220 227
220 264
220 279
221 279
222 296
223 283
223 291
224 274
224 286
225 228
225 244
225 248
225 274
226 279
226 281
228 248
228 267
228 273
228 277
228 287
228 296
228 298
229 234
229 263
231 258
231 283
231 291
232 237
232 251
233 287
234 236
234 266
234 293
235 243
235 248
235 259
235 284
236 263
236 295
238 248
238 263
238 272
238 284
238 293
239 294
239 299
240 243
240 283
240 291
242 250
244 250
245 249
245 295
246 251
246 266
247 255
247 260
247 276
248 280
248 287
248 296
249 254
249 291
250 275
252 282
253 256
253 260
253 272
253 284
254 272
255 270
255 294
256 260
256 264
256 292
258 300
260 284
261 271
261 277
261 282
261 296
262 280
262 281
263 272
263 284
263 293
266 288
267 270
268 279
268 295
269 275
270 294
271 280
272 293
273 277
273 296
273 298
277 293
277 296
277 297
283 291
283 299
286 300
288 300
289 299
290 298
291 299
*Classes
1
1
1
1
1
1
1
1
1
1
1
1
1
1
1
1
1
1
1
1
1
1
1
1
1
1
1
1
1
1
1
1
1
1
1
1
1
1
1
1
1
1
1
1
1
1
1
1
1
1
1
1
1
1
1
1
1
1
1
1
1
1
1
1
1
1
1
1
1
1
1
1
1
1
1
1
1
1
1
1
1
1
1
1
1
1
1
1
1
1
1
1
1
1
1
1
1
1
1
1
1
1
1
1
1
1
1
1
1
1
1
1
1
1
1
1
1
1
1
1
1
1
1
1
1
1
1
1
1
1
1
1
1
1
1
1
1
1
1
1
1
1
1
1
1
1
1
1
1
1
2
2
2
2
2
2
2
2
2
2
2
2
2
2
2
2
2
2
2
2
2
2
2
2
2
2
2
2
2
2
2
2
2
2
2
2
2
2
2
2
2
2
2
2
2
2
2
2
2
2
2
2
2
2
2
2
2
2
2
2
2
2
2
2
2
2
2
2
2
2
2
2
2
2
2
2
2
2
2
2
2
2
2
2
2
2
2
2
2
2
2
2
2
2
2
2
2
2
2
2
2
2
2
2
2
2
2
2
2
2
2
2
2
2
2
2
2
2
2
2
2
2
2
2
2
2
2
2
2
2
2
2
2
2
2
2
2
2
2
2
2
2
2
2
2
2
2
2
2
2
