*Vertices 300
*Edges
1 88
1 103
1 125
1 133
1 164
1 205
1 290
1 294
2 34
2 38
2 73
2 80
2 120
2 134
2 145
2 162
2 186
2 199
2 253
3 16
3 50
3 57
3 67
3 71
3 81
3 86
3 105
3 114
3 120
3 146
3 152
3 199
3 294
4 14
4 149
4 250
5 6
5 46
5 73
5 109
5 145
5 209
5 222
5 234
5 255
5 262
5 286
6 234
7 28
7 39
7 57
7 76
7 78
7 103
7 126
7 186
7 191
8 34
8 60
8 88
8 102
8 113
8 202
8 275
9 12
9 24
9 41
9 57
9 106
9 129
9 193
9 256
9 260
10 38
10 81
10 99
10 274
10 289
11 27
11 39
11 86
11 104
11 107
11 150
11 185
11 222
12 79
12 122
12 149
12 155
12 184
12 192
12 212
12 236
12 264
12 294
13 30
13 31
13 63
13 92
13 114
13 129
13 137
13 248
14 20
14 42
14 103
14 144
14 158
14 164
14 187
14 257
14 272
14 277
15 21
15 29
15 60
15 75
15 80
15 86
15 89
15 254
16 25
16 39
16 81
16 95
16 99
16 105
16 123
16 129
16 158
16 243
16 262
17 28
17 51
17 64
17 88
17 134
17 140
17 149
17 216
17 279
17 289
18 23
18 27
18 36
18 47
18 50
18 52
18 58
18 77
18 81
18 94
18 99
18 115
18 119
18 157
18 247
19 49
19 59
19 73
19 92
19 142
19 145
19 148
19 206
19 216
19 253
19 270
20 21
20 51
20 61
20 80
20 86
20 103
20 219
20 264
20 276
21 60
21 112
21 176
21 254
21 256
21 273
21 276
22 33
22 75
22 149
22 164
22 188
22 189
22 219
22 222
22 252
22 253
22 257
23 29
23 30
23 52
23 70
23 83
23 159
23 178
23 266
23 295
24 38
24 61
24 136
24 162
24 197
24 207
24 224
25 55
25 72
25 103
25 108
25 215
25 243
25 290
26 61
26 64
26 107
26 113
26 117
26 144
26 150
26 224
26 248
26 300
27 70
27 81
27 119
27 159
27 174
27 220
27 225
27 237
28 57
28 90
28 136
28 139
28 140
28 191
28 196
28 200
28 284
29 86
29 96
29 103
29 281
30 52
30 97
30 103
30 137
30 173
30 243
31 35
31 45
31 103
31 115
31 129
31 148
31 159
31 179
31 204
31 277
32 41
32 73
32 79
32 101
32 113
32 131
32 165
32 194
32 210
33 41
33 47
33 57
33 75
33 102
33 136
33 223
33 251
33 275
34 56
34 83
34 102
34 162
34 181
34 202
34 208
34 239
34 285
35 65
35 109
35 179
35 232
36 51
36 75
36 122
36 141
36 247
36 258
36 275
36 300
37 41
37 63
37 106
37 111
37 203
37 256
38 45
38 76
38 80
38 82
38 86
38 125
38 136
38 241
38 274
39 78
39 95
39 125
39 126
39 185
39 262
39 299
40 74
40 118
40 280
41 57
41 63
41 111
41 283
42 56
42 197
42 245
43 95
43 121
43 123
43 216
44 45
44 65
44 77
44 82
44 103
44 123
44 152
44 180
44 201
44 207
45 125
45 196
46 89
46 263
46 280
47 48
47 77
47 110
47 194
47 208
47 229
47 240
47 263
47 290
48 66
48 77
48 85
48 122
48 131
48 135
48 204
48 228
49 67
49 81
49 134
49 142
49 146
49 158
49 212
49 216
49 245
49 295
50 58
50 67
50 77
50 88
50 94
50 102
50 138
50 146
50 190
50 202
50 260
51 56
51 69
51 81
51 96
51 134
51 141
51 144
52 58
52 77
52 137
52 154
52 157
52 187
53 59
53 65
53 96
53 125
53 250
53 276
54 156
55 72
55 79
55 99
55 103
55 194
55 202
55 214
55 259
56 97
56 139
56 144
56 179
56 240
56 262
56 268
56 271
56 272
57 95
57 136
57 179
57 184
57 191
57 228
57 236
57 293
58 81
58 84
58 99
58 136
58 152
58 252
59 65
59 73
59 94
59 231
59 270
60 94
60 102
60 124
60 143
60 228
60 274
61 76
61 90
61 94
61 111
61 195
61 206
61 283
61 285
61 300
62 130
62 227
62 257
63 75
63 92
63 164
63 217
64 140
64 144
64 294
64 300
65 98
65 107
65 156
65 201
65 232
66 131
66 140
66 168
66 181
66 230
67 80
67 86
67 142
67 239
67 251
67 262
67 284
68 74
68 117
69 96
69 150
69 221
70 200
70 237
71 81
72 101
72 130
72 267
72 283
72 291
73 92
73 95
73 101
73 123
73 145
73 225
73 275
73 285
74 118
74 251
75 86
75 89
75 90
75 150
75 161
75 213
75 217
75 240
75 283
76 115
76 206
76 241
76 244
76 285
77 84
77 122
77 157
77 158
77 167
77 223
77 229
78 95
78 125
78 201
78 247
78 248
78 279
79 91
79 127
79 194
79 264
79 279
80 86
80 125
80 151
80 154
80 205
80 247
81 99
81 129
81 131
81 134
81 136
81 142
81 158
81 254
82 86
82 95
82 201
83 100
83 217
83 256
83 285
84 152
84 166
84 182
84 239
85 90
85 109
85 170
85 198
85 204
85 290
86 200
86 247
86 261
87 171
87 214
87 248
87 256
88 138
88 205
89 96
89 100
89 229
90 101
90 191
90 198
90 283
91 116
91 206
91 219
91 234
91 273
91 278
92 151
92 178
92 277
93 100
93 106
93 125
93 176
93 190
93 259
93 287
94 101
94 110
94 115
94 119
94 252
94 275
94 282
94 283
95 123
95 164
95 236
95 262
96 100
96 125
96 150
96 261
96 269
96 278
97 107
97 262
98 117
98 255
99 194
100 121
100 213
100 237
100 243
101 158
101 202
101 240
101 283
102 170
102 260
102 275
103 159
103 161
103 164
103 191
103 194
103 207
103 218
103 243
104 127
104 151
104 176
104 191
104 195
104 214
104 269
104 277
104 280
105 111
105 123
105 129
105 152
105 219
105 220
105 252
105 259
106 109
106 112
106 190
106 195
106 254
106 256
107 114
107 150
107 156
107 186
107 222
107 244
107 282
108 217
109 231
109 252
109 254
110 132
110 144
110 208
110 237
110 240
110 268
111 117
111 222
111 252
111 255
111 286
112 116
112 134
112 144
112 152
112 195
112 199
112 296
113 152
113 165
113 171
113 175
113 222
114 146
114 164
114 181
114 202
114 211
114 268
115 129
115 166
115 285
115 299
116 171
116 192
116 195
116 202
116 273
116 277
117 252
117 280
118 184
118 213
118 268
118 272
118 282
119 157
119 222
119 252
120 130
120 150
120 199
120 223
120 263
120 278
121 211
121 237
122 145
122 149
122 151
122 155
122 156
122 246
122 271
123 201
123 210
123 220
123 281
124 128
124 206
124 214
125 131
125 136
125 154
126 193
126 223
126 238
126 266
127 133
127 174
127 176
127 180
127 225
127 246
128 255
128 263
129 193
129 196
129 237
129 243
129 265
130 135
131 150
131 199
131 221
131 263
132 134
132 148
132 287
133 143
134 138
134 152
134 186
134 261
134 279
134 296
135 137
135 165
135 179
135 228
136 139
136 184
136 206
136 207
136 247
137 198
138 279
139 181
139 206
139 211
139 268
139 292
140 185
141 207
141 216
141 256
141 261
142 145
142 158
142 245
143 176
143 181
143 211
143 223
143 268
144 187
144 195
144 208
144 248
145 195
145 225
146 164
146 245
146 291
147 152
147 168
147 276
148 206
148 288
148 296
149 242
149 252
149 264
150 185
150 213
150 221
150 242
150 268
150 272
150 282
150 300
151 152
151 190
151 191
151 247
151 276
152 158
152 166
152 171
152 181
152 229
152 236
152 252
152 276
152 279
152 293
153 157
153 170
153 175
153 250
153 267
153 268
153 292
153 294
155 222
155 239
155 258
155 298
156 176
156 178
156 186
156 243
156 246
157 252
157 267
157 287
158 161
158 164
158 166
158 202
158 236
159 177
159 254
159 281
161 194
161 210
161 233
161 236
161 279
162 173
162 285
163 189
163 213
163 214
163 231
163 249
163 250
163 263
163 292
163 294
164 168
164 236
164 257
165 171
165 208
165 212
165 222
165 255
165 260
165 270
166 179
166 188
166 216
166 261
167 216
167 219
167 223
167 260
167 276
168 195
168 201
168 212
168 225
168 232
168 249
168 276
168 294
169 174
169 180
169 220
169 263
169 285
170 204
170 246
170 294
171 174
171 205
171 249
171 254
171 260
171 274
171 283
171 290
171 296
172 209
172 228
172 234
172 259
173 192
173 210
173 255
174 194
174 205
174 207
174 238
174 264
174 285
174 296
174 297
176 268
176 289
177 183
177 273
177 277
178 195
178 262
178 264
178 271
179 184
179 188
179 194
179 204
179 224
179 228
180 219
180 220
180 221
180 237
180 253
180 286
181 202
181 206
181 211
181 215
181 229
181 230
181 239
181 277
181 290
182 186
182 204
182 210
182 234
183 189
184 191
184 195
184 264
185 213
186 234
187 250
187 292
188 271
188 288
189 213
189 234
189 243
190 218
190 245
190 257
190 259
190 274
190 289
191 218
191 238
191 266
191 269
191 275
191 278
191 289
191 300
192 195
192 236
192 255
192 274
192 294
193 223
193 226
193 229
193 238
194 202
194 210
194 214
194 243
194 262
194 267
194 279
195 212
195 223
195 225
195 232
195 264
195 283
196 200
196 268
196 292
198 204
198 209
198 210
198 223
198 235
198 266
198 290
199 210
199 233
199 253
200 235
200 247
200 287
200 299
201 202
201 244
201 251
202 209
202 240
202 244
203 242
203 259
204 210
204 260
205 238
205 252
205 283
205 299
206 277
206 285
207 296
208 221
208 260
208 268
208 290
209 234
209 244
210 255
211 290
212 218
212 223
212 249
212 260
212 265
212 270
212 294
213 227
213 231
213 234
213 242
213 294
214 249
214 256
214 258
214 263
214 280
214 283
214 290
215 229
216 219
216 220
216 223
216 224
216 241
216 242
216 260
216 261
216 276
218 223
218 245
218 246
218 269
218 275
219 233
219 242
219 253
219 257
219 259
220 226
220 285
221 237
221 256
221 295
222 239
222 258
222 282
222 299
223 246
223 269
224 241
224 274
225 260
226 241
226 266
226 280
228 236
229 230
229 279
229 284
231 249
231 267
231 279
233 253
233 259
233 269
234 259
235 262
235 299
236 240
236 262
236 264
236 286
236 293
238 289
238 292
238 294
238 296
239 284
240 272
240 283
241 252
241 261
241 266
241 272
242 252
242 269
242 282
242 297
243 263
243 265
243 277
244 250
244 265
244 268
244 285
244 294
245 257
245 269
245 290
247 258
247 279
247 299
248 270
249 256
249 267
250 294
251 263
251 265
251 275
251 276
251 284
254 274
254 281
255 262
255 286
256 259
256 269
256 280
256 295
258 299
259 269
260 268
260 290
260 292
261 269
261 278
261 300
262 264
262 265
262 277
262 279
263 265
264 285
265 268
265 277
265 294
266 272
267 279
267 284
268 272
268 292
268 294
269 277
270 283
271 278
271 288
273 277
274 289
276 284
277 294
278 288
278 300
279 284
279 287
279 300
280 281
282 300
283 290
284 288
284 300
285 297
292 294
*Classes
1
1
1
1
1
1
1
1
1
1
1
1
1
1
1
1
1
1
1
1
1
1
1
1
1
1
1
1
1
1
1
1
1
1
1
1
1
1
1
1
1
1
1
1
1
1
1
1
1
1
1
1
1
1
1
1
1
1
1
1
1
1
1
1
1
1
1
1
1
1
1
1
1
1
1
1
1
1
1
1
1
1
1
1
1
1
1
1
1
1
1
1
1
1
1
1
1
1
1
1
1
1
1
1
1
1
1
1
1
1
1
1
1
1
1
1
1
1
1
1
1
1
1
1
1
1
1
1
1
1
1
1
1
1
1
1
1
1
1
1
1
1
1
1
1
1
1
1
1
1
2
2
2
2
2
2
2
2
2
2
2
2
2
2
2
2
2
2
2
2
2
2
2
2
2
2
2
2
2
2
2
2
2
2
2
2
2
2
2
2
2
2
2
2
2
2
2
2
2
2
2
2
2
2
2
2
2
2
2
2
2
2
2
2
2
2
2
2
2
2
2
2
2
2
2
2
2
2
2
2
2
2
2
2
2
2
2
2
2
2
2
2
2
2
2
2
2
2
2
2
2
2
2
2
2
2
2
2
2
2
2
2
2
2
2
2
2
2
2
2
2
2
2
2
2
2
2
2
2
2
2
2
2
2
2
2
2
2
2
2
2
2
2
2
2
2
2
2
2
2
