*Vertices 300
*Edges
1 2
1 47
1 68
1 102
1 113
1 179
1 256
1 281
2 17
2 32
2 35
2 47
2 62
2 64
2 113
2 122
2 200
2 208
2 272
2 274
2 281
2 287
3 16
3 44
3 69
3 110
3 130
3 133
3 146
3 196
3 215
3 217
3 223
3 227
3 241
3 262
3 279
4 55
4 114
4 116
4 158
4 265
4 266
4 297
5 32
5 48
5 67
5 129
5 134
5 152
5 186
5 198
5 207
5 215
5 217
5 220
5 221
5 227
5 240
5 251
5 274
5 284
5 296
6 20
6 75
6 87
6 93
6 99
6 100
6 119
6 125
6 173
6 230
6 231
6 237
6 243
6 264
6 282
7 172
7 265
7 273
7 294
8 17
8 20
8 24
8 96
8 137
8 145
8 180
8 188
8 193
8 221
8 252
8 255
8 268
9 14
9 32
9 41
9 59
9 62
9 76
9 81
9 89
9 90
9 95
9 113
9 135
9 213
9 255
10 18
10 31
10 39
10 66
10 82
10 107
10 112
10 167
10 173
10 179
10 233
10 240
10 281
11 30
11 54
11 105
11 117
11 202
11 212
11 241
11 282
12 66
12 82
12 120
12 153
12 213
12 251
12 255
12 299
13 21
13 48
13 67
13 97
13 122
13 138
13 158
13 177
13 180
13 198
13 250
13 279
13 296
14 32
14 33
14 41
14 76
14 90
14 95
14 132
14 149
14 206
14 224
14 225
14 242
14 265
15 30
15 40
15 85
15 139
15 143
15 168
15 201
15 227
15 242
15 289
15 292
16 22
16 56
16 76
16 93
16 111
16 116
16 128
16 130
16 184
16 218
16 224
16 234
16 239
16 241
16 262
16 274
17 20
17 32
17 37
17 62
17 78
17 131
17 148
17 149
17 156
17 177
17 209
17 210
17 252
18 31
18 39
18 55
18 92
18 101
18 146
18 157
18 200
18 208
18 214
18 240
19 79
19 117
19 136
19 185
19 241
19 250
19 292
20 24
20 38
20 71
20 82
20 83
20 87
20 104
20 119
20 137
20 157
20 158
20 173
20 202
20 260
20 262
20 268
21 36
21 48
21 76
21 78
21 84
21 98
21 125
21 161
21 189
21 193
21 263
21 287
21 289
21 298
22 56
22 128
22 153
22 184
23 50
23 64
23 71
23 79
23 107
23 121
23 168
23 192
23 203
23 241
23 243
23 253
24 31
24 38
24 45
24 79
24 95
24 188
24 195
24 226
24 229
24 231
24 276
24 280
25 33
25 53
25 67
25 88
25 103
25 108
25 141
25 150
25 161
25 213
25 217
25 218
25 223
25 255
26 39
26 71
26 159
26 293
27 34
27 58
27 59
27 74
27 81
27 100
27 117
27 183
27 224
27 274
27 292
27 300
28 48
28 103
28 224
28 240
29 32
29 39
29 76
29 117
29 122
29 193
29 195
29 259
29 292
30 88
30 105
30 148
30 168
30 197
30 212
30 232
30 241
30 288
31 45
31 55
31 59
31 78
31 81
31 163
31 167
31 175
31 208
31 264
31 267
31 274
32 62
32 76
32 131
32 147
32 154
32 160
32 187
32 198
32 210
32 212
32 228
32 254
32 267
32 274
33 35
33 53
33 67
33 108
33 132
33 152
33 184
33 211
33 218
33 224
33 257
33 291
33 299
34 59
34 70
34 74
34 97
34 122
34 186
34 189
34 198
34 213
34 217
34 299
35 64
35 119
35 152
35 160
35 237
36 43
36 54
36 55
36 66
36 73
36 76
36 78
36 82
36 92
36 95
36 98
36 103
36 114
36 122
36 125
36 141
36 153
36 173
37 53
37 57
37 96
37 124
37 139
37 145
37 210
37 272
37 275
38 45
38 79
38 95
38 181
38 188
38 195
38 226
38 241
38 284
39 117
39 146
39 157
39 159
39 266
40 67
40 84
40 114
40 139
40 150
40 158
40 168
40 176
40 233
40 237
40 292
41 63
41 69
41 76
41 84
41 108
41 131
41 153
41 180
41 230
41 244
42 44
42 80
42 82
42 87
42 93
42 107
42 116
43 54
43 100
43 125
43 127
43 176
43 197
43 201
43 219
43 248
44 80
44 87
44 116
44 126
44 146
44 147
45 55
45 59
45 70
45 117
45 166
45 182
46 52
46 56
46 67
46 150
46 177
46 178
46 214
46 217
46 227
46 294
46 296
47 54
47 63
47 102
47 105
47 128
47 143
47 173
47 174
47 197
47 247
47 299
48 198
48 203
48 228
48 240
49 73
49 101
49 293
50 116
50 143
50 158
50 163
51 85
51 151
51 206
51 268
51 291
52 56
52 188
52 198
53 108
53 132
53 139
53 145
53 253
54 91
54 98
54 99
54 105
54 125
54 130
54 143
54 154
54 174
54 189
54 193
54 215
54 217
54 240
54 244
54 279
55 78
55 114
55 116
55 131
55 135
55 164
55 177
55 196
55 208
55 223
55 237
55 238
55 289
56 76
56 111
56 128
56 241
56 263
56 296
57 107
57 116
57 124
58 98
58 100
58 138
58 211
58 213
58 233
58 288
59 81
59 100
59 154
59 167
59 175
59 183
59 188
59 200
59 205
59 245
59 274
60 86
60 124
60 214
60 249
60 289
61 66
61 103
61 165
61 189
61 192
61 241
62 95
62 96
62 147
62 187
62 216
62 267
63 84
63 128
63 143
63 192
63 238
64 71
64 73
64 77
64 79
64 110
64 118
64 119
64 203
64 236
64 243
64 287
64 299
65 79
65 121
65 136
65 179
65 199
65 269
65 296
66 82
66 90
66 105
66 156
66 158
66 164
66 188
66 218
66 237
66 250
66 286
66 291
67 88
67 97
67 102
67 103
67 141
67 150
67 151
67 197
67 214
67 217
67 220
67 259
67 285
68 113
69 116
69 131
69 166
69 182
69 226
69 230
69 244
69 287
70 74
70 117
70 188
70 196
70 213
70 223
70 255
70 267
70 300
71 79
71 83
71 96
71 99
71 118
71 246
71 293
72 87
72 151
72 155
72 183
72 184
72 218
72 219
72 228
72 297
73 98
73 101
73 103
73 106
73 119
73 253
74 92
74 94
74 169
74 188
74 190
75 91
75 93
75 98
75 112
75 142
75 150
75 212
75 237
75 298
76 98
76 138
76 173
76 195
76 212
76 265
77 98
77 110
77 135
77 167
77 171
77 174
77 178
77 179
77 251
77 284
78 125
78 164
78 173
78 190
78 196
78 262
78 268
78 292
79 107
79 116
79 121
79 136
79 157
79 167
79 253
79 259
80 112
80 124
80 162
80 168
80 223
80 292
81 140
81 160
81 190
81 196
81 227
81 233
81 237
81 245
81 274
81 277
82 98
82 107
82 116
82 131
82 141
82 165
82 260
82 281
83 96
83 104
83 118
83 143
83 207
83 227
83 300
84 89
84 114
84 122
84 165
84 172
84 176
84 192
84 238
84 289
85 90
85 98
85 110
85 120
85 130
85 139
85 148
85 188
85 233
85 255
85 268
85 270
85 280
87 91
87 93
87 116
87 297
88 153
88 161
88 173
88 232
88 241
88 258
88 266
89 90
89 129
89 130
89 172
89 273
90 100
90 110
90 113
90 130
90 135
90 137
90 184
91 93
91 98
91 100
91 112
91 135
91 150
91 153
91 155
91 174
91 183
91 184
91 195
91 210
91 213
91 280
91 284
92 94
92 114
92 140
92 146
92 212
92 213
92 215
92 218
92 240
92 255
92 267
93 142
93 146
93 153
93 184
93 210
93 282
94 188
94 218
95 98
95 165
95 185
95 226
95 241
96 106
96 145
96 147
96 211
96 281
96 283
97 122
97 138
97 181
97 198
97 217
97 241
97 283
98 100
98 130
98 135
98 162
98 174
98 177
98 206
98 213
98 217
98 255
98 275
98 290
99 100
99 125
99 202
99 229
99 241
100 105
100 125
100 156
100 172
100 182
100 184
100 187
100 216
100 231
100 263
101 132
101 146
101 157
101 200
101 214
101 224
101 265
101 294
101 299
102 150
102 159
102 201
102 253
102 299
103 114
103 122
103 125
103 141
103 151
103 165
103 182
103 199
103 211
103 220
103 257
103 285
103 288
104 133
104 187
104 229
104 234
104 236
104 300
105 164
106 119
106 145
106 147
106 173
106 281
107 116
107 121
107 260
108 155
108 159
108 186
108 212
108 218
108 221
108 298
109 123
109 274
110 113
110 135
110 148
110 171
110 196
110 236
110 262
110 286
110 292
110 298
111 128
111 197
111 244
111 289
111 299
112 223
112 252
112 253
112 262
112 280
113 120
113 129
113 130
113 148
113 165
113 179
113 187
113 189
113 201
113 231
113 274
113 281
113 298
114 135
114 146
114 218
114 237
114 238
114 240
114 267
114 291
115 152
115 163
115 239
116 131
116 218
117 159
117 161
117 185
117 188
117 192
117 259
117 274
117 292
117 298
118 121
118 299
119 137
119 158
119 160
119 173
119 198
119 236
119 262
119 276
120 139
120 148
121 167
122 163
122 165
122 193
122 195
123 300
124 182
124 211
124 246
124 265
124 272
124 287
124 289
125 127
125 154
125 173
125 230
125 231
126 146
126 207
126 260
126 300
127 128
127 143
127 178
127 215
127 271
127 280
127 294
128 143
128 178
128 184
128 188
128 206
128 239
128 285
129 134
129 177
129 179
129 289
130 148
130 188
130 218
130 247
130 254
130 261
130 290
130 291
131 149
131 210
132 245
132 290
132 294
133 160
133 214
133 215
133 234
133 237
133 259
133 273
133 293
134 171
134 177
134 178
134 197
134 225
134 284
134 290
134 295
135 154
135 164
135 183
135 189
135 213
135 274
135 298
136 168
136 206
136 230
136 257
136 294
137 236
137 262
137 300
138 266
139 168
139 255
139 268
140 141
140 153
140 227
140 284
141 153
141 156
141 162
141 194
141 215
141 253
141 255
142 153
142 192
142 206
143 163
143 178
143 226
143 247
143 277
143 300
144 156
144 168
144 277
144 298
145 211
145 266
145 272
146 151
146 153
146 157
146 184
146 215
146 218
146 260
146 281
147 257
148 223
149 177
149 180
149 206
150 160
150 217
150 252
150 259
151 182
151 215
151 230
151 281
152 221
152 247
152 250
153 194
153 215
153 232
153 289
154 183
154 194
154 206
154 254
154 265
155 183
155 219
155 265
156 161
156 184
156 210
156 218
156 223
156 233
156 234
156 263
156 285
156 291
156 298
157 158
158 239
158 258
158 264
158 268
158 279
158 292
159 223
159 259
159 286
160 181
160 198
160 205
160 237
160 250
160 274
160 286
160 289
160 298
161 189
161 193
161 212
161 223
161 244
161 289
161 298
162 164
162 168
162 176
162 177
162 181
162 201
162 243
162 255
162 290
163 175
163 240
163 263
163 264
163 267
163 293
164 168
164 197
164 201
164 203
164 216
164 237
164 255
164 292
165 182
166 185
166 209
166 278
167 179
167 210
167 231
167 272
167 275
167 284
167 295
168 197
168 243
168 255
168 277
168 298
169 190
169 196
169 290
170 211
170 265
170 276
170 299
171 177
171 178
171 179
171 222
171 231
171 251
171 261
171 265
171 271
172 175
172 182
172 187
172 248
172 256
172 263
172 273
172 274
173 247
173 266
173 290
174 179
174 186
174 206
174 225
174 235
174 251
174 255
174 290
174 296
175 182
175 187
175 216
175 248
175 256
175 277
175 287
175 289
175 293
176 252
176 271
176 290
177 190
177 206
177 225
177 238
177 242
177 290
177 296
178 200
178 271
178 294
179 189
179 199
179 231
179 251
179 255
179 272
179 274
179 285
180 206
180 225
180 230
180 242
180 296
181 198
181 234
181 241
181 293
182 246
182 250
182 256
183 188
183 265
183 266
184 218
184 267
184 270
184 300
185 209
185 292
186 191
186 192
186 296
187 205
187 216
187 236
187 274
187 277
187 287
187 293
187 300
188 193
188 202
188 243
188 268
188 280
188 291
189 192
189 193
189 198
189 251
189 268
189 298
190 196
190 272
190 274
190 290
190 300
191 224
191 289
191 296
192 205
192 220
192 241
192 274
192 289
193 206
193 213
193 244
193 255
193 271
194 205
194 227
194 244
194 252
194 254
194 289
196 223
196 224
196 274
196 286
196 289
196 290
197 201
197 237
197 244
198 234
198 237
198 241
198 268
199 213
199 251
199 252
199 255
199 280
199 285
200 245
200 267
200 270
200 294
200 300
201 242
201 244
201 255
201 256
202 207
202 222
202 227
202 229
202 261
202 268
202 280
203 240
204 227
204 279
205 252
205 260
205 274
206 225
206 235
206 251
206 271
206 290
207 227
207 243
207 291
208 264
208 287
208 289
209 239
209 285
211 257
211 265
211 288
212 298
213 217
213 255
214 237
215 217
215 230
215 240
216 237
217 230
217 240
217 263
217 276
217 291
218 233
218 251
218 291
220 241
220 242
221 258
222 261
222 264
222 271
223 250
223 263
223 286
224 234
224 244
224 258
224 264
224 274
224 289
225 242
225 271
226 277
227 244
227 279
227 289
228 296
229 268
230 296
231 261
231 265
233 251
233 277
233 281
233 291
233 292
234 263
234 289
236 276
236 292
237 250
237 282
237 292
238 248
238 300
239 258
239 264
239 281
239 285
240 263
240 285
241 292
241 293
242 256
243 283
243 291
244 289
244 299
245 294
245 298
246 250
247 261
247 290
248 284
248 295
248 300
250 274
250 286
251 255
252 271
252 280
258 264
258 270
259 286
261 265
262 268
262 280
263 276
263 285
264 267
264 271
264 300
265 266
265 284
265 299
266 299
267 270
267 292
267 300
269 273
269 287
270 300
272 275
273 287
273 294
274 289
274 298
274 300
276 281
276 285
276 291
277 281
277 292
281 285
281 292
283 291
284 286
284 295
284 299
285 291
287 289
289 298
*Classes
1
1
1
1
1
1
1
1
1
1
1
1
1
1
1
1
1
1
1
1
1
1
1
1
1
1
1
1
1
1
1
1
1
1
1
1
1
1
1
1
1
1
1
1
1
1
1
1
1
1
1
1
1
1
1
1
1
1
1
1
1
1
1
1
1
1
1
1
1
1
1
1
1
1
1
1
1
1
1
1
1
1
1
1
1
1
1
1
1
1
1
1
1
1
1
1
1
1
1
1
1
1
1
1
1
1
1
1
1
1
1
1
1
1
1
1
1
1
1
1
1
1
1
1
1
1
1
1
1
1
1
1
1
1
1
1
1
1
1
1
1
1
1
1
1
1
1
1
1
1
2
2
2
2
2
2
2
2
2
2
2
2
2
2
2
2
2
2
2
2
2
2
2
2
2
2
2
2
2
2
2
2
2
2
2
2
2
2
2
2
2
2
2
2
2
2
2
2
2
2
2
2
2
2
2
2
2
2
2
2
2
2
2
2
2
2
2
2
2
2
2
2
2
2
2
2
2
2
2
2
2
2
2
2
2
2
2
2
2
2
2
2
2
2
2
2
2
2
2
2
2
2
2
2
2
2
2
2
2
2
2
2
2
2
2
2
2
2
2
2
2
2
2
2
2
2
2
2
2
2
2
2
2
2
2
2
2
2
2
2
2
2
2
2
2
2
2
2
2
2
