*Vertices 300
*Edges
1 32
1 52
1 70
1 71
1 89
1 108
1 142
1 164
2 210
3 14
3 21
3 40
3 45
3 47
3 60
3 89
3 108
3 117
4 22
4 28
4 30
4 37
4 60
4 103
4 116
4 174
4 206
5 10
5 74
5 114
5 215
5 285
6 17
6 37
6 79
6 127
6 148
6 150
6 206
6 208
6 209
6 239
6 253
6 299
7 15
7 54
7 135
7 177
7 190
7 262
7 283
8 50
8 52
8 61
8 70
8 101
8 147
8 149
8 151
8 218
8 235
8 300
9 26
9 31
9 94
9 118
9 137
9 142
9 167
9 185
9 192
9 195
9 212
9 243
9 272
10 33
10 40
10 50
10 74
10 91
10 157
10 191
10 207
10 224
10 264
11 27
11 101
11 104
11 109
11 138
11 143
11 156
11 212
11 214
11 220
11 286
11 294
12 24
12 46
12 49
12 52
12 69
12 84
12 87
12 93
12 156
12 184
12 292
13 28
13 57
13 95
13 139
13 172
13 182
13 184
13 225
13 289
14 21
14 45
14 60
14 70
14 89
14 117
14 121
14 127
14 139
14 165
14 172
14 208
14 236
14 274
15 49
15 51
15 54
15 79
15 84
15 122
15 192
15 207
15 249
15 255
15 273
16 88
16 205
16 248
16 265
17 21
17 30
17 45
17 55
17 88
17 104
17 111
17 118
17 136
17 150
17 159
17 169
17 182
17 196
17 239
17 286
18 32
18 47
18 72
18 74
18 113
18 131
18 154
18 213
18 233
18 249
18 281
19 22
19 36
19 108
19 119
19 120
19 132
19 145
19 230
19 254
19 261
19 290
20 41
20 55
20 57
20 67
20 83
20 84
20 93
20 94
20 104
20 107
20 118
20 130
20 138
20 142
20 166
20 254
20 263
20 278
21 88
22 37
22 58
22 96
22 116
22 120
22 147
22 156
22 166
22 207
22 245
22 280
22 293
23 54
23 71
23 84
23 120
23 140
23 193
23 250
23 257
24 79
24 87
24 89
24 105
24 127
24 212
24 220
24 237
24 239
24 290
25 88
25 131
25 166
25 298
26 36
26 59
26 63
26 64
26 65
26 112
26 132
26 142
26 164
26 179
27 39
27 51
27 81
27 86
27 109
27 124
27 128
27 162
27 213
27 284
27 286
27 294
28 41
28 50
28 60
28 91
28 139
28 184
28 191
28 194
28 200
28 209
28 241
28 278
29 231
30 110
30 116
30 126
30 154
30 159
30 162
31 57
31 137
31 299
32 47
32 71
32 108
32 116
32 173
32 205
32 219
32 245
32 291
33 39
33 47
33 72
33 74
33 82
33 86
33 98
33 117
33 212
33 225
33 239
34 52
34 134
34 135
34 141
34 173
34 203
34 246
34 272
35 83
35 114
35 182
35 222
37 75
37 127
37 161
37 206
37 295
38 247
38 253
38 293
39 128
39 135
39 183
39 212
39 249
40 117
40 129
40 149
40 191
40 251
41 156
41 184
41 193
41 205
41 241
41 278
42 72
42 90
42 98
42 99
42 261
43 56
43 63
43 121
43 184
43 206
43 263
44 46
44 103
44 123
44 124
44 186
44 249
45 55
45 82
45 96
45 108
45 123
45 138
45 145
45 259
46 139
46 160
46 186
46 197
47 72
47 113
47 157
47 166
47 193
47 206
47 297
48 75
48 87
48 89
48 97
48 112
48 143
48 162
48 171
48 224
48 278
49 52
49 53
49 89
49 103
49 131
49 295
50 61
50 72
50 83
50 167
50 173
50 199
50 209
50 262
50 294
50 296
51 76
51 81
51 86
51 128
51 149
51 196
51 217
51 222
51 273
51 284
51 294
51 295
51 300
52 70
52 87
52 88
52 89
52 101
52 131
52 141
52 151
52 166
52 269
52 295
53 96
53 129
53 150
53 154
53 156
53 176
53 191
53 252
53 255
53 283
53 284
53 295
54 76
54 84
54 126
54 202
54 203
54 229
54 278
55 123
55 138
55 208
56 76
56 82
56 93
56 121
56 126
56 135
56 144
56 155
56 184
56 291
57 95
57 112
57 142
57 229
57 232
57 260
57 285
57 289
58 88
58 129
58 135
58 228
58 245
58 281
59 65
59 85
59 89
59 101
59 112
59 286
60 96
60 120
60 151
60 178
60 191
60 257
61 83
61 173
61 243
61 274
62 105
62 119
62 124
62 158
62 162
62 188
62 200
63 64
63 283
64 65
64 71
64 77
64 84
64 86
64 107
64 112
64 146
64 213
64 256
64 277
65 137
66 168
66 170
66 208
66 223
66 229
66 265
67 92
67 147
67 198
67 254
67 261
67 283
68 88
68 95
68 104
68 121
68 155
68 230
69 78
69 79
69 86
69 163
69 237
70 81
70 85
70 101
70 104
70 137
70 142
70 146
70 149
70 151
70 156
70 165
70 182
70 254
71 146
71 193
71 213
72 74
72 86
72 98
72 142
72 242
72 262
72 282
72 298
73 74
73 82
73 168
73 183
73 276
74 82
74 131
74 281
74 287
75 87
75 112
75 133
75 161
75 162
75 167
75 209
75 229
76 121
76 126
76 162
76 202
76 225
76 246
77 83
77 86
77 100
77 101
77 122
77 129
77 210
77 282
77 289
77 290
78 168
78 237
78 242
78 249
78 256
79 108
79 122
79 136
79 145
79 237
79 239
79 265
79 272
80 128
80 176
81 85
81 91
81 135
81 137
81 140
81 147
82 93
82 123
82 155
82 175
82 218
82 220
82 246
82 264
83 100
83 116
83 130
83 142
83 176
83 182
83 189
83 271
83 295
83 296
84 86
84 96
84 120
84 128
84 136
84 151
84 156
84 184
84 278
84 280
84 298
85 112
85 137
85 146
85 156
85 206
85 253
86 186
86 196
86 230
86 262
87 156
87 161
87 167
87 213
88 104
88 121
88 123
88 129
88 131
88 149
88 150
88 194
88 205
89 127
89 139
89 165
89 278
89 286
90 98
90 99
90 185
90 202
90 245
90 252
91 184
91 194
91 209
92 181
92 189
92 254
93 107
93 133
93 184
93 220
93 256
93 269
94 118
94 139
95 104
95 172
95 207
95 227
95 282
95 297
95 298
96 120
96 123
96 141
96 150
96 191
96 246
96 272
96 298
97 99
97 120
97 130
97 222
97 274
97 291
98 200
98 235
99 100
99 101
99 130
99 143
99 150
99 185
99 190
99 207
99 212
99 226
99 228
99 241
99 252
99 255
99 258
99 276
100 101
100 108
100 109
100 122
100 143
100 145
100 195
100 296
101 104
101 146
101 147
101 150
101 156
101 159
101 207
102 159
102 256
103 116
103 123
103 163
103 174
103 232
103 253
103 256
103 259
104 121
104 129
104 130
104 146
104 161
104 210
104 220
104 235
104 257
104 260
104 266
105 144
105 162
105 197
105 234
105 290
106 127
106 135
106 227
106 271
107 229
107 256
108 116
108 138
108 143
108 145
108 149
108 177
108 185
108 186
108 212
108 279
108 290
109 145
109 174
109 260
110 122
110 126
110 134
110 136
110 154
110 161
110 205
110 249
111 136
111 150
111 196
111 205
111 241
112 132
112 179
112 229
112 260
113 292
113 294
114 147
114 280
115 172
115 205
115 206
115 252
115 282
115 289
116 290
118 142
118 154
118 169
118 250
118 285
119 170
119 188
120 147
120 254
120 257
121 134
121 144
121 167
121 209
121 236
122 136
122 160
122 182
122 237
122 273
122 294
123 124
123 126
123 149
123 226
123 248
123 265
124 183
124 188
124 242
124 290
124 294
125 143
125 198
125 203
125 207
125 235
125 265
126 136
126 149
126 154
126 161
126 177
126 205
126 227
127 134
127 227
127 299
128 151
128 157
128 162
128 165
128 212
128 226
128 236
129 131
129 135
129 166
129 169
129 174
129 191
129 194
129 210
129 282
129 298
130 146
130 189
130 225
130 235
130 250
130 285
131 152
132 254
133 142
133 143
133 154
133 162
133 168
133 206
133 243
133 262
133 263
133 285
133 294
134 136
134 203
134 234
134 236
134 248
134 289
134 290
135 144
135 166
135 177
135 221
135 249
135 276
136 151
136 181
136 237
136 273
137 140
137 147
137 226
137 238
137 252
137 254
137 285
138 143
138 254
140 231
140 248
140 264
141 158
141 191
141 286
142 149
142 192
142 200
142 205
142 243
142 254
142 262
142 271
143 212
143 258
143 278
144 223
144 276
145 263
146 147
146 167
146 182
146 185
146 209
146 253
146 269
146 277
147 259
147 261
148 201
148 206
148 215
148 239
149 185
149 217
149 266
149 269
149 279
150 159
150 171
150 220
150 258
150 281
150 286
151 165
151 178
151 190
151 191
151 226
151 252
152 250
152 268
153 189
153 190
153 234
154 156
154 161
154 223
154 227
154 231
154 249
154 281
154 284
155 167
155 196
155 209
155 223
155 230
155 241
155 264
156 221
156 227
156 255
156 280
157 165
157 193
157 195
157 207
157 248
157 274
157 282
157 284
157 300
159 162
159 181
159 182
159 256
159 288
160 186
160 266
160 273
160 299
161 206
162 167
162 168
162 181
162 182
162 205
162 213
162 245
162 284
162 296
163 166
163 169
163 256
163 259
163 286
163 297
164 169
164 173
164 177
164 192
164 213
164 281
164 286
164 287
165 199
165 223
165 241
165 276
165 290
166 171
166 183
166 199
166 227
166 249
166 268
166 269
166 297
167 208
167 209
167 241
167 272
168 183
168 205
168 223
168 224
168 245
168 270
169 174
169 177
169 190
169 214
169 231
169 232
169 286
169 294
170 188
170 189
171 211
171 213
171 221
171 251
171 286
171 297
172 184
172 252
173 177
173 245
173 262
173 274
174 184
174 190
175 218
176 248
176 263
176 283
176 294
176 295
177 205
177 212
177 227
177 233
177 249
177 297
178 190
178 227
179 270
180 295
181 216
181 296
182 294
183 269
183 294
183 300
184 200
184 259
184 271
184 287
184 292
184 294
184 299
185 202
185 223
185 269
185 271
186 196
186 223
186 254
186 266
188 191
188 200
188 225
188 239
188 242
188 272
188 289
189 190
189 214
189 229
189 244
189 250
189 258
189 280
190 214
190 220
190 229
190 231
190 234
190 235
190 258
190 283
191 210
191 221
191 227
191 239
191 292
191 300
192 212
192 273
192 279
192 280
192 281
193 207
193 278
193 300
194 264
195 212
195 281
196 205
196 230
197 209
197 232
197 234
197 251
197 262
197 283
197 290
198 235
198 261
199 219
199 222
199 241
199 245
199 251
199 269
199 284
200 202
200 207
200 230
200 238
200 243
200 255
200 295
201 205
201 245
201 253
201 259
202 243
202 245
204 236
205 219
205 241
205 245
205 254
206 221
206 253
206 263
206 297
207 211
207 224
207 236
207 248
207 255
207 265
207 274
207 280
207 282
207 284
207 293
208 236
208 239
208 274
209 232
209 234
209 272
209 278
210 218
210 219
210 220
210 292
210 300
211 282
211 289
211 296
212 279
213 237
213 249
214 232
214 286
215 228
215 229
215 239
215 250
215 285
215 296
217 223
217 241
217 248
217 253
217 300
218 222
218 235
218 252
218 300
219 237
219 245
219 300
220 231
220 239
220 281
220 286
220 294
221 227
221 254
221 260
221 297
222 274
222 291
223 228
223 229
223 241
223 248
223 253
223 269
223 276
223 289
225 233
225 246
225 250
225 264
225 282
225 289
226 230
226 252
226 265
226 290
226 292
227 281
227 297
228 252
228 258
228 281
228 289
229 237
229 239
229 278
229 290
229 300
230 243
230 275
230 290
230 292
231 273
231 281
232 259
232 267
233 246
233 249
233 262
233 297
234 235
234 262
234 290
234 294
235 260
235 273
235 290
236 284
237 239
237 245
237 249
238 243
238 291
239 267
239 275
239 290
239 292
239 297
240 258
241 272
241 276
243 255
243 276
243 291
244 280
245 259
245 270
245 281
246 264
246 272
246 274
246 279
248 283
249 250
249 292
250 260
250 285
251 255
251 269
251 283
251 284
251 297
252 278
252 283
252 300
253 300
254 259
254 260
254 266
254 278
255 283
258 289
259 299
260 285
261 283
262 275
262 283
262 292
262 294
263 292
263 294
264 274
265 272
266 269
268 269
271 279
271 292
272 279
273 286
273 299
275 289
275 290
278 293
278 300
280 281
281 289
282 289
282 298
287 292
289 290
290 297
292 294
*Classes
1
1
1
1
1
1
1
1
1
1
1
1
1
1
1
1
1
1
1
1
1
1
1
1
1
1
1
1
1
1
1
1
1
1
1
1
1
1
1
1
1
1
1
1
1
1
1
1
1
1
1
1
1
1
1
1
1
1
1
1
1
1
1
1
1
1
1
1
1
1
1
1
1
1
1
1
1
1
1
1
1
1
1
1
1
1
1
1
1
1
1
1
1
1
1
1
1
1
1
1
1
1
1
1
1
1
1
1
1
1
1
1
1
1
1
1
1
1
1
1
1
1
1
1
1
1
1
1
1
1
1
1
1
1
1
1
1
1
1
1
1
1
1
1
1
1
1
1
1
1
2
2
2
2
2
2
2
2
2
2
2
2
2
2
2
2
2
2
2
2
2
2
2
2
2
2
2
2
2
2
2
2
2
2
2
2
2
2
2
2
2
2
2
2
2
2
2
2
2
2
2
2
2
2
2
2
2
2
2
2
2
2
2
2
2
2
2
2
2
2
2
2
2
2
2
2
2
2
2
2
2
2
2
2
2
2
2
2
2
2
2
2
2
2
2
2
2
2
2
2
2
2
2
2
2
2
2
2
2
2
2
2
2
2
2
2
2
2
2
2
2
2
2
2
2
2
2
2
2
2
2
2
2
2
2
2
2
2
2
2
2
2
2
2
2
2
2
2
2
2
