*Vertices 300
*Edges
1 10
1 26
1 81
1 90
1 100
1 112
1 131
1 132
1 138
1 154
1 229
1 247
2 48
2 84
2 95
2 101
2 109
2 127
2 145
2 156
2 210
2 217
2 230
2 296
3 14
3 16
3 48
3 54
3 76
3 93
3 119
3 150
3 159
3 164
3 202
3 220
3 222
4 33
4 45
4 106
4 108
4 128
4 263
4 267
5 23
5 24
5 50
5 67
5 69
5 105
5 107
5 210
5 219
5 230
5 258
5 261
5 297
6 133
6 136
6 229
6 247
6 291
7 84
7 152
7 206
7 219
8 18
8 188
8 209
8 216
9 12
9 49
9 66
9 127
9 156
9 191
9 239
9 251
10 26
10 34
10 70
10 80
10 91
10 99
10 133
10 138
10 152
10 176
10 189
10 195
10 216
10 229
10 241
10 287
10 290
11 44
11 119
11 163
11 167
11 258
11 262
12 100
12 106
12 112
12 156
12 179
12 198
12 218
12 236
12 251
13 93
14 76
14 84
14 106
14 145
14 206
14 216
14 278
14 288
15 42
15 46
15 122
15 129
15 134
15 136
15 153
15 188
15 189
15 243
15 279
15 293
16 93
16 159
17 61
17 114
17 157
17 209
17 215
17 231
17 243
18 76
18 150
18 214
18 216
18 217
19 22
19 26
19 45
19 58
19 67
19 69
19 70
19 93
19 97
19 98
19 132
19 142
19 145
19 185
19 229
19 259
20 28
20 33
20 43
20 48
20 61
20 82
20 83
20 84
20 87
20 180
20 197
20 200
20 210
20 289
20 296
21 75
21 79
21 91
21 96
21 197
21 213
21 243
21 287
21 294
22 31
22 32
22 33
22 43
22 45
22 46
22 53
22 64
22 84
22 140
22 151
22 161
22 165
22 171
22 172
22 174
22 283
22 299
23 24
23 43
23 58
23 85
23 91
23 108
23 167
23 175
23 258
23 268
23 288
24 27
24 33
24 69
24 105
24 122
24 129
24 133
24 148
24 156
24 193
24 226
24 237
24 276
25 90
25 147
25 178
26 66
26 67
26 72
26 132
26 160
26 290
27 28
27 48
27 60
27 66
27 84
27 110
27 122
27 128
27 133
27 183
27 223
27 293
28 31
28 33
28 35
28 85
28 128
28 133
28 140
28 190
28 203
28 223
28 230
28 237
28 273
29 67
29 151
29 152
29 168
29 170
29 228
29 234
29 278
29 281
29 289
30 42
30 57
30 99
30 110
30 141
30 143
30 159
30 248
30 261
30 274
30 275
31 32
31 33
31 43
31 46
31 53
31 62
31 87
31 179
31 211
31 212
31 219
31 276
31 283
32 45
32 161
32 181
32 236
32 258
33 34
33 35
33 37
33 98
33 102
33 108
33 130
33 133
33 173
33 179
33 190
33 193
33 210
33 237
33 293
34 91
34 107
34 114
34 122
34 133
34 151
34 170
34 225
34 240
34 268
34 276
34 284
35 101
35 123
35 140
35 173
35 230
35 293
36 52
36 85
36 212
37 249
37 293
38 40
38 67
38 117
38 119
38 142
38 178
38 181
38 188
38 213
38 228
38 255
38 267
38 284
38 292
39 61
39 73
39 198
40 43
40 44
40 148
40 177
40 178
40 192
40 247
40 267
40 268
41 56
41 58
41 62
41 70
41 91
41 291
42 159
42 182
42 189
42 196
42 224
42 225
42 259
42 279
43 62
43 70
43 87
43 146
43 175
43 234
43 264
44 54
44 120
44 163
44 167
44 171
44 187
44 213
44 223
44 229
44 242
44 284
45 46
45 56
45 70
45 98
45 161
45 204
45 266
45 299
46 49
46 54
46 56
46 116
46 121
46 134
46 162
46 176
46 203
46 219
46 255
46 273
47 50
47 131
47 186
47 200
47 231
47 253
47 269
48 84
48 86
48 164
48 170
48 177
48 192
48 201
48 222
48 223
48 287
48 288
48 296
49 50
49 88
49 106
49 134
49 162
49 167
49 173
49 273
50 88
50 107
50 114
50 124
50 135
50 200
50 254
51 117
51 195
51 211
51 229
51 241
51 254
51 286
52 68
52 83
52 85
52 211
53 64
53 84
53 171
53 261
54 93
54 273
54 286
55 77
55 96
55 152
55 164
55 168
56 106
56 122
56 124
56 226
56 297
57 75
57 82
57 89
57 110
57 153
57 159
57 222
57 276
58 70
58 73
58 85
58 89
58 93
58 97
58 104
58 115
58 209
58 273
58 276
58 294
59 65
59 90
59 129
59 147
59 148
59 187
59 201
59 205
59 280
60 64
60 66
60 68
60 84
60 88
60 103
60 110
60 126
60 127
60 137
60 161
60 183
60 197
60 271
61 64
61 82
61 84
61 114
61 119
61 180
61 231
61 259
61 264
61 285
61 299
62 70
62 89
62 204
62 234
62 244
62 282
63 70
63 122
63 133
63 137
63 177
63 226
63 236
63 240
63 265
63 291
63 299
64 84
64 117
64 165
64 206
65 77
65 90
65 95
65 128
65 147
65 253
65 272
66 84
66 88
66 175
66 191
66 217
66 276
66 289
67 98
67 108
67 132
67 142
67 160
67 210
67 281
67 292
68 87
68 110
68 158
68 213
68 228
68 241
68 250
68 267
68 289
69 70
69 71
69 72
69 80
69 126
69 134
69 191
69 192
69 257
69 285
70 73
70 80
70 91
70 134
70 142
70 204
70 262
70 291
71 85
71 91
71 95
71 100
71 101
71 103
71 104
71 125
71 209
71 257
72 119
72 126
73 89
73 93
73 294
74 99
74 147
74 149
74 221
74 226
74 231
74 241
74 253
74 267
74 281
75 89
75 95
75 109
75 208
75 243
76 80
76 103
76 141
76 145
76 150
76 170
76 173
76 184
76 199
76 201
76 208
76 214
76 235
76 295
77 95
77 96
77 109
77 132
77 145
77 167
77 170
77 196
77 201
77 213
77 235
77 259
77 272
78 262
79 96
79 101
79 195
79 206
79 214
79 267
80 91
80 93
80 99
80 138
80 141
80 142
80 172
80 185
80 207
80 213
80 229
80 241
80 273
80 281
80 287
81 89
81 131
81 212
81 242
81 252
81 265
81 276
81 300
82 83
82 96
82 118
82 153
82 180
82 245
82 260
82 263
82 266
82 269
82 294
82 299
83 200
83 234
84 167
84 206
84 264
84 283
84 292
85 91
85 104
85 108
85 121
85 158
85 209
85 225
85 273
85 288
86 93
86 115
86 153
86 222
86 279
87 146
87 156
87 175
87 195
87 249
87 250
88 92
88 107
88 177
88 199
88 211
88 254
88 260
88 268
88 285
88 291
88 294
89 110
89 185
89 276
90 96
90 147
90 148
90 149
90 175
90 188
90 213
90 265
90 271
91 142
91 166
91 249
91 250
92 153
92 210
92 279
92 284
92 290
93 115
93 119
93 142
93 180
93 232
93 279
94 144
94 146
94 180
94 216
94 273
95 101
95 109
95 132
95 144
95 145
95 152
95 156
95 176
95 217
95 228
95 256
95 272
95 277
96 101
96 147
96 164
96 177
96 252
96 263
96 265
97 180
97 185
98 108
98 127
98 137
99 141
99 172
99 204
99 222
99 248
99 274
99 281
99 295
100 112
100 124
100 131
100 193
100 196
100 209
100 237
100 239
100 247
100 248
100 282
101 145
101 157
101 206
101 214
101 267
101 284
101 287
102 114
102 119
102 126
102 273
103 110
103 125
103 149
103 150
103 161
103 251
103 257
103 271
104 108
104 188
104 194
104 213
104 242
104 257
104 259
105 158
105 176
105 191
105 224
105 250
105 261
106 108
106 124
106 166
106 206
106 238
106 256
106 294
107 114
107 125
107 205
107 226
107 274
108 128
108 132
108 223
108 250
109 164
109 258
109 262
110 158
110 159
110 181
110 220
110 296
111 169
111 219
111 278
111 290
112 241
112 248
112 250
114 119
114 198
114 205
114 207
114 239
115 183
115 220
116 129
116 148
116 203
116 209
116 233
116 273
117 195
117 241
117 282
117 286
117 292
118 135
118 245
118 263
119 167
119 178
120 129
120 187
120 221
121 134
121 163
121 225
121 249
122 129
122 186
122 218
122 226
122 240
122 276
122 286
122 297
123 146
123 167
123 173
123 197
123 238
123 246
123 277
123 293
124 166
124 223
124 238
125 152
125 168
125 239
125 251
125 290
126 147
126 149
126 228
127 137
127 159
127 164
127 239
127 296
128 154
128 195
128 223
128 246
128 253
129 134
129 136
129 148
129 156
129 237
130 133
131 138
131 186
131 231
131 237
131 300
132 160
132 227
132 240
133 137
133 145
133 183
133 193
133 202
133 291
133 295
134 188
134 236
134 298
135 164
135 200
135 218
135 222
135 224
135 282
136 189
136 212
136 230
136 240
137 153
137 168
137 186
137 195
138 150
138 152
138 216
138 223
138 254
139 262
140 151
140 158
140 187
140 211
140 223
140 254
141 168
141 172
141 184
141 208
141 235
142 180
142 185
142 207
143 177
143 179
143 188
143 195
143 213
143 215
143 300
144 145
144 216
144 273
145 295
146 173
146 195
146 207
146 233
146 260
147 149
147 175
147 247
147 271
147 274
147 280
148 156
148 168
148 187
148 192
148 198
148 205
148 207
148 222
148 223
148 229
149 253
149 281
150 201
150 241
151 170
151 187
151 210
151 214
151 283
151 284
151 287
151 299
152 155
152 164
152 168
152 234
152 289
152 299
153 222
153 278
153 279
154 184
154 203
154 218
154 237
154 241
154 246
154 250
155 160
155 164
155 201
155 210
155 214
155 223
155 257
155 287
155 297
155 299
157 161
157 189
157 201
157 213
157 255
157 285
157 287
157 297
158 175
158 176
158 191
158 209
158 213
158 217
158 268
159 182
159 220
159 231
159 242
159 259
159 296
160 162
160 210
160 213
160 239
160 257
161 182
161 205
161 231
161 249
161 257
161 284
161 285
162 171
162 176
162 178
162 213
162 243
162 244
162 257
162 267
162 272
162 292
163 167
163 188
163 251
163 252
163 286
163 288
164 222
164 223
164 227
164 258
164 260
164 262
164 282
164 286
164 296
164 297
165 191
165 230
165 241
165 248
165 261
165 265
165 298
166 198
167 173
167 216
167 253
167 259
167 286
167 288
167 296
168 222
168 233
168 234
168 235
170 199
170 201
170 205
170 232
170 281
171 204
171 228
171 241
171 242
171 264
171 286
171 292
171 295
172 195
173 216
173 260
173 288
174 188
174 252
174 283
175 178
175 217
175 226
176 189
176 195
176 214
176 217
176 224
176 228
176 250
176 256
177 195
177 202
177 223
177 243
177 246
177 268
177 283
177 291
178 182
178 217
178 240
178 284
178 292
179 188
179 212
179 229
179 232
179 247
180 188
180 215
180 218
180 233
182 217
182 231
182 242
182 253
182 264
182 285
182 286
183 241
183 298
184 200
184 201
184 208
184 221
184 235
184 241
184 264
184 272
184 273
185 229
185 244
185 247
185 259
186 234
186 276
188 213
188 215
188 236
188 242
188 252
188 300
189 196
189 214
189 225
189 227
189 240
189 242
189 269
189 287
189 290
190 210
190 213
190 252
190 259
190 294
191 192
191 239
191 245
191 278
191 298
192 199
192 201
192 219
192 238
192 245
192 255
192 263
192 278
193 217
193 228
193 237
193 239
193 255
193 289
193 291
195 207
195 210
195 214
195 246
195 287
195 297
196 204
196 209
196 275
196 279
196 282
196 286
196 291
197 200
197 217
197 235
197 262
197 277
198 207
198 222
198 225
198 288
199 201
199 223
199 230
199 247
199 255
200 207
200 235
200 262
200 269
200 276
200 277
200 294
201 205
201 245
201 255
201 263
201 273
201 287
201 297
202 203
202 243
202 246
202 295
203 246
203 273
204 228
204 282
204 286
204 295
205 227
205 231
205 240
205 257
205 268
206 275
206 294
207 273
207 288
208 235
208 278
208 288
209 215
209 218
209 233
209 251
210 214
210 230
210 239
210 284
210 290
211 229
211 254
212 300
213 236
213 242
213 252
213 257
213 259
213 269
213 287
213 294
213 300
214 287
214 297
215 252
217 228
217 231
217 240
217 255
217 256
217 277
217 282
217 286
217 292
218 233
218 236
218 238
219 278
220 224
221 241
221 273
222 233
222 281
223 229
223 237
223 243
223 268
223 287
225 273
226 240
226 267
226 272
226 293
226 299
227 231
227 240
227 244
227 251
227 257
227 258
227 268
227 284
227 285
228 255
228 261
228 271
228 289
229 232
229 247
229 254
229 259
229 287
231 249
231 253
231 284
232 247
232 281
233 238
233 251
234 264
234 276
234 289
235 272
235 273
235 294
236 238
236 265
236 279
237 269
237 270
237 291
238 263
240 251
240 267
240 284
240 293
241 264
241 267
241 290
241 298
242 260
242 269
242 285
242 287
242 294
243 246
243 267
243 287
245 273
245 297
246 250
246 291
247 281
248 261
248 275
249 250
249 293
250 290
250 298
251 252
252 259
252 278
253 288
255 261
255 271
256 260
256 277
257 267
257 285
257 292
258 260
258 262
258 268
259 294
260 294
261 275
265 279
267 272
267 292
267 293
269 287
270 280
274 280
274 295
277 286
277 297
278 279
278 288
282 286
284 290
285 294
285 297
286 288
286 295
287 300
288 296
290 298
*Classes
1
1
1
1
1
1
1
1
1
1
1
1
1
1
1
1
1
1
1
1
1
1
1
1
1
1
1
1
1
1
1
1
1
1
1
1
1
1
1
1
1
1
1
1
1
1
1
1
1
1
1
1
1
1
1
1
1
1
1
1
1
1
1
1
1
1
1
1
1
1
1
1
1
1
1
1
1
1
1
1
1
1
1
1
1
1
1
1
1
1
1
1
1
1
1
1
1
1
1
1
1
1
1
1
1
1
1
1
1
1
1
1
1
1
1
1
1
1
1
1
1
1
1
1
1
1
1
1
1
1
1
1
1
1
1
1
1
1
1
1
1
1
1
1
1
1
1
1
1
1
2
2
2
2
2
2
2
2
2
2
2
2
2
2
2
2
2
2
2
2
2
2
2
2
2
2
2
2
2
2
2
2
2
2
2
2
2
2
2
2
2
2
2
2
2
2
2
2
2
2
2
2
2
2
2
2
2
2
2
2
2
2
2
2
2
2
2
2
2
2
2
2
2
2
2
2
2
2
2
2
2
2
2
2
2
2
2
2
2
2
2
2
2
2
2
2
2
2
2
2
2
2
2
2
2
2
2
2
2
2
2
2
2
2
2
2
2
2
2
2
2
2
2
2
2
2
2
2
2
2
2
2
2
2
2
2
2
2
2
2
2
2
2
2
2
2
2
2
2
2
