*Vertices 300
*Edges
1 82
1 84
1 118
1 143
1 182
1 204
1 255
1 275
2 27
2 43
2 79
2 82
2 93
2 103
2 188
2 217
3 30
3 135
4 19
4 62
4 71
4 110
4 122
4 138
4 156
4 157
4 165
4 281
4 289
5 11
5 18
5 36
5 92
5 101
5 114
5 129
5 147
5 150
5 155
5 170
5 218
5 230
5 242
5 277
6 12
6 42
6 67
6 98
6 99
6 102
6 131
6 150
6 167
6 191
6 198
6 275
7 22
7 53
7 79
7 106
7 143
7 289
7 294
8 27
8 32
8 70
8 85
8 94
8 104
8 122
8 140
8 174
8 192
8 218
8 220
8 269
8 273
8 274
8 277
9 19
9 22
9 25
9 35
9 61
9 62
9 68
9 70
9 77
9 86
9 94
9 100
9 104
9 115
9 129
9 150
9 178
9 184
9 237
9 255
10 23
10 77
10 145
10 154
10 231
10 238
10 242
10 250
10 287
11 28
11 99
11 102
11 165
11 218
11 223
11 267
12 39
12 42
12 68
12 146
12 183
12 201
12 242
12 294
13 42
13 55
13 57
13 58
13 62
13 67
13 98
13 120
13 125
13 200
13 201
13 220
13 221
13 227
14 34
14 85
14 138
14 197
14 219
14 220
14 263
14 279
15 21
15 28
15 57
15 69
15 93
15 96
15 102
15 108
15 109
15 138
15 161
15 297
16 160
16 194
16 222
16 238
16 242
16 254
16 260
16 268
16 272
17 28
17 32
17 46
17 52
17 55
17 57
17 67
17 73
17 76
17 105
17 122
17 173
17 263
17 281
18 23
18 30
18 60
18 69
18 92
18 96
18 114
18 134
18 142
18 156
18 223
18 260
18 270
18 296
19 32
19 62
19 71
19 75
19 119
19 122
19 174
19 175
19 187
19 188
19 205
19 210
19 230
19 281
20 58
20 155
20 235
20 274
21 26
21 35
21 52
21 93
21 112
21 113
21 124
21 156
21 200
21 204
21 225
21 234
21 247
21 258
21 288
21 291
21 297
22 44
22 62
22 106
22 111
22 126
22 133
22 134
22 142
22 215
23 40
23 47
23 59
23 74
23 77
23 113
23 117
23 145
23 231
23 238
23 296
24 35
24 46
24 68
24 146
24 195
24 219
24 242
24 260
24 287
25 28
25 41
25 61
25 65
25 115
25 180
25 220
26 27
26 41
26 93
26 183
26 201
26 287
26 292
27 29
27 43
27 51
27 79
27 93
27 103
27 113
27 122
27 179
27 226
27 269
27 286
28 33
28 57
28 61
28 76
28 98
28 99
28 102
28 114
28 115
28 161
28 223
28 288
29 43
29 57
29 122
29 139
29 202
30 56
30 135
30 175
30 203
30 205
30 223
30 241
30 245
30 276
30 293
31 66
31 93
31 113
31 135
31 137
31 259
31 277
31 283
32 70
32 76
32 85
32 121
32 174
32 194
32 205
32 237
33 36
33 64
33 76
33 114
33 123
33 139
33 186
33 190
33 196
33 223
33 258
34 40
34 81
34 85
34 150
34 170
34 182
35 40
35 46
35 78
35 95
35 102
35 112
35 148
35 178
35 246
36 54
36 67
36 69
36 76
36 111
36 117
36 147
36 148
36 158
36 190
37 112
37 147
37 160
37 162
37 193
37 236
37 266
38 125
38 183
39 144
39 168
39 190
39 198
39 201
39 217
39 223
39 252
40 56
40 74
40 78
40 93
40 98
40 127
40 145
40 186
40 294
41 115
41 183
41 186
41 224
41 248
41 287
41 292
41 298
42 57
42 67
42 69
42 96
42 99
42 111
42 146
42 171
42 232
43 51
43 64
43 89
43 103
43 123
43 169
43 179
43 208
43 230
44 104
44 126
44 130
44 180
45 121
45 235
45 261
45 272
46 57
46 72
46 178
46 191
46 193
47 52
47 145
47 176
47 185
47 219
47 284
47 293
48 76
48 88
48 147
48 163
48 199
48 227
48 251
48 260
48 272
48 293
49 69
49 117
49 143
49 173
49 263
50 63
50 94
50 105
50 122
50 137
50 139
50 156
50 191
50 218
50 239
50 252
51 68
51 83
51 95
51 122
51 125
51 178
51 226
51 248
51 277
51 299
52 83
52 105
52 124
52 130
52 145
52 176
53 64
53 79
53 86
53 158
53 165
53 174
53 226
53 231
54 111
54 148
54 157
55 57
55 58
55 62
55 92
55 108
55 242
55 254
56 80
56 93
56 152
56 186
56 205
56 279
56 283
56 288
57 67
57 102
57 138
57 165
57 191
58 108
58 219
58 227
59 111
59 112
59 113
59 117
59 126
59 133
59 142
59 214
60 69
60 96
60 97
60 111
60 161
60 166
60 273
60 280
60 295
61 111
61 112
61 187
61 220
61 234
61 239
61 275
61 278
61 300
62 67
62 84
62 125
62 126
62 142
62 178
62 187
62 220
62 232
62 278
63 78
63 98
63 105
63 177
64 117
64 123
64 160
64 187
64 192
64 196
64 236
64 269
64 292
65 77
65 187
65 220
65 238
65 250
66 135
66 137
66 160
66 163
66 193
66 218
66 234
66 242
67 96
67 111
67 142
67 190
67 275
68 95
68 146
68 159
68 184
68 277
68 299
69 70
69 76
69 96
69 98
69 106
69 119
69 126
69 143
69 193
69 217
69 232
69 241
69 251
69 266
69 292
70 80
70 104
70 115
70 119
70 136
70 154
70 195
70 206
70 213
70 269
70 288
70 298
71 75
71 84
71 108
71 119
71 136
71 175
71 215
71 227
71 256
71 284
72 75
72 143
72 145
72 214
72 228
73 122
73 136
73 199
73 241
74 81
74 98
74 99
74 105
74 182
74 249
75 102
75 138
75 145
75 156
75 191
75 218
75 267
75 297
76 111
76 148
76 161
76 174
76 288
77 94
77 107
77 125
77 154
77 179
77 180
77 197
77 210
77 238
77 279
78 127
79 82
79 86
79 94
79 110
79 165
79 179
79 244
79 253
80 127
80 135
80 137
80 138
80 154
80 167
80 259
80 279
81 85
81 98
81 105
81 125
81 165
81 197
81 262
82 103
82 188
82 204
83 95
83 105
83 145
83 204
83 226
83 247
84 119
84 204
84 215
85 122
85 150
85 296
86 94
86 122
86 132
86 179
86 216
87 97
87 291
88 164
88 179
88 206
88 227
88 291
89 106
89 108
89 123
89 256
90 110
90 149
90 201
90 229
90 280
91 120
91 176
91 182
91 244
91 261
91 272
91 282
91 283
92 125
92 140
92 151
93 112
93 113
93 124
93 161
93 176
93 207
93 237
93 288
94 118
94 122
94 129
94 210
94 222
94 236
94 269
94 281
95 178
95 211
95 248
96 98
96 102
96 109
96 111
96 112
96 114
96 119
96 241
96 295
98 99
98 105
98 125
98 157
98 262
99 102
99 150
99 157
99 165
99 167
99 218
99 251
99 275
99 290
100 111
100 112
100 132
100 184
101 147
101 219
101 300
102 145
102 153
102 160
102 172
102 218
102 223
102 236
102 243
102 246
102 251
102 262
102 268
104 115
104 133
104 196
104 213
105 124
105 130
105 145
105 157
105 220
105 223
105 281
106 108
106 123
106 143
106 164
106 197
107 111
107 134
107 142
107 174
107 176
107 189
107 210
107 254
107 300
108 119
108 214
108 236
108 252
108 297
109 116
109 134
109 160
109 206
109 245
109 246
109 260
110 120
110 129
110 148
110 165
110 183
110 201
110 211
110 261
111 112
111 113
111 133
111 142
111 148
112 127
112 128
112 184
112 266
113 117
113 119
113 126
113 152
113 206
113 272
113 291
114 142
114 151
114 164
114 173
114 186
115 186
115 248
115 262
116 134
116 179
116 185
116 190
116 210
116 238
116 245
116 255
116 273
117 126
117 184
117 192
117 201
117 212
117 223
117 263
118 122
118 143
118 147
118 162
118 173
118 259
118 283
119 126
119 136
119 154
119 243
119 269
119 274
119 288
120 129
120 191
120 221
120 223
121 174
121 235
121 263
121 265
122 236
122 263
123 195
123 196
123 202
123 238
123 278
124 229
124 238
124 285
125 156
125 157
125 191
125 210
126 133
126 136
126 142
126 152
126 209
126 220
127 154
127 173
127 192
127 241
127 259
127 298
128 139
128 286
129 146
129 150
129 159
129 184
129 187
129 245
129 255
130 153
130 277
130 278
131 150
131 155
131 196
132 179
132 180
132 195
132 211
132 212
132 238
132 241
132 299
133 196
133 277
134 142
134 194
134 199
134 257
134 267
135 137
135 151
135 173
135 279
136 204
136 211
136 263
137 139
137 189
138 154
138 211
138 212
138 220
138 279
139 223
139 292
140 151
141 188
142 144
142 194
142 210
142 254
143 182
143 232
143 239
143 263
143 275
144 198
144 244
144 257
145 176
145 237
145 263
146 150
146 162
146 271
146 277
146 287
147 150
147 162
147 173
147 184
147 199
148 192
148 263
148 292
149 162
149 211
149 229
149 273
149 281
150 156
150 191
150 243
150 255
150 258
150 296
151 158
151 166
151 170
151 174
151 237
151 255
151 265
151 268
152 162
152 176
152 255
152 282
152 291
153 192
153 218
153 224
153 260
153 270
154 199
154 260
154 295
155 163
155 173
155 235
155 279
155 293
156 172
156 191
156 227
156 242
156 275
156 280
156 287
156 297
157 160
157 193
157 233
157 268
157 294
157 299
158 170
158 174
158 210
158 217
158 254
158 269
159 180
160 176
160 193
160 233
160 236
160 268
161 166
161 185
161 191
161 234
162 177
162 282
163 201
163 223
163 225
163 234
163 251
163 272
163 276
163 293
164 206
164 245
165 191
165 197
165 219
165 223
165 297
166 170
166 182
166 185
166 234
166 246
166 248
166 249
166 260
168 179
168 190
168 257
168 258
168 282
169 189
169 208
169 213
169 215
169 249
170 174
170 198
170 217
170 228
170 240
171 199
171 274
171 295
172 191
172 201
172 227
172 275
173 199
173 235
174 176
174 208
174 210
174 237
174 256
174 268
174 273
175 194
175 197
175 219
175 245
175 251
175 257
175 282
175 293
176 212
176 237
176 240
176 263
176 278
176 282
176 300
177 198
177 217
177 285
177 298
178 211
178 212
178 242
178 281
178 287
179 186
179 206
179 210
179 238
179 241
179 250
179 257
179 295
181 209
181 244
181 262
182 185
182 189
182 204
182 235
182 236
182 239
182 249
182 253
182 264
182 268
182 275
182 294
183 201
183 205
183 213
183 219
183 221
183 223
183 276
183 277
183 284
183 287
184 201
184 278
185 235
185 238
185 248
185 255
185 267
185 272
186 224
186 228
186 270
187 223
187 225
187 230
187 234
187 242
189 215
189 249
189 283
190 257
190 258
191 204
191 223
191 229
191 234
191 242
191 243
191 280
193 199
193 206
193 221
193 233
193 239
193 295
193 299
194 211
194 245
194 261
194 272
194 282
195 212
195 236
195 264
195 287
195 300
196 202
196 294
197 219
197 221
197 277
197 284
198 217
198 236
198 252
199 211
199 260
199 267
199 270
199 272
199 295
200 206
200 220
200 291
200 292
201 213
201 219
201 223
201 229
201 258
201 276
201 278
201 297
203 223
203 290
204 211
204 247
204 255
206 219
206 221
206 269
206 291
208 213
208 236
208 237
208 252
208 290
210 238
210 256
210 257
211 212
211 267
211 272
211 297
212 228
212 236
212 241
212 283
212 300
214 228
214 233
214 282
216 218
217 228
217 254
218 229
218 232
218 233
218 243
218 262
218 274
218 277
219 221
219 231
219 259
219 277
219 284
219 286
219 287
220 223
220 224
220 250
220 273
220 292
221 237
221 271
221 284
221 291
222 244
222 246
222 248
222 260
222 267
222 270
222 272
222 280
223 225
224 228
224 233
224 255
224 260
224 270
224 292
225 237
225 272
225 281
225 289
227 231
227 242
227 284
228 233
228 266
228 282
228 300
229 243
229 246
229 251
229 277
229 285
229 286
230 276
230 277
231 284
231 287
232 277
233 277
233 300
234 243
234 271
234 275
234 285
234 293
234 298
235 236
235 238
235 239
235 248
235 264
235 268
235 279
235 283
236 249
236 252
236 264
236 269
237 271
237 273
237 289
237 300
238 250
238 257
238 262
239 295
240 300
241 257
241 298
242 254
242 287
243 251
243 261
243 284
243 293
244 260
245 248
245 252
245 272
245 278
245 282
246 249
246 260
246 270
248 252
248 267
248 272
249 264
249 283
250 262
251 261
251 292
251 293
252 269
252 290
253 265
253 268
253 294
254 269
254 286
255 282
257 282
257 295
258 297
259 266
259 277
259 283
260 270
261 272
263 265
263 282
263 300
264 269
265 268
265 283
266 279
266 292
267 295
268 294
269 286
270 292
272 295
275 300
277 283
277 286
278 300
279 283
279 290
279 300
281 285
281 289
281 298
282 283
283 300
284 287
285 298
286 296
294 299
*Classes
1
1
1
1
1
1
1
1
1
1
1
1
1
1
1
1
1
1
1
1
1
1
1
1
1
1
1
1
1
1
1
1
1
1
1
1
1
1
1
1
1
1
1
1
1
1
1
1
1
1
1
1
1
1
1
1
1
1
1
1
1
1
1
1
1
1
1
1
1
1
1
1
1
1
1
1
1
1
1
1
1
1
1
1
1
1
1
1
1
1
1
1
1
1
1
1
1
1
1
1
1
1
1
1
1
1
1
1
1
1
1
1
1
1
1
1
1
1
1
1
1
1
1
1
1
1
1
1
1
1
1
1
1
1
1
1
1
1
1
1
1
1
1
1
1
1
1
1
1
1
2
2
2
2
2
2
2
2
2
2
2
2
2
2
2
2
2
2
2
2
2
2
2
2
2
2
2
2
2
2
2
2
2
2
2
2
2
2
2
2
2
2
2
2
2
2
2
2
2
2
2
2
2
2
2
2
2
2
2
2
2
2
2
2
2
2
2
2
2
2
2
2
2
2
2
2
2
2
2
2
2
2
2
2
2
2
2
2
2
2
2
2
2
2
2
2
2
2
2
2
2
2
2
2
2
2
2
2
2
2
2
2
2
2
2
2
2
2
2
2
2
2
2
2
2
2
2
2
2
2
2
2
2
2
2
2
2
2
2
2
2
2
2
2
2
2
2
2
2
2
