*Vertices 300
*Edges
1 12
1 19
1 54
1 85
1 174
1 180
1 288
2 25
2 29
2 40
2 41
2 45
2 50
2 90
2 195
2 233
2 252
2 293
3 24
4 43
4 263
4 287
5 249
5 298
6 8
6 19
6 108
6 176
6 200
6 236
6 264
7 19
7 57
7 89
7 141
7 155
7 214
8 18
8 82
8 98
8 167
8 173
8 197
8 199
8 217
8 235
9 11
9 25
9 38
9 106
9 111
9 118
9 168
9 229
9 255
9 285
10 25
10 67
10 68
10 133
10 219
10 232
10 267
11 22
11 25
11 26
11 39
11 75
11 106
11 136
11 142
11 159
11 200
11 209
11 212
12 15
12 19
12 41
12 49
12 71
12 75
12 85
12 105
12 124
12 133
12 178
12 191
12 195
12 213
12 220
12 248
13 75
13 88
13 127
13 146
13 206
13 296
14 45
14 46
14 61
14 106
14 131
14 135
14 139
14 219
15 31
15 40
15 71
15 87
15 108
15 111
15 124
15 128
15 141
15 249
15 254
15 282
15 288
16 40
16 44
16 57
16 72
16 141
16 156
16 221
16 263
16 298
17 31
17 125
17 167
17 217
18 73
18 78
18 87
18 113
18 118
18 155
18 287
19 108
19 174
19 213
19 235
19 263
19 294
20 90
20 114
20 121
20 148
21 25
21 48
21 52
21 72
21 94
21 102
21 150
21 152
21 161
21 200
21 221
21 290
22 82
22 120
22 124
22 142
22 160
22 223
22 280
23 51
23 113
23 213
23 218
23 281
24 43
24 163
24 172
24 265
25 39
25 68
25 72
25 124
25 127
25 195
25 207
25 247
25 264
25 271
26 43
26 106
27 35
27 163
27 205
28 30
28 295
29 50
29 118
29 134
29 204
29 231
29 276
30 193
30 209
30 252
31 42
31 125
31 146
31 177
31 254
31 256
31 268
31 278
32 47
32 82
32 109
32 134
32 145
32 200
32 235
32 276
33 70
33 92
33 168
34 66
34 109
34 130
34 199
34 271
35 48
35 238
35 277
36 40
36 89
36 141
36 247
36 259
36 268
37 76
37 176
37 247
37 259
37 278
37 290
37 295
38 82
38 100
38 118
38 142
38 161
38 242
38 259
39 49
39 82
39 106
39 111
39 129
39 162
39 170
40 45
40 46
40 71
40 78
40 79
40 87
40 89
40 92
40 111
40 120
40 132
40 141
40 289
41 65
41 90
41 114
41 123
41 133
41 186
41 216
41 220
41 289
41 293
42 85
42 160
42 184
42 207
42 209
42 234
43 74
43 105
43 124
43 197
43 227
43 238
44 76
44 79
44 97
44 126
44 186
44 256
45 46
45 55
45 56
45 67
45 90
45 105
45 141
45 155
45 192
45 205
46 47
46 186
46 222
46 268
47 149
47 173
47 231
47 260
47 276
48 102
48 107
48 121
48 129
48 150
48 158
48 207
48 219
48 263
49 58
49 111
49 185
49 246
49 267
50 115
50 134
50 208
50 230
51 58
51 96
51 107
51 175
51 247
51 284
52 61
52 71
52 298
53 61
53 68
53 70
53 77
53 135
53 187
53 198
54 73
54 79
54 81
54 85
54 87
54 98
54 135
54 183
54 190
54 232
54 255
54 262
54 273
54 298
55 78
55 81
55 82
55 123
55 135
55 146
55 155
55 281
55 289
56 67
56 149
56 235
56 274
57 141
57 204
57 240
58 65
58 105
58 107
58 230
58 260
59 79
59 150
59 155
59 198
59 228
60 106
60 114
60 122
60 153
60 164
60 188
61 71
61 111
61 135
61 148
62 165
63 190
63 200
63 242
64 259
65 71
65 85
65 98
65 105
65 108
65 123
65 148
65 189
66 99
66 130
66 199
66 258
67 133
67 286
68 75
68 80
68 281
69 103
69 106
69 153
69 244
70 77
70 124
70 170
70 282
71 84
71 89
71 108
71 159
71 194
71 238
72 97
72 101
72 102
72 124
72 135
72 150
72 276
73 76
73 84
73 86
73 87
73 95
73 96
73 118
73 140
73 178
73 211
73 213
73 237
73 286
74 124
74 188
75 146
75 153
75 212
75 232
75 251
76 93
76 96
76 97
76 255
76 300
77 103
77 144
77 247
77 275
78 80
78 87
78 95
78 123
78 169
78 287
79 87
79 97
79 118
79 124
79 288
80 223
80 246
81 123
81 146
81 249
81 292
81 298
82 97
82 98
82 100
82 104
82 109
82 123
82 137
82 142
82 180
82 196
83 129
83 198
83 245
83 258
85 108
85 150
85 178
85 215
86 159
86 192
86 193
86 279
87 95
87 118
87 124
87 159
87 261
87 293
88 98
88 127
88 143
88 147
89 108
89 141
89 161
89 243
89 291
90 121
90 243
91 194
91 259
91 280
92 99
92 113
92 130
92 147
92 217
93 94
93 99
93 151
93 270
93 274
94 99
94 113
94 262
94 290
95 164
95 179
95 271
95 296
96 140
96 175
96 212
96 237
97 135
97 166
97 210
97 230
97 299
98 157
99 106
99 110
99 138
99 187
100 142
100 157
100 172
101 112
101 114
101 121
101 135
101 203
102 148
102 252
102 274
102 300
103 144
103 172
103 288
104 109
104 127
104 153
104 155
104 268
104 294
105 108
105 133
105 148
105 173
105 188
105 226
105 256
105 287
106 138
106 211
106 261
107 219
107 275
107 298
108 150
108 275
109 134
109 152
109 268
110 138
110 218
110 276
110 286
111 215
111 219
111 260
111 287
112 121
113 146
113 274
114 133
114 135
114 160
114 174
114 220
115 116
115 131
115 184
115 192
115 265
116 165
116 172
116 267
117 234
118 255
119 182
119 218
119 288
120 124
120 141
120 160
120 179
120 287
121 135
121 215
121 221
121 283
122 138
122 188
122 223
122 254
123 135
123 144
123 178
124 135
124 157
124 245
124 281
124 283
124 296
125 138
125 147
125 172
125 226
125 239
125 277
127 143
127 153
127 242
127 271
128 155
128 157
128 167
128 263
128 264
128 292
129 172
129 175
129 200
129 248
129 252
129 263
129 279
130 134
130 141
130 154
130 171
130 208
130 244
131 158
131 185
131 198
131 203
131 233
131 293
132 194
132 198
132 227
133 285
134 181
135 148
135 204
135 252
135 255
136 157
136 202
136 228
137 196
137 213
137 255
138 147
138 163
138 248
139 202
139 211
139 238
139 285
140 149
140 153
140 154
140 162
140 191
140 209
140 262
141 158
141 165
142 150
142 172
142 225
142 275
142 279
143 158
143 170
144 278
145 179
145 184
145 194
145 204
145 214
145 235
145 275
146 210
146 222
146 282
148 173
148 181
148 211
148 240
149 154
149 173
149 179
149 262
149 276
150 196
150 221
151 154
151 188
151 294
152 161
152 253
153 170
153 179
154 188
154 198
154 209
154 210
154 242
154 281
156 203
156 257
156 264
156 300
157 172
157 289
158 198
158 224
158 266
159 161
159 173
159 214
159 257
159 293
159 297
160 187
161 165
161 204
161 254
161 259
162 166
162 265
162 267
162 276
162 285
162 290
162 292
163 176
163 204
163 212
165 169
165 179
165 180
165 196
165 209
165 222
165 230
165 237
165 250
165 255
166 169
166 197
166 234
166 239
166 265
167 258
168 177
168 244
169 193
169 196
169 227
169 268
169 280
170 179
171 179
172 175
172 191
172 193
172 214
172 219
172 221
173 179
173 186
173 234
173 245
173 257
173 258
173 259
173 267
173 277
173 281
175 207
175 264
176 193
176 207
176 279
177 180
177 187
177 188
177 209
177 215
177 244
177 255
177 266
177 291
177 292
178 212
179 186
179 189
179 222
179 242
180 188
181 265
183 186
183 190
183 208
183 209
183 213
183 217
183 222
183 263
183 270
183 282
183 298
183 300
184 234
184 263
185 202
185 217
185 278
185 280
185 281
185 289
185 291
186 208
186 257
186 259
186 264
186 267
186 273
187 216
187 244
187 262
188 202
188 217
188 247
188 248
188 252
188 269
189 225
189 260
190 219
190 255
190 257
191 246
192 279
193 196
193 207
193 209
193 260
193 261
194 235
195 221
195 257
195 285
195 293
195 297
196 209
196 213
196 261
197 207
197 239
198 209
198 242
199 239
199 275
199 286
200 227
200 231
201 218
201 232
202 217
202 248
202 263
202 269
202 282
202 287
203 230
203 257
203 266
203 269
203 278
204 212
204 222
204 228
204 230
204 241
204 254
204 276
205 246
206 266
206 276
207 260
207 263
208 211
208 222
208 226
208 270
208 282
209 215
209 242
209 244
209 255
209 282
210 226
210 241
210 248
212 254
214 225
214 239
214 293
215 240
215 242
215 247
215 277
216 257
216 265
216 269
217 291
218 275
219 221
219 282
219 283
220 253
220 270
220 274
220 277
221 234
221 243
221 293
222 228
222 237
222 242
222 250
223 276
224 298
225 226
225 247
225 259
225 260
225 274
225 293
226 293
226 297
227 231
227 265
227 269
227 280
227 288
228 230
228 231
228 239
228 241
228 246
228 250
228 280
228 298
228 299
229 240
229 259
230 233
230 237
230 238
230 239
230 250
230 278
230 280
232 269
233 263
233 278
233 280
233 283
233 296
234 247
234 258
234 277
235 290
237 280
238 278
239 286
239 298
240 265
240 288
241 248
242 251
244 252
244 266
244 271
244 290
244 291
244 292
246 267
246 280
247 248
247 252
247 262
247 277
248 277
248 287
249 254
249 281
254 256
254 300
256 300
257 264
257 269
257 276
257 290
258 289
259 260
259 267
259 274
261 271
262 273
263 282
263 300
264 273
265 288
266 271
266 276
266 292
267 298
269 287
269 300
270 274
274 300
275 286
275 295
276 290
279 280
280 281
282 283
282 300
283 296
284 291
290 292
293 297
*Classes
1
1
1
1
1
1
1
1
1
1
1
1
1
1
1
1
1
1
1
1
1
1
1
1
1
1
1
1
1
1
1
1
1
1
1
1
1
1
1
1
1
1
1
1
1
1
1
1
1
1
1
1
1
1
1
1
1
1
1
1
1
1
1
1
1
1
1
1
1
1
1
1
1
1
1
1
1
1
1
1
1
1
1
1
1
1
1
1
1
1
1
1
1
1
1
1
1
1
1
1
1
1
1
1
1
1
1
1
1
1
1
1
1
1
1
1
1
1
1
1
1
1
1
1
1
1
1
1
1
1
1
1
1
1
1
1
1
1
1
1
1
1
1
1
1
1
1
1
1
1
2
2
2
2
2
2
2
2
2
2
2
2
2
2
2
2
2
2
2
2
2
2
2
2
2
2
2
2
2
2
2
2
2
2
2
2
2
2
2
2
2
2
2
2
2
2
2
2
2
2
2
2
2
2
2
2
2
2
2
2
2
2
2
2
2
2
2
2
2
2
2
2
2
2
2
2
2
2
2
2
2
2
2
2
2
2
2
2
2
2
2
2
2
2
2
2
2
2
2
2
2
2
2
2
2
2
2
2
2
2
2
2
2
2
2
2
2
2
2
2
2
2
2
2
2
2
2
2
2
2
2
2
2
2
2
2
2
2
2
2
2
2
2
2
2
2
2
2
2
2
