*Vertices 300
*Edges
1 41
1 58
1 81
1 108
1 125
1 153
1 159
1 202
1 224
1 293
2 89
2 98
2 131
2 144
2 232
2 251
2 267
3 32
3 43
3 50
3 59
3 70
3 74
3 179
3 227
4 18
4 40
4 95
4 128
4 138
4 167
4 172
4 202
4 217
4 245
4 256
5 51
5 74
5 94
5 152
5 179
5 187
5 191
5 257
5 263
6 10
6 36
6 47
6 61
6 90
6 102
6 106
6 116
6 125
6 133
6 142
6 146
6 260
6 261
6 286
7 41
7 58
7 60
7 66
7 81
7 87
7 103
7 107
7 108
7 110
7 120
7 141
7 155
7 164
7 199
7 252
7 285
8 49
8 182
8 184
8 192
8 210
8 211
8 212
8 217
8 227
8 246
8 252
9 21
9 152
9 154
9 236
9 296
10 23
10 36
10 47
10 61
10 64
10 125
10 142
10 188
10 195
10 224
10 264
10 286
10 291
10 294
10 297
11 12
11 37
11 73
11 75
11 127
11 165
12 87
12 113
12 127
12 136
12 153
12 249
13 21
13 22
13 35
13 56
13 134
13 153
13 157
13 173
13 230
13 248
13 260
13 286
13 296
13 298
14 22
14 25
14 26
14 46
14 67
14 73
14 75
14 80
14 89
14 106
14 119
14 143
14 147
14 196
14 232
14 296
14 300
15 85
15 122
15 143
15 180
15 183
15 184
15 186
15 197
15 198
15 224
15 236
15 239
15 267
16 130
17 111
17 154
17 165
17 207
17 212
17 234
17 245
17 266
17 281
17 291
18 45
18 68
18 102
18 120
18 167
18 177
18 202
19 95
19 125
19 128
19 130
19 204
19 265
19 286
19 290
20 63
20 110
20 117
20 157
20 243
21 28
21 49
21 54
21 102
21 147
21 204
21 206
21 230
21 260
21 296
22 56
22 80
22 92
22 93
22 104
22 156
22 170
22 174
22 176
22 203
22 214
23 64
23 188
23 264
24 153
24 165
24 206
24 259
24 264
25 30
25 46
25 67
25 111
25 113
25 155
25 176
25 256
25 259
25 263
26 80
26 112
26 176
26 180
26 186
26 197
26 205
26 206
26 278
26 285
27 50
27 151
27 174
28 61
28 96
28 151
28 189
28 207
28 217
28 263
28 277
28 281
28 296
29 217
30 46
30 67
30 79
30 124
30 133
30 259
30 263
30 299
31 38
31 61
31 135
31 163
31 257
31 263
31 284
32 37
32 59
32 87
32 118
32 245
33 35
33 39
33 42
33 96
33 119
33 160
33 164
33 179
33 191
33 209
33 217
33 253
33 256
34 41
34 70
34 105
34 111
34 250
34 276
34 284
35 61
35 65
35 77
35 97
35 121
35 153
35 164
35 172
35 210
36 52
36 58
36 61
36 117
36 242
36 250
37 52
37 58
37 73
37 87
37 165
37 225
37 239
38 135
38 171
38 239
38 240
39 47
39 55
39 101
39 120
39 140
39 173
39 293
40 68
40 78
40 82
40 88
40 115
40 195
40 267
40 280
40 288
41 94
41 105
41 109
41 120
41 141
41 155
41 164
41 179
41 218
41 244
41 252
41 276
41 284
42 48
42 163
42 164
42 166
42 178
42 184
42 185
42 194
42 241
43 86
43 163
43 179
43 265
44 118
44 189
44 254
45 68
45 75
45 93
45 94
45 109
45 114
45 240
45 256
45 257
45 266
45 278
46 80
46 90
46 182
46 231
47 90
47 101
47 102
47 116
47 146
47 149
47 260
47 273
48 70
48 129
48 164
48 213
49 111
49 168
49 191
49 211
49 212
49 230
49 248
49 259
49 262
49 268
49 280
49 283
50 174
50 232
50 263
50 266
51 72
51 80
51 100
51 175
51 189
51 191
51 196
51 213
51 288
52 58
52 99
52 108
52 159
52 284
53 118
53 174
53 185
53 259
53 285
54 73
54 79
54 147
54 153
54 157
54 159
54 203
54 220
54 226
54 242
54 255
54 278
54 290
55 101
55 140
55 277
56 66
56 88
56 106
56 111
56 134
56 147
56 153
56 156
56 168
56 188
56 286
56 289
56 298
57 162
57 176
57 217
57 230
57 236
57 296
58 99
58 108
58 154
58 156
58 208
58 234
59 70
59 87
59 111
59 257
59 261
59 275
60 83
60 95
60 101
60 114
60 121
60 141
60 159
60 221
60 232
60 234
60 261
61 96
61 116
61 144
61 152
61 172
61 260
61 284
62 72
62 74
62 106
62 107
62 116
62 149
62 171
62 173
62 176
62 189
63 84
63 104
63 108
63 110
63 117
63 157
63 166
64 123
64 145
64 207
65 121
65 132
65 134
65 168
65 175
65 214
65 230
65 270
66 80
66 88
66 108
66 213
67 79
67 103
67 147
67 154
67 232
67 234
68 69
68 78
68 93
68 109
68 136
68 146
68 180
68 206
68 265
68 266
68 285
69 101
69 128
69 146
69 154
69 205
69 214
69 271
69 282
70 74
70 85
70 105
70 122
70 129
70 151
70 164
70 176
70 177
70 189
70 212
70 227
70 293
71 153
71 184
71 260
72 100
72 107
72 119
72 159
72 177
72 192
72 196
72 228
72 243
72 274
73 75
73 79
73 92
73 127
73 153
73 168
73 169
73 170
73 203
73 248
73 300
74 94
74 107
74 122
74 226
74 264
74 281
74 286
74 290
75 86
75 93
75 118
75 156
75 169
75 295
76 91
76 96
76 235
76 267
77 97
77 184
77 219
77 262
77 267
77 289
78 88
78 115
78 135
78 149
78 161
78 188
78 244
78 254
78 274
78 285
78 288
79 159
79 219
79 222
79 226
79 242
79 278
80 88
80 89
80 92
80 95
80 138
80 139
80 143
80 176
80 197
80 286
81 100
81 103
81 104
81 110
81 112
81 125
81 143
81 195
81 202
81 218
81 249
81 282
81 299
82 129
82 181
82 209
82 212
82 246
82 271
82 280
83 114
83 123
83 126
83 136
83 144
83 182
83 273
83 284
84 106
84 110
84 185
84 193
84 196
84 207
84 227
84 245
84 246
85 122
85 129
85 143
85 180
85 183
85 188
85 197
85 294
86 132
86 134
86 139
86 179
86 242
86 286
86 290
87 107
87 111
87 113
87 282
88 92
88 111
88 115
88 186
88 196
88 251
88 265
89 92
89 267
90 160
90 178
90 255
90 273
91 96
91 112
91 162
91 237
91 297
92 138
92 139
92 155
92 241
93 136
93 156
94 109
94 120
94 139
94 150
94 166
94 173
94 174
94 218
94 225
94 226
94 263
94 264
94 283
95 123
95 126
95 128
95 138
95 159
95 180
95 232
96 101
96 160
97 129
97 141
97 221
97 256
97 262
98 144
98 149
98 158
98 184
98 281
100 160
100 177
100 218
100 227
100 253
101 140
101 141
101 168
101 276
102 147
102 225
102 230
103 104
103 110
103 117
103 141
103 147
103 227
104 106
104 110
104 150
104 169
104 178
104 199
104 200
104 232
104 256
105 111
105 113
105 138
105 166
105 185
105 243
105 268
105 290
105 299
106 116
106 144
106 147
106 193
106 197
106 202
106 206
106 207
106 243
106 246
106 267
107 119
107 157
107 171
107 173
107 189
107 243
107 273
107 278
107 285
108 117
108 155
108 166
108 168
108 178
108 237
109 228
109 263
109 278
110 166
110 199
111 113
111 165
111 166
111 234
111 258
111 290
112 156
112 244
112 249
112 255
113 155
113 186
113 195
114 261
115 135
115 247
115 285
115 297
116 149
116 205
116 286
117 157
117 213
117 233
117 237
117 253
118 145
118 169
118 298
119 296
120 140
120 252
121 141
121 172
121 198
121 210
121 217
122 180
122 196
122 230
122 236
123 126
123 240
123 273
123 291
124 133
124 177
124 180
124 206
124 211
124 299
125 143
125 188
125 235
125 278
126 138
126 182
126 241
126 273
126 291
127 180
127 198
127 225
127 244
127 258
127 290
128 130
128 146
128 223
128 235
128 260
129 141
129 180
129 181
129 240
129 255
129 280
130 224
130 288
130 299
131 164
131 241
131 246
131 267
131 270
131 295
132 134
132 157
132 164
132 180
132 187
132 203
132 205
132 209
132 235
132 242
132 264
132 270
132 300
133 153
133 168
133 171
133 195
133 224
133 250
133 258
133 261
134 155
134 189
134 216
134 253
134 262
134 264
135 149
135 188
135 233
135 237
135 248
136 144
136 239
136 249
136 271
137 144
137 145
137 161
137 300
138 240
138 274
139 150
139 234
139 276
139 288
139 290
140 208
140 292
141 210
141 231
141 256
142 143
142 188
143 196
143 197
143 235
143 247
143 272
144 147
144 161
144 181
144 243
145 156
146 154
146 235
146 272
146 277
147 206
147 224
147 289
147 290
148 169
148 172
148 228
148 255
149 160
149 176
149 179
149 194
149 197
149 244
150 192
150 228
151 189
151 193
151 213
152 257
152 263
153 159
153 162
153 168
153 175
153 248
153 283
153 286
154 234
154 272
155 170
155 210
157 168
157 191
157 214
157 242
157 248
157 273
158 175
158 184
158 238
158 239
158 281
158 291
158 294
158 297
159 161
159 162
159 208
160 179
160 225
160 281
160 290
161 177
161 208
161 227
161 242
162 208
162 244
162 278
163 167
163 181
163 196
163 204
163 205
163 222
163 239
163 270
163 294
164 183
164 187
164 248
164 275
164 293
165 266
166 173
166 194
166 197
166 209
166 231
166 237
166 248
166 297
167 177
167 200
167 222
167 240
167 256
167 299
168 174
168 175
168 183
168 184
168 189
168 226
168 230
168 248
168 276
168 283
168 286
169 192
169 197
169 228
169 229
169 252
169 261
169 295
170 203
170 214
170 269
170 282
171 240
172 217
172 245
172 250
172 262
172 277
173 174
173 176
173 180
173 209
173 210
173 219
173 225
173 237
173 253
173 283
174 250
174 254
174 283
175 230
175 246
175 286
176 179
176 180
176 198
176 267
176 283
176 296
177 191
177 222
177 227
177 230
177 231
177 254
177 256
178 241
179 183
179 187
179 252
180 196
180 205
180 296
180 299
181 201
181 239
181 247
181 290
182 184
182 227
182 241
182 254
182 260
183 184
183 186
183 187
183 236
184 196
184 236
184 239
184 243
184 247
184 260
184 262
184 281
184 291
184 294
185 220
185 235
185 299
186 187
186 246
186 265
187 188
188 195
188 205
188 214
188 235
188 294
189 254
189 268
189 276
190 233
191 201
191 213
191 230
191 231
191 233
191 248
191 256
191 279
191 296
192 228
193 213
193 218
194 197
194 205
194 225
194 231
194 248
194 270
195 202
195 203
195 280
196 205
196 227
196 232
196 236
197 231
197 287
198 220
198 225
198 228
198 267
198 274
198 278
198 284
198 286
199 259
199 261
199 262
200 256
200 258
200 259
200 264
200 287
200 298
201 213
201 233
202 282
203 207
203 256
203 281
204 269
204 282
204 290
204 294
205 214
205 235
205 270
205 299
206 212
206 253
207 225
207 275
207 277
207 281
208 235
208 248
208 279
209 219
209 225
209 253
209 255
209 300
210 225
210 251
211 212
212 225
212 229
212 246
212 253
212 296
212 300
213 215
213 230
213 233
213 235
213 236
213 248
213 256
214 229
214 242
214 269
214 272
215 235
215 236
215 237
215 271
216 223
216 235
216 260
216 268
216 299
217 237
217 252
217 265
217 281
219 222
220 235
220 278
221 269
221 272
222 226
222 239
222 294
223 235
223 237
223 259
223 285
224 258
225 281
225 290
225 296
226 254
226 273
226 283
227 236
227 241
228 262
228 284
229 242
229 300
230 252
230 256
230 276
230 279
230 296
233 249
234 255
234 261
234 291
235 237
235 253
235 279
235 292
235 297
236 260
237 238
237 248
237 270
237 281
237 285
237 292
237 297
238 239
238 297
240 256
240 258
240 299
241 251
242 273
244 278
245 246
246 265
246 295
247 285
247 294
248 270
248 279
248 286
248 293
250 254
250 255
250 271
250 273
250 276
250 283
252 261
254 268
255 291
256 258
256 299
257 261
257 263
257 266
257 272
259 261
259 262
259 264
259 285
261 262
261 272
261 295
262 283
262 284
262 294
263 266
264 298
265 281
267 286
267 289
268 297
269 272
269 282
269 290
270 279
271 276
273 283
275 277
275 293
277 282
277 285
277 299
278 285
280 284
280 294
281 296
285 299
286 290
*Classes
1
1
1
1
1
1
1
1
1
1
1
1
1
1
1
1
1
1
1
1
1
1
1
1
1
1
1
1
1
1
1
1
1
1
1
1
1
1
1
1
1
1
1
1
1
1
1
1
1
1
1
1
1
1
1
1
1
1
1
1
1
1
1
1
1
1
1
1
1
1
1
1
1
1
1
1
1
1
1
1
1
1
1
1
1
1
1
1
1
1
1
1
1
1
1
1
1
1
1
1
1
1
1
1
1
1
1
1
1
1
1
1
1
1
1
1
1
1
1
1
1
1
1
1
1
1
1
1
1
1
1
1
1
1
1
1
1
1
1
1
1
1
1
1
1
1
1
1
1
1
2
2
2
2
2
2
2
2
2
2
2
2
2
2
2
2
2
2
2
2
2
2
2
2
2
2
2
2
2
2
2
2
2
2
2
2
2
2
2
2
2
2
2
2
2
2
2
2
2
2
2
2
2
2
2
2
2
2
2
2
2
2
2
2
2
2
2
2
2
2
2
2
2
2
2
2
2
2
2
2
2
2
2
2
2
2
2
2
2
2
2
2
2
2
2
2
2
2
2
2
2
2
2
2
2
2
2
2
2
2
2
2
2
2
2
2
2
2
2
2
2
2
2
2
2
2
2
2
2
2
2
2
2
2
2
2
2
2
2
2
2
2
2
2
2
2
2
2
2
2
