*Vertices 300
*Edges
1 253
1 272
2 15
2 38
2 124
2 130
2 185
2 245
3 212
4 24
4 42
4 70
4 84
4 128
4 143
4 176
4 199
4 236
4 287
5 27
5 245
5 289
5 295
5 297
6 63
6 137
6 143
6 175
7 10
7 25
7 55
7 109
7 120
7 195
7 238
7 251
8 62
8 76
8 83
8 91
8 150
8 199
8 200
8 206
8 225
8 232
8 252
8 257
8 262
8 280
8 293
8 295
9 249
9 295
10 67
10 143
10 251
10 282
10 298
11 29
11 38
11 39
11 42
11 44
11 82
11 133
11 164
11 183
11 201
11 245
12 46
12 52
12 69
12 127
12 136
12 141
12 158
12 163
12 173
12 176
12 196
13 22
13 142
13 182
14 33
14 39
14 56
14 68
14 92
14 117
14 119
14 129
14 144
14 157
14 179
14 218
14 219
14 239
14 283
14 296
15 36
15 38
15 41
15 89
15 110
15 124
15 153
15 185
15 210
15 221
15 253
16 29
16 35
16 42
16 45
16 61
16 77
16 128
16 166
16 169
16 200
16 219
16 231
16 250
16 266
16 270
17 68
17 121
17 140
17 147
17 153
17 201
17 213
17 265
17 278
18 53
18 117
18 218
18 230
18 236
18 262
18 296
19 42
19 97
19 116
19 129
19 144
19 150
19 175
19 203
19 219
20 33
20 42
20 64
20 93
20 100
20 113
20 129
20 144
20 146
20 170
20 240
20 244
20 260
20 264
20 271
20 283
22 81
22 103
22 142
22 185
22 276
23 38
23 45
23 64
23 82
23 95
23 138
23 244
23 260
23 294
24 70
24 93
24 164
24 176
25 61
25 84
25 107
25 131
25 174
25 194
25 197
25 252
25 253
25 254
26 43
26 100
26 101
26 138
26 240
26 272
26 290
27 247
27 287
27 295
28 47
28 51
28 59
28 60
28 152
28 162
28 168
28 199
28 226
28 236
28 239
28 261
29 35
29 63
29 114
29 125
29 174
29 185
29 205
29 206
29 225
29 242
29 247
29 250
29 266
29 280
29 294
30 43
30 49
30 64
30 90
30 140
30 149
30 240
30 245
31 49
31 200
32 34
32 47
32 48
32 68
32 87
32 136
32 144
32 177
32 190
32 232
32 249
32 273
32 285
32 299
32 300
33 45
33 50
33 77
33 169
33 177
33 189
33 238
33 240
33 247
33 264
33 279
33 289
33 296
33 298
34 38
34 50
34 83
34 106
34 120
34 123
34 163
34 167
34 168
34 177
34 199
34 287
35 60
35 88
35 110
35 126
35 128
35 225
36 118
36 210
36 297
37 72
37 171
37 273
37 286
38 63
38 82
38 130
38 148
38 178
38 186
38 196
38 225
38 300
39 44
39 56
39 180
39 254
39 278
39 292
40 45
40 62
40 64
40 75
40 88
40 100
40 151
40 172
40 179
40 186
40 192
40 218
40 248
40 262
40 263
40 269
40 274
40 291
41 72
41 83
41 124
41 165
41 197
41 225
41 247
42 77
42 100
42 128
42 133
42 144
42 146
42 164
42 212
42 231
42 260
42 271
42 296
43 60
43 84
43 90
43 99
43 152
43 169
43 240
43 285
44 45
44 56
44 81
44 202
44 258
44 259
45 77
45 81
45 151
45 192
45 217
45 244
45 280
45 288
46 52
46 73
46 91
46 98
46 101
46 173
46 181
46 224
46 274
47 60
47 121
47 190
47 201
47 210
47 299
48 68
48 69
48 83
48 117
48 129
48 193
48 213
48 214
48 217
48 256
48 263
49 78
49 80
49 89
49 90
49 117
49 137
49 148
49 200
49 223
49 294
50 83
50 112
50 147
50 167
50 169
50 294
50 298
51 61
51 95
51 138
51 152
51 192
51 239
51 248
51 268
51 275
52 67
52 101
52 124
52 157
52 194
52 247
52 259
52 272
53 72
53 117
53 118
53 138
53 162
53 178
53 198
54 56
54 60
54 160
54 166
54 255
54 296
55 82
55 175
55 190
55 230
55 238
55 290
56 68
56 160
56 171
57 166
57 230
57 252
58 69
58 184
59 73
59 80
59 107
59 138
59 174
59 186
59 232
59 239
59 268
60 64
60 126
60 146
60 152
60 279
60 285
61 219
61 220
61 231
61 238
61 279
61 284
62 66
62 83
62 100
62 276
62 287
63 66
63 69
63 82
63 84
63 98
63 110
63 137
63 184
63 215
63 217
63 240
63 242
63 266
63 270
63 275
63 290
64 79
64 90
64 94
64 102
64 109
64 117
64 146
64 151
64 152
64 233
64 285
64 294
65 158
65 226
66 98
66 110
66 146
66 193
66 217
66 251
66 261
67 97
67 110
67 115
67 119
67 124
67 136
67 195
67 208
67 275
68 87
68 104
68 129
68 213
68 265
68 278
69 75
69 84
69 98
69 139
69 172
69 183
69 188
69 193
69 219
69 235
69 263
70 175
70 242
70 262
71 135
71 163
71 187
71 200
71 300
72 83
72 118
72 177
72 195
72 218
72 262
73 93
73 117
73 127
73 136
73 137
73 141
73 142
73 159
73 161
73 181
73 239
73 257
73 265
74 75
74 133
74 149
74 172
74 174
74 205
74 216
75 108
75 131
75 157
75 163
75 172
75 184
75 199
75 200
75 255
75 282
75 298
76 83
76 107
76 141
76 200
76 274
76 286
77 126
77 152
77 185
77 256
77 280
77 288
77 289
77 298
78 105
78 117
78 133
78 136
78 184
78 200
78 228
78 230
78 236
78 246
78 247
78 281
79 92
79 101
79 102
79 171
79 194
79 210
80 89
80 138
80 148
80 198
80 234
80 236
81 93
81 99
81 139
81 176
81 185
81 234
81 288
81 293
82 84
82 137
82 148
82 175
82 178
82 186
82 190
82 240
83 120
83 218
83 274
83 276
83 299
84 99
84 169
84 186
84 199
84 252
84 291
85 90
85 208
85 288
85 290
85 300
87 104
87 119
87 124
87 161
87 222
87 254
87 284
87 288
88 95
88 114
88 128
88 146
88 194
88 217
88 239
88 257
88 267
88 274
89 130
89 132
89 148
89 157
89 170
89 207
89 212
89 234
89 253
89 293
90 94
90 99
90 180
90 208
90 233
90 287
90 292
91 101
91 163
91 194
91 262
91 293
92 140
92 167
92 194
92 200
92 210
92 240
92 270
93 141
93 159
93 176
93 226
93 236
93 241
93 258
93 260
94 98
94 125
94 162
94 180
94 183
94 206
94 266
94 276
94 288
94 292
94 293
95 101
95 114
95 138
95 232
95 257
95 268
95 280
95 285
96 127
96 154
96 219
97 111
97 115
97 150
97 182
97 227
98 100
98 101
98 125
98 137
98 200
98 223
98 266
98 276
98 294
99 140
99 152
99 229
99 246
99 282
99 293
99 299
100 101
100 129
100 272
100 290
101 192
101 257
101 274
101 276
101 291
102 151
102 233
102 281
103 119
103 124
103 290
103 298
103 299
104 105
104 135
104 161
104 222
104 242
104 254
104 268
105 108
105 110
105 136
105 174
105 185
105 228
105 263
105 285
106 116
106 120
106 168
106 210
107 131
107 141
107 155
107 174
107 187
107 197
107 200
107 284
108 134
108 149
108 161
108 183
108 184
108 213
108 250
108 263
108 280
109 120
109 237
109 290
110 119
110 136
110 137
110 185
110 202
110 225
110 238
110 275
110 279
111 167
111 200
111 252
111 260
111 277
111 283
111 288
112 146
112 147
112 165
113 149
113 160
113 260
114 242
114 267
115 119
115 122
115 136
115 214
115 282
116 189
116 256
116 267
117 125
117 137
117 150
117 165
117 177
117 218
117 223
117 228
117 233
117 262
118 138
118 186
118 188
118 192
118 195
118 210
118 235
118 239
118 250
118 291
119 124
119 136
119 188
119 219
119 235
119 249
119 265
120 123
120 141
120 147
120 158
121 125
121 161
121 201
121 224
121 244
121 256
121 286
121 298
122 200
122 222
123 141
123 272
124 142
124 217
124 221
124 222
124 253
124 254
124 276
124 279
125 185
125 228
125 242
125 254
125 276
125 286
125 292
126 225
127 136
127 141
127 154
127 213
127 264
128 144
128 146
128 186
128 194
128 273
129 284
130 170
131 200
132 163
132 177
132 184
132 202
132 293
133 164
133 174
133 216
133 296
134 149
134 156
134 179
134 213
134 242
134 262
134 293
135 242
136 159
136 165
136 169
136 188
136 191
136 197
136 198
136 200
136 263
136 294
136 299
136 300
137 141
137 143
137 150
137 171
137 177
137 180
137 193
137 217
137 218
137 222
137 256
137 261
138 148
138 178
138 236
139 169
139 183
139 192
139 205
139 211
139 216
139 233
139 234
140 152
141 142
141 147
141 159
141 162
141 174
141 193
141 197
142 177
142 187
142 193
142 276
142 279
143 199
144 208
144 236
144 249
144 274
146 162
146 165
146 193
146 217
146 232
146 247
146 271
146 273
146 290
147 278
147 286
148 198
148 207
148 280
148 294
149 204
149 260
150 175
150 227
150 276
150 293
151 262
152 220
152 230
152 265
152 296
153 205
153 214
154 232
154 238
155 173
155 238
155 247
155 251
155 252
156 186
157 227
157 259
157 269
157 272
157 296
157 298
158 163
158 164
158 206
159 198
160 173
160 196
160 300
161 184
161 222
161 239
161 256
161 265
162 168
162 282
162 293
163 164
163 177
163 200
163 249
163 252
163 286
163 295
164 165
164 194
164 253
165 197
165 217
165 225
165 247
165 275
165 285
165 290
166 200
166 215
166 230
166 238
166 247
166 278
167 168
167 177
167 181
167 200
168 198
168 226
169 189
169 197
169 200
169 240
169 266
169 279
170 264
170 292
171 180
171 182
171 217
171 222
171 245
171 261
171 270
171 285
172 237
172 263
173 252
173 297
174 206
174 222
174 280
175 227
175 242
175 278
177 193
177 200
177 262
177 289
178 216
178 254
178 292
179 283
179 297
180 182
180 183
180 222
180 223
180 281
180 285
182 184
182 222
182 300
183 189
183 263
183 283
183 288
184 202
185 259
186 226
186 229
186 246
186 291
187 256
188 235
188 260
189 199
189 224
189 240
190 210
190 273
190 285
191 213
191 246
191 261
191 265
191 291
191 294
192 216
192 231
192 248
192 291
193 209
193 214
193 263
193 283
193 297
194 207
194 221
194 247
194 253
194 272
195 214
195 229
196 225
196 300
197 200
197 232
197 243
197 253
197 276
197 278
197 285
198 216
198 226
198 234
198 263
198 280
199 206
199 223
199 236
199 281
199 287
200 230
200 232
200 243
200 245
200 270
200 276
200 283
201 245
201 250
201 257
201 280
203 211
203 243
204 299
205 213
205 249
205 263
205 269
205 280
205 290
205 295
206 236
206 281
206 288
208 236
208 252
208 281
208 288
208 300
209 214
209 297
211 216
212 253
213 265
213 290
213 299
214 229
214 252
214 282
214 298
215 273
215 291
216 280
217 251
217 256
217 267
217 271
217 279
217 282
217 298
217 299
218 230
218 238
218 247
218 269
218 277
218 299
219 230
219 233
219 263
220 262
220 266
220 274
220 293
220 296
221 267
222 230
222 270
223 259
223 266
223 285
223 287
223 299
224 239
224 246
224 257
224 280
225 293
227 242
227 256
227 268
227 269
227 280
228 296
229 245
229 246
230 247
230 265
230 296
231 248
231 254
231 273
231 291
232 238
232 249
232 273
232 276
234 279
236 267
236 281
237 263
237 289
238 247
238 251
238 282
238 284
239 257
239 268
239 280
240 285
241 257
242 262
242 268
242 269
242 294
244 260
244 288
244 298
245 246
245 270
245 289
246 265
247 264
247 269
247 272
247 279
247 280
247 282
249 252
249 285
249 295
250 257
250 291
251 261
251 285
251 299
252 282
252 283
252 288
252 295
253 269
253 278
253 280
254 292
255 276
255 296
256 265
256 267
256 269
257 263
257 280
259 266
262 293
263 280
263 283
265 296
266 274
266 294
267 279
269 277
269 278
269 280
271 299
272 290
275 290
276 287
276 293
276 296
279 289
282 298
284 291
285 299
286 295
288 295
*Classes
1
1
1
1
1
1
1
1
1
1
1
1
1
1
1
1
1
1
1
1
1
1
1
1
1
1
1
1
1
1
1
1
1
1
1
1
1
1
1
1
1
1
1
1
1
1
1
1
1
1
1
1
1
1
1
1
1
1
1
1
1
1
1
1
1
1
1
1
1
1
1
1
1
1
1
1
1
1
1
1
1
1
1
1
1
1
1
1
1
1
1
1
1
1
1
1
1
1
1
1
1
1
1
1
1
1
1
1
1
1
1
1
1
1
1
1
1
1
1
1
1
1
1
1
1
1
1
1
1
1
1
1
1
1
1
1
1
1
1
1
1
1
1
1
1
1
1
1
1
1
2
2
2
2
2
2
2
2
2
2
2
2
2
2
2
2
2
2
2
2
2
2
2
2
2
2
2
2
2
2
2
2
2
2
2
2
2
2
2
2
2
2
2
2
2
2
2
2
2
2
2
2
2
2
2
2
2
2
2
2
2
2
2
2
2
2
2
2
2
2
2
2
2
2
2
2
2
2
2
2
2
2
2
2
2
2
2
2
2
2
2
2
2
2
2
2
2
2
2
2
2
2
2
2
2
2
2
2
2
2
2
2
2
2
2
2
2
2
2
2
2
2
2
2
2
2
2
2
2
2
2
2
2
2
2
2
2
2
2
2
2
2
2
2
2
2
2
2
2
2
