*Vertices 300
*Edges
1 15
1 30
1 68
1 100
1 104
1 107
1 114
1 185
1 214
1 249
1 268
1 279
1 280
1 293
2 6
2 14
2 16
2 62
2 84
2 153
2 175
2 203
2 204
2 209
2 210
2 211
2 221
3 7
3 43
3 63
3 69
3 109
3 289
4 17
4 51
4 91
4 92
4 123
4 125
4 136
4 183
4 212
4 239
4 252
5 62
5 87
5 92
5 101
5 135
6 80
6 207
6 221
6 268
6 292
7 24
7 209
7 222
7 227
7 247
7 278
7 285
7 296
8 11
8 21
8 59
8 110
8 115
8 130
8 183
8 199
8 238
9 25
9 47
9 54
9 68
9 130
9 134
9 150
10 32
10 77
10 105
10 140
10 168
10 177
10 184
10 189
10 197
10 198
10 216
10 231
10 260
10 300
11 28
11 42
11 43
11 106
11 130
11 140
11 185
11 198
11 274
11 285
11 286
11 294
12 19
12 24
12 36
12 133
12 141
12 142
12 148
12 169
12 199
13 39
13 64
13 112
13 115
13 131
13 179
13 193
13 202
13 227
13 270
14 59
14 84
14 128
14 175
14 204
14 211
14 234
14 243
14 271
15 30
15 31
15 44
15 86
15 96
15 105
15 107
15 108
15 151
15 242
15 262
16 35
16 62
16 143
16 160
16 166
16 175
16 180
16 212
16 227
16 263
16 279
16 284
16 293
17 59
17 65
17 66
17 91
17 132
17 136
17 205
17 206
17 289
18 90
18 101
18 136
18 231
18 296
19 55
19 103
19 108
19 142
19 153
19 206
19 209
19 237
19 256
20 91
20 96
20 126
20 161
20 276
21 49
21 51
21 59
21 71
21 91
21 100
21 105
21 113
21 125
21 130
21 167
21 168
21 183
21 235
21 238
21 242
21 265
21 286
22 23
22 80
22 100
22 114
22 118
22 229
23 39
23 100
23 123
23 170
23 215
23 226
23 232
23 254
23 285
23 286
24 61
24 62
24 95
24 114
24 148
24 192
24 225
24 258
25 32
25 79
25 91
25 98
25 103
25 113
25 125
25 149
25 150
25 158
25 204
25 206
25 225
26 63
26 86
26 117
26 220
26 226
27 28
27 36
27 44
27 49
27 67
27 80
27 90
27 131
27 183
27 233
27 241
27 251
28 42
28 43
28 50
28 67
28 74
28 75
28 95
28 151
28 185
28 278
29 41
29 50
29 68
29 81
29 119
29 123
29 277
29 296
30 64
30 168
30 189
30 216
30 267
30 271
31 40
31 86
31 94
31 99
31 125
31 129
31 280
32 33
32 63
32 85
32 118
32 122
32 124
32 125
32 140
32 158
32 169
32 183
32 248
32 284
33 118
33 162
33 190
33 206
33 210
33 247
33 272
33 279
33 300
34 86
34 278
34 282
35 57
35 87
35 152
35 185
35 201
35 213
35 229
35 234
35 245
35 261
35 263
35 299
36 41
36 51
36 67
36 106
36 119
36 125
36 134
36 136
36 148
36 179
36 228
36 264
36 270
37 147
37 231
37 235
38 80
38 81
38 83
38 91
38 120
38 146
38 213
38 217
38 238
39 49
39 100
39 121
39 124
39 159
39 162
39 202
39 205
39 231
39 234
39 240
39 242
39 248
39 260
40 57
40 125
40 156
40 218
40 222
40 285
41 97
41 119
41 175
41 229
41 243
41 248
41 291
41 294
42 154
42 211
42 248
43 56
43 69
43 75
43 109
43 124
43 158
43 166
43 214
43 243
43 272
43 285
44 49
44 52
44 79
44 96
44 105
44 108
44 151
44 158
44 197
44 233
44 241
44 278
44 298
45 168
45 216
45 248
45 294
46 129
46 186
46 233
46 285
47 59
47 80
47 83
47 100
47 132
47 146
47 150
47 151
47 168
47 211
47 216
47 263
47 292
48 53
48 127
48 200
48 218
49 167
50 68
50 222
50 243
50 266
51 92
51 105
51 125
51 154
51 183
51 220
52 105
52 121
52 157
52 184
52 227
53 66
53 127
53 133
53 166
53 200
53 223
53 240
54 150
55 142
55 196
55 205
55 242
55 273
55 286
56 135
56 147
56 214
57 78
57 82
57 87
57 106
57 141
57 148
57 217
57 249
57 251
58 84
58 176
59 66
59 99
59 105
59 129
59 132
59 150
59 158
59 242
59 243
59 261
59 265
59 279
60 152
60 167
60 197
60 207
61 206
61 207
61 238
61 245
61 254
61 275
62 95
62 135
62 143
62 160
62 216
62 252
62 283
62 293
63 77
63 113
63 117
63 118
63 124
63 189
63 198
63 209
63 216
63 222
63 284
63 285
63 290
63 298
64 72
64 112
64 115
64 161
64 167
64 261
64 267
64 286
65 66
65 98
65 195
65 198
65 221
65 289
65 298
66 104
66 127
66 132
66 177
66 189
66 198
66 211
66 214
66 247
66 289
67 87
67 105
67 119
67 148
67 159
67 165
67 169
67 180
67 187
68 104
68 182
68 277
69 93
69 96
69 109
69 120
69 150
69 166
69 195
69 204
69 222
69 235
69 288
69 289
69 290
70 73
70 83
70 99
70 208
70 258
70 287
70 294
71 91
71 97
71 119
71 128
71 153
71 163
71 214
71 236
72 133
72 139
72 154
72 299
73 99
73 130
73 236
73 257
73 266
73 274
73 286
74 95
75 108
75 139
75 215
75 252
76 84
76 110
76 168
76 221
77 113
77 126
77 176
77 179
77 209
77 263
77 285
77 298
78 141
78 185
78 217
78 249
79 133
79 154
79 202
79 206
79 298
80 83
80 90
80 97
80 100
80 109
80 115
80 120
80 137
80 146
80 192
80 195
80 222
80 251
80 269
80 292
81 138
81 185
81 188
81 264
82 124
82 168
82 210
82 219
82 221
82 273
82 283
83 115
83 269
83 297
84 162
84 181
84 204
84 217
84 234
84 246
84 263
84 292
85 140
85 183
85 245
85 251
85 266
86 108
86 183
86 242
86 251
86 278
86 282
86 292
87 101
87 105
87 106
87 133
87 141
87 146
87 192
87 225
87 277
87 289
89 201
89 231
89 297
89 300
90 101
90 104
90 118
90 145
90 222
90 263
90 271
91 97
91 113
91 119
91 126
91 150
91 164
91 175
91 205
91 206
91 213
91 214
91 239
91 249
91 262
92 101
92 192
92 242
92 252
92 259
92 280
93 174
93 179
93 217
93 271
93 292
94 179
94 183
94 200
94 207
94 234
94 256
94 258
94 285
95 115
95 131
95 135
95 148
95 283
96 119
96 126
96 150
96 200
96 204
96 229
96 233
96 255
96 262
96 290
97 100
97 119
97 121
97 153
97 168
97 190
97 213
97 272
97 273
98 103
98 155
98 171
98 217
98 230
98 246
98 251
98 274
99 104
99 129
99 242
99 286
99 296
100 114
100 115
100 121
100 123
100 132
100 155
100 177
100 180
100 183
100 185
100 194
100 268
100 277
101 106
101 133
101 136
101 277
101 289
102 140
102 224
102 239
103 171
103 206
103 229
104 107
104 112
104 132
104 165
104 171
104 185
104 242
104 244
104 249
104 269
105 151
105 168
105 216
106 133
106 134
106 146
106 154
106 192
106 225
106 284
106 298
107 127
107 181
107 213
107 235
107 291
108 172
108 215
109 114
109 120
109 180
109 245
109 247
109 277
110 130
110 183
110 227
110 251
111 168
111 208
111 250
111 285
112 115
112 132
112 172
112 256
112 289
113 125
113 140
113 156
113 162
113 167
113 186
113 234
113 235
113 270
113 278
113 292
114 155
114 175
114 277
115 130
115 131
115 137
115 227
115 296
116 167
116 169
116 207
116 220
116 257
116 276
117 124
117 125
117 175
117 198
117 248
117 285
117 290
117 298
118 122
118 145
118 186
118 223
119 121
119 128
119 148
119 164
119 229
119 268
119 273
119 291
120 151
120 167
120 180
120 184
120 194
120 293
121 124
121 128
121 144
121 264
121 299
122 199
122 223
122 254
122 279
123 138
123 277
124 154
124 209
124 221
124 283
124 298
125 232
126 153
126 209
127 178
127 180
127 223
127 235
127 243
127 252
128 140
129 145
129 156
129 172
129 261
130 137
130 150
130 160
130 180
130 199
130 296
131 137
131 217
131 263
132 155
132 172
132 177
132 244
132 250
132 253
132 296
132 298
133 142
133 151
133 162
133 195
133 206
133 298
134 136
134 148
135 147
135 207
135 220
135 222
135 233
136 148
136 152
136 211
136 259
136 264
136 287
137 167
137 186
137 227
137 265
138 165
138 225
139 154
139 186
140 178
140 186
140 198
140 216
140 223
140 224
141 148
141 247
142 148
142 206
143 157
143 223
143 249
143 259
143 287
143 297
144 146
145 207
145 226
145 266
145 281
146 170
146 263
146 280
147 155
147 158
147 179
147 187
147 194
147 243
147 249
148 258
149 150
149 151
149 234
149 240
149 285
149 294
149 295
150 235
150 239
150 248
150 249
150 271
151 167
151 169
151 177
151 260
151 278
151 284
152 166
152 188
152 218
152 298
152 299
153 209
153 223
153 228
153 252
153 256
153 266
153 281
154 179
154 193
154 226
154 298
155 194
155 241
155 243
155 249
155 266
156 259
156 270
156 293
157 170
157 178
157 180
157 184
157 219
157 249
157 279
157 300
158 197
158 233
158 244
158 246
158 259
159 169
159 170
159 199
159 200
159 202
159 204
159 216
159 257
159 300
160 167
160 207
160 211
160 227
160 247
160 254
160 296
161 163
161 207
161 211
161 240
161 261
162 185
162 234
162 281
163 175
163 187
163 213
163 217
163 240
163 285
164 189
164 208
164 209
164 223
164 236
164 249
164 270
165 244
165 275
166 173
166 200
166 212
166 220
166 256
166 257
166 266
166 285
166 299
167 169
167 207
167 216
167 223
167 244
167 254
167 257
167 266
167 286
168 169
168 216
168 217
168 221
168 235
168 241
168 244
168 257
168 263
168 287
169 216
169 226
169 235
169 240
169 244
169 248
169 275
169 299
170 184
170 216
170 253
170 260
170 265
170 270
170 280
170 285
170 286
170 291
171 181
171 199
171 225
171 230
171 244
171 274
172 185
173 299
174 218
174 222
175 178
175 184
175 187
175 193
175 202
175 203
175 210
175 228
175 240
175 242
175 256
175 262
175 294
176 223
176 236
176 263
176 291
177 196
177 208
177 218
177 260
178 184
178 189
178 197
178 223
178 259
178 292
178 293
179 193
179 270
180 194
180 209
180 239
180 270
180 284
180 300
181 188
181 197
181 246
183 217
183 251
183 271
184 193
184 197
184 216
184 219
184 241
184 253
184 259
184 262
184 265
184 270
184 288
184 294
184 300
185 234
186 265
187 249
187 276
188 197
188 246
188 299
189 216
189 236
189 282
190 245
190 272
190 286
190 297
191 275
192 195
192 225
192 233
192 259
193 197
193 203
193 207
193 256
193 266
193 276
193 281
194 236
194 237
194 257
194 266
194 270
194 284
195 202
195 203
195 221
195 279
195 288
195 289
196 208
196 260
197 207
197 226
197 233
197 240
197 241
197 244
197 255
197 265
197 281
197 288
199 274
199 300
200 204
200 230
200 256
200 266
200 286
201 211
201 217
201 237
201 245
201 273
202 203
202 257
203 208
203 257
203 262
204 271
205 206
205 222
205 242
205 274
206 222
206 247
206 259
206 295
207 245
207 254
207 281
208 218
209 227
209 236
209 270
209 290
210 242
210 283
211 237
211 247
211 261
211 264
212 220
212 239
212 259
212 264
212 276
213 217
213 240
213 245
213 273
213 291
214 217
214 249
214 251
215 268
216 235
216 241
216 252
216 257
216 263
216 287
216 293
217 237
217 251
217 263
217 268
217 271
217 273
218 222
219 283
219 300
220 276
221 235
221 263
221 285
222 274
223 236
223 257
224 226
224 239
225 244
225 274
226 239
226 248
226 281
226 286
226 294
226 298
227 270
227 290
228 256
228 286
228 294
228 297
230 269
232 297
233 259
233 264
233 285
233 295
234 240
234 242
234 267
234 270
234 278
234 285
234 292
235 295
236 286
237 256
239 270
239 281
239 293
240 245
240 248
240 285
241 293
242 260
245 249
245 254
245 261
245 285
245 294
246 263
247 277
248 294
249 276
249 285
250 278
250 296
251 262
251 268
251 271
251 285
252 257
253 286
255 258
255 281
256 289
257 266
257 293
257 297
258 287
259 264
259 287
259 292
259 293
259 295
260 279
260 286
260 297
262 268
263 284
264 294
266 281
266 297
266 299
267 292
268 292
270 278
270 285
270 293
271 285
273 286
275 283
278 285
278 294
279 289
279 298
279 300
280 291
280 300
281 286
285 286
285 294
286 294
286 297
288 289
289 300
291 300
298 300
*Classes
1
1
1
1
1
1
1
1
1
1
1
1
1
1
1
1
1
1
1
1
1
1
1
1
1
1
1
1
1
1
1
1
1
1
1
1
1
1
1
1
1
1
1
1
1
1
1
1
1
1
1
1
1
1
1
1
1
1
1
1
1
1
1
1
1
1
1
1
1
1
1
1
1
1
1
1
1
1
1
1
1
1
1
1
1
1
1
1
1
1
1
1
1
1
1
1
1
1
1
1
1
1
1
1
1
1
1
1
1
1
1
1
1
1
1
1
1
1
1
1
1
1
1
1
1
1
1
1
1
1
1
1
1
1
1
1
1
1
1
1
1
1
1
1
1
1
1
1
1
1
2
2
2
2
2
2
2
2
2
2
2
2
2
2
2
2
2
2
2
2
2
2
2
2
2
2
2
2
2
2
2
2
2
2
2
2
2
2
2
2
2
2
2
2
2
2
2
2
2
2
2
2
2
2
2
2
2
2
2
2
2
2
2
2
2
2
2
2
2
2
2
2
2
2
2
2
2
2
2
2
2
2
2
2
2
2
2
2
2
2
2
2
2
2
2
2
2
2
2
2
2
2
2
2
2
2
2
2
2
2
2
2
2
2
2
2
2
2
2
2
2
2
2
2
2
2
2
2
2
2
2
2
2
2
2
2
2
2
2
2
2
2
2
2
2
2
2
2
2
2
