*Vertices 300
*Edges
1 54
1 169
1 171
1 256
2 46
2 127
3 20
3 52
3 58
3 61
3 105
3 124
3 128
3 150
3 168
3 192
3 230
3 235
3 268
3 271
4 133
4 286
5 25
5 50
5 107
5 125
5 150
5 287
5 290
5 299
6 46
6 48
6 147
6 168
6 180
6 194
6 196
6 197
6 236
6 239
6 248
6 253
6 264
6 292
7 18
7 24
7 74
7 126
7 134
7 172
7 228
7 250
8 25
8 54
8 67
8 95
8 108
8 127
8 162
8 168
8 261
8 271
9 61
9 110
9 122
9 169
9 184
9 202
9 234
9 272
10 25
10 44
10 54
10 57
10 71
10 75
10 138
10 190
10 198
10 245
10 255
10 256
10 265
10 294
11 15
11 30
11 50
11 60
11 88
11 92
11 118
11 147
11 229
11 230
11 232
11 236
11 264
11 297
12 51
12 64
12 88
12 103
12 109
12 121
12 122
12 155
12 194
12 221
12 271
12 274
13 45
13 165
14 50
14 68
14 95
14 183
14 250
14 293
15 42
15 51
15 60
15 71
15 94
15 104
15 142
15 176
15 214
15 223
15 244
15 268
16 111
16 136
16 142
16 175
16 222
16 247
16 298
17 33
17 49
17 51
17 71
17 91
17 114
17 153
17 155
17 162
17 188
17 294
18 19
18 74
18 134
18 172
18 229
19 58
19 128
19 138
19 141
19 148
19 206
19 285
20 29
20 58
20 62
20 72
20 106
20 124
20 128
20 150
20 161
20 170
20 180
20 184
20 238
20 247
20 268
20 287
21 29
21 35
21 56
21 83
21 130
21 147
21 213
21 227
22 28
22 54
22 62
22 65
22 77
22 104
22 147
22 172
22 201
22 269
22 289
23 38
23 43
23 72
23 161
23 166
23 170
23 190
23 199
23 282
23 291
24 123
24 126
24 134
24 168
24 224
24 243
24 275
24 281
24 285
25 34
25 46
25 54
25 64
25 71
25 77
25 146
25 150
25 228
26 59
26 99
26 134
26 161
26 199
26 217
26 233
26 262
26 269
26 275
26 298
27 44
27 61
27 62
27 76
27 77
27 86
27 96
27 97
27 124
27 125
27 127
27 150
27 172
27 223
27 232
27 268
27 281
28 56
28 66
28 78
28 109
28 206
28 297
29 120
29 127
29 190
29 217
29 280
30 56
30 60
30 61
30 82
30 91
30 100
30 112
30 118
30 124
30 128
30 153
30 155
30 181
30 183
30 228
30 243
30 259
30 287
31 41
31 89
31 97
31 109
31 116
31 141
31 189
31 190
31 228
31 229
32 190
32 242
32 244
32 292
33 38
33 64
33 114
33 155
33 170
33 211
34 101
34 119
34 120
34 122
34 127
34 150
34 272
34 292
35 117
35 203
35 208
35 212
35 213
35 227
35 244
35 265
36 107
36 149
36 229
36 250
36 276
37 95
37 131
37 180
37 211
37 218
37 265
37 286
37 297
38 43
38 176
38 199
38 229
38 288
38 291
39 138
39 141
39 161
39 238
39 256
39 285
40 63
40 113
40 130
40 161
40 179
41 97
41 109
41 116
41 140
41 189
41 195
41 210
41 215
41 228
41 245
41 277
42 186
42 214
42 224
42 254
42 273
42 299
43 72
43 131
43 171
43 216
43 250
43 259
43 297
44 62
44 75
44 115
44 135
44 184
44 196
44 238
45 91
45 132
45 162
45 182
45 206
45 263
45 281
45 287
45 291
46 64
46 71
46 78
46 123
46 144
46 180
46 183
46 271
47 50
47 68
47 101
47 146
47 185
48 187
48 234
49 78
49 168
49 196
50 56
50 60
50 61
50 68
50 88
50 95
50 103
50 125
50 146
50 162
50 201
50 215
50 284
50 290
50 296
50 299
51 71
51 103
51 109
51 121
51 134
51 142
51 206
51 228
51 238
52 58
52 205
53 55
53 59
53 76
53 86
53 108
53 203
53 220
53 264
54 77
54 89
54 143
54 147
54 172
55 56
55 86
55 109
55 117
55 121
55 140
55 173
56 84
56 95
56 100
56 102
56 109
56 143
56 147
56 160
56 228
56 250
56 282
56 297
57 75
57 87
57 162
57 190
57 198
57 262
57 290
58 109
58 128
58 240
59 65
59 108
59 189
59 223
59 267
59 269
59 270
60 91
60 93
60 100
60 125
60 137
60 160
60 221
60 228
60 281
61 62
61 69
61 93
61 110
61 112
61 118
61 124
61 125
61 126
61 167
61 198
61 213
61 283
62 75
62 96
62 97
62 101
62 104
62 161
62 201
62 245
62 295
63 113
63 212
63 215
63 233
64 71
64 103
64 211
64 246
64 255
65 77
65 101
65 132
65 189
65 191
65 219
65 221
65 257
66 109
66 187
66 237
66 244
66 275
66 287
67 127
67 136
67 150
67 203
67 271
68 101
68 180
68 183
68 210
68 250
68 285
69 105
69 118
69 196
69 276
69 297
70 77
70 151
70 152
70 252
70 269
70 296
71 73
71 110
71 125
71 138
71 142
71 228
71 248
72 106
72 171
72 179
72 198
72 250
72 256
72 276
73 110
73 138
73 163
73 191
74 229
75 76
75 94
75 99
75 106
75 129
75 135
75 198
75 205
75 230
76 90
76 96
76 108
76 127
76 128
76 129
76 150
76 214
76 228
76 236
76 290
77 86
77 88
77 96
77 103
77 108
77 147
77 169
77 172
77 256
77 269
77 274
77 277
78 168
78 183
78 230
78 252
79 158
79 197
79 270
80 142
80 167
80 197
80 207
80 210
80 257
80 290
81 83
81 231
81 278
82 85
82 86
82 128
82 264
83 85
83 112
83 133
83 134
83 145
83 146
83 151
83 155
83 160
83 174
83 193
83 231
84 109
84 139
84 146
84 169
84 192
84 198
84 212
85 88
85 93
85 146
85 154
85 208
85 213
86 92
86 96
86 97
86 111
86 152
86 183
86 245
86 264
86 265
86 269
86 281
87 222
87 238
87 298
88 103
88 184
88 247
88 279
89 90
89 207
89 211
89 214
89 217
89 236
89 259
89 263
90 100
90 110
90 126
90 129
90 194
90 201
90 216
90 217
90 259
90 270
91 100
91 137
91 155
91 162
91 197
91 199
91 216
92 110
92 111
92 152
92 196
92 232
92 269
93 137
93 146
93 246
93 269
93 283
94 140
94 152
94 169
94 205
94 224
94 234
94 254
94 268
94 275
94 276
94 283
94 291
94 297
95 160
95 162
95 266
96 103
96 264
97 98
97 140
97 245
97 278
98 117
98 140
98 162
98 194
98 229
98 265
98 272
98 295
99 153
99 162
99 205
99 262
100 118
100 126
100 137
100 177
100 209
100 281
101 122
101 185
101 222
101 243
101 245
101 263
101 279
101 282
101 300
102 109
102 121
102 267
103 158
103 258
103 264
104 201
105 118
105 168
105 225
105 285
106 116
106 135
106 144
106 171
106 180
106 268
106 299
108 127
108 147
108 149
108 202
108 234
108 248
108 271
108 277
109 187
109 195
109 240
110 166
110 196
110 202
110 215
110 236
111 175
111 216
111 292
112 210
112 215
112 216
112 228
112 259
112 277
113 176
113 182
113 196
113 212
113 221
114 136
115 196
115 222
117 121
117 184
117 225
117 238
117 265
118 126
118 178
118 283
119 122
119 189
119 193
119 242
120 127
120 132
121 134
121 206
121 276
122 168
122 220
122 234
123 270
124 153
124 188
124 211
124 213
124 215
124 253
124 276
124 294
124 296
125 227
125 231
126 266
127 129
127 150
127 155
127 185
127 241
127 254
128 205
128 235
128 236
128 252
128 264
129 230
130 142
131 152
131 158
131 218
131 235
131 268
132 167
132 182
132 203
132 257
132 287
132 290
133 152
133 191
133 193
133 245
134 174
134 193
134 206
136 150
136 151
136 211
136 232
136 270
137 138
137 142
137 208
137 222
137 237
137 241
137 272
137 287
137 299
138 141
138 190
138 241
138 258
138 262
138 281
139 198
140 163
140 233
140 235
140 276
141 185
141 186
141 199
141 214
141 229
141 249
141 258
141 262
142 156
142 160
142 162
142 164
142 207
142 222
142 224
142 238
142 251
142 259
142 272
142 288
142 299
143 160
143 233
144 273
145 151
145 183
145 278
146 155
146 196
146 212
146 281
147 169
147 174
147 193
147 194
147 196
147 206
147 223
147 236
147 269
147 278
148 206
148 249
148 276
148 285
149 173
149 215
149 229
149 248
150 164
150 173
150 197
150 211
150 232
151 159
151 193
151 233
151 252
152 175
152 223
152 244
152 262
152 297
153 205
153 243
153 276
154 155
154 171
154 173
154 179
154 200
154 223
154 231
154 243
154 244
154 272
154 291
155 172
155 184
155 185
155 195
155 212
155 231
155 238
155 249
155 260
155 274
156 201
156 299
157 189
157 225
157 269
158 196
158 245
158 281
160 277
160 282
161 169
161 184
161 195
161 256
161 287
161 295
162 165
162 188
162 216
162 229
162 254
162 274
162 281
163 185
164 195
164 222
165 266
166 181
166 198
166 220
166 282
167 174
167 197
167 211
167 292
168 220
168 239
168 271
168 276
168 285
169 192
169 224
169 234
169 253
169 256
169 269
169 275
170 282
170 293
170 300
171 179
171 216
171 243
171 255
171 272
172 187
172 205
172 240
172 261
172 274
172 291
173 179
173 213
173 235
173 254
173 276
174 206
174 226
175 213
175 223
175 227
175 244
175 263
176 212
176 250
176 258
176 290
177 209
177 217
177 263
178 183
178 194
178 213
178 215
178 217
178 224
178 270
178 283
179 200
179 289
180 296
181 214
181 220
181 287
182 206
183 200
183 213
183 226
183 237
183 242
183 252
183 265
183 287
184 202
184 222
184 238
184 247
184 249
184 260
184 289
185 254
185 256
186 280
187 240
187 291
188 253
188 254
188 264
189 196
189 208
189 210
189 213
189 215
189 225
189 235
189 240
189 254
189 267
189 282
190 191
190 229
190 231
190 241
190 245
190 256
190 262
190 264
190 274
190 280
190 285
190 292
192 256
193 223
193 255
193 262
193 267
193 293
194 203
194 212
194 229
194 258
194 295
195 231
195 295
196 215
196 227
196 247
196 281
197 261
198 220
198 250
198 274
199 228
199 233
199 262
199 277
199 290
200 204
200 221
200 230
200 247
200 261
200 263
200 265
200 274
200 286
200 289
201 218
201 283
201 284
202 247
204 274
205 237
205 287
205 291
206 281
207 214
207 225
207 236
207 268
207 269
207 285
209 263
210 215
210 236
210 285
211 214
211 215
211 251
211 265
211 292
212 221
212 250
212 258
212 265
213 214
213 215
213 222
213 225
213 226
213 282
214 215
214 223
214 236
214 268
214 299
215 227
215 240
215 247
216 266
216 270
216 274
216 279
216 280
217 263
217 275
217 287
219 232
219 239
220 271
220 274
220 285
221 258
222 225
222 238
222 282
222 288
222 290
223 244
223 262
223 268
223 269
223 278
223 299
224 260
224 269
224 296
226 242
226 287
227 244
227 264
227 269
228 248
228 250
228 290
229 230
229 231
229 252
229 288
229 292
229 298
230 235
230 254
230 264
230 265
230 289
231 245
231 261
231 280
231 285
232 235
232 264
232 296
233 290
234 269
234 287
235 254
235 268
235 276
235 297
237 275
237 287
238 244
238 248
238 249
238 260
238 272
238 294
239 248
239 260
240 245
240 282
241 273
242 262
243 276
243 282
243 299
244 248
244 269
244 287
244 291
245 265
245 281
245 290
246 278
247 286
247 289
248 249
248 260
248 264
249 298
251 265
251 288
252 296
253 254
253 286
254 273
255 261
255 285
255 295
257 261
257 277
257 285
257 288
258 262
259 283
259 284
260 294
261 263
261 271
261 274
261 277
261 280
261 285
262 268
263 275
263 287
264 271
264 281
264 292
265 269
265 289
266 279
268 286
268 297
271 292
272 295
273 299
274 280
275 287
276 294
280 292
282 299
283 284
286 289
286 297
287 290
293 300
299 300
*Classes
1
1
1
1
1
1
1
1
1
1
1
1
1
1
1
1
1
1
1
1
1
1
1
1
1
1
1
1
1
1
1
1
1
1
1
1
1
1
1
1
1
1
1
1
1
1
1
1
1
1
1
1
1
1
1
1
1
1
1
1
1
1
1
1
1
1
1
1
1
1
1
1
1
1
1
1
1
1
1
1
1
1
1
1
1
1
1
1
1
1
1
1
1
1
1
1
1
1
1
1
1
1
1
1
1
1
1
1
1
1
1
1
1
1
1
1
1
1
1
1
1
1
1
1
1
1
1
1
1
1
1
1
1
1
1
1
1
1
1
1
1
1
1
1
1
1
1
1
1
1
2
2
2
2
2
2
2
2
2
2
2
2
2
2
2
2
2
2
2
2
2
2
2
2
2
2
2
2
2
2
2
2
2
2
2
2
2
2
2
2
2
2
2
2
2
2
2
2
2
2
2
2
2
2
2
2
2
2
2
2
2
2
2
2
2
2
2
2
2
2
2
2
2
2
2
2
2
2
2
2
2
2
2
2
2
2
2
2
2
2
2
2
2
2
2
2
2
2
2
2
2
2
2
2
2
2
2
2
2
2
2
2
2
2
2
2
2
2
2
2
2
2
2
2
2
2
2
2
2
2
2
2
2
2
2
2
2
2
2
2
2
2
2
2
2
2
2
2
2
2
