*Vertices 300
*Edges
1 79
1 90
2 7
2 12
2 18
2 47
2 53
2 69
2 76
2 97
2 111
2 144
2 145
2 148
2 149
2 161
2 172
2 279
2 293
3 111
3 286
4 27
4 74
4 89
4 97
4 137
4 149
4 280
5 52
5 173
5 180
5 185
6 7
6 41
6 72
6 112
6 172
7 23
7 40
7 44
7 62
7 111
7 151
7 161
7 162
7 172
7 189
7 275
8 16
8 35
8 42
8 80
8 82
8 88
8 95
8 139
8 160
8 177
8 209
8 263
8 286
9 33
9 61
9 94
9 128
9 134
9 191
9 219
9 260
9 293
9 296
9 297
10 29
10 66
10 262
10 288
10 295
11 16
11 17
11 44
11 181
11 208
11 266
11 284
11 287
12 17
12 47
12 59
12 186
12 194
13 26
13 83
13 89
13 106
13 122
13 139
13 150
13 273
14 74
14 129
14 159
14 257
15 62
15 138
15 145
15 299
16 21
16 26
16 35
16 95
16 146
16 201
16 238
16 286
17 32
17 35
17 99
17 116
17 146
17 181
17 188
17 194
17 204
17 248
17 257
17 260
17 262
18 31
18 35
18 64
18 111
18 161
19 41
19 44
19 47
19 105
19 120
19 141
19 152
19 163
19 184
19 216
19 226
20 58
20 68
20 76
20 133
20 143
20 195
20 212
20 244
20 266
20 287
21 25
21 28
21 37
21 56
21 57
21 65
21 74
21 92
21 117
21 124
21 133
21 138
21 142
21 146
21 150
21 189
21 201
21 249
21 257
22 27
22 33
22 56
22 61
22 72
22 76
22 132
22 134
22 196
22 216
22 236
23 33
23 40
23 46
23 63
23 108
23 150
23 200
23 218
24 62
24 86
24 280
25 38
25 65
25 71
25 93
25 97
25 113
25 115
25 118
25 130
25 137
25 146
25 158
25 192
25 255
25 264
25 300
26 77
26 89
26 106
26 139
26 226
26 238
26 280
27 33
27 75
27 107
27 130
27 132
27 176
27 265
27 280
27 286
28 64
28 65
28 100
28 142
28 146
28 163
28 180
28 213
28 214
28 230
28 237
28 241
28 243
28 285
29 167
30 83
30 119
30 136
30 141
30 150
30 156
30 273
31 38
31 41
31 90
31 104
31 105
31 113
31 130
31 143
31 224
32 44
32 51
32 105
32 111
32 166
32 177
32 216
32 246
32 260
32 284
33 37
33 40
33 42
33 63
33 69
33 132
33 134
33 176
33 261
33 297
34 77
34 88
34 92
34 117
34 132
34 285
35 64
35 87
35 99
35 101
35 180
35 204
35 224
36 70
36 110
36 123
36 125
36 180
36 222
36 230
36 269
36 288
37 58
37 69
37 72
37 77
37 86
37 87
37 124
37 132
37 138
37 146
37 188
37 193
37 212
37 266
37 267
37 273
38 94
38 102
38 113
38 126
38 130
38 132
38 136
38 149
38 210
38 229
38 232
38 254
38 264
38 300
39 64
39 106
39 109
39 235
39 259
39 298
40 51
40 104
40 132
40 184
40 185
40 189
40 216
40 261
40 273
41 61
41 104
41 105
41 178
41 216
41 246
41 260
41 275
42 79
42 82
42 147
42 201
42 223
42 255
43 50
43 86
43 102
43 122
43 190
44 47
44 57
44 71
44 74
44 76
44 98
44 147
44 162
44 165
44 170
44 275
44 284
46 108
46 124
46 189
46 191
46 250
46 277
47 71
47 76
47 89
47 97
47 98
47 131
47 141
47 150
48 90
48 126
49 57
49 136
49 137
49 203
50 81
50 86
50 92
50 200
50 247
50 249
50 250
51 56
51 58
51 161
51 163
51 203
51 204
52 100
52 186
52 232
52 236
53 67
53 73
53 78
53 93
53 143
53 148
53 207
53 258
53 263
54 91
54 154
54 158
54 175
54 266
56 58
56 60
56 92
56 102
56 113
56 176
56 196
56 257
56 259
57 71
57 92
57 133
57 137
57 156
57 170
57 203
57 209
57 289
58 60
58 124
58 163
58 241
59 85
59 127
59 171
59 186
59 190
59 206
59 266
59 298
60 63
60 113
60 176
60 223
60 267
61 144
61 176
61 191
61 194
61 200
61 236
61 238
61 284
62 100
62 135
62 162
62 166
62 173
62 180
62 195
62 198
62 229
62 232
62 273
62 280
62 293
63 150
63 204
63 223
63 256
63 268
63 277
63 292
64 75
64 106
64 112
64 130
64 139
64 202
64 213
64 235
64 242
64 243
65 83
65 92
65 137
65 141
65 146
65 150
65 192
65 299
66 231
66 232
66 234
66 268
66 288
66 293
67 95
67 131
67 148
67 152
67 175
67 249
69 132
69 144
69 169
70 72
70 152
70 172
70 174
70 179
70 234
70 243
70 258
70 269
70 293
71 78
71 115
71 153
71 170
71 210
72 86
72 124
72 146
72 164
72 172
72 196
72 212
73 78
73 144
73 207
73 257
74 82
74 122
74 184
74 185
74 192
74 257
74 287
74 293
75 76
75 120
75 130
75 135
75 160
75 168
75 233
75 237
75 253
75 279
75 288
76 131
76 135
76 167
76 170
76 196
76 204
76 210
76 274
76 287
77 87
77 89
77 97
77 114
77 146
77 148
77 182
77 197
77 219
79 90
79 129
79 188
79 200
79 255
79 262
79 292
80 83
80 88
80 107
80 130
81 92
81 103
81 149
81 198
81 209
81 296
82 103
82 174
83 106
83 122
83 127
83 136
83 141
83 150
83 153
83 156
84 89
84 93
84 101
84 122
84 135
84 214
84 243
84 249
84 269
85 202
85 250
85 285
86 105
86 215
86 225
86 267
87 98
87 101
87 170
87 212
87 300
88 95
88 97
88 112
88 113
88 139
88 183
88 212
88 285
89 122
89 141
89 150
89 214
89 230
89 280
89 287
90 105
90 126
90 147
90 176
90 200
90 227
90 233
90 261
91 135
91 148
91 154
91 167
91 173
91 179
91 253
91 269
91 294
91 295
92 94
92 111
92 117
92 120
92 133
92 194
92 247
92 261
92 299
93 115
93 120
93 263
93 269
94 103
94 107
94 130
94 133
94 210
94 279
94 286
95 120
95 148
95 152
96 156
96 172
96 193
96 222
96 225
96 238
96 246
97 126
97 137
97 139
97 140
97 142
97 149
97 172
97 180
97 183
97 197
98 101
98 124
98 251
98 256
98 272
99 114
99 116
99 233
99 245
100 142
100 163
100 199
100 232
101 115
101 131
101 235
102 113
102 200
103 130
103 174
103 282
104 107
104 111
104 130
104 147
104 157
104 161
104 254
104 294
105 113
105 143
105 157
105 214
105 216
105 238
105 281
106 168
106 172
106 217
106 251
106 278
106 279
107 130
107 142
107 180
107 204
108 122
108 127
108 189
108 203
109 140
109 155
109 177
109 178
109 185
109 208
109 227
109 234
109 240
110 199
110 230
110 231
111 157
111 161
111 166
111 189
111 194
111 207
111 226
111 230
111 263
111 286
112 139
112 176
112 202
112 290
113 149
113 186
113 214
113 232
113 293
114 140
114 197
114 205
114 245
114 257
115 120
115 131
115 137
115 150
115 177
115 184
115 197
115 205
115 233
115 268
115 271
115 277
116 117
116 173
116 234
117 221
117 233
117 239
117 295
117 299
118 158
119 129
119 136
119 189
119 235
119 267
119 284
120 133
120 135
120 152
120 163
120 174
120 184
121 245
122 127
122 141
122 144
122 148
122 161
122 183
122 190
122 214
122 217
122 227
123 125
123 146
123 164
123 199
123 261
124 191
124 209
124 228
124 250
125 192
125 269
125 288
126 149
126 183
126 219
126 225
127 148
127 205
128 133
128 239
128 282
128 297
129 292
130 198
130 264
131 158
131 162
131 175
131 184
131 195
131 281
132 149
132 205
132 259
132 265
132 273
133 169
133 282
134 177
134 213
134 266
134 271
134 293
135 199
135 229
135 269
135 288
135 294
135 295
135 300
136 170
136 210
136 269
137 149
137 156
137 181
137 183
137 192
138 273
138 299
139 168
139 212
139 273
140 144
140 178
140 179
140 211
140 262
141 150
141 230
141 291
142 161
142 180
142 248
142 293
143 195
143 200
143 252
143 274
143 277
143 287
144 165
144 172
144 182
144 219
144 227
144 258
144 284
145 148
145 182
145 185
146 188
146 189
146 197
146 202
146 205
146 249
146 299
147 157
147 162
147 227
147 255
147 262
147 265
147 284
148 165
148 185
148 197
148 256
148 290
148 295
149 209
150 153
150 268
151 162
151 283
152 165
152 174
152 179
152 207
152 234
152 280
152 282
152 290
152 294
153 195
153 201
153 255
154 233
155 218
155 222
155 240
155 266
155 287
155 296
155 297
156 159
156 181
156 188
156 210
156 226
156 247
157 165
157 166
157 186
157 201
157 284
158 175
158 186
158 230
158 232
158 242
158 243
158 255
158 268
158 293
159 188
159 246
159 251
159 253
159 257
159 262
160 168
160 206
160 225
162 187
162 195
162 197
162 275
162 284
163 233
164 212
164 233
164 261
164 264
165 166
165 197
165 263
165 282
165 290
165 297
166 180
166 186
166 207
166 263
166 280
167 171
167 189
167 220
167 246
167 253
167 274
167 277
167 285
167 291
169 298
170 191
170 200
170 210
170 211
170 215
170 232
170 259
170 262
170 285
171 177
171 190
171 245
171 255
171 287
171 291
171 293
171 296
172 238
172 279
173 178
173 198
173 212
173 278
174 209
174 218
174 225
174 227
174 263
174 280
174 282
174 294
175 184
175 242
175 255
175 266
175 268
176 200
176 227
176 245
176 297
177 192
177 193
177 208
177 209
177 216
177 218
177 224
177 235
177 263
177 271
177 275
177 277
177 287
177 297
178 262
178 275
178 278
179 197
179 211
179 225
179 247
179 251
179 295
180 185
180 186
180 189
180 204
180 213
180 222
180 239
180 292
181 257
182 224
182 243
183 219
183 220
183 229
183 239
183 240
183 246
183 251
183 252
184 185
184 191
184 200
184 211
184 218
184 273
185 189
185 200
185 205
185 258
185 287
186 199
186 215
186 232
187 209
187 215
187 218
187 225
187 226
187 284
187 285
188 200
188 205
188 215
188 255
188 262
188 285
189 273
189 277
189 291
190 219
190 246
190 248
190 289
191 200
191 238
191 282
191 287
192 200
192 207
192 221
192 287
193 208
193 218
193 220
193 222
193 275
193 277
194 200
194 218
194 260
195 208
195 212
195 223
195 231
195 255
195 268
195 276
195 281
196 204
196 239
196 292
196 298
197 199
197 205
197 222
197 232
197 295
198 296
199 205
199 207
199 230
199 232
199 294
200 211
200 214
200 215
200 218
200 238
200 240
200 244
200 250
200 287
200 293
200 296
201 223
201 228
201 230
201 255
201 289
202 205
203 209
203 259
204 206
204 213
204 224
204 239
204 292
205 249
205 258
205 263
206 225
206 266
206 278
206 298
207 219
207 239
207 255
207 291
207 294
208 235
208 250
208 263
208 266
208 272
208 276
208 288
209 218
209 219
209 225
209 228
209 229
209 248
209 260
209 271
209 290
209 297
210 286
211 251
212 240
212 251
212 276
212 300
214 266
214 281
214 287
215 241
215 250
215 262
215 285
216 221
216 258
216 261
216 273
216 292
216 295
217 222
217 227
217 258
217 265
217 279
217 295
217 300
218 222
218 240
218 250
218 251
218 260
218 275
218 287
218 291
218 296
218 297
219 239
219 246
219 248
219 258
219 289
220 229
220 240
220 275
220 285
221 228
221 233
221 237
221 279
221 287
221 295
222 224
222 225
222 256
222 269
222 275
222 277
222 284
222 295
222 296
223 267
223 268
224 243
224 256
224 271
224 277
224 289
225 229
225 271
225 278
225 300
226 229
226 230
226 243
226 300
227 259
227 280
227 284
227 295
228 247
228 280
228 295
229 269
229 271
229 300
230 237
230 243
230 255
230 280
231 262
231 268
232 293
233 245
233 261
233 273
234 282
234 288
234 290
234 297
235 243
235 272
235 298
237 279
239 262
239 291
239 294
240 251
240 296
241 267
241 283
241 285
242 243
242 252
244 287
245 248
245 261
246 253
246 276
247 249
247 295
247 299
248 257
249 263
249 295
250 276
250 285
250 287
251 256
251 257
251 278
252 277
253 276
254 300
255 262
255 287
255 296
256 277
256 300
257 274
258 295
259 265
259 277
259 280
260 284
260 291
260 293
260 297
261 264
262 268
262 284
262 285
262 290
262 291
263 280
263 282
263 287
264 294
265 284
265 286
265 300
266 272
266 287
267 270
267 284
269 286
271 277
273 292
275 285
277 284
277 300
281 287
282 290
287 291
287 293
290 297
*Classes
1
1
1
1
1
1
1
1
1
1
1
1
1
1
1
1
1
1
1
1
1
1
1
1
1
1
1
1
1
1
1
1
1
1
1
1
1
1
1
1
1
1
1
1
1
1
1
1
1
1
1
1
1
1
1
1
1
1
1
1
1
1
1
1
1
1
1
1
1
1
1
1
1
1
1
1
1
1
1
1
1
1
1
1
1
1
1
1
1
1
1
1
1
1
1
1
1
1
1
1
1
1
1
1
1
1
1
1
1
1
1
1
1
1
1
1
1
1
1
1
1
1
1
1
1
1
1
1
1
1
1
1
1
1
1
1
1
1
1
1
1
1
1
1
1
1
1
1
1
1
2
2
2
2
2
2
2
2
2
2
2
2
2
2
2
2
2
2
2
2
2
2
2
2
2
2
2
2
2
2
2
2
2
2
2
2
2
2
2
2
2
2
2
2
2
2
2
2
2
2
2
2
2
2
2
2
2
2
2
2
2
2
2
2
2
2
2
2
2
2
2
2
2
2
2
2
2
2
2
2
2
2
2
2
2
2
2
2
2
2
2
2
2
2
2
2
2
2
2
2
2
2
2
2
2
2
2
2
2
2
2
2
2
2
2
2
2
2
2
2
2
2
2
2
2
2
2
2
2
2
2
2
2
2
2
2
2
2
2
2
2
2
2
2
2
2
2
2
2
2
