*Vertices 300
*Edges
1 3
1 32
1 33
1 52
1 62
1 84
1 106
1 128
1 133
1 144
1 159
2 107
2 145
2 155
2 182
2 300
3 25
3 28
3 29
3 52
3 137
3 263
4 5
4 30
4 31
4 215
4 235
4 276
4 285
5 33
5 56
5 79
5 97
5 110
5 159
5 223
5 248
5 272
5 295
6 24
6 42
6 53
6 62
6 68
6 86
6 88
6 103
6 145
6 169
6 184
6 292
7 99
7 148
7 149
7 177
7 225
8 82
8 96
8 101
8 104
8 198
8 218
8 239
8 253
8 280
8 288
9 11
9 37
9 73
9 80
9 116
9 150
9 172
9 181
9 249
10 15
10 62
10 84
10 99
10 297
11 72
11 94
12 113
12 122
12 130
12 169
12 232
12 250
13 17
13 31
13 44
13 61
13 62
13 120
13 149
13 163
13 221
13 264
13 288
14 33
14 53
14 127
14 132
14 199
14 236
14 249
14 288
15 62
15 210
16 25
16 105
16 172
16 254
17 18
17 44
17 65
17 80
17 130
17 147
17 162
17 176
17 181
17 195
17 233
17 287
18 36
18 51
18 56
18 84
18 134
18 181
18 262
19 54
19 77
19 84
19 97
19 121
19 131
19 164
19 206
19 268
19 285
20 34
20 37
20 58
20 76
20 128
20 135
20 143
20 175
21 26
21 38
21 50
21 52
21 57
21 80
21 111
21 125
21 136
21 171
21 204
21 275
21 287
22 28
22 39
22 70
22 109
22 127
22 194
22 199
22 231
23 39
23 41
23 87
23 99
23 135
23 156
23 162
23 202
23 208
23 267
23 287
24 40
24 53
24 97
24 119
24 181
24 221
24 233
24 264
25 52
25 77
25 105
25 134
25 151
25 171
25 180
25 239
25 271
25 274
26 160
26 185
26 258
27 63
27 86
27 150
28 34
28 39
28 63
28 105
28 133
28 136
28 182
28 250
28 263
29 52
29 61
29 80
29 134
29 201
30 216
30 264
30 270
30 276
31 52
31 115
31 120
31 134
31 148
31 151
31 181
31 212
31 286
31 288
32 56
32 112
32 128
32 238
33 72
33 75
33 80
33 85
33 116
33 144
33 162
33 194
33 195
33 228
33 259
33 269
33 295
34 58
34 64
34 65
34 136
34 182
34 194
34 197
34 204
35 59
35 87
35 135
35 185
35 198
35 202
35 275
36 44
36 46
36 73
36 114
36 158
36 187
36 199
36 200
37 78
37 166
37 192
37 200
37 257
38 74
38 78
38 200
38 247
38 293
38 294
39 48
39 97
39 101
39 160
39 216
39 234
40 63
40 119
40 150
40 200
41 54
41 56
41 85
41 122
41 123
41 140
41 162
41 220
41 239
42 47
42 55
42 79
42 103
42 240
42 258
42 286
42 294
43 60
43 71
43 81
43 88
43 108
43 110
43 202
43 234
43 264
43 271
44 83
44 130
44 152
44 154
44 288
45 90
45 100
45 140
45 158
45 220
46 95
46 114
46 126
46 267
46 300
47 160
47 219
47 258
47 286
48 52
48 97
48 169
48 217
48 220
49 50
49 66
49 144
49 283
50 65
50 70
50 109
50 132
50 161
50 215
50 278
50 287
51 60
51 82
51 116
51 119
51 126
51 148
51 181
51 242
52 80
52 114
52 134
52 137
52 171
52 179
52 182
52 186
52 217
52 227
52 271
52 281
52 299
53 67
53 87
53 193
53 239
53 250
53 275
53 295
54 92
54 97
54 99
54 110
54 123
54 162
54 222
54 284
54 285
55 79
55 106
55 119
55 176
55 236
55 278
55 286
55 294
56 112
56 181
57 191
57 204
57 297
58 123
58 186
58 240
59 83
59 93
59 106
59 130
59 135
59 145
59 198
59 256
59 262
60 140
60 148
60 160
60 161
60 194
60 222
60 229
60 233
60 237
60 261
60 264
60 298
61 172
61 179
61 221
61 245
61 270
62 79
62 84
62 166
62 202
62 292
63 105
63 150
63 171
63 263
64 89
64 98
64 101
64 122
64 132
64 136
64 187
64 191
64 228
64 248
65 147
65 168
65 197
65 204
65 226
65 228
65 284
65 287
65 291
66 105
66 153
66 182
67 87
67 180
67 247
67 294
68 86
68 105
68 171
68 215
68 216
68 239
68 264
68 269
68 277
68 282
68 283
68 285
69 85
69 97
69 98
69 108
69 216
69 296
69 297
70 109
70 147
70 178
70 179
70 190
70 200
70 214
71 99
71 116
71 149
71 230
71 232
71 234
71 275
72 76
72 85
72 151
72 219
72 226
72 272
73 158
73 279
74 76
74 91
74 129
74 141
74 148
74 175
74 184
74 200
74 230
74 243
74 275
75 80
75 114
75 116
75 166
75 169
75 186
75 201
75 217
76 91
76 121
76 129
76 141
76 174
76 175
76 192
76 260
76 265
77 121
77 216
77 282
78 81
78 96
78 185
78 198
78 200
78 231
78 242
79 90
79 129
79 202
79 272
79 274
80 106
80 116
80 181
80 194
80 209
80 262
80 297
81 123
81 124
81 141
81 161
81 231
81 284
82 96
82 102
82 119
82 124
82 127
82 171
82 200
82 266
82 278
82 281
83 95
83 115
83 145
83 249
83 288
83 295
84 106
84 112
84 123
84 133
84 134
84 164
84 289
85 88
85 98
85 159
85 235
85 269
86 88
86 89
86 103
86 174
86 184
86 206
86 232
87 135
87 192
87 193
87 202
87 255
87 275
87 293
88 159
88 261
88 271
89 90
89 92
89 98
89 120
89 123
89 129
89 154
89 161
89 200
89 276
89 296
90 100
90 101
90 116
90 151
90 184
90 273
90 274
91 174
91 219
91 221
91 230
91 259
92 99
92 108
92 123
92 140
92 187
92 190
92 199
92 213
92 218
92 237
92 284
93 104
93 120
93 135
93 198
93 278
93 281
93 287
93 296
94 103
94 106
94 139
94 233
95 102
95 126
95 131
95 196
95 267
95 283
96 101
96 108
96 164
96 175
96 195
96 219
96 283
96 300
97 119
97 121
97 149
97 169
97 181
97 221
97 295
98 110
98 113
98 132
98 190
98 193
98 221
98 223
98 234
98 271
98 296
99 108
99 149
99 177
99 186
99 195
99 208
99 275
100 121
100 128
100 149
100 175
100 191
100 246
101 121
101 124
101 191
101 285
101 297
102 163
102 171
102 196
102 267
103 110
103 112
103 118
103 125
103 169
103 196
103 266
103 280
103 286
104 135
104 171
104 218
104 246
104 263
104 266
104 273
104 288
105 111
105 168
105 206
105 216
105 236
105 269
105 283
106 107
106 139
106 195
106 262
106 297
107 182
108 123
108 164
108 190
108 253
109 154
109 180
109 205
109 280
109 287
110 127
110 138
110 205
110 223
110 266
110 279
110 300
111 163
111 168
111 171
111 180
112 181
112 230
112 280
113 132
113 152
113 250
114 150
114 186
114 228
114 300
115 145
116 125
116 127
116 151
116 179
116 242
117 130
117 142
117 159
117 170
117 203
117 283
118 157
118 176
118 195
118 218
119 200
119 225
119 235
119 290
120 208
120 211
120 296
120 297
120 298
121 141
121 164
121 192
121 260
121 265
121 274
121 299
122 126
122 131
122 148
122 197
122 248
123 124
123 131
123 133
123 140
123 278
123 291
124 166
124 188
124 249
124 279
124 288
125 136
125 171
126 130
127 151
127 164
127 186
127 194
127 234
127 281
127 288
127 300
128 143
128 172
128 175
128 184
128 200
128 207
128 219
128 231
128 275
128 294
128 296
129 204
129 243
129 276
130 152
130 169
130 284
131 197
131 249
131 254
131 285
132 159
132 161
132 234
132 237
132 289
133 173
133 263
133 291
134 148
134 163
134 182
134 200
134 201
134 202
134 214
134 247
134 293
134 294
135 136
135 138
135 172
135 228
135 254
135 277
136 171
136 177
136 182
136 187
136 236
136 249
137 143
137 161
137 222
137 258
138 165
138 177
138 266
139 228
140 220
140 233
141 174
141 238
141 284
142 159
142 167
142 203
143 187
144 283
145 260
145 262
145 292
146 174
146 243
147 149
147 168
147 178
147 217
147 287
148 178
148 185
148 194
148 198
149 163
149 205
149 215
150 180
150 186
150 211
150 248
150 249
150 255
151 179
151 224
151 232
151 239
151 242
151 253
151 271
151 283
152 202
152 250
153 197
153 210
153 217
153 252
154 200
154 224
154 240
154 271
155 161
155 189
155 202
155 209
155 233
155 239
155 260
155 300
156 202
156 235
156 263
156 275
157 193
157 197
157 218
157 260
158 173
158 206
158 220
158 231
158 234
158 240
158 275
158 291
158 298
159 190
159 200
159 236
159 237
159 263
159 273
160 216
160 218
160 222
160 289
161 195
161 231
161 233
161 235
161 246
161 258
161 263
161 264
161 271
161 277
161 287
161 289
161 300
162 166
162 181
162 195
162 198
162 222
162 228
162 259
162 261
162 264
162 298
163 235
164 196
164 206
164 220
164 259
164 274
164 294
164 295
165 172
165 177
165 252
165 262
166 249
167 173
167 180
167 184
167 209
167 273
167 278
168 178
168 196
168 207
168 235
168 253
168 256
168 262
168 288
168 289
168 295
169 181
169 204
169 232
169 250
169 271
169 290
170 246
170 263
170 298
171 196
171 207
171 209
171 217
171 235
171 236
171 266
172 177
172 179
172 207
172 244
172 246
172 248
172 249
172 254
172 257
172 262
172 280
172 298
173 178
173 234
173 271
173 273
174 177
174 184
174 209
174 220
174 240
174 275
174 278
176 178
176 180
176 185
176 201
177 184
177 191
177 207
177 216
177 252
177 254
177 284
178 185
178 190
178 198
178 256
179 186
179 191
179 211
179 246
179 280
180 184
180 201
180 227
180 278
180 280
181 209
181 243
181 280
182 202
182 214
182 224
182 230
183 229
184 216
184 275
184 284
184 291
185 233
185 258
185 296
186 193
186 281
186 299
187 199
187 215
187 218
187 249
188 199
188 202
189 243
189 275
189 300
190 208
190 220
190 236
190 274
191 204
191 216
191 239
191 280
191 285
192 245
192 265
192 275
193 197
193 210
193 293
193 298
194 233
194 241
194 264
195 198
195 222
195 243
195 258
195 263
195 300
196 259
196 280
196 283
196 288
197 210
197 285
198 236
198 245
198 253
198 285
198 298
198 300
199 213
199 215
199 274
199 299
200 224
200 237
200 242
200 293
201 291
202 260
203 233
203 259
204 213
204 232
205 266
205 287
206 216
206 291
206 295
206 298
207 216
207 235
207 287
208 247
208 261
209 220
209 260
209 278
212 251
212 279
212 286
213 222
213 292
214 291
216 244
216 282
216 297
217 238
219 224
219 231
219 272
219 283
220 236
220 274
220 299
221 223
221 265
222 264
222 292
223 234
223 237
223 265
223 266
223 269
224 229
224 230
224 283
224 284
224 290
225 235
225 253
225 263
225 295
226 269
226 272
227 247
228 256
228 262
228 284
229 230
229 234
229 290
230 234
230 268
231 257
231 298
232 234
232 253
232 299
233 237
233 296
234 240
234 244
234 268
234 273
234 278
234 279
234 281
234 298
235 246
235 253
235 256
235 263
235 266
235 275
236 298
237 269
237 284
238 240
238 250
239 250
239 288
240 250
240 262
240 297
241 255
241 295
242 270
242 281
244 257
245 256
245 298
246 263
246 274
246 296
246 298
247 294
249 279
249 288
251 279
252 262
253 283
253 295
253 300
254 268
254 284
255 272
256 262
256 278
256 296
256 297
257 269
261 264
262 293
262 297
263 274
263 289
266 300
267 287
267 300
268 276
268 279
268 285
270 281
274 286
274 299
275 291
275 300
276 277
277 283
278 281
280 281
283 285
287 291
288 289
291 298
293 297
296 298
*Classes
1
1
1
1
1
1
1
1
1
1
1
1
1
1
1
1
1
1
1
1
1
1
1
1
1
1
1
1
1
1
1
1
1
1
1
1
1
1
1
1
1
1
1
1
1
1
1
1
1
1
1
1
1
1
1
1
1
1
1
1
1
1
1
1
1
1
1
1
1
1
1
1
1
1
1
1
1
1
1
1
1
1
1
1
1
1
1
1
1
1
1
1
1
1
1
1
1
1
1
1
1
1
1
1
1
1
1
1
1
1
1
1
1
1
1
1
1
1
1
1
1
1
1
1
1
1
1
1
1
1
1
1
1
1
1
1
1
1
1
1
1
1
1
1
1
1
1
1
1
1
2
2
2
2
2
2
2
2
2
2
2
2
2
2
2
2
2
2
2
2
2
2
2
2
2
2
2
2
2
2
2
2
2
2
2
2
2
2
2
2
2
2
2
2
2
2
2
2
2
2
2
2
2
2
2
2
2
2
2
2
2
2
2
2
2
2
2
2
2
2
2
2
2
2
2
2
2
2
2
2
2
2
2
2
2
2
2
2
2
2
2
2
2
2
2
2
2
2
2
2
2
2
2
2
2
2
2
2
2
2
2
2
2
2
2
2
2
2
2
2
2
2
2
2
2
2
2
2
2
2
2
2
2
2
2
2
2
2
2
2
2
2
2
2
2
2
2
2
2
2
