*Vertices 300
*Edges
1 158
1 253
2 18
2 65
2 80
2 91
2 147
2 165
2 172
2 183
2 186
2 197
2 206
2 216
2 269
2 276
3 18
3 29
3 57
3 96
3 126
3 128
3 144
3 190
3 293
4 9
4 63
4 69
4 93
4 131
4 150
4 181
4 202
4 204
4 246
4 252
5 8
5 84
5 118
5 142
5 148
5 177
5 187
5 197
5 206
5 224
5 230
6 33
6 52
6 67
6 88
6 99
6 104
6 238
6 244
6 248
6 262
7 11
7 36
7 38
7 76
7 91
7 135
7 139
7 142
7 209
7 222
7 239
7 270
7 278
8 17
8 22
8 54
8 131
8 153
8 157
8 187
8 261
8 281
8 297
9 40
9 49
9 53
9 63
9 64
9 108
9 136
9 169
9 186
9 204
9 210
9 212
9 224
9 252
9 265
9 293
9 295
9 298
10 34
10 83
10 91
10 92
10 95
10 121
10 140
10 162
10 190
10 191
10 249
10 265
10 275
10 287
11 43
11 60
11 72
11 76
11 78
11 99
11 106
11 107
11 113
11 222
11 239
11 250
11 270
11 290
12 20
12 57
12 61
12 67
12 110
12 121
12 160
12 167
12 175
12 176
12 195
12 201
12 243
12 245
12 257
12 285
12 300
13 84
13 104
13 148
13 261
13 262
13 293
14 17
14 96
15 20
15 55
15 79
15 107
15 109
15 199
15 250
15 272
15 275
15 280
16 20
16 30
16 43
16 45
16 69
16 73
16 85
16 171
16 211
16 222
16 242
16 263
16 273
16 292
17 96
17 158
17 184
17 190
17 281
18 41
18 65
18 71
18 96
18 112
18 147
18 276
19 82
19 170
19 295
20 46
20 57
20 134
20 135
20 181
20 185
20 186
20 202
20 205
20 223
20 257
20 273
20 277
20 280
21 44
21 72
21 92
21 105
21 127
21 137
21 138
21 143
21 193
21 199
21 201
21 227
21 239
21 246
21 271
21 279
22 136
22 168
22 187
22 190
22 210
23 34
23 68
23 72
23 113
23 147
23 164
23 196
23 207
23 216
23 234
23 247
24 26
24 41
24 47
24 70
24 71
24 89
24 145
24 148
24 201
24 211
24 256
25 228
25 241
25 297
26 41
26 67
26 78
26 81
26 118
26 148
26 166
26 176
26 187
26 211
26 222
26 243
26 268
26 282
26 292
27 72
27 130
27 183
27 248
27 257
27 280
28 37
28 170
29 36
29 57
29 77
29 100
29 116
29 153
30 61
30 80
30 85
30 137
30 174
30 242
30 283
30 293
31 234
31 294
31 297
32 53
32 59
32 148
32 180
32 183
32 184
32 255
33 35
33 37
33 52
33 83
33 88
33 198
33 233
33 238
33 244
33 245
33 249
33 265
33 290
34 51
34 95
34 111
34 113
34 128
34 167
34 188
34 205
34 206
34 220
34 235
34 244
34 267
34 277
34 287
34 294
35 39
35 59
35 78
35 153
35 167
35 198
35 202
35 213
35 225
35 247
35 264
35 265
35 276
35 278
35 287
36 38
36 39
36 51
36 59
36 69
36 77
36 93
36 166
36 211
36 277
37 78
37 88
37 114
37 136
37 181
37 232
37 257
38 51
38 197
38 208
38 209
38 239
38 250
38 286
39 59
39 61
39 98
39 144
39 153
39 177
39 183
39 200
39 202
39 218
39 264
39 284
40 49
40 54
40 111
40 129
40 131
40 134
40 166
40 282
40 286
40 294
41 62
41 71
41 168
41 201
41 239
42 166
43 57
43 69
43 78
43 85
43 91
43 93
43 116
43 124
43 137
43 142
43 146
43 150
43 222
43 242
43 249
44 74
44 77
44 101
44 127
44 137
44 192
44 199
44 246
45 54
45 69
45 87
45 122
45 123
45 193
45 232
45 269
46 92
46 95
46 98
46 102
46 104
46 114
46 116
46 131
46 132
46 152
46 181
46 199
46 202
46 203
46 205
46 215
46 220
46 254
46 277
46 294
47 59
47 122
47 125
47 145
47 175
47 176
47 177
47 182
47 228
47 256
47 257
47 269
47 288
48 168
48 237
48 250
49 98
49 115
49 166
49 216
51 102
51 121
51 134
51 175
51 206
51 220
51 231
51 232
51 250
51 280
52 87
52 100
52 222
52 275
53 63
53 99
53 158
53 181
53 184
53 204
53 255
54 81
54 90
54 131
54 133
54 187
54 228
54 269
55 60
55 111
55 121
55 138
55 143
55 199
55 246
55 250
55 259
55 285
56 69
56 92
56 112
56 116
56 152
56 160
56 224
56 244
57 104
57 124
57 144
57 146
57 160
57 200
57 222
57 251
57 270
57 285
57 299
58 82
58 131
58 143
58 174
58 191
59 61
59 105
59 130
59 163
59 169
59 175
59 177
59 183
59 242
59 277
59 284
59 295
59 296
60 61
60 72
60 85
60 113
60 134
60 149
60 156
60 174
60 217
60 280
61 85
61 98
61 115
61 169
61 175
61 195
61 243
61 245
62 151
62 182
62 229
62 239
62 286
63 68
63 108
63 120
63 122
63 166
63 204
63 212
63 217
63 220
63 255
63 295
63 298
64 70
64 83
64 89
64 91
64 114
64 119
64 124
64 125
64 134
64 151
64 193
64 257
64 265
65 80
65 84
65 91
65 101
65 164
65 165
65 186
65 206
65 216
65 286
66 75
66 141
66 146
66 214
66 253
66 263
67 99
67 133
67 148
67 184
67 243
67 261
68 98
68 122
68 141
68 147
68 162
68 183
68 191
68 192
68 269
68 274
68 276
68 289
69 93
69 125
69 207
69 210
69 224
69 252
69 273
69 277
69 283
69 292
69 293
70 71
70 82
70 91
70 147
70 192
70 256
71 82
71 93
71 131
71 147
71 150
71 176
71 212
71 256
72 79
72 113
72 175
72 195
72 201
72 257
72 264
72 275
72 280
72 291
73 78
73 132
73 136
73 144
73 178
73 243
73 288
73 291
73 295
74 101
74 113
74 161
74 230
74 246
74 259
74 289
75 107
75 114
75 134
75 146
75 148
75 155
75 157
75 177
75 192
75 224
76 99
76 106
76 180
76 198
76 199
76 213
76 284
77 98
77 115
77 116
77 152
77 157
78 107
78 108
78 118
78 124
78 136
78 222
78 279
78 287
79 81
79 136
79 182
79 219
79 233
79 280
80 137
80 145
80 176
80 191
80 275
80 279
80 286
81 211
82 143
82 147
82 170
82 174
82 183
82 192
83 92
83 114
83 236
83 296
84 118
84 148
84 150
84 164
84 206
84 252
84 262
84 279
84 281
84 286
84 300
85 116
85 171
85 174
85 183
85 195
85 242
85 293
86 94
86 103
86 198
87 92
87 100
87 108
87 110
87 116
87 122
87 242
88 90
88 121
88 131
88 157
88 163
88 192
88 232
88 238
88 258
89 145
89 146
89 151
89 164
89 262
89 300
90 102
90 133
90 230
91 95
91 119
91 142
91 216
91 220
91 249
92 114
92 116
92 127
92 162
92 171
92 174
92 185
92 191
92 199
92 226
92 236
92 266
92 267
92 289
93 112
93 131
93 148
93 150
93 155
93 176
93 202
93 224
93 251
94 150
94 198
95 119
95 124
95 128
95 178
95 220
95 223
95 234
95 243
95 258
96 104
96 215
96 221
96 247
97 137
97 161
97 167
97 185
97 244
98 108
98 115
98 123
98 183
98 195
98 215
98 216
99 184
99 264
100 110
100 113
100 125
100 207
100 249
101 121
101 127
101 137
101 157
101 161
101 192
101 246
102 114
102 131
102 132
102 133
102 197
102 200
102 206
102 216
102 220
102 224
102 228
102 231
102 243
102 288
102 290
103 226
103 278
103 286
103 290
104 139
104 215
104 221
104 236
104 238
104 242
104 271
104 293
105 124
105 131
105 155
105 172
105 177
105 202
105 230
105 239
105 275
105 278
105 282
106 170
106 194
106 227
107 109
107 112
107 116
107 136
107 155
107 160
107 190
107 199
107 235
107 243
107 272
107 285
107 291
107 298
108 122
108 123
108 136
108 182
108 185
108 219
108 265
108 266
109 132
109 135
109 152
109 166
109 235
109 291
110 118
110 121
110 167
110 243
110 257
111 131
111 134
111 149
111 173
111 183
111 214
111 219
111 235
111 242
111 246
111 294
112 116
112 121
112 146
112 155
112 160
112 162
112 184
112 187
112 202
112 227
112 243
112 244
112 262
112 270
113 167
113 195
113 207
113 230
113 231
113 259
114 124
114 132
114 134
114 135
114 148
114 151
114 189
114 192
114 242
114 257
114 278
114 290
115 131
115 216
116 152
116 180
116 183
116 184
116 209
116 227
116 231
116 235
116 242
116 261
116 262
116 280
116 293
116 300
117 124
117 242
117 256
117 262
117 280
118 121
118 148
118 158
118 184
119 147
119 200
119 249
119 253
119 281
120 121
120 122
120 161
121 122
121 162
121 184
121 205
121 232
121 243
122 123
122 132
122 205
122 261
122 264
122 268
122 288
122 295
123 136
123 169
123 219
123 266
123 284
124 128
124 172
124 189
124 212
124 230
124 275
125 145
125 171
125 193
125 207
126 173
126 190
126 215
126 233
126 265
126 267
127 135
127 139
127 166
127 188
127 212
127 228
127 240
127 252
127 266
127 267
127 295
128 131
128 157
128 178
128 217
128 234
128 244
128 275
128 294
129 144
129 154
129 173
129 194
129 200
129 231
129 235
129 286
130 169
130 178
130 201
130 229
130 286
130 290
131 133
131 150
131 156
131 157
131 217
131 282
131 298
132 135
132 152
132 165
132 215
132 242
133 200
133 216
133 220
133 224
133 228
133 231
133 282
134 156
134 175
134 209
134 280
135 139
135 142
135 165
135 186
135 191
135 199
135 249
135 252
135 270
135 274
135 275
135 280
135 300
136 210
136 249
136 279
137 146
137 176
137 191
137 243
137 244
137 249
137 266
138 143
138 186
138 193
138 285
139 142
139 151
139 228
139 236
139 252
139 257
140 151
140 275
140 287
140 298
141 214
141 269
142 146
143 226
143 227
144 178
144 200
144 231
144 251
144 288
145 164
145 176
145 182
145 185
145 191
145 201
145 228
145 262
145 269
146 242
146 243
146 249
146 288
147 162
147 204
147 221
147 228
147 234
147 242
147 253
147 274
148 150
148 164
148 176
148 192
148 198
148 261
148 277
148 288
148 292
149 150
149 225
149 241
149 250
149 270
149 282
149 292
150 164
150 168
150 184
150 186
150 198
150 225
150 251
150 292
150 293
151 262
151 284
152 166
152 180
152 189
152 230
152 254
153 157
153 173
153 201
153 231
153 242
153 258
153 261
153 279
153 283
153 297
155 160
155 202
155 210
155 214
155 221
155 223
155 283
155 285
155 300
156 203
156 217
157 192
157 210
157 217
157 258
157 283
157 296
157 297
158 164
158 184
158 186
158 188
158 196
158 201
158 253
158 290
160 185
160 209
160 244
161 261
162 205
162 234
162 282
162 292
163 166
163 181
163 255
164 186
164 190
164 227
164 276
165 181
165 197
166 189
166 206
166 211
166 213
166 221
166 222
166 288
166 295
167 182
167 185
167 245
167 276
167 289
168 184
168 205
168 210
168 239
168 250
168 293
169 178
169 180
169 186
169 206
169 229
169 245
169 279
169 284
169 295
171 199
171 211
171 240
172 275
172 278
173 190
173 204
173 231
173 266
174 191
174 274
174 293
175 226
175 257
176 187
176 228
176 243
176 257
177 224
177 230
177 253
177 256
177 296
178 183
178 186
178 198
178 201
178 214
178 244
178 245
178 288
179 240
179 268
180 208
180 214
180 246
180 261
180 262
180 263
180 284
180 288
181 198
181 202
181 223
181 225
181 254
181 255
181 257
181 263
182 185
182 206
182 219
182 238
182 252
182 296
183 212
183 214
183 215
183 224
183 230
183 242
183 269
183 274
183 280
183 284
184 255
184 270
184 293
185 243
185 257
185 258
185 265
185 277
185 286
185 288
185 289
186 214
186 246
186 293
186 295
187 268
188 212
188 240
188 253
189 230
190 206
190 224
190 227
190 252
190 265
190 281
190 291
191 199
191 274
191 275
191 294
191 300
192 196
192 223
192 243
192 258
192 276
192 283
193 210
193 216
193 221
193 232
194 197
194 219
194 231
194 235
194 269
195 213
195 247
195 291
195 296
196 205
196 223
197 202
197 206
197 220
197 223
197 224
197 275
197 280
198 201
198 202
198 219
198 245
198 255
198 263
199 227
199 266
199 275
200 281
201 245
201 246
201 279
201 290
202 218
202 223
202 249
202 257
202 262
202 264
202 273
202 300
203 205
203 207
203 217
203 238
203 285
204 214
204 234
204 246
204 266
205 217
205 220
205 222
205 223
205 238
205 244
205 267
206 220
206 224
206 252
206 276
206 295
207 285
208 250
208 284
209 242
209 244
209 259
210 214
210 216
210 228
210 283
210 285
210 293
210 297
210 299
211 222
211 282
211 295
211 298
212 240
212 242
212 253
212 275
213 221
213 224
213 238
213 245
213 247
213 296
214 246
214 263
215 221
215 238
215 247
215 294
216 231
216 269
216 283
217 272
217 285
217 298
218 237
219 245
219 269
219 279
219 280
219 294
220 252
220 258
220 276
220 277
221 228
221 232
221 233
221 234
221 237
221 238
221 242
221 247
221 259
221 285
222 242
222 267
222 298
223 243
223 296
224 230
224 252
224 292
224 296
225 247
225 254
225 264
225 284
226 255
226 266
227 235
227 293
228 233
228 237
228 254
228 257
228 259
228 284
228 289
228 297
229 286
230 253
230 272
231 242
231 259
231 280
231 286
232 242
233 254
233 280
233 294
234 274
234 288
234 294
235 246
236 296
237 297
238 271
238 293
238 296
239 270
239 278
240 264
241 281
241 292
242 256
242 260
242 275
242 280
243 257
243 288
243 300
244 265
245 290
246 261
246 271
246 288
246 289
246 295
247 264
247 294
247 296
248 262
249 258
249 265
249 275
249 278
249 279
249 300
250 259
250 292
252 265
253 287
253 290
254 289
255 266
256 294
257 280
257 291
257 297
258 264
258 265
258 278
258 291
258 296
259 260
259 280
260 280
261 263
261 288
261 295
261 297
262 300
263 273
264 287
264 291
265 275
265 278
265 291
268 299
269 279
270 275
270 278
270 299
272 298
273 280
274 294
274 300
275 280
277 286
277 289
278 286
278 290
279 286
279 295
282 292
283 293
283 296
283 297
283 299
286 289
287 298
288 289
288 294
288 295
293 296
*Classes
1
1
1
1
1
1
1
1
1
1
1
1
1
1
1
1
1
1
1
1
1
1
1
1
1
1
1
1
1
1
1
1
1
1
1
1
1
1
1
1
1
1
1
1
1
1
1
1
1
1
1
1
1
1
1
1
1
1
1
1
1
1
1
1
1
1
1
1
1
1
1
1
1
1
1
1
1
1
1
1
1
1
1
1
1
1
1
1
1
1
1
1
1
1
1
1
1
1
1
1
1
1
1
1
1
1
1
1
1
1
1
1
1
1
1
1
1
1
1
1
1
1
1
1
1
1
1
1
1
1
1
1
1
1
1
1
1
1
1
1
1
1
1
1
1
1
1
1
1
1
2
2
2
2
2
2
2
2
2
2
2
2
2
2
2
2
2
2
2
2
2
2
2
2
2
2
2
2
2
2
2
2
2
2
2
2
2
2
2
2
2
2
2
2
2
2
2
2
2
2
2
2
2
2
2
2
2
2
2
2
2
2
2
2
2
2
2
2
2
2
2
2
2
2
2
2
2
2
2
2
2
2
2
2
2
2
2
2
2
2
2
2
2
2
2
2
2
2
2
2
2
2
2
2
2
2
2
2
2
2
2
2
2
2
2
2
2
2
2
2
2
2
2
2
2
2
2
2
2
2
2
2
2
2
2
2
2
2
2
2
2
2
2
2
2
2
2
2
2
2
