*Vertices 300
*Edges
1 6
1 9
1 60
1 65
1 85
1 110
1 126
1 130
1 154
1 155
1 240
1 258
1 285
2 13
2 14
2 16
2 19
2 48
2 74
2 112
2 119
2 140
2 243
2 294
2 295
3 14
3 43
3 67
3 82
3 161
3 180
3 208
3 242
3 252
3 260
4 8
4 66
4 125
4 128
4 138
4 144
4 154
4 179
5 44
5 130
5 175
5 223
5 264
6 24
6 41
6 84
6 121
6 128
6 140
6 142
6 146
6 190
6 258
7 9
7 30
7 60
7 70
7 100
7 112
7 115
7 124
7 134
7 208
7 215
7 289
8 44
8 89
8 138
8 157
8 212
8 244
8 257
8 293
8 299
9 60
9 70
9 85
9 212
10 30
10 43
10 67
10 209
10 229
11 53
11 54
11 85
11 113
11 126
11 127
11 155
11 159
11 169
11 173
11 245
11 247
12 18
12 34
12 35
12 37
12 49
12 82
12 95
12 104
12 115
12 206
12 215
12 254
12 259
12 283
12 286
13 16
13 26
13 42
13 55
13 61
13 74
13 85
13 91
13 119
13 139
13 157
13 158
13 178
13 188
13 227
13 237
13 251
13 274
13 280
14 70
14 121
14 146
14 151
14 161
14 165
14 239
14 243
14 251
14 259
14 294
15 26
15 60
15 123
15 211
15 280
15 282
16 19
16 38
16 42
16 48
16 55
16 119
16 131
16 139
16 227
16 252
17 77
17 85
17 272
18 32
18 35
18 91
18 115
18 138
18 140
18 142
18 146
18 246
18 254
18 276
19 23
19 48
19 78
19 90
19 139
19 196
19 290
20 70
20 128
20 227
20 233
21 83
21 257
21 259
21 286
22 45
22 93
22 104
22 112
22 134
22 137
22 148
22 173
22 190
22 219
22 252
23 78
23 85
23 87
23 93
23 100
23 103
23 117
23 289
23 297
24 199
25 63
25 71
25 76
25 111
25 133
25 135
25 136
25 194
25 204
25 231
25 237
25 288
26 38
26 55
26 60
26 114
26 149
26 182
26 192
26 220
26 267
26 280
26 287
27 30
27 83
27 112
27 122
27 134
27 143
27 203
27 274
27 300
28 42
28 50
28 114
28 162
28 197
28 257
29 83
29 190
29 227
29 241
30 43
30 90
30 94
30 111
30 121
30 122
30 180
30 196
30 215
31 40
31 77
31 105
31 107
31 113
31 125
31 148
31 157
31 229
32 71
32 95
32 242
32 250
33 66
33 84
33 122
33 128
33 157
33 222
33 274
33 285
34 50
34 82
34 165
34 184
34 198
34 202
34 256
35 48
35 82
35 90
35 94
35 108
35 121
35 125
36 56
36 117
36 132
36 176
36 201
36 207
37 63
37 85
37 130
37 205
37 211
37 221
37 267
37 283
38 60
38 95
38 111
38 123
38 136
38 149
38 182
38 238
38 252
38 277
39 49
39 115
39 180
39 300
40 60
40 123
40 263
40 277
41 42
41 62
41 71
41 93
41 110
41 112
41 116
41 125
41 131
41 134
41 146
41 167
41 174
41 197
41 237
41 287
42 101
42 105
42 111
42 116
42 125
42 167
42 179
42 197
42 198
42 263
43 51
43 67
43 92
43 124
43 148
43 165
43 196
43 202
43 220
43 241
43 287
44 57
44 87
44 98
44 109
44 111
44 158
44 161
44 224
44 251
44 263
44 281
45 53
45 173
45 187
45 214
45 219
45 276
46 100
46 185
46 188
46 222
46 255
46 266
47 79
47 84
47 113
47 174
47 191
47 205
47 209
47 220
48 139
48 160
48 176
48 191
49 115
49 129
49 158
49 213
49 221
50 59
50 82
50 112
50 145
50 151
50 160
50 169
50 196
51 60
51 63
51 124
51 159
51 224
51 256
51 288
52 59
52 89
52 189
52 191
52 200
52 215
52 242
53 83
53 113
53 122
53 154
54 150
54 155
55 61
55 74
55 88
55 91
55 105
55 107
55 119
55 158
55 195
55 198
56 78
56 117
56 133
56 180
56 229
56 293
57 82
57 109
57 139
57 181
57 186
57 205
57 265
57 297
59 112
59 145
59 182
59 192
59 215
59 258
59 273
60 85
60 123
60 136
60 213
60 224
60 282
61 99
61 137
61 174
61 189
61 194
61 222
61 281
61 297
62 93
62 110
62 135
62 228
62 251
63 85
63 99
63 127
64 117
64 148
64 272
65 122
65 148
65 150
65 156
65 192
65 215
65 256
65 267
66 84
66 99
66 167
66 177
66 185
66 238
67 92
67 122
67 133
67 136
67 164
67 241
67 261
67 288
67 294
67 297
68 72
68 87
68 106
68 108
69 95
69 114
69 128
69 142
69 156
70 77
70 102
70 114
70 122
70 155
70 201
70 251
71 75
71 76
71 116
71 117
71 141
71 242
71 284
73 139
73 178
73 191
73 230
73 256
74 88
74 91
74 107
74 133
74 163
74 203
74 218
74 250
74 281
74 299
75 76
75 79
75 98
75 152
75 232
75 248
75 288
75 294
76 123
76 258
76 272
76 297
77 102
77 111
77 156
77 172
77 229
77 248
77 263
77 279
78 133
78 142
78 172
78 191
78 290
79 97
79 113
79 120
79 166
79 228
79 232
80 136
80 154
80 158
80 240
80 283
81 93
81 114
81 266
81 273
81 276
82 104
82 112
82 132
82 139
82 156
82 180
82 260
82 295
83 86
83 103
83 113
83 122
83 128
83 136
83 165
83 200
83 238
83 291
84 128
84 285
85 117
85 119
85 127
85 245
85 254
85 262
85 284
86 100
86 103
86 127
86 147
86 208
86 275
87 101
87 103
87 106
87 151
87 191
87 206
87 235
87 272
88 202
88 236
89 96
89 212
90 94
90 95
90 121
90 180
90 202
90 234
90 283
90 290
91 142
91 285
91 287
92 104
92 242
92 268
93 100
93 108
93 110
93 130
93 156
93 224
93 276
93 277
94 129
94 131
94 236
95 138
95 144
95 195
95 238
95 283
96 159
96 215
96 254
96 272
96 283
97 100
97 124
97 155
97 185
97 195
98 152
98 161
98 287
99 169
99 177
99 194
99 267
99 292
100 106
100 108
100 124
100 134
100 138
100 184
100 275
100 277
100 289
101 106
101 240
102 111
102 204
103 177
103 259
103 288
104 134
105 215
105 287
106 108
106 138
106 152
106 153
107 120
107 125
107 155
107 166
107 195
107 208
107 235
107 279
107 299
108 125
108 138
108 154
108 165
109 177
109 228
109 238
109 240
110 130
110 135
110 246
110 252
110 268
111 122
111 135
111 182
111 223
111 263
112 115
112 134
112 140
112 164
113 154
113 214
113 255
114 116
114 117
114 179
114 200
114 209
114 238
114 273
114 285
114 287
115 158
115 205
116 117
116 131
116 149
116 151
116 238
116 240
117 153
117 168
117 231
117 253
118 146
118 214
118 218
118 225
118 248
119 140
119 149
119 192
119 251
119 272
120 164
120 166
120 298
121 142
121 145
121 154
121 243
121 264
122 136
122 137
122 148
122 171
122 196
122 223
122 251
122 254
122 262
122 270
122 274
122 295
123 145
123 201
123 209
123 224
123 277
123 278
124 148
124 193
124 196
124 197
124 237
124 252
125 138
125 143
125 160
125 163
125 206
125 222
125 249
125 258
125 279
126 247
126 260
126 276
126 285
127 147
127 149
127 168
127 183
127 229
127 253
127 269
127 275
128 129
128 138
128 142
128 146
128 154
128 165
128 291
129 142
129 154
129 158
129 178
129 186
129 191
129 232
130 191
130 261
131 139
131 145
131 154
131 185
131 229
131 236
131 245
131 278
132 209
132 223
132 247
132 279
132 283
133 259
133 288
133 293
134 288
134 290
134 295
135 136
135 251
136 169
136 185
136 194
136 243
136 283
136 289
137 187
137 189
137 228
137 274
137 293
138 144
138 202
139 154
139 231
139 274
140 146
140 149
140 154
140 274
141 166
141 242
141 264
141 279
141 284
141 295
142 276
142 291
143 160
143 172
143 187
143 189
143 236
143 249
144 156
144 202
144 257
144 272
145 196
145 220
145 245
145 257
145 278
146 161
147 152
147 174
147 193
148 157
148 165
148 220
148 252
148 274
148 287
148 288
149 186
149 192
149 238
149 260
149 267
149 269
150 214
150 267
150 293
151 210
151 217
151 243
151 270
151 273
151 299
152 161
152 231
153 164
153 253
153 291
154 163
154 165
154 170
154 179
154 198
154 216
154 227
154 232
154 233
154 240
154 246
154 258
154 276
155 166
155 201
155 233
155 297
156 180
156 215
156 219
156 224
157 192
157 195
157 274
157 275
158 168
158 178
158 182
158 191
158 197
158 213
158 263
158 286
159 169
159 184
159 217
159 256
159 272
159 279
160 169
160 170
160 172
160 176
160 186
160 187
160 249
161 179
161 200
161 205
161 294
162 192
162 226
162 241
162 247
162 262
162 298
163 216
163 218
163 222
163 242
163 259
163 273
163 282
163 286
164 253
164 257
164 298
165 235
165 287
166 183
166 244
167 213
167 223
167 237
167 239
167 241
167 271
167 275
167 279
167 296
168 188
168 221
168 266
168 268
168 270
168 286
169 202
169 221
169 240
169 272
169 275
169 299
169 300
170 187
170 202
170 240
170 247
171 258
171 274
171 276
171 284
172 186
172 248
172 255
172 278
172 292
172 297
172 299
173 245
173 269
174 189
174 220
174 275
175 198
175 246
175 263
175 264
175 274
176 201
176 212
176 248
177 180
177 202
177 224
177 228
177 271
178 239
178 241
178 296
179 198
179 200
179 205
179 214
179 235
179 240
179 249
179 258
179 275
179 280
180 202
180 219
180 245
181 221
181 232
181 268
182 192
182 193
183 229
183 244
183 253
184 191
184 202
184 256
184 269
184 280
185 188
185 189
185 191
185 195
185 255
186 205
186 248
186 278
187 214
187 274
187 278
187 292
188 227
188 229
188 255
188 266
188 296
189 191
189 249
189 265
189 275
189 284
190 235
190 264
191 205
191 242
191 256
191 286
192 195
192 215
192 226
192 253
192 267
193 196
193 249
194 243
194 256
194 264
194 285
195 226
195 246
195 251
196 249
197 205
197 263
198 246
198 279
198 280
198 296
199 237
199 255
199 299
200 205
200 232
200 238
200 249
200 264
200 278
200 292
201 206
201 212
201 231
201 237
201 238
201 248
201 263
201 299
202 209
202 240
202 275
202 283
203 236
203 300
204 215
204 237
205 279
205 280
206 238
206 260
206 268
206 270
207 232
207 243
207 258
207 262
209 217
209 224
209 232
209 273
209 283
209 297
210 215
210 227
210 230
210 231
210 236
211 298
212 222
213 223
213 234
213 239
213 275
214 240
214 292
215 224
215 227
215 228
215 281
215 283
216 242
216 258
217 233
217 241
217 251
217 259
217 272
217 273
217 279
220 253
220 278
221 246
221 260
222 266
222 277
222 292
223 264
224 228
224 281
226 270
226 284
227 229
228 271
229 236
229 255
229 296
230 231
230 260
230 262
230 270
231 238
231 277
232 248
232 264
233 258
234 239
234 256
234 264
234 294
235 240
235 264
235 288
235 297
237 238
237 287
237 299
238 277
238 290
239 259
239 296
240 246
240 247
240 275
241 271
241 293
241 298
242 260
243 270
243 299
244 285
244 299
245 278
245 284
245 287
246 249
246 250
247 298
248 264
249 250
251 263
254 259
254 273
254 295
255 271
255 297
255 299
256 260
256 262
256 264
256 272
258 269
258 276
258 279
259 273
259 286
259 294
260 262
260 270
261 288
262 277
263 267
265 295
265 297
266 277
266 286
266 291
268 270
269 276
269 289
270 274
271 296
273 297
275 296
277 290
278 292
279 280
280 282
288 290
*Classes
1
1
1
1
1
1
1
1
1
1
1
1
1
1
1
1
1
1
1
1
1
1
1
1
1
1
1
1
1
1
1
1
1
1
1
1
1
1
1
1
1
1
1
1
1
1
1
1
1
1
1
1
1
1
1
1
1
1
1
1
1
1
1
1
1
1
1
1
1
1
1
1
1
1
1
1
1
1
1
1
1
1
1
1
1
1
1
1
1
1
1
1
1
1
1
1
1
1
1
1
1
1
1
1
1
1
1
1
1
1
1
1
1
1
1
1
1
1
1
1
1
1
1
1
1
1
1
1
1
1
1
1
1
1
1
1
1
1
1
1
1
1
1
1
1
1
1
1
1
1
2
2
2
2
2
2
2
2
2
2
2
2
2
2
2
2
2
2
2
2
2
2
2
2
2
2
2
2
2
2
2
2
2
2
2
2
2
2
2
2
2
2
2
2
2
2
2
2
2
2
2
2
2
2
2
2
2
2
2
2
2
2
2
2
2
2
2
2
2
2
2
2
2
2
2
2
2
2
2
2
2
2
2
2
2
2
2
2
2
2
2
2
2
2
2
2
2
2
2
2
2
2
2
2
2
2
2
2
2
2
2
2
2
2
2
2
2
2
2
2
2
2
2
2
2
2
2
2
2
2
2
2
2
2
2
2
2
2
2
2
2
2
2
2
2
2
2
2
2
2
