*Vertices 300
*Edges
1 7
1 13
1 14
1 38
1 59
1 80
1 121
1 145
1 188
1 237
1 255
2 5
2 8
2 27
2 52
2 56
2 64
2 74
2 111
2 123
2 130
2 136
2 234
3 77
3 85
3 89
3 124
3 136
3 169
3 217
3 268
4 134
4 137
4 175
4 293
5 52
5 64
5 74
5 82
5 101
5 224
6 18
6 36
6 42
6 61
6 62
6 78
6 104
6 111
6 182
6 220
6 237
6 242
6 252
7 27
7 55
7 56
7 116
7 123
7 141
7 162
7 218
8 15
8 29
8 293
9 60
9 80
9 97
9 102
9 153
9 187
9 189
9 288
10 48
10 63
10 98
10 200
10 227
10 273
10 295
11 27
11 107
11 119
11 122
11 123
11 130
11 148
11 300
12 20
12 26
12 29
12 31
12 77
12 104
12 111
12 117
12 124
12 127
12 145
12 196
12 249
12 275
13 36
13 59
13 62
13 237
13 285
14 20
14 39
14 73
14 160
14 184
14 188
14 261
14 286
15 29
15 60
15 102
15 159
15 171
15 179
15 194
15 197
15 201
15 220
16 21
16 37
16 62
16 109
16 110
16 125
16 221
16 226
16 276
16 284
17 25
17 33
17 38
17 51
17 112
17 154
17 223
17 232
17 233
17 248
17 273
17 282
17 293
17 296
18 22
18 58
18 88
18 103
18 104
18 111
18 145
18 171
18 197
18 252
18 253
18 274
19 37
19 149
19 203
20 39
20 111
20 115
20 116
20 125
20 132
20 137
20 146
20 196
20 199
20 227
20 280
21 25
21 46
21 54
21 62
21 84
21 95
21 125
21 151
21 214
21 226
21 262
22 69
22 94
22 104
22 134
22 140
22 148
23 76
23 139
23 194
23 197
23 224
23 267
23 297
24 116
24 125
24 283
24 294
25 92
25 124
25 125
25 131
25 220
25 249
25 261
25 291
25 293
26 60
26 77
26 154
26 250
27 122
27 123
27 130
27 142
27 170
27 184
27 278
27 282
28 58
28 62
28 65
28 82
28 85
28 128
28 133
29 40
29 140
29 151
29 159
29 275
30 131
30 147
30 235
30 287
31 88
31 96
31 104
31 164
31 266
31 278
32 92
32 249
32 290
33 38
33 57
33 131
33 132
33 145
33 196
33 216
33 220
33 223
34 65
34 80
34 98
34 106
34 160
34 177
34 212
35 58
35 98
35 121
35 143
35 185
35 220
35 237
36 136
36 137
36 142
36 150
36 174
36 252
36 278
36 285
37 71
37 73
37 91
37 96
37 123
37 145
37 149
37 221
37 234
37 239
37 278
38 59
38 91
38 232
38 239
38 282
38 296
39 58
39 133
40 65
40 88
40 99
40 121
40 137
40 140
40 146
40 171
40 182
40 184
40 211
40 277
41 90
41 98
41 131
41 204
41 208
41 211
41 239
41 294
42 44
42 57
42 182
42 239
42 242
42 276
43 72
43 118
43 130
43 136
43 155
43 157
43 166
43 226
43 263
43 289
43 300
44 54
44 57
44 69
44 77
44 85
44 103
44 153
44 169
44 170
44 270
44 287
45 55
45 57
45 70
45 120
45 132
45 134
45 166
45 167
45 185
45 216
45 238
45 241
45 269
46 54
46 55
46 69
46 143
46 160
46 168
46 280
46 290
47 78
47 105
47 138
47 143
47 182
47 186
47 244
47 247
47 298
48 114
48 125
48 142
49 139
49 144
49 236
49 255
50 67
50 105
50 226
50 245
51 107
51 114
51 189
51 219
51 226
51 252
51 254
52 99
52 103
52 160
52 171
52 184
52 251
52 275
53 68
53 140
53 293
54 85
54 118
54 146
54 226
54 256
55 69
55 108
55 123
55 127
55 155
55 181
55 238
55 269
55 290
56 114
56 125
56 129
56 141
56 193
56 207
56 214
56 228
57 72
57 74
57 113
57 124
57 132
57 134
57 161
57 162
57 181
57 256
57 265
57 286
57 296
58 106
58 133
58 143
58 198
59 80
59 121
59 122
59 150
59 223
59 292
60 70
60 100
60 102
60 148
60 149
60 168
60 170
60 237
60 250
60 252
61 62
61 82
61 200
61 225
61 284
62 102
62 125
62 133
62 178
62 225
62 285
63 66
63 161
63 227
63 273
64 68
64 78
64 82
64 101
64 222
65 80
65 98
65 128
65 179
65 182
65 225
66 67
66 75
66 81
66 186
66 202
67 68
67 71
67 81
67 108
67 120
67 202
67 219
67 226
67 252
67 268
67 270
68 72
68 112
68 178
68 222
68 267
69 103
69 104
69 131
69 162
69 167
69 185
70 100
70 241
71 74
71 87
71 90
71 95
71 96
71 108
71 140
71 153
71 155
71 193
71 270
71 296
72 113
72 190
72 267
72 295
73 82
73 87
73 145
73 146
73 178
73 195
73 223
73 243
73 266
73 269
74 90
74 256
74 267
75 78
75 81
75 85
75 141
75 188
75 202
75 242
75 245
75 273
75 279
76 81
76 119
76 157
76 182
76 194
76 199
76 267
76 296
77 84
77 93
77 124
77 144
77 227
77 236
78 93
78 159
78 182
78 186
78 200
78 241
78 253
78 279
79 206
79 225
80 106
80 132
80 135
80 150
80 188
80 189
80 252
80 285
81 85
81 92
81 119
81 128
81 157
82 94
82 128
82 269
82 290
83 244
83 251
84 95
84 118
84 210
84 217
84 272
85 102
85 124
85 128
85 141
85 142
85 231
86 90
86 216
86 227
86 244
86 270
87 95
87 107
87 176
87 195
88 103
88 111
88 129
88 184
88 253
88 255
88 274
89 115
89 124
89 129
89 137
89 196
89 202
89 210
89 229
89 266
89 277
90 96
90 98
90 101
90 110
90 153
90 216
91 123
91 165
91 192
91 200
91 239
91 294
92 133
92 197
92 231
92 249
92 284
92 291
92 293
93 112
93 126
93 159
93 222
93 227
94 140
95 102
95 114
95 133
95 142
96 141
96 155
96 162
96 164
96 193
96 241
96 284
97 102
97 104
97 205
97 236
97 262
98 110
98 112
98 121
98 162
98 167
98 179
98 200
98 204
99 126
99 143
99 171
99 178
99 185
99 190
99 218
100 160
100 175
101 168
101 170
101 184
101 224
101 279
102 104
102 114
102 133
102 148
102 159
102 299
103 154
103 169
103 201
103 252
103 257
103 300
104 134
104 278
105 166
105 295
106 114
106 133
106 135
107 119
107 165
107 200
107 207
107 284
107 300
108 113
108 123
108 127
108 141
108 185
109 111
109 286
110 221
110 228
110 278
110 282
111 115
111 145
111 246
111 280
112 243
113 127
113 181
113 195
113 256
113 289
114 124
114 133
114 141
114 142
114 254
115 126
115 132
115 137
115 178
115 188
115 196
115 199
115 222
115 227
115 276
116 125
116 162
116 169
116 179
116 184
116 199
116 218
116 283
116 297
116 300
117 127
118 157
118 208
118 226
119 191
119 262
120 148
120 163
120 190
120 268
120 292
121 162
121 170
121 184
121 218
121 260
122 130
122 148
122 150
122 206
122 230
122 240
122 253
122 282
122 300
123 149
123 170
123 192
123 273
124 142
124 161
124 214
124 237
124 268
125 133
125 137
125 159
125 178
126 137
126 142
126 178
126 215
126 222
126 240
126 276
126 289
127 137
127 141
127 188
127 199
128 242
128 300
129 149
129 184
129 190
129 205
129 207
130 134
130 148
130 195
130 196
130 238
130 263
130 265
131 133
131 145
131 167
131 211
131 220
131 237
131 257
131 263
131 292
132 214
132 216
132 269
133 237
134 148
134 185
134 293
135 276
136 137
136 228
136 230
136 289
137 142
137 146
137 150
137 175
137 184
137 199
137 213
137 229
138 160
138 208
138 213
138 240
138 286
139 224
140 151
140 155
140 159
140 290
141 142
141 193
141 223
141 249
142 170
142 180
142 215
142 229
142 230
142 268
142 284
142 293
143 178
143 182
143 277
144 255
145 149
145 193
145 221
145 255
145 275
146 228
146 256
147 174
147 212
147 221
147 287
148 149
148 165
148 237
148 298
148 300
149 158
149 164
149 207
149 224
149 234
149 265
149 282
150 223
151 162
151 167
151 187
151 193
151 216
151 222
151 223
151 247
151 260
151 282
151 286
151 295
152 184
152 200
152 225
152 255
152 286
152 299
153 187
153 203
153 219
154 201
154 213
154 220
154 233
154 243
154 273
154 292
155 178
155 255
155 270
155 288
155 289
155 290
157 167
157 289
157 292
158 178
158 194
158 204
158 222
158 224
159 186
159 279
160 175
160 212
160 214
160 280
160 286
160 294
161 183
161 202
161 226
161 232
161 273
161 296
162 185
162 197
162 218
162 219
162 220
162 239
162 241
162 246
162 252
162 260
162 277
163 169
163 172
163 174
163 183
163 194
163 203
163 228
163 241
163 251
164 175
164 207
164 254
164 299
165 169
165 191
165 200
165 207
165 232
165 240
165 251
165 270
165 284
165 294
165 298
166 226
166 295
167 188
167 211
167 216
167 285
168 170
168 233
169 174
169 178
169 220
169 227
169 243
169 251
170 176
170 179
170 184
170 271
170 279
170 292
171 177
171 194
171 197
171 198
171 211
171 218
171 250
171 265
171 275
171 277
171 279
172 183
172 190
172 231
172 245
173 239
173 270
174 212
174 234
174 240
174 251
174 252
174 282
174 299
175 229
175 248
175 293
176 191
176 195
177 198
177 205
177 220
177 227
177 243
177 248
178 182
178 190
178 194
178 195
178 223
178 227
178 228
178 255
179 180
179 184
179 200
179 250
179 255
179 266
179 279
180 184
180 228
180 293
180 297
181 238
181 257
181 300
182 190
182 213
182 253
182 269
183 194
183 214
183 231
183 237
183 251
183 262
183 273
184 188
184 252
184 253
184 255
184 261
184 274
184 292
184 293
184 300
185 277
187 194
187 216
187 233
187 258
187 262
187 288
188 223
188 240
188 257
188 285
188 289
188 292
189 231
189 284
190 207
190 218
190 245
190 268
191 195
191 240
192 233
192 235
192 239
192 252
192 259
193 207
193 222
193 226
193 249
193 255
193 284
193 294
194 197
194 204
194 262
194 293
195 263
196 198
196 210
196 216
196 227
196 246
196 258
197 211
197 250
197 252
197 260
199 248
199 297
200 225
200 232
200 270
200 297
200 298
201 263
201 282
202 229
202 232
202 245
202 273
203 223
203 228
203 241
203 278
204 209
204 220
204 255
205 220
205 243
206 214
206 230
206 293
207 208
207 220
207 222
207 226
207 227
207 249
208 228
208 249
208 286
208 294
209 210
209 224
209 225
209 255
209 285
210 225
210 242
210 256
210 266
210 269
210 272
211 237
211 239
211 241
211 250
211 294
212 221
212 271
212 286
212 287
212 296
214 216
214 237
214 293
215 247
216 220
216 221
216 223
216 228
216 247
216 249
216 258
216 259
216 262
216 279
216 295
217 240
217 274
218 219
218 239
218 246
218 296
219 241
219 252
220 222
220 233
220 241
221 226
221 234
221 249
222 226
222 227
222 287
223 257
223 260
223 269
223 278
223 279
224 294
224 297
225 242
225 256
225 270
225 285
226 245
226 249
226 268
226 270
226 296
227 236
227 243
227 287
228 257
228 258
228 292
229 266
229 275
230 253
231 249
231 284
232 248
232 250
232 255
232 266
232 293
232 298
233 239
234 251
235 259
238 265
238 266
238 269
239 252
239 270
239 296
239 300
240 257
240 266
240 274
240 282
240 289
242 266
243 248
244 247
245 273
247 298
248 268
248 296
248 297
249 270
249 296
250 252
250 266
250 279
252 257
252 299
252 300
254 273
254 281
254 299
255 264
255 300
256 286
257 292
257 300
258 259
258 262
258 279
259 262
262 273
262 279
263 265
263 273
263 300
265 267
265 282
266 269
266 277
266 278
266 289
269 290
270 296
271 272
271 292
271 295
271 296
272 296
273 279
273 281
276 297
277 279
278 282
288 289
292 295
293 297
295 296
*Classes
1
1
1
1
1
1
1
1
1
1
1
1
1
1
1
1
1
1
1
1
1
1
1
1
1
1
1
1
1
1
1
1
1
1
1
1
1
1
1
1
1
1
1
1
1
1
1
1
1
1
1
1
1
1
1
1
1
1
1
1
1
1
1
1
1
1
1
1
1
1
1
1
1
1
1
1
1
1
1
1
1
1
1
1
1
1
1
1
1
1
1
1
1
1
1
1
1
1
1
1
1
1
1
1
1
1
1
1
1
1
1
1
1
1
1
1
1
1
1
1
1
1
1
1
1
1
1
1
1
1
1
1
1
1
1
1
1
1
1
1
1
1
1
1
1
1
1
1
1
1
2
2
2
2
2
2
2
2
2
2
2
2
2
2
2
2
2
2
2
2
2
2
2
2
2
2
2
2
2
2
2
2
2
2
2
2
2
2
2
2
2
2
2
2
2
2
2
2
2
2
2
2
2
2
2
2
2
2
2
2
2
2
2
2
2
2
2
2
2
2
2
2
2
2
2
2
2
2
2
2
2
2
2
2
2
2
2
2
2
2
2
2
2
2
2
2
2
2
2
2
2
2
2
2
2
2
2
2
2
2
2
2
2
2
2
2
2
2
2
2
2
2
2
2
2
2
2
2
2
2
2
2
2
2
2
2
2
2
2
2
2
2
2
2
2
2
2
2
2
2
