*Vertices 300
*Edges
1 74
1 182
2 40
2 48
2 51
2 72
2 123
2 124
2 290
3 17
3 40
3 44
3 100
3 124
3 179
3 180
3 232
3 277
4 22
4 59
4 123
4 132
4 144
4 210
4 226
4 234
4 274
5 36
5 56
5 106
5 150
5 173
5 219
5 221
5 222
6 72
6 195
7 14
7 27
7 52
7 73
7 75
7 206
7 296
8 13
8 61
8 62
8 67
8 90
8 150
8 178
9 79
9 91
9 93
9 104
9 169
9 202
9 233
9 269
9 272
9 298
10 36
10 49
10 65
10 80
10 108
10 212
10 222
10 244
11 29
11 31
11 33
11 43
11 47
11 173
11 206
11 236
11 291
12 208
12 252
12 290
12 293
12 296
13 16
13 32
13 62
13 141
13 171
13 196
13 293
14 15
14 28
14 154
14 167
14 177
14 216
14 228
14 250
15 78
15 99
15 100
15 124
15 147
15 154
15 179
15 216
15 250
15 260
16 62
16 70
16 119
16 122
17 26
17 44
17 51
17 120
17 135
17 165
17 176
17 180
17 219
17 246
17 270
17 273
18 76
18 86
18 111
18 123
18 135
18 147
18 246
18 296
18 297
19 27
19 45
19 48
19 51
19 71
19 85
19 194
19 223
19 249
19 299
20 69
20 254
20 263
20 300
21 101
21 106
21 117
21 140
21 150
21 153
21 156
21 161
21 285
22 25
22 56
22 65
22 132
22 165
22 221
22 249
23 53
23 121
23 144
23 149
23 172
23 185
23 216
23 224
24 29
24 57
24 127
24 144
24 147
24 162
24 184
24 185
24 200
24 207
24 227
24 272
25 73
25 76
25 82
25 107
25 241
25 263
26 43
26 51
26 62
26 81
26 94
26 106
26 119
26 210
26 214
27 73
27 81
27 100
27 109
27 116
27 142
27 158
27 248
27 249
27 250
27 257
27 278
28 31
28 49
28 83
28 87
28 99
28 121
28 134
28 145
28 148
28 156
28 166
28 211
28 245
28 258
29 43
29 289
30 52
30 94
30 109
30 116
30 177
30 185
30 191
30 284
30 289
31 57
31 72
31 83
31 102
31 103
31 124
31 195
31 225
31 227
32 93
32 117
32 171
32 243
32 270
32 273
33 43
33 44
33 50
33 100
33 114
33 128
33 148
33 290
34 68
34 101
34 206
34 266
35 39
35 117
35 130
36 91
36 94
36 116
36 134
36 196
36 216
36 221
37 60
37 68
37 110
37 114
37 130
37 232
37 263
37 285
38 64
38 106
38 261
39 76
39 117
39 130
40 72
40 100
40 103
40 140
40 145
40 149
40 166
40 191
40 205
40 212
40 236
41 47
41 58
41 63
41 106
41 111
41 113
41 163
41 173
41 182
41 207
41 283
42 62
42 63
42 69
42 70
42 90
42 105
42 112
42 116
42 133
42 139
42 152
42 160
42 185
42 193
42 233
42 234
42 268
43 45
43 47
43 63
43 65
43 67
43 101
43 178
43 204
43 205
43 245
43 293
43 298
44 73
44 81
44 97
44 119
44 124
44 178
44 180
44 208
44 233
45 71
45 158
45 182
45 245
45 299
46 168
46 194
46 253
46 279
47 53
47 63
47 94
47 116
47 122
47 134
47 174
47 207
47 216
47 270
48 51
48 71
48 124
48 222
48 229
49 91
49 124
49 165
49 166
49 172
49 227
49 238
49 244
49 260
50 93
50 117
50 177
50 265
51 83
51 94
51 152
51 241
52 73
52 87
52 133
52 135
52 144
52 152
52 191
52 257
52 268
52 274
52 299
53 122
53 216
53 220
53 240
53 259
54 86
54 188
54 196
54 266
55 247
56 78
56 149
56 248
56 249
56 292
57 115
57 125
57 183
57 184
57 212
57 251
57 275
58 66
58 113
58 137
58 182
58 187
58 252
58 273
58 274
58 281
58 286
59 86
59 135
59 136
59 162
59 175
59 219
59 274
59 278
60 130
60 138
60 197
60 228
61 71
61 84
61 121
61 124
61 143
61 163
61 177
61 189
61 201
61 205
61 206
61 274
62 67
62 81
62 90
62 119
62 158
62 162
62 188
62 193
62 196
62 222
63 69
63 100
63 160
63 184
63 216
63 221
63 270
63 272
64 162
64 261
65 107
65 114
65 129
65 132
65 161
65 172
65 215
65 222
65 265
65 285
65 293
66 137
66 211
66 233
66 279
66 281
67 71
67 140
67 150
67 157
67 188
67 204
67 205
68 120
68 130
68 167
68 171
68 214
68 243
68 252
68 263
68 266
68 270
69 72
69 100
69 117
69 121
69 189
69 195
69 228
69 299
70 134
70 233
71 134
71 168
71 177
71 195
71 274
72 110
72 117
72 123
72 157
72 160
72 195
72 281
72 286
72 290
73 113
73 123
73 127
73 143
73 170
73 178
73 217
73 233
73 248
73 268
74 82
74 86
74 92
74 111
74 121
74 123
74 182
74 198
74 204
74 217
74 248
74 259
75 95
75 200
76 82
76 141
76 173
76 241
77 102
77 105
77 173
77 198
77 200
77 202
77 273
78 143
78 147
78 163
78 179
78 192
78 259
78 264
78 292
79 85
79 249
79 272
80 105
80 108
80 161
80 205
80 295
81 102
81 119
81 130
81 141
81 155
81 157
81 158
81 204
81 296
82 107
82 120
82 127
82 143
82 215
82 217
82 263
83 87
83 99
83 101
83 102
83 124
83 134
83 145
83 147
83 152
83 153
83 164
83 211
83 225
83 241
83 244
83 263
83 271
84 121
84 154
84 159
84 189
84 201
84 259
85 93
85 94
85 148
85 194
85 210
85 249
85 257
86 87
86 108
86 111
86 135
86 219
86 222
86 234
86 239
86 268
87 102
87 153
87 163
87 191
87 263
88 143
88 198
88 219
88 251
88 265
89 98
89 114
89 129
89 220
89 286
90 272
91 166
92 94
92 103
92 151
92 191
92 194
92 198
92 231
92 247
93 101
93 103
93 114
93 117
93 129
93 130
93 218
93 275
93 298
94 116
94 131
94 134
94 161
94 185
94 247
95 136
95 175
95 266
96 210
97 144
97 155
97 156
97 185
97 208
97 233
97 299
98 286
99 100
99 143
99 218
99 245
99 276
100 109
100 121
100 128
100 148
100 154
100 162
100 205
100 250
100 277
100 299
101 129
101 150
101 152
101 157
101 159
101 164
101 206
101 222
101 298
102 105
102 130
102 134
102 142
102 173
102 186
102 252
103 117
103 140
103 145
103 149
103 173
103 203
104 127
104 142
104 163
104 165
104 170
105 108
105 133
105 229
105 237
105 244
105 272
105 283
106 210
106 236
106 283
107 119
107 188
107 215
107 241
107 269
107 283
107 293
108 152
108 161
108 268
108 270
109 136
109 256
110 114
111 135
111 160
111 204
111 234
111 286
112 114
112 138
112 139
112 145
112 146
112 203
112 207
112 237
112 257
112 268
112 270
113 125
113 133
113 162
113 206
113 233
113 240
113 252
114 117
114 129
114 130
114 132
114 138
114 155
114 220
114 232
114 260
114 275
114 282
115 140
115 164
115 212
116 134
116 158
116 166
116 184
116 185
116 213
116 225
116 241
116 278
116 286
116 298
117 140
117 218
117 275
118 260
118 261
118 300
119 122
119 141
119 151
119 215
119 241
119 293
120 143
120 165
120 193
120 226
121 127
121 134
121 149
121 189
121 195
121 198
121 248
121 255
121 281
121 298
122 251
123 147
123 162
123 233
123 236
123 246
123 259
123 288
123 295
124 163
124 191
124 211
124 231
124 238
124 260
124 274
125 147
125 162
125 165
125 183
125 247
125 295
126 144
126 153
126 192
126 254
126 275
127 143
127 178
127 184
127 289
128 134
128 151
128 225
128 247
128 249
128 251
129 146
129 159
129 172
129 195
129 209
129 276
129 298
130 142
130 144
130 228
130 241
131 161
132 144
132 252
132 285
132 299
133 137
133 205
133 224
133 249
133 274
134 151
134 154
134 158
134 186
134 206
134 236
134 280
134 298
135 180
135 219
135 230
135 239
135 246
135 257
135 258
135 270
135 273
136 153
136 170
136 175
136 227
137 211
138 238
139 268
140 169
140 201
140 204
140 217
141 151
141 154
141 173
141 192
141 221
141 230
141 260
141 290
141 292
141 293
142 165
143 154
143 163
143 167
143 170
143 177
143 219
143 236
143 258
144 156
144 169
144 185
144 192
144 207
144 224
145 153
145 156
145 228
145 236
145 237
145 300
146 195
146 218
146 287
147 156
147 162
147 164
147 200
147 236
147 240
148 189
148 223
148 247
148 294
148 299
149 195
149 276
149 292
150 154
150 160
150 167
150 172
150 203
150 222
150 231
150 242
150 282
150 296
151 173
151 251
151 271
151 298
152 192
152 243
152 267
152 268
152 298
153 163
153 192
154 236
154 240
154 260
154 282
155 289
155 296
156 161
156 200
156 228
156 300
157 159
157 164
157 170
157 185
157 200
157 204
157 247
157 259
157 286
157 293
158 182
158 184
158 199
158 239
158 241
158 254
158 295
159 201
159 259
159 266
159 276
160 195
160 221
160 234
160 282
160 296
161 188
161 209
161 222
161 227
161 261
161 269
162 173
162 188
162 202
162 222
162 236
162 274
162 295
162 299
163 216
163 259
164 199
164 212
164 222
165 183
165 221
165 226
166 199
166 212
166 227
166 238
166 261
166 269
166 276
167 203
167 216
168 170
168 186
168 195
168 279
168 285
169 193
169 198
169 292
170 175
170 185
170 200
170 204
170 247
170 285
171 196
171 252
172 188
172 209
172 224
173 295
174 216
175 266
175 285
177 206
177 284
178 181
178 217
178 248
179 232
180 232
180 277
181 194
181 249
181 280
182 235
183 210
184 186
184 191
184 205
184 207
184 209
184 227
184 257
184 269
184 291
185 196
185 207
185 216
185 234
185 259
186 195
186 206
186 225
186 227
187 271
187 286
188 205
188 215
188 222
188 238
188 255
188 263
189 225
191 222
191 231
192 224
194 231
194 249
196 221
196 234
197 210
197 287
198 200
198 251
199 254
199 276
199 295
200 228
201 230
201 271
202 231
202 269
202 286
202 294
203 204
203 224
203 229
203 251
203 257
204 229
204 293
205 208
205 254
205 255
205 274
205 280
205 295
207 208
207 224
207 268
208 233
208 254
208 268
208 270
208 293
209 269
209 279
210 230
210 234
210 240
211 213
211 225
213 225
213 226
213 294
214 258
215 283
215 292
216 221
219 270
219 287
220 275
220 282
220 292
221 281
222 231
222 238
223 233
223 272
223 291
223 299
225 227
225 286
226 227
227 291
229 237
230 240
230 253
230 258
232 282
233 253
233 272
236 240
236 272
236 291
237 240
237 242
237 272
237 292
238 239
240 253
240 272
240 285
241 244
242 292
243 254
243 270
243 282
243 288
246 254
248 249
249 255
249 257
251 271
252 299
253 285
254 263
254 300
257 267
257 269
257 273
259 286
260 282
260 292
261 269
264 272
264 288
264 289
267 273
267 300
268 270
269 291
270 272
270 287
270 293
272 289
272 291
272 293
280 295
280 298
282 296
286 297
288 289
288 294
289 294
289 299
290 293
293 295
294 299
*Classes
1
1
1
1
1
1
1
1
1
1
1
1
1
1
1
1
1
1
1
1
1
1
1
1
1
1
1
1
1
1
1
1
1
1
1
1
1
1
1
1
1
1
1
1
1
1
1
1
1
1
1
1
1
1
1
1
1
1
1
1
1
1
1
1
1
1
1
1
1
1
1
1
1
1
1
1
1
1
1
1
1
1
1
1
1
1
1
1
1
1
1
1
1
1
1
1
1
1
1
1
1
1
1
1
1
1
1
1
1
1
1
1
1
1
1
1
1
1
1
1
1
1
1
1
1
1
1
1
1
1
1
1
1
1
1
1
1
1
1
1
1
1
1
1
1
1
1
1
1
1
2
2
2
2
2
2
2
2
2
2
2
2
2
2
2
2
2
2
2
2
2
2
2
2
2
2
2
2
2
2
2
2
2
2
2
2
2
2
2
2
2
2
2
2
2
2
2
2
2
2
2
2
2
2
2
2
2
2
2
2
2
2
2
2
2
2
2
2
2
2
2
2
2
2
2
2
2
2
2
2
2
2
2
2
2
2
2
2
2
2
2
2
2
2
2
2
2
2
2
2
2
2
2
2
2
2
2
2
2
2
2
2
2
2
2
2
2
2
2
2
2
2
2
2
2
2
2
2
2
2
2
2
2
2
2
2
2
2
2
2
2
2
2
2
2
2
2
2
2
2
