*Vertices 300
*Edges
1 16
1 21
1 57
1 84
1 123
1 185
1 191
1 206
1 212
1 218
1 231
1 243
2 32
2 34
2 59
2 74
2 90
2 156
2 164
2 194
2 278
3 13
3 15
3 16
3 42
3 47
3 64
3 93
3 97
3 104
3 126
3 217
3 231
4 145
4 209
4 237
4 243
4 249
5 6
5 8
5 12
5 24
5 78
5 125
5 127
5 147
5 155
5 206
5 226
5 232
5 246
5 262
5 264
6 12
6 63
6 102
6 104
6 157
6 173
7 34
7 63
7 98
7 133
7 153
7 188
7 199
7 246
7 260
7 293
8 11
8 63
8 118
8 120
8 147
8 162
8 232
8 235
8 245
8 273
8 283
9 100
9 110
9 138
9 182
9 219
9 245
9 269
10 244
10 259
10 289
11 56
11 98
11 114
11 275
11 288
12 49
12 78
12 125
12 130
12 179
12 206
12 210
12 232
12 242
12 265
12 298
12 300
13 33
13 39
13 41
13 64
13 93
13 252
13 255
13 268
13 282
14 17
14 71
14 80
14 93
14 103
15 16
15 36
15 37
15 43
15 123
15 180
15 196
15 273
15 293
15 298
16 123
16 151
16 173
16 211
16 218
16 265
16 273
16 293
17 55
17 138
17 175
17 187
17 189
17 213
17 216
17 224
17 260
18 55
18 64
18 77
18 78
18 107
18 137
18 171
18 180
18 226
18 245
18 270
18 282
19 82
19 156
19 176
19 200
19 205
19 228
19 241
19 272
19 283
19 295
20 23
20 34
20 72
20 74
20 143
20 153
20 154
20 173
20 193
20 200
20 220
20 248
20 290
21 22
21 33
21 84
21 86
21 111
21 171
21 199
21 230
21 239
21 293
22 26
22 33
22 86
22 117
22 157
22 179
22 227
22 229
22 230
22 279
23 103
23 119
23 143
23 195
23 200
23 242
23 245
23 247
24 59
24 127
24 133
24 154
24 188
24 215
24 228
24 247
24 264
24 283
24 295
25 58
25 82
25 111
25 125
25 160
25 193
25 241
25 257
25 264
25 280
26 97
26 100
26 109
26 116
26 140
26 218
26 230
26 245
26 270
27 64
27 94
27 141
27 159
27 182
27 188
27 192
27 220
27 257
28 38
28 107
28 113
28 245
28 280
29 65
29 105
29 196
29 206
29 218
29 271
29 278
30 60
30 63
30 88
30 120
30 124
30 136
30 160
30 178
30 193
30 212
30 222
30 255
30 281
31 156
31 157
31 189
31 201
31 208
31 209
31 228
31 273
31 283
32 63
32 90
32 96
32 110
32 120
32 154
32 156
32 164
32 192
32 196
32 204
32 248
32 259
32 264
32 278
33 41
33 50
33 94
33 99
33 159
33 212
33 235
33 255
34 63
34 72
34 74
34 98
34 164
34 193
34 220
34 222
34 235
34 260
35 187
35 209
35 221
35 248
35 249
36 37
36 78
36 102
36 129
36 139
36 177
36 261
36 291
37 43
37 69
37 91
37 98
37 144
37 172
37 178
37 208
37 254
37 261
37 281
38 39
38 42
38 77
38 135
38 193
38 202
38 268
39 58
39 71
39 111
39 135
39 149
39 227
39 240
39 282
39 294
40 111
40 119
40 122
40 125
40 132
40 180
40 184
40 206
41 42
41 94
41 123
41 142
41 174
41 194
41 212
41 226
41 249
41 252
41 255
41 266
41 268
42 80
42 140
42 193
43 91
44 187
44 192
44 236
44 266
44 268
45 127
45 169
45 193
45 201
45 222
45 283
46 50
46 106
46 193
46 222
46 236
46 287
47 126
47 159
48 98
48 116
48 141
48 177
48 205
49 130
49 151
49 166
49 180
49 206
49 233
49 240
49 292
49 298
50 64
50 71
50 72
50 84
50 93
50 99
50 106
50 185
50 223
50 253
50 257
50 284
50 295
51 94
51 125
51 159
51 166
51 173
51 176
51 192
51 240
51 259
51 269
51 282
52 68
52 112
53 64
53 104
53 213
53 232
53 251
53 263
53 287
54 72
54 127
54 225
54 233
54 242
54 287
55 162
55 168
55 180
55 211
55 216
55 288
56 95
56 98
56 171
56 239
57 59
57 161
57 182
57 218
58 109
58 149
58 163
58 227
58 236
59 74
59 203
59 235
59 247
59 252
59 286
59 295
60 73
60 88
60 92
60 99
60 136
60 139
60 158
60 170
60 175
60 193
61 67
61 135
61 154
61 218
61 285
61 289
61 297
62 258
63 96
63 102
63 120
63 151
63 186
63 191
63 194
63 199
63 217
64 71
64 78
64 91
64 97
64 100
64 104
64 107
64 141
64 150
64 181
64 293
64 298
65 201
65 222
65 251
65 287
66 87
66 168
66 188
66 269
66 296
67 72
67 209
67 237
67 249
68 98
68 112
68 130
68 165
68 211
68 216
68 285
69 91
69 118
69 131
69 189
69 206
69 250
69 279
69 289
70 133
70 149
70 173
70 178
70 195
70 203
70 290
71 93
71 104
71 107
71 114
71 135
71 227
71 231
72 99
72 142
72 231
72 278
73 92
73 136
73 155
73 161
73 193
74 121
74 125
74 130
74 145
74 193
74 235
74 241
74 286
75 177
75 285
76 103
76 104
76 105
76 113
76 138
76 157
76 251
76 300
77 78
77 81
77 91
77 123
77 137
77 157
77 180
77 186
77 202
77 245
77 268
78 91
78 102
78 147
78 155
78 177
78 186
78 200
78 236
79 93
80 103
80 115
80 178
80 281
81 123
81 157
81 173
81 216
81 282
81 297
82 183
82 241
82 246
82 272
83 188
83 194
83 272
84 111
84 152
84 181
84 185
84 200
84 211
84 212
84 215
84 239
84 252
84 257
84 292
85 151
85 154
85 207
85 278
86 173
86 177
86 227
86 279
86 290
87 172
87 296
88 136
88 166
88 168
88 178
88 180
88 203
88 240
88 258
88 264
88 270
88 288
89 119
89 142
89 287
90 120
90 175
90 192
90 199
90 204
90 266
91 107
91 131
91 158
91 178
91 203
91 211
91 228
91 272
92 137
92 139
92 162
92 163
92 180
92 198
92 203
92 232
92 241
92 255
92 257
93 98
93 114
93 141
93 171
93 231
93 298
94 159
94 192
95 108
95 152
95 164
95 182
95 191
95 213
95 214
95 232
95 236
95 283
96 120
96 185
96 196
96 211
96 234
97 114
97 141
97 181
97 218
97 265
98 114
98 116
98 141
98 144
98 245
98 282
98 298
99 101
99 136
99 161
99 163
99 205
99 214
99 223
99 241
99 244
99 257
99 262
99 266
100 111
100 140
100 147
100 150
100 205
100 217
101 168
101 179
101 214
101 226
101 232
101 241
101 266
101 297
102 104
102 110
102 120
102 286
103 104
103 178
103 254
104 109
104 142
104 167
104 189
104 213
104 235
104 254
104 289
105 138
105 147
105 193
105 196
105 198
105 215
105 225
105 233
105 259
105 269
106 154
106 160
106 196
106 236
107 113
107 131
107 134
107 141
107 178
107 229
107 239
107 300
108 165
108 175
109 142
109 236
109 245
109 270
110 182
111 122
111 125
111 206
111 212
111 222
111 265
111 292
112 130
112 165
112 173
112 175
112 211
112 271
112 292
113 178
113 199
113 229
113 300
114 147
114 204
114 222
114 255
115 247
115 251
115 262
116 172
116 225
116 262
117 158
117 162
117 297
118 134
118 166
118 183
118 232
118 235
118 246
118 275
118 289
118 291
118 296
118 298
120 217
120 253
121 130
121 208
121 289
121 294
122 167
123 182
123 196
123 211
123 234
123 265
123 268
123 273
124 158
124 180
124 181
124 196
124 212
124 276
124 279
125 145
125 173
125 226
125 240
125 241
125 259
125 261
125 265
125 280
125 295
126 161
126 215
126 217
126 291
127 140
127 201
127 202
127 205
127 228
127 238
127 283
128 152
128 174
128 195
128 199
128 285
129 169
130 152
130 223
130 228
130 285
130 294
130 295
131 158
131 203
131 242
131 251
131 256
131 271
131 276
132 179
132 180
132 184
132 206
132 225
132 232
132 248
133 164
133 167
133 188
133 195
133 203
133 208
133 261
133 269
134 161
134 166
134 226
134 239
134 262
134 270
134 275
134 287
134 296
135 152
135 154
135 160
135 171
135 237
135 240
135 278
135 285
135 288
135 289
136 161
136 166
136 173
136 180
136 193
136 198
136 199
136 203
136 241
136 272
136 291
137 162
137 163
137 186
137 213
137 223
137 259
138 140
138 142
138 144
138 147
138 157
138 182
138 189
138 193
138 202
138 222
138 260
138 283
139 158
139 164
139 165
139 175
139 240
139 258
139 284
139 291
139 295
140 163
140 191
140 205
140 210
140 213
140 273
140 278
140 283
140 300
141 162
141 213
141 220
141 233
141 245
141 278
141 293
142 187
142 189
142 197
142 203
142 235
142 255
142 297
143 153
144 147
144 172
144 193
144 208
144 210
144 231
144 245
144 287
145 165
145 241
145 259
145 297
146 151
146 178
146 227
146 254
146 290
146 294
147 150
147 172
147 193
147 202
147 203
147 229
147 231
147 255
148 161
148 170
148 206
148 218
148 246
148 264
149 299
150 217
150 243
151 155
151 180
151 190
151 194
151 196
151 207
151 231
151 240
151 267
151 293
151 294
151 295
152 164
152 185
152 228
152 241
152 285
153 191
153 206
153 218
153 246
153 263
153 264
153 269
154 173
154 196
154 278
154 295
155 180
155 183
155 244
155 267
155 295
156 163
156 168
156 172
156 176
156 232
156 283
156 291
157 173
157 184
157 185
157 202
157 214
157 224
158 162
158 196
158 244
159 196
159 206
159 222
159 230
159 234
159 289
159 292
160 172
160 225
160 233
160 256
160 275
160 288
161 177
161 183
161 218
161 277
161 291
162 172
162 198
162 213
162 216
162 227
162 232
162 241
162 244
162 259
162 270
162 283
162 293
162 298
162 299
163 223
163 226
163 264
163 278
163 288
163 291
164 175
164 185
164 200
164 220
164 248
164 285
165 175
165 187
165 198
165 203
165 216
165 244
165 254
165 297
166 230
166 298
168 179
168 219
168 232
168 240
168 286
169 193
169 197
169 201
169 287
170 178
170 206
170 218
170 281
171 210
171 237
171 239
171 245
171 262
171 282
171 300
172 213
172 225
172 232
173 189
173 211
173 260
173 278
173 290
173 295
173 296
174 195
175 187
175 212
175 224
175 250
175 297
176 234
176 299
178 229
178 258
178 272
178 279
178 281
178 287
178 290
179 181
179 279
179 286
180 194
180 196
180 225
180 232
180 241
180 295
181 185
181 199
181 215
181 219
181 242
181 246
181 264
181 279
182 253
182 257
183 213
183 246
183 267
184 200
184 206
184 214
184 222
184 248
185 200
185 202
185 211
186 200
186 210
186 217
186 236
186 248
187 189
187 270
188 233
188 269
188 292
189 199
189 228
189 260
189 293
189 298
190 294
191 194
191 231
191 262
191 300
192 228
192 266
192 286
193 222
193 228
193 255
194 207
194 272
195 200
195 210
196 225
196 230
196 234
196 259
196 278
197 201
197 218
197 219
197 239
197 266
197 297
198 203
198 227
198 230
198 233
198 244
198 254
198 289
198 292
199 264
199 293
200 210
200 217
200 241
200 248
200 275
200 294
200 300
201 273
201 283
201 287
203 209
203 216
203 230
203 255
203 261
204 231
204 236
205 223
205 300
206 218
206 222
206 236
206 289
206 292
207 223
207 232
207 294
207 295
209 228
209 248
209 249
209 255
209 262
209 286
210 275
210 288
210 299
210 300
211 238
211 271
211 292
211 296
212 226
212 250
213 232
213 236
213 246
213 253
213 259
213 267
213 283
214 226
214 232
214 236
214 242
214 266
215 219
215 257
215 265
216 228
216 244
216 255
216 259
216 270
216 297
216 298
218 222
218 281
218 291
218 292
218 297
219 239
219 297
220 243
220 248
221 266
221 297
222 228
222 248
222 251
222 255
222 292
223 232
223 240
223 244
223 284
223 288
223 291
223 295
225 229
225 233
225 251
225 278
225 287
225 288
226 230
226 232
226 236
226 261
226 264
226 270
227 254
227 270
227 279
228 235
228 251
228 258
228 272
228 285
228 286
228 293
228 297
229 230
229 287
230 234
230 261
231 239
231 262
231 294
232 241
233 244
233 256
233 278
233 292
235 245
235 282
236 244
236 268
236 289
237 238
237 282
238 271
239 262
240 295
241 257
242 266
242 276
242 279
242 290
242 297
244 267
244 289
245 273
245 282
246 263
246 264
247 262
247 280
248 255
248 262
249 266
251 271
251 287
252 256
253 257
253 283
254 270
254 276
254 279
254 294
255 270
256 259
258 272
258 281
260 268
261 264
261 280
264 270
264 275
264 288
266 279
266 297
269 276
269 282
269 290
271 274
271 278
272 293
273 283
273 293
275 288
275 299
276 279
276 290
278 295
279 281
279 290
281 290
282 294
284 295
285 286
288 291
292 296
293 298
294 296
*Classes
1
1
1
1
1
1
1
1
1
1
1
1
1
1
1
1
1
1
1
1
1
1
1
1
1
1
1
1
1
1
1
1
1
1
1
1
1
1
1
1
1
1
1
1
1
1
1
1
1
1
1
1
1
1
1
1
1
1
1
1
1
1
1
1
1
1
1
1
1
1
1
1
1
1
1
1
1
1
1
1
1
1
1
1
1
1
1
1
1
1
1
1
1
1
1
1
1
1
1
1
1
1
1
1
1
1
1
1
1
1
1
1
1
1
1
1
1
1
1
1
1
1
1
1
1
1
1
1
1
1
1
1
1
1
1
1
1
1
1
1
1
1
1
1
1
1
1
1
1
1
2
2
2
2
2
2
2
2
2
2
2
2
2
2
2
2
2
2
2
2
2
2
2
2
2
2
2
2
2
2
2
2
2
2
2
2
2
2
2
2
2
2
2
2
2
2
2
2
2
2
2
2
2
2
2
2
2
2
2
2
2
2
2
2
2
2
2
2
2
2
2
2
2
2
2
2
2
2
2
2
2
2
2
2
2
2
2
2
2
2
2
2
2
2
2
2
2
2
2
2
2
2
2
2
2
2
2
2
2
2
2
2
2
2
2
2
2
2
2
2
2
2
2
2
2
2
2
2
2
2
2
2
2
2
2
2
2
2
2
2
2
2
2
2
2
2
2
2
2
2
