*Vertices 300
*Edges
1 20
1 60
1 65
1 81
1 86
1 117
1 127
1 154
1 159
1 166
2 34
2 65
2 74
2 142
2 236
3 45
3 47
3 106
3 124
3 181
3 185
3 233
3 267
3 300
4 8
4 25
4 30
4 33
4 54
4 75
4 100
4 168
4 169
4 181
4 221
4 257
5 9
5 23
5 28
5 52
5 82
5 95
5 149
5 170
5 176
5 184
5 286
6 124
6 126
6 150
6 217
6 257
7 15
7 61
7 295
8 50
8 199
8 295
9 52
9 64
9 103
9 145
9 146
9 149
9 219
9 248
9 277
10 34
10 55
10 85
10 104
10 134
10 177
10 202
10 219
10 227
11 35
11 125
11 133
11 137
11 142
11 144
11 161
11 166
11 195
11 231
11 237
11 244
12 104
12 105
12 116
12 124
12 242
12 289
13 33
13 41
13 49
13 54
13 111
13 263
13 266
13 274
14 66
14 292
15 20
15 48
15 76
15 83
15 191
15 256
16 93
16 154
16 199
16 229
17 55
17 58
17 207
17 261
17 299
18 21
18 30
18 88
18 116
18 121
18 131
18 160
18 230
18 271
19 37
19 190
19 236
20 34
20 48
20 55
20 86
20 116
20 205
20 240
20 248
21 35
21 69
21 82
21 85
21 96
21 104
21 128
22 125
22 129
22 183
22 189
22 210
22 279
23 75
23 130
23 149
23 171
23 179
23 237
24 29
24 38
24 40
24 117
24 118
24 135
25 30
25 33
25 54
25 59
25 65
25 75
25 81
25 98
25 121
25 210
26 30
26 68
26 70
26 152
26 189
26 191
26 222
26 267
26 296
27 47
27 50
27 130
27 145
27 294
28 43
28 113
28 119
28 184
28 186
28 228
29 38
29 89
29 180
29 208
29 243
30 33
30 68
30 81
30 121
30 154
30 157
30 195
30 219
31 34
31 37
31 83
31 207
31 259
32 71
32 189
32 224
32 241
32 277
33 46
33 54
33 74
33 78
33 100
33 128
33 159
33 180
33 221
33 273
34 37
34 55
34 74
34 83
34 99
34 152
34 163
34 215
35 74
35 78
35 84
35 104
35 110
35 112
35 163
35 167
35 206
35 215
35 218
35 227
35 266
36 37
36 51
36 53
36 56
36 60
36 93
36 99
36 146
36 150
36 183
36 186
36 224
37 44
37 56
37 83
37 86
37 151
37 213
37 236
37 243
37 267
38 111
38 137
38 154
38 162
38 254
38 266
39 117
39 216
39 241
40 86
40 88
40 116
40 117
40 161
40 270
40 293
41 48
41 71
41 231
41 234
41 236
42 61
42 64
42 91
42 102
42 140
42 173
42 185
42 204
42 272
42 293
43 113
43 153
43 154
43 170
44 60
44 86
44 90
44 121
44 122
44 128
44 171
44 218
44 263
44 289
45 47
45 186
45 194
46 100
46 128
46 280
47 50
47 62
47 104
47 110
47 189
47 211
47 239
47 300
48 62
48 66
48 71
48 167
48 171
49 64
49 93
49 230
49 277
50 82
50 128
50 145
50 177
50 178
50 193
50 245
50 266
50 281
51 99
51 107
51 109
51 120
51 126
51 139
51 150
51 174
51 215
51 280
51 284
52 68
52 71
52 73
52 117
52 121
52 143
52 300
53 61
53 67
53 93
53 100
53 102
53 118
53 123
53 133
53 139
53 161
53 245
54 84
54 112
54 136
54 152
54 171
54 184
54 300
55 177
55 187
55 192
56 80
56 183
56 249
56 283
56 296
57 63
57 66
57 95
57 123
57 226
57 242
57 288
57 293
57 298
58 123
58 164
58 183
58 200
58 241
59 74
59 105
59 141
60 81
60 86
60 98
60 99
60 102
60 121
60 146
60 226
60 238
60 249
60 299
61 77
61 140
61 263
61 291
62 110
63 88
63 92
63 95
63 110
63 121
63 143
63 146
63 170
63 182
63 212
63 214
63 232
63 271
63 279
63 298
64 78
64 91
64 113
64 132
64 134
64 138
64 145
65 74
65 81
65 97
65 127
65 201
65 213
65 262
65 269
66 123
66 219
66 223
67 78
67 100
67 249
67 288
68 121
68 182
68 208
69 91
69 92
69 184
69 185
69 299
70 133
70 161
70 183
70 214
71 94
71 121
71 143
71 196
72 103
72 121
72 231
72 283
74 78
74 84
74 99
74 105
74 110
74 174
74 255
75 94
75 121
75 123
75 130
75 138
76 162
77 111
77 114
77 115
77 148
77 212
77 215
77 222
77 232
77 295
78 113
78 120
78 195
79 110
79 150
79 176
79 230
79 276
80 197
81 269
82 95
82 128
82 167
82 178
82 187
82 255
82 288
82 294
83 114
83 185
83 250
84 103
84 112
84 176
84 203
84 254
85 98
85 104
85 165
85 186
85 187
85 251
86 113
86 117
86 142
86 161
86 165
86 212
86 213
86 244
87 108
87 213
87 218
87 243
87 255
87 259
88 95
88 116
88 151
88 231
88 291
89 114
89 165
89 180
89 272
90 128
90 157
90 160
90 169
90 211
90 214
90 274
91 132
91 138
91 213
91 272
92 146
92 152
92 195
92 244
92 251
92 278
93 118
93 136
93 199
93 210
93 243
94 121
94 138
94 143
94 145
94 153
94 248
95 117
95 128
95 158
95 170
95 270
96 176
96 251
96 278
96 290
97 127
97 139
97 201
97 213
97 233
97 257
98 143
98 145
98 210
99 146
99 174
99 229
99 260
99 295
100 180
100 181
100 229
101 110
101 170
101 191
101 212
101 259
101 265
102 133
102 217
102 252
102 258
103 112
103 146
103 204
103 225
103 237
104 116
104 134
104 176
104 213
105 124
105 245
105 283
106 124
106 125
106 162
106 282
106 289
107 139
107 150
107 176
108 145
108 175
109 134
109 169
109 197
109 216
110 146
110 150
110 195
111 115
111 126
111 152
111 162
111 216
111 274
112 178
112 188
112 190
113 120
113 142
113 197
113 224
113 287
114 148
114 179
114 224
115 201
116 151
116 157
116 249
116 297
117 151
117 158
118 166
118 217
118 224
118 259
119 140
119 186
119 258
120 146
120 150
120 163
120 170
120 246
120 276
120 295
121 131
121 143
121 156
121 216
121 280
122 152
122 202
122 220
122 286
123 139
123 160
123 223
124 199
124 203
124 242
125 129
125 137
125 144
125 197
125 238
125 242
126 147
126 167
126 168
126 253
126 257
126 300
127 140
127 167
127 173
127 197
127 207
127 250
127 251
128 216
128 255
128 284
128 296
130 171
130 173
130 241
131 271
132 134
132 145
132 181
132 247
132 253
132 263
132 273
133 137
133 144
133 166
133 183
133 194
133 244
133 289
135 138
135 183
135 265
136 151
136 256
137 149
137 156
137 161
137 230
137 262
138 190
138 215
138 294
138 300
139 233
139 289
140 164
140 184
140 248
140 263
140 280
140 294
141 180
141 259
142 166
142 213
143 145
143 248
143 281
144 211
144 244
144 258
144 292
145 210
145 224
145 259
146 162
146 229
146 244
146 271
147 196
147 212
147 214
147 300
148 161
148 193
148 273
148 279
149 156
150 184
150 187
150 192
150 250
150 284
151 155
151 170
151 195
151 198
151 213
151 224
151 246
151 256
151 262
151 277
151 285
152 191
152 195
152 213
152 215
152 223
152 280
153 210
153 296
155 202
155 296
156 163
156 172
156 194
156 200
156 216
156 240
156 267
156 282
156 284
157 204
157 219
157 297
158 162
158 181
158 231
158 269
158 270
159 161
159 166
159 170
159 171
159 175
159 195
159 259
159 274
159 291
160 195
160 211
160 213
160 278
161 183
161 195
161 221
161 244
161 257
162 181
162 201
162 257
162 270
162 287
163 183
163 267
163 270
163 284
164 178
164 248
164 293
165 194
165 195
165 196
165 209
165 216
165 247
165 250
165 256
165 261
166 171
166 175
166 259
167 187
167 215
167 244
167 294
167 300
168 208
168 232
168 286
169 190
169 267
170 263
170 274
170 285
170 291
171 179
171 195
171 252
171 264
172 197
172 205
172 211
172 213
172 216
172 239
172 241
172 271
173 192
173 229
174 205
174 208
174 227
174 232
174 243
174 245
174 255
174 288
176 230
176 236
176 258
176 285
177 180
177 234
177 235
177 252
177 270
178 187
178 267
178 275
178 297
179 204
179 252
179 269
179 272
179 273
179 291
180 184
180 190
180 203
180 234
180 300
181 208
181 231
181 235
181 237
182 243
182 281
183 193
183 221
183 261
183 267
184 186
184 187
184 196
184 233
184 271
184 276
184 294
184 299
185 209
185 220
185 267
185 272
185 280
185 281
185 282
186 194
186 229
186 235
186 237
186 252
186 256
187 300
188 207
188 232
188 240
188 246
188 298
189 205
189 211
190 192
190 238
190 267
191 207
191 211
192 250
193 210
193 235
194 196
194 197
194 199
194 202
194 209
194 215
194 216
194 241
194 242
194 256
194 275
194 294
195 213
195 234
195 247
195 257
195 286
196 207
196 275
196 276
197 199
197 211
197 215
197 241
197 256
197 287
198 262
199 228
199 253
200 204
200 225
200 241
200 284
200 297
201 212
201 235
201 252
201 255
201 287
202 215
202 250
203 238
203 269
203 300
204 225
204 241
204 271
205 211
205 212
205 220
205 227
205 240
205 252
205 261
205 286
207 211
207 220
207 298
208 212
208 232
208 235
208 245
208 259
209 220
209 246
209 256
209 283
209 286
209 294
211 218
211 231
211 239
211 247
211 271
211 286
212 232
212 252
213 216
213 224
213 280
213 285
214 238
214 269
215 216
215 244
215 250
215 256
215 277
215 280
215 294
216 242
216 274
217 276
217 287
218 227
218 230
218 239
218 253
218 271
218 296
220 280
220 283
220 294
221 261
222 233
222 238
222 295
223 260
224 246
225 297
226 276
227 236
227 270
227 286
227 290
227 296
228 274
229 297
230 239
231 247
231 275
231 299
232 240
232 252
232 261
232 293
233 250
233 257
233 260
233 264
233 290
233 295
233 299
234 235
234 257
234 270
235 263
235 298
236 258
238 250
238 264
238 269
238 291
239 282
240 242
240 261
240 266
240 284
241 271
241 288
242 284
242 292
243 255
243 287
245 259
246 247
246 254
246 294
247 250
249 288
250 261
252 256
252 270
253 260
253 279
253 280
253 296
254 265
255 265
255 287
257 265
257 286
257 287
258 283
258 285
260 279
260 299
261 270
264 273
265 287
266 272
267 281
267 282
267 289
269 270
269 291
271 277
272 273
274 291
275 276
275 297
276 287
276 294
277 285
278 290
282 289
284 296
289 293
*Classes
1
1
1
1
1
1
1
1
1
1
1
1
1
1
1
1
1
1
1
1
1
1
1
1
1
1
1
1
1
1
1
1
1
1
1
1
1
1
1
1
1
1
1
1
1
1
1
1
1
1
1
1
1
1
1
1
1
1
1
1
1
1
1
1
1
1
1
1
1
1
1
1
1
1
1
1
1
1
1
1
1
1
1
1
1
1
1
1
1
1
1
1
1
1
1
1
1
1
1
1
1
1
1
1
1
1
1
1
1
1
1
1
1
1
1
1
1
1
1
1
1
1
1
1
1
1
1
1
1
1
1
1
1
1
1
1
1
1
1
1
1
1
1
1
1
1
1
1
1
1
2
2
2
2
2
2
2
2
2
2
2
2
2
2
2
2
2
2
2
2
2
2
2
2
2
2
2
2
2
2
2
2
2
2
2
2
2
2
2
2
2
2
2
2
2
2
2
2
2
2
2
2
2
2
2
2
2
2
2
2
2
2
2
2
2
2
2
2
2
2
2
2
2
2
2
2
2
2
2
2
2
2
2
2
2
2
2
2
2
2
2
2
2
2
2
2
2
2
2
2
2
2
2
2
2
2
2
2
2
2
2
2
2
2
2
2
2
2
2
2
2
2
2
2
2
2
2
2
2
2
2
2
2
2
2
2
2
2
2
2
2
2
2
2
2
2
2
2
2
2
