*Vertices 300
*Edges
1 29
1 84
1 97
1 123
1 258
1 287
1 299
1 300
2 16
2 19
2 25
2 33
2 68
2 76
2 189
2 193
2 234
2 259
3 9
3 13
3 32
3 39
3 54
3 58
3 106
3 121
3 212
3 234
4 9
4 16
4 111
4 114
4 128
4 152
4 162
4 172
4 177
4 189
4 193
4 234
4 235
4 253
5 21
5 43
5 107
5 113
5 131
5 206
5 262
5 293
5 297
6 17
6 26
6 71
6 88
6 104
6 136
6 142
6 174
6 186
6 252
6 268
7 66
7 83
7 90
7 110
7 194
8 25
8 200
8 265
8 273
9 58
9 89
9 111
9 132
9 234
10 18
10 24
10 41
10 62
10 83
10 85
10 101
10 115
10 121
10 174
10 199
10 205
10 207
10 223
10 245
10 250
10 270
10 284
11 19
11 46
11 49
11 81
11 88
11 164
11 218
11 240
12 14
12 29
12 41
12 102
12 123
12 141
12 169
12 201
12 274
13 23
13 32
13 44
13 53
13 54
13 72
13 106
13 121
13 165
13 209
13 212
13 245
13 250
14 17
14 28
14 47
14 84
14 102
14 113
14 119
14 131
14 147
14 181
14 277
14 285
15 206
15 207
16 115
16 152
16 168
16 197
16 211
16 253
17 26
17 62
17 76
17 104
17 116
17 134
17 136
17 147
17 149
17 168
17 184
17 278
17 290
18 24
18 33
18 39
18 57
18 72
18 90
18 186
18 210
18 245
18 273
19 25
19 33
19 35
19 39
19 81
19 91
19 113
19 116
19 117
19 118
19 121
19 145
19 184
19 210
19 236
19 246
19 261
19 265
19 275
20 184
20 217
20 250
20 251
20 267
20 290
21 101
21 107
21 114
21 128
21 131
21 141
21 148
21 172
21 207
21 213
21 225
21 229
22 33
22 102
22 232
22 234
23 32
23 126
23 129
23 177
23 185
23 227
23 248
23 290
24 42
24 53
24 69
24 72
24 105
24 120
24 127
24 219
24 252
24 264
25 33
25 107
25 116
25 182
25 186
25 213
25 219
25 270
25 280
25 290
26 39
26 78
26 116
26 163
26 181
26 188
26 218
26 237
26 256
26 267
26 290
27 39
27 82
27 106
27 152
27 245
27 265
27 273
28 75
28 87
28 102
28 155
28 239
28 249
28 263
28 279
28 293
29 51
29 64
29 80
29 100
29 123
29 183
29 294
29 299
29 300
30 68
30 84
30 124
30 261
31 67
31 81
31 93
31 104
31 117
31 132
31 133
31 245
31 254
31 289
32 53
32 69
32 70
32 112
32 129
32 141
32 185
32 253
32 262
32 267
33 41
33 88
33 95
33 100
33 182
33 232
34 54
34 57
34 82
34 85
34 97
34 106
34 119
34 154
34 160
34 226
34 258
34 294
35 81
35 104
35 114
35 121
35 174
35 196
35 247
35 248
35 250
35 263
35 296
36 52
36 74
36 96
36 170
36 255
36 287
37 59
37 60
37 86
37 100
37 125
37 149
37 165
37 210
37 212
37 245
37 246
37 253
37 259
38 92
38 129
38 138
39 72
39 81
39 106
39 121
39 134
39 143
39 155
39 184
39 218
39 224
39 257
39 267
39 290
40 83
40 94
40 110
40 133
40 140
40 247
40 254
40 266
40 298
41 53
41 63
41 66
41 67
41 73
41 85
41 88
41 145
41 198
41 201
41 202
41 231
42 46
42 54
42 63
42 76
42 94
42 95
42 127
42 159
42 210
42 259
42 286
43 63
43 80
43 242
43 243
43 249
44 70
44 82
44 106
44 116
44 246
44 268
44 271
44 292
44 300
45 74
45 126
45 128
45 137
45 183
45 188
45 190
45 239
45 263
45 269
46 218
46 286
47 49
47 55
47 72
47 75
47 87
47 97
47 118
47 131
47 136
47 138
47 146
47 158
47 184
47 241
48 99
48 102
48 105
48 120
48 131
48 134
49 66
49 89
49 97
49 128
49 133
49 136
49 145
49 176
49 180
49 187
49 231
49 265
50 82
50 90
50 106
50 209
51 66
51 71
51 80
51 87
51 117
51 180
51 196
51 230
51 286
52 63
52 66
52 85
52 104
52 127
52 199
52 241
52 260
52 281
52 285
53 58
53 67
53 70
53 112
53 132
54 56
54 59
54 78
54 106
54 124
54 143
54 151
54 159
54 160
54 165
54 179
54 182
54 199
54 250
54 284
55 136
55 158
55 181
55 209
55 229
56 104
56 124
56 159
56 160
56 278
56 294
57 66
57 85
57 90
57 96
57 97
57 151
57 160
57 172
57 203
57 213
57 243
57 257
57 282
58 84
58 89
58 119
58 132
58 160
58 239
59 75
59 90
59 95
59 100
59 125
59 130
59 131
59 143
59 146
59 284
60 125
60 225
60 232
61 85
61 122
61 133
61 149
61 195
61 208
61 284
62 69
62 83
62 126
62 129
62 243
63 85
63 156
63 157
63 159
63 177
63 178
64 162
64 183
64 258
64 279
65 66
65 104
65 109
65 164
65 220
65 223
65 281
66 80
66 90
66 101
66 117
66 128
66 133
66 145
66 194
66 199
66 223
66 265
67 93
67 117
67 121
67 127
67 132
67 227
67 253
67 275
67 289
68 95
68 156
68 204
68 228
68 232
69 112
69 141
69 224
69 245
69 264
70 141
70 158
70 243
71 76
71 88
71 97
71 116
71 118
71 142
71 189
72 97
72 122
72 143
72 191
72 224
72 262
72 264
73 87
73 266
73 295
74 96
74 124
74 146
74 151
74 170
74 176
74 232
74 239
74 283
75 105
75 133
75 146
75 188
75 239
76 147
76 165
76 191
76 193
76 233
76 259
76 264
76 279
77 142
77 227
77 272
77 283
78 118
78 135
78 150
78 179
78 190
78 267
78 296
79 147
79 184
79 192
79 226
80 87
80 90
80 101
80 118
80 148
80 180
80 250
81 89
81 275
82 106
82 115
82 132
82 193
82 204
82 210
82 231
82 255
83 101
83 110
83 117
83 240
83 241
84 114
84 124
84 153
84 160
84 299
85 90
85 172
85 203
85 211
85 227
85 270
86 151
86 169
86 210
87 118
87 176
87 211
87 293
88 97
88 133
88 195
88 277
88 278
89 108
89 183
89 187
89 275
90 96
90 135
90 149
90 244
91 115
91 132
91 144
91 201
91 224
91 236
91 248
91 281
91 293
92 93
92 187
92 268
92 290
93 187
93 245
93 298
94 127
94 162
95 100
96 145
96 168
96 282
96 291
97 103
97 131
97 138
97 257
97 258
97 262
97 287
98 111
98 181
98 188
98 252
99 169
99 272
100 102
100 114
100 127
100 146
100 199
100 214
100 234
100 256
100 273
100 287
100 294
100 300
101 128
101 138
101 202
101 216
101 220
101 224
101 246
102 181
102 206
102 234
102 252
103 131
103 241
104 167
104 281
105 120
105 134
105 146
105 200
105 205
105 252
105 290
106 121
106 134
106 143
106 152
106 156
106 194
106 245
106 284
107 163
107 218
107 287
107 297
108 215
110 133
110 185
110 188
110 228
110 252
110 285
111 138
111 148
111 285
112 116
112 124
112 142
112 144
112 150
112 178
112 285
112 294
112 296
113 117
113 119
113 147
113 183
113 206
113 210
114 128
114 162
114 234
114 242
114 263
114 297
115 132
115 140
115 143
115 155
115 181
115 188
115 210
115 211
115 223
115 250
115 261
116 119
116 121
116 142
116 144
116 166
116 190
116 239
116 241
116 300
117 122
117 180
117 194
117 240
117 261
117 284
118 122
118 131
118 237
118 246
118 264
118 296
119 125
119 160
119 161
119 174
119 210
119 222
120 153
120 156
120 193
120 251
120 270
120 298
121 125
121 146
121 153
121 155
121 205
121 236
121 265
121 275
122 191
122 237
122 267
122 284
123 213
123 223
123 245
123 270
124 170
124 176
124 178
124 193
124 233
125 174
125 205
125 222
126 185
126 255
126 292
126 298
127 159
127 199
127 219
127 225
127 244
127 259
128 131
128 137
128 187
128 213
128 220
128 223
128 252
128 269
128 278
129 161
129 185
129 243
129 257
129 264
130 131
131 148
131 151
131 199
131 227
131 241
131 243
131 275
131 277
131 284
132 184
132 223
132 227
133 145
133 149
133 150
133 181
133 182
133 188
133 195
133 244
133 247
133 265
134 168
134 196
134 231
134 248
134 249
134 278
135 182
135 195
135 216
135 244
135 249
136 193
137 141
137 200
137 201
137 202
137 220
138 140
138 158
138 186
138 224
138 282
138 288
139 292
140 141
140 144
140 210
140 220
140 254
141 169
141 176
141 291
142 190
142 198
142 227
142 241
142 264
143 150
143 156
143 191
143 250
143 293
144 178
144 201
144 220
144 223
144 239
145 168
145 213
145 246
145 254
146 165
146 170
146 173
146 205
146 299
147 210
147 212
147 274
147 287
148 187
148 250
148 285
149 159
149 165
149 171
149 227
149 244
149 290
150 182
150 201
150 267
150 296
151 159
151 160
151 164
151 170
151 177
151 183
151 188
151 204
151 222
151 231
151 239
151 243
151 283
152 154
152 155
152 168
152 186
152 193
152 234
152 238
152 247
152 256
153 173
153 207
153 283
153 299
154 160
154 272
154 296
155 168
155 204
155 223
155 270
156 159
156 193
156 196
156 230
156 242
156 249
156 259
156 268
156 283
156 292
156 298
157 260
157 280
158 210
158 224
158 225
158 270
159 178
159 200
159 204
159 212
159 213
159 219
159 242
159 245
159 250
159 252
159 253
159 269
159 274
159 283
159 290
159 298
160 165
160 210
160 228
160 235
160 239
160 243
160 269
160 279
160 283
160 294
161 170
161 184
161 245
161 253
162 175
162 234
162 279
163 256
164 219
164 239
165 179
165 182
165 203
165 204
165 233
165 276
166 175
166 194
166 205
167 199
167 208
167 219
167 220
167 241
167 243
167 252
167 265
167 277
167 281
167 291
168 180
168 186
168 189
168 223
168 278
170 173
170 177
170 201
170 204
170 205
170 222
170 253
170 283
171 226
171 253
171 255
171 264
172 174
172 189
172 213
172 229
172 255
173 176
173 207
173 231
173 271
173 291
173 293
174 196
174 205
174 213
174 252
174 270
174 277
174 296
175 183
175 203
175 205
175 207
176 239
176 266
176 293
177 178
177 204
177 227
177 252
177 253
177 262
177 269
177 283
178 184
178 194
178 277
178 294
179 190
180 187
180 229
180 286
181 188
181 192
181 252
182 190
182 195
182 210
182 251
182 266
182 270
182 280
183 188
183 203
183 216
184 192
184 200
184 250
184 277
184 290
185 196
185 267
185 285
186 224
186 227
187 223
187 265
187 279
187 281
188 192
188 257
189 278
190 198
190 209
190 210
190 221
190 264
190 266
191 218
191 256
192 213
192 257
192 270
192 281
193 215
193 231
193 255
193 259
194 199
195 251
196 212
196 230
196 231
196 271
196 272
197 253
198 227
199 220
199 242
199 252
199 273
199 284
199 294
200 277
200 290
201 204
201 218
201 223
201 233
201 244
201 256
201 265
201 270
201 282
201 293
201 299
202 207
202 216
202 220
202 231
202 242
203 204
203 205
203 233
204 225
204 229
204 251
204 252
204 267
204 270
205 206
205 207
206 207
206 208
206 210
206 230
206 252
206 272
207 225
207 283
208 210
208 219
208 241
208 242
208 281
209 233
209 250
209 291
210 211
210 212
210 224
210 229
210 246
210 248
210 268
210 272
210 292
211 268
211 270
211 293
212 224
212 252
212 253
213 217
213 219
213 225
213 246
213 252
213 270
214 256
214 299
215 247
215 258
216 224
216 279
217 243
217 270
218 226
218 233
218 242
218 256
218 270
218 293
218 297
219 240
219 245
219 248
219 259
220 223
220 242
221 289
223 266
223 278
223 282
224 243
224 248
224 255
224 294
225 244
225 270
226 238
226 246
226 256
226 286
227 253
227 267
227 270
228 241
228 252
228 258
228 300
229 246
229 268
229 270
229 282
230 272
231 255
231 269
231 293
232 240
233 242
233 279
234 242
234 269
234 279
234 294
234 300
235 236
235 269
236 248
237 251
237 267
238 256
239 269
239 279
239 294
240 250
240 280
240 290
241 252
241 275
242 249
242 268
242 293
242 297
243 255
243 291
244 265
245 253
246 251
246 268
246 271
246 292
247 298
248 281
248 288
248 294
249 263
249 278
249 295
249 297
250 270
250 280
250 290
250 296
251 267
251 270
252 269
252 277
252 283
252 300
253 255
253 262
253 264
254 292
256 286
257 287
258 294
258 300
260 285
260 298
261 279
265 270
265 273
266 298
268 277
269 300
271 291
271 300
272 283
274 290
274 292
279 294
280 290
281 288
281 291
281 293
282 299
287 294
288 294
292 298
293 297
*Classes
1
1
1
1
1
1
1
1
1
1
1
1
1
1
1
1
1
1
1
1
1
1
1
1
1
1
1
1
1
1
1
1
1
1
1
1
1
1
1
1
1
1
1
1
1
1
1
1
1
1
1
1
1
1
1
1
1
1
1
1
1
1
1
1
1
1
1
1
1
1
1
1
1
1
1
1
1
1
1
1
1
1
1
1
1
1
1
1
1
1
1
1
1
1
1
1
1
1
1
1
1
1
1
1
1
1
1
1
1
1
1
1
1
1
1
1
1
1
1
1
1
1
1
1
1
1
1
1
1
1
1
1
1
1
1
1
1
1
1
1
1
1
1
1
1
1
1
1
1
1
2
2
2
2
2
2
2
2
2
2
2
2
2
2
2
2
2
2
2
2
2
2
2
2
2
2
2
2
2
2
2
2
2
2
2
2
2
2
2
2
2
2
2
2
2
2
2
2
2
2
2
2
2
2
2
2
2
2
2
2
2
2
2
2
2
2
2
2
2
2
2
2
2
2
2
2
2
2
2
2
2
2
2
2
2
2
2
2
2
2
2
2
2
2
2
2
2
2
2
2
2
2
2
2
2
2
2
2
2
2
2
2
2
2
2
2
2
2
2
2
2
2
2
2
2
2
2
2
2
2
2
2
2
2
2
2
2
2
2
2
2
2
2
2
2
2
2
2
2
2
