*Vertices 300
*Edges
1 75
1 82
1 104
1 280
1 294
2 48
2 75
2 101
2 108
2 118
2 149
2 162
2 187
2 236
2 295
3 8
3 34
3 37
3 38
3 106
3 134
3 183
3 256
4 85
4 88
4 89
4 91
4 117
4 174
4 179
4 229
4 276
4 280
4 289
4 297
5 22
5 35
5 41
5 73
5 81
5 125
5 127
5 129
5 136
5 203
5 205
5 221
5 228
5 229
6 16
6 22
6 98
6 100
6 102
6 105
6 132
6 136
6 159
6 160
6 187
6 283
6 285
7 17
7 63
7 118
8 14
8 94
8 112
8 140
8 145
8 183
8 208
8 278
9 41
9 49
9 57
9 68
9 83
9 167
9 203
9 227
10 82
10 91
10 104
10 130
10 149
10 162
10 179
10 233
10 235
10 245
10 296
11 16
11 20
11 47
11 70
11 75
11 94
11 114
11 173
11 177
11 227
11 232
12 124
12 167
12 220
13 82
13 95
13 150
13 183
13 196
13 206
13 209
13 210
13 226
13 254
14 56
14 73
14 94
14 116
14 138
14 160
14 182
14 205
14 240
14 258
14 272
14 281
14 286
15 22
15 31
15 33
15 62
15 73
15 85
15 88
15 90
15 93
15 102
15 108
15 117
15 125
15 126
15 127
15 131
15 153
15 203
15 209
15 220
15 236
15 252
15 290
15 298
16 17
16 47
16 51
16 58
16 60
16 71
16 141
16 152
16 159
16 208
16 213
16 240
16 241
16 257
17 47
17 58
17 60
17 63
17 71
17 115
17 167
17 169
17 202
17 210
17 227
17 234
17 251
18 47
18 54
18 64
18 97
18 173
18 181
18 198
18 218
18 296
19 30
19 51
19 58
19 80
19 86
19 121
19 130
19 148
19 187
19 188
19 231
20 22
20 70
20 244
20 279
21 39
21 56
21 62
21 82
21 174
21 196
21 201
21 292
22 56
22 65
22 74
22 86
22 98
22 102
22 105
22 133
22 136
22 143
22 203
22 244
22 291
23 25
23 36
23 42
23 47
23 53
23 78
23 106
23 146
23 155
23 163
23 173
23 259
24 47
24 162
24 178
24 200
24 201
24 209
24 212
24 220
24 232
24 246
24 255
24 259
24 278
25 174
25 218
25 246
25 247
25 258
25 259
25 297
26 53
26 107
26 111
26 149
26 160
26 167
26 196
26 237
26 285
26 291
27 91
27 92
27 148
27 217
27 219
27 256
27 292
28 39
28 115
28 171
28 207
28 263
28 274
29 112
29 158
29 165
29 186
29 188
29 236
30 78
30 80
30 83
30 128
30 138
30 187
30 250
31 33
31 62
31 98
31 129
31 138
31 163
31 201
31 290
32 165
32 183
32 206
32 216
32 236
32 247
32 282
32 286
33 52
33 58
33 62
33 79
33 99
33 153
33 199
34 77
34 134
34 179
34 195
35 49
35 95
35 96
35 101
35 127
35 165
35 200
35 290
36 78
36 187
36 259
37 118
37 134
37 199
37 216
37 262
37 285
38 47
38 106
38 112
39 54
39 56
39 64
39 67
39 97
39 104
39 143
39 144
39 261
39 263
39 293
40 88
40 120
40 125
40 165
40 166
40 172
40 174
40 193
40 276
40 280
40 298
41 43
41 49
41 61
41 110
41 127
41 254
42 66
42 84
42 103
42 136
42 137
42 211
42 212
42 238
42 258
42 259
42 284
43 88
43 133
43 168
43 193
43 201
43 258
43 263
43 291
43 293
43 298
44 59
44 91
44 146
44 153
44 162
44 288
44 298
45 99
45 115
45 123
45 162
45 168
45 208
45 255
45 257
45 288
46 108
46 111
46 113
46 196
46 269
47 54
47 60
47 71
47 78
47 155
47 184
47 192
47 201
47 208
47 213
47 272
47 293
47 297
48 60
48 108
48 182
48 213
48 274
49 68
49 77
49 81
49 102
49 110
49 145
49 187
49 287
50 96
50 257
51 121
51 127
51 141
51 159
51 249
51 273
51 294
52 62
52 99
52 183
52 201
52 211
52 256
52 259
53 72
53 95
53 106
53 115
53 123
53 160
53 201
54 64
54 76
54 97
54 135
54 184
54 208
54 289
55 92
55 119
55 293
55 298
56 62
56 64
56 75
56 82
56 108
56 111
56 133
56 151
56 160
56 166
56 173
56 193
56 198
56 225
56 235
56 254
56 258
56 287
56 300
57 89
57 94
57 109
57 138
57 140
57 145
57 151
57 158
57 188
57 203
57 250
57 268
58 80
58 105
58 141
58 201
58 205
58 227
58 234
58 236
58 262
59 168
59 202
59 218
59 288
60 63
60 66
60 71
60 108
60 161
60 169
60 179
60 182
60 183
60 201
60 263
60 299
61 145
61 158
61 188
61 254
61 272
61 299
62 64
62 77
62 82
62 87
62 93
62 102
62 108
62 127
62 138
62 156
62 171
62 196
62 203
62 221
62 227
62 252
63 82
63 88
63 95
63 115
63 167
63 221
63 251
63 257
63 258
63 293
63 300
64 73
64 113
64 116
64 132
64 142
64 181
64 183
64 212
64 244
64 270
65 74
65 90
65 99
65 142
65 147
65 214
65 220
65 244
66 71
66 111
66 117
66 137
66 190
66 240
66 258
67 89
67 104
67 222
67 261
67 277
68 99
68 123
68 192
68 292
69 72
69 124
69 161
69 186
69 198
69 218
69 263
69 266
69 273
70 275
70 278
71 123
71 288
72 90
72 102
72 124
72 156
72 199
72 268
73 81
73 90
73 105
73 127
73 132
73 139
73 141
73 149
73 152
73 192
73 213
73 223
73 258
73 265
73 278
74 117
74 135
74 142
74 171
74 221
75 82
75 94
75 108
75 109
75 122
75 154
75 225
75 299
76 97
76 107
76 116
76 128
76 150
76 161
76 172
76 173
76 192
76 214
76 245
76 265
77 108
77 128
77 134
77 136
77 145
77 147
77 161
77 171
77 174
77 215
77 221
77 238
78 83
78 146
78 208
78 259
78 272
79 99
79 125
79 212
79 270
80 86
80 130
80 136
81 86
81 102
81 127
81 145
81 168
81 177
81 287
81 290
81 298
81 299
82 90
82 104
82 122
82 130
82 135
82 149
82 200
82 226
82 251
82 257
82 280
83 128
83 169
83 226
83 227
84 173
84 187
84 195
84 206
84 250
84 284
84 296
85 126
85 163
85 177
85 209
85 259
85 276
86 121
86 136
86 148
86 196
86 238
86 299
87 181
87 223
87 241
87 295
88 94
88 126
88 133
88 174
88 260
88 267
89 91
89 104
89 140
89 271
89 287
90 102
90 125
90 132
90 135
90 152
91 92
91 100
91 104
91 105
91 143
91 144
91 149
91 153
91 162
92 217
92 219
92 243
92 295
93 128
93 199
93 210
94 109
94 126
94 140
94 145
94 146
94 154
94 177
94 178
94 199
94 208
95 101
95 105
95 106
95 115
95 127
95 165
95 201
95 236
95 254
95 293
96 118
96 127
96 273
96 275
97 135
97 161
97 184
97 192
97 193
97 265
97 277
98 132
98 139
98 148
98 159
98 187
98 201
98 223
99 123
99 125
99 153
100 105
100 112
100 164
100 203
101 128
101 192
101 221
101 287
102 104
102 125
102 126
102 131
102 143
102 216
102 220
102 229
102 249
102 252
102 291
103 104
103 133
103 165
103 173
103 191
103 238
103 255
103 258
104 133
104 143
104 144
104 153
104 162
104 193
104 263
104 294
105 118
105 149
105 201
105 203
105 222
105 236
105 238
105 259
105 277
105 293
105 294
106 112
106 115
106 142
106 160
107 116
107 142
107 150
107 189
107 198
107 214
107 226
107 239
107 265
108 111
108 154
108 162
108 187
108 203
108 228
108 251
108 274
109 112
109 140
109 145
109 172
109 238
109 265
110 130
110 163
110 182
110 187
110 197
110 272
110 281
111 172
111 198
111 225
111 258
112 163
112 165
112 172
112 188
112 203
112 213
112 236
112 250
112 296
113 135
113 142
113 240
113 243
113 257
113 272
113 295
114 224
114 227
114 233
115 171
115 201
115 240
115 288
116 142
116 192
116 198
116 239
116 260
116 266
116 273
117 140
117 142
117 153
117 181
117 190
117 289
118 134
118 236
118 241
118 247
118 285
118 295
119 152
119 176
119 281
120 170
120 213
121 130
121 188
121 268
123 156
123 160
123 162
123 168
123 215
123 244
123 288
123 292
124 224
124 249
124 252
124 273
125 126
125 129
125 138
125 175
125 280
125 298
126 127
126 146
126 236
126 298
127 129
127 141
127 174
127 192
127 213
127 217
127 220
127 290
128 147
128 192
128 221
128 287
128 288
129 138
129 199
129 221
129 294
130 139
130 187
130 195
130 197
130 231
130 259
130 272
130 281
130 299
131 134
131 175
131 180
131 280
132 137
132 139
132 142
132 149
132 223
132 244
132 248
132 297
132 299
133 136
133 173
133 193
133 201
133 244
133 254
133 259
133 293
133 294
134 136
134 174
134 175
134 234
134 256
134 285
135 161
136 208
136 289
137 139
137 173
137 195
137 203
137 212
137 222
137 250
137 254
137 258
137 264
138 161
138 228
138 250
138 264
138 272
138 290
139 163
139 166
139 187
139 215
139 247
139 259
139 276
139 279
139 293
139 299
140 142
140 147
140 186
140 194
140 195
140 221
140 278
140 287
141 179
141 299
142 153
142 160
142 171
142 178
142 181
142 276
142 291
143 146
143 184
143 239
143 252
145 147
145 205
145 216
145 227
145 238
146 208
146 210
146 239
146 240
146 263
146 284
146 298
147 182
147 192
147 220
147 221
147 287
148 168
148 184
148 273
149 240
149 245
149 278
149 296
150 168
150 173
150 203
150 210
150 220
150 236
150 246
150 248
150 259
150 262
151 156
151 160
151 197
151 222
151 268
151 275
152 176
152 197
152 281
153 157
153 184
153 209
153 256
154 168
154 212
154 236
154 287
155 165
155 173
155 228
155 279
156 194
156 244
156 261
156 268
157 247
157 256
157 259
158 188
158 246
158 269
159 220
159 236
159 242
159 249
159 256
159 278
160 187
160 240
160 275
160 285
160 291
160 298
161 164
161 183
161 191
161 198
161 215
161 228
161 263
161 277
161 282
162 223
162 248
162 255
162 259
162 297
163 200
163 211
163 223
163 246
163 259
163 280
163 299
164 167
164 191
164 220
164 237
164 270
164 291
165 166
165 193
165 200
165 279
165 280
165 293
166 167
166 175
166 187
166 193
166 196
166 211
166 217
166 223
166 234
166 276
166 279
166 287
167 182
167 237
167 258
167 276
167 291
167 293
168 186
168 236
168 247
168 283
168 288
168 298
169 172
169 227
169 232
169 241
169 273
169 278
169 295
170 190
170 230
170 241
171 175
171 276
171 283
172 188
172 203
172 225
172 260
172 265
172 273
172 282
173 185
173 195
173 212
173 258
173 274
173 296
174 187
174 217
174 237
174 258
174 260
174 273
174 276
174 292
175 193
175 236
175 283
175 287
176 189
176 193
176 274
177 178
177 212
178 181
178 209
178 212
178 254
178 270
179 297
179 299
180 240
180 262
180 285
181 198
181 274
181 295
182 189
182 197
182 212
182 221
182 272
182 276
182 287
183 191
183 206
183 210
183 284
184 188
184 214
184 256
184 267
185 258
186 194
186 226
186 228
186 236
186 246
186 247
186 259
186 283
186 300
187 272
187 287
187 292
187 297
188 225
188 246
188 265
188 266
188 282
189 193
189 214
189 287
190 230
191 255
193 277
193 300
194 195
194 261
195 197
196 223
196 226
196 248
196 252
196 269
196 282
197 222
197 243
197 249
197 281
198 214
200 207
200 278
200 280
201 223
201 236
201 259
201 263
201 273
201 293
203 225
203 248
203 254
203 265
203 273
203 293
204 282
204 300
205 212
205 227
205 262
206 238
206 284
207 280
208 225
208 241
208 243
208 257
208 289
209 223
209 254
209 286
210 226
210 234
210 254
210 262
210 287
211 259
212 252
212 267
212 270
212 287
213 237
213 240
213 291
214 266
214 267
215 276
217 219
217 229
217 260
217 263
217 276
218 246
218 272
218 297
219 236
219 247
219 259
220 278
221 268
221 282
221 300
222 238
222 249
222 252
222 271
222 277
223 247
223 259
223 286
223 296
225 257
225 289
226 228
226 239
226 252
227 252
228 268
228 279
229 269
229 280
230 241
232 246
232 263
232 278
233 235
233 243
233 247
233 260
234 243
234 257
234 287
235 254
235 271
236 247
236 256
236 260
236 273
236 277
236 283
236 288
236 294
236 300
237 245
237 258
237 291
237 298
238 252
238 267
240 245
240 272
240 284
240 285
240 296
241 265
241 295
242 249
242 283
243 247
243 257
243 295
244 292
245 291
245 296
246 259
247 259
247 283
248 250
248 252
248 259
248 272
248 297
249 252
249 266
249 273
249 283
250 252
250 264
250 296
251 254
252 267
252 273
252 282
252 297
254 279
254 293
256 260
257 280
257 289
257 295
259 273
259 292
260 266
260 273
263 291
266 273
266 279
268 300
270 287
271 277
272 284
272 285
272 292
272 297
273 282
273 294
274 280
274 295
274 296
275 281
279 293
282 298
282 300
285 296
287 297
288 298
289 297
291 296
291 298
292 297
293 300
*Classes
1
1
1
1
1
1
1
1
1
1
1
1
1
1
1
1
1
1
1
1
1
1
1
1
1
1
1
1
1
1
1
1
1
1
1
1
1
1
1
1
1
1
1
1
1
1
1
1
1
1
1
1
1
1
1
1
1
1
1
1
1
1
1
1
1
1
1
1
1
1
1
1
1
1
1
1
1
1
1
1
1
1
1
1
1
1
1
1
1
1
1
1
1
1
1
1
1
1
1
1
1
1
1
1
1
1
1
1
1
1
1
1
1
1
1
1
1
1
1
1
1
1
1
1
1
1
1
1
1
1
1
1
1
1
1
1
1
1
1
1
1
1
1
1
1
1
1
1
1
1
2
2
2
2
2
2
2
2
2
2
2
2
2
2
2
2
2
2
2
2
2
2
2
2
2
2
2
2
2
2
2
2
2
2
2
2
2
2
2
2
2
2
2
2
2
2
2
2
2
2
2
2
2
2
2
2
2
2
2
2
2
2
2
2
2
2
2
2
2
2
2
2
2
2
2
2
2
2
2
2
2
2
2
2
2
2
2
2
2
2
2
2
2
2
2
2
2
2
2
2
2
2
2
2
2
2
2
2
2
2
2
2
2
2
2
2
2
2
2
2
2
2
2
2
2
2
2
2
2
2
2
2
2
2
2
2
2
2
2
2
2
2
2
2
2
2
2
2
2
2
