*Vertices 300
*Edges
1 2
1 62
1 81
1 148
1 168
1 202
1 235
1 287
2 13
2 33
2 139
2 219
2 229
2 270
3 97
3 272
4 16
4 20
4 49
4 56
4 120
4 125
4 168
4 201
4 256
4 282
4 288
4 297
5 119
5 259
5 292
6 177
6 191
6 228
6 286
7 91
7 120
7 269
7 276
8 203
8 296
9 23
9 49
9 71
9 130
9 164
9 222
9 261
9 287
10 25
10 34
10 46
10 55
10 119
10 142
10 147
10 206
10 220
10 221
11 18
11 165
11 173
11 207
11 222
11 282
11 294
12 188
12 219
12 245
12 273
13 36
13 131
13 165
13 182
13 235
13 282
14 20
14 22
14 37
14 49
14 55
14 63
14 74
14 76
14 129
14 178
14 226
14 289
15 27
15 124
15 281
15 291
16 35
16 49
16 83
16 121
16 127
16 133
16 182
16 207
16 257
17 48
17 109
17 116
17 178
17 197
17 212
17 246
18 23
18 88
18 89
18 147
18 157
18 196
18 198
18 264
19 50
19 70
19 77
19 170
19 203
20 49
20 164
20 241
21 99
21 180
21 195
21 225
22 74
22 137
22 192
22 226
22 233
22 273
23 26
23 44
23 71
23 88
23 96
23 121
23 133
23 147
24 49
24 71
24 91
24 148
24 156
24 197
24 240
25 34
25 83
25 102
25 117
25 119
25 190
25 263
26 29
26 67
26 113
26 116
26 121
26 214
26 260
26 266
27 152
27 185
27 257
27 288
28 42
28 56
28 119
28 120
28 132
28 161
28 216
28 223
28 235
29 35
29 42
29 57
29 71
29 82
29 83
29 86
29 113
29 132
29 143
29 146
29 199
30 64
30 67
30 100
30 153
30 166
30 239
31 124
31 129
31 132
32 87
32 121
32 123
32 155
32 174
32 207
32 254
33 66
33 109
33 163
33 188
33 276
33 290
34 169
34 253
35 37
35 55
35 67
35 83
35 113
35 121
35 140
35 183
35 192
35 213
35 215
35 221
35 234
35 242
35 250
36 49
36 120
36 157
36 174
36 269
36 272
37 44
37 55
37 139
37 164
37 176
37 192
37 199
37 221
37 265
38 245
39 52
39 111
39 120
39 130
39 136
39 198
39 263
40 62
40 80
40 99
40 112
40 134
40 136
40 179
40 200
41 115
41 160
41 183
41 227
42 75
42 82
42 86
42 119
42 129
42 175
42 200
42 205
42 216
42 253
43 51
43 100
43 212
43 256
44 55
44 81
44 107
44 121
44 135
44 149
44 192
44 217
44 221
44 252
44 280
44 288
45 114
45 130
45 185
45 233
46 103
46 106
46 147
46 173
46 177
46 199
46 255
46 273
46 295
47 77
47 107
47 114
47 147
47 219
47 235
47 243
47 261
47 293
48 118
48 251
49 70
49 71
49 97
49 120
49 140
49 146
50 182
50 193
50 195
50 255
51 91
51 128
51 141
51 148
51 206
51 247
51 297
52 91
52 136
52 148
52 235
53 75
54 205
54 211
54 283
54 286
54 299
55 122
55 140
55 149
55 205
55 260
56 72
56 91
56 110
56 125
56 148
57 66
57 109
57 116
57 243
57 248
58 74
58 81
58 92
58 107
58 139
58 174
58 205
58 215
58 237
59 129
59 215
59 249
59 258
60 61
60 81
60 170
60 200
60 272
61 257
61 280
61 289
62 66
62 80
62 107
62 114
62 231
62 250
62 251
62 265
62 293
63 134
63 157
64 94
64 153
64 191
64 231
64 280
65 126
65 179
65 255
65 291
66 90
66 109
66 115
66 137
66 151
66 256
66 299
67 76
67 104
67 121
67 202
67 228
67 287
68 108
68 198
68 233
69 84
69 224
69 229
69 230
69 254
69 256
69 283
69 298
70 77
70 120
70 199
70 214
71 97
71 146
71 212
71 294
72 110
73 78
73 81
73 96
73 108
73 110
73 135
73 136
73 137
73 149
73 215
73 218
73 219
73 222
73 238
73 284
74 85
74 92
74 134
74 225
75 129
75 134
75 202
75 247
75 260
75 266
76 129
76 267
76 277
77 91
77 114
77 120
77 147
77 186
77 232
77 261
77 297
78 94
78 108
78 110
78 143
78 159
79 89
79 131
79 178
79 191
79 256
80 114
80 179
80 193
80 196
80 225
80 260
80 268
81 96
81 100
81 107
81 115
81 132
81 134
81 149
81 176
81 250
81 275
82 137
82 184
82 188
82 193
82 201
82 205
82 211
83 102
83 121
83 133
83 140
83 143
83 199
83 256
83 261
83 279
84 145
84 165
84 176
84 286
85 127
85 153
85 161
85 171
85 176
85 181
85 271
85 296
86 131
86 245
86 268
87 189
88 92
88 112
88 153
88 164
88 231
88 232
88 286
88 291
89 93
89 115
89 130
89 131
89 147
89 167
89 247
89 280
89 285
89 294
89 297
90 212
91 120
91 135
91 148
91 175
91 193
91 251
92 134
92 195
92 204
92 225
92 232
93 153
93 171
93 202
93 254
93 291
93 295
94 143
94 153
94 167
94 178
95 184
95 258
95 274
96 113
96 121
97 146
97 178
97 202
97 236
97 247
97 257
98 112
98 232
98 254
99 228
99 263
99 281
99 290
100 118
100 123
100 150
100 212
100 224
100 248
101 111
101 141
101 148
101 262
101 266
102 117
102 141
102 160
102 168
102 190
102 263
102 274
102 295
103 135
103 147
103 182
103 196
103 223
103 260
104 141
104 151
104 271
104 291
105 155
106 138
106 199
106 289
107 114
107 251
107 285
107 287
107 293
108 180
108 236
108 280
109 115
109 116
109 163
109 272
110 144
110 210
110 224
111 122
111 148
111 154
111 254
111 281
112 148
112 205
112 233
112 269
113 132
113 194
113 195
113 214
114 136
114 156
114 159
114 230
115 134
115 212
115 233
116 121
116 142
116 148
116 197
116 260
117 203
117 211
117 234
117 275
117 284
118 141
118 206
118 209
118 264
119 120
119 181
119 265
120 130
121 123
121 133
121 140
121 159
121 191
121 221
121 224
121 230
121 238
121 250
121 288
121 293
122 135
122 148
122 262
123 140
123 144
123 150
123 183
123 196
123 239
123 293
124 132
125 188
125 285
125 292
125 294
126 170
126 185
126 291
127 133
127 135
127 142
127 171
127 206
127 214
127 219
128 251
128 279
129 164
129 184
129 215
129 244
129 247
130 214
130 223
130 279
130 293
132 235
132 250
132 286
133 135
133 270
134 136
134 145
134 253
134 264
135 148
135 149
135 222
135 230
135 262
135 274
136 202
136 235
136 241
136 297
137 218
138 275
138 281
139 225
139 271
139 274
140 145
140 192
141 148
141 180
141 192
141 242
141 271
142 210
143 178
144 162
145 200
145 203
145 247
145 248
145 294
146 177
146 294
147 205
147 221
147 285
147 295
148 165
148 168
148 220
148 236
148 249
148 262
149 253
149 275
150 172
150 207
150 267
151 190
151 216
151 217
151 267
152 165
152 213
152 228
152 256
152 257
152 290
153 163
153 215
153 231
153 276
154 176
154 254
154 275
154 294
155 163
155 239
155 254
155 263
155 290
156 197
156 204
156 253
156 300
157 171
157 172
157 226
157 236
157 264
157 274
158 167
158 248
159 200
159 253
159 260
160 186
160 278
161 166
161 256
161 267
162 172
162 184
162 200
162 210
162 213
162 226
162 286
163 195
163 196
163 206
163 215
163 231
164 195
164 238
164 255
165 188
165 191
165 203
165 213
165 224
165 249
165 298
166 203
166 242
166 266
166 296
167 185
168 193
168 254
168 263
168 292
169 205
169 252
170 172
170 188
170 253
172 207
172 226
172 236
172 237
172 274
173 235
173 245
173 280
174 243
175 200
175 216
175 229
175 249
176 228
176 233
177 195
177 231
178 186
178 261
178 273
179 219
179 279
182 226
182 233
182 243
183 216
183 220
183 234
183 256
183 286
184 191
184 231
184 265
184 286
184 289
186 235
186 257
188 200
188 203
188 213
188 222
188 240
188 246
188 269
188 294
188 296
189 268
190 216
190 299
191 208
191 213
191 216
191 225
191 239
191 241
191 273
191 285
191 286
192 193
192 218
192 250
193 218
193 225
193 240
193 292
194 239
194 272
195 196
195 206
195 231
195 265
195 296
196 281
197 269
197 271
198 219
198 292
199 219
199 284
200 240
200 244
200 249
200 260
200 272
200 299
201 270
201 280
201 292
202 235
203 249
203 278
203 296
204 225
205 229
205 234
205 240
205 252
205 274
206 296
207 237
208 256
208 273
209 241
209 285
211 227
211 267
211 268
212 247
212 276
213 219
213 293
213 300
214 231
214 235
214 241
214 289
215 276
216 286
219 223
219 228
219 229
219 242
219 263
219 276
219 279
219 284
220 223
221 299
222 240
222 282
222 297
223 282
223 283
224 230
224 237
224 249
224 272
225 273
226 233
227 275
228 276
228 290
229 254
229 274
230 269
230 289
231 238
231 265
232 247
233 271
233 286
234 250
235 257
235 282
235 289
236 257
236 268
236 277
236 287
237 239
237 241
237 254
237 261
237 272
237 279
237 285
239 242
239 272
239 285
239 290
240 249
240 252
240 269
240 293
240 299
241 254
241 256
241 261
241 263
241 285
241 300
242 261
242 279
243 259
243 293
244 261
245 252
246 251
246 279
246 281
247 276
247 294
248 250
249 269
250 285
252 274
253 275
254 263
254 291
254 294
255 273
255 277
256 257
256 288
257 268
258 297
260 283
260 298
261 273
261 285
262 274
262 288
263 276
263 283
264 297
265 267
266 284
267 268
268 287
270 280
273 277
278 281
281 291
282 297
285 286
292 294
293 300
*Classes
1
1
1
1
1
1
1
1
1
1
1
1
1
1
1
1
1
1
1
1
1
1
1
1
1
1
1
1
1
1
1
1
1
1
1
1
1
1
1
1
1
1
1
1
1
1
1
1
1
1
1
1
1
1
1
1
1
1
1
1
1
1
1
1
1
1
1
1
1
1
1
1
1
1
1
1
1
1
1
1
1
1
1
1
1
1
1
1
1
1
1
1
1
1
1
1
1
1
1
1
1
1
1
1
1
1
1
1
1
1
1
1
1
1
1
1
1
1
1
1
1
1
1
1
1
1
1
1
1
1
1
1
1
1
1
1
1
1
1
1
1
1
1
1
1
1
1
1
1
1
2
2
2
2
2
2
2
2
2
2
2
2
2
2
2
2
2
2
2
2
2
2
2
2
2
2
2
2
2
2
2
2
2
2
2
2
2
2
2
2
2
2
2
2
2
2
2
2
2
2
2
2
2
2
2
2
2
2
2
2
2
2
2
2
2
2
2
2
2
2
2
2
2
2
2
2
2
2
2
2
2
2
2
2
2
2
2
2
2
2
2
2
2
2
2
2
2
2
2
2
2
2
2
2
2
2
2
2
2
2
2
2
2
2
2
2
2
2
2
2
2
2
2
2
2
2
2
2
2
2
2
2
2
2
2
2
2
2
2
2
2
2
2
2
2
2
2
2
2
2
