*Vertices 300
*Edges
1 17
1 50
1 77
1 89
1 94
1 113
1 187
1 264
1 285
2 100
2 219
2 221
3 8
3 13
3 49
3 73
3 146
4 10
4 52
4 117
4 127
4 130
4 140
4 163
4 195
4 248
4 280
5 7
5 15
5 27
5 32
5 61
5 65
5 83
5 115
5 234
6 24
6 34
6 77
6 78
6 104
6 130
6 164
6 229
6 287
7 15
7 144
7 198
7 199
7 216
8 15
8 73
8 83
8 131
8 178
8 186
8 206
8 242
8 245
9 14
9 28
9 38
9 59
9 76
9 130
9 196
9 198
9 252
10 140
10 148
10 252
11 45
11 87
11 129
11 150
11 297
12 55
12 68
12 99
12 170
12 187
12 198
12 235
12 254
13 73
13 117
13 127
13 146
13 186
13 258
13 275
13 281
14 15
14 19
14 34
14 36
14 59
14 76
14 96
14 126
14 131
14 264
15 34
15 82
15 144
15 178
15 199
15 221
16 62
16 63
16 69
16 70
16 91
16 114
16 119
16 180
16 284
16 298
17 72
17 118
17 144
17 196
17 284
18 124
18 174
18 229
18 254
18 285
19 24
19 35
19 36
19 109
20 132
20 155
20 165
20 182
21 40
21 66
21 95
21 139
21 141
21 170
21 266
21 273
22 71
22 95
22 149
23 89
23 110
23 140
23 201
23 203
23 209
23 217
23 250
23 299
24 36
24 78
24 90
24 99
24 162
24 205
24 215
24 259
24 267
24 288
25 44
25 67
25 231
25 256
26 38
26 97
26 115
26 150
26 155
27 61
27 72
27 87
27 89
27 103
27 115
27 118
27 127
27 143
27 150
27 229
28 44
28 50
28 57
28 104
28 158
29 39
29 111
29 122
29 136
29 252
29 257
29 287
30 39
30 63
30 121
30 133
30 172
30 281
31 41
31 44
31 46
31 54
31 90
31 125
31 126
31 149
31 200
31 217
31 218
31 255
31 280
32 50
32 65
32 92
32 115
32 123
32 124
32 137
32 142
32 150
32 223
32 251
32 294
33 123
33 251
33 290
33 298
34 53
34 112
34 117
34 118
34 130
34 146
35 106
35 190
35 230
35 235
35 281
36 57
36 67
36 75
36 96
36 109
36 131
36 188
36 252
36 265
36 294
37 44
37 47
37 88
37 89
37 115
37 128
37 139
37 146
37 156
37 175
37 184
37 190
38 97
38 101
38 117
38 130
38 165
38 231
39 81
39 133
39 180
39 215
39 219
39 220
39 253
39 299
40 137
40 139
40 231
40 241
40 276
41 44
41 54
41 57
41 82
41 85
41 98
41 101
41 111
41 117
41 124
41 156
41 184
41 259
41 265
41 295
42 48
42 78
42 104
42 148
42 172
42 215
43 153
43 203
43 220
44 57
44 80
44 85
44 100
44 139
44 141
44 182
44 244
44 256
45 57
45 125
45 135
45 136
45 149
45 268
45 275
46 90
46 134
46 204
46 215
47 85
47 106
47 139
47 147
47 193
48 54
48 64
48 68
48 86
48 126
48 138
48 144
48 165
48 172
49 78
49 90
49 101
49 205
49 224
50 65
50 92
50 160
50 180
50 195
52 166
53 69
53 99
53 136
53 142
53 226
54 92
54 99
54 105
54 117
54 121
54 123
54 132
54 138
54 144
54 146
54 149
54 150
54 184
54 221
54 233
54 297
55 77
55 166
55 170
55 228
55 267
55 270
56 169
56 216
56 230
56 259
56 273
56 284
57 100
57 125
57 131
57 148
57 280
57 292
58 127
58 225
58 227
58 282
59 72
59 77
59 88
59 91
59 118
59 126
59 175
59 255
60 70
60 89
60 167
60 170
60 211
60 234
60 285
61 127
61 141
62 119
62 233
62 272
63 172
63 177
63 239
63 299
64 66
64 107
64 138
64 199
64 208
64 236
65 87
65 94
65 106
65 118
65 121
65 180
65 219
66 74
66 122
66 138
66 166
66 204
66 247
67 69
67 77
67 82
67 96
67 101
67 111
67 146
67 212
67 231
67 265
67 272
68 78
68 97
68 107
68 113
68 126
68 152
68 211
68 254
69 70
69 146
69 178
69 219
70 87
70 89
70 91
70 168
71 106
71 117
71 122
71 124
71 130
71 149
71 160
71 184
71 265
71 290
72 80
72 118
72 188
72 268
73 103
73 127
73 139
73 146
73 164
73 219
74 82
74 132
74 189
74 252
75 96
75 97
75 160
75 212
75 239
76 120
76 126
77 91
77 107
77 113
77 122
78 90
78 97
78 104
78 148
78 164
78 257
78 291
79 133
79 228
80 124
80 138
80 140
80 180
80 190
80 268
81 180
82 98
82 111
82 156
82 177
82 178
82 200
82 252
82 265
83 147
83 202
83 249
83 261
84 85
84 109
84 126
84 148
84 225
84 290
84 293
85 147
85 173
85 197
85 290
86 128
86 130
86 157
87 97
87 103
87 118
87 129
87 143
87 155
87 272
87 273
88 114
88 128
88 203
88 224
88 274
88 282
89 115
89 137
89 189
89 191
89 234
89 262
89 285
89 299
90 155
90 173
90 251
90 273
90 297
91 105
91 122
91 232
91 255
91 275
92 123
92 176
92 190
92 193
92 205
92 266
92 286
93 149
93 180
93 211
93 215
93 264
94 101
94 118
94 286
95 96
95 129
95 131
95 181
95 207
95 239
96 97
96 146
96 169
96 184
96 232
96 239
96 297
97 103
97 122
97 152
97 182
97 270
98 134
98 204
98 265
98 282
99 142
99 198
99 199
99 267
99 297
100 141
100 168
100 172
100 276
101 118
101 164
101 231
102 223
103 111
103 127
103 143
103 152
103 153
103 272
104 175
104 239
105 115
105 142
105 150
105 162
105 164
105 192
105 202
105 275
106 122
106 139
106 160
106 236
107 108
107 113
107 199
108 246
108 257
109 112
109 126
109 159
109 254
110 122
110 177
110 237
111 119
111 136
111 152
111 206
111 231
112 124
112 129
112 130
112 239
112 291
113 126
113 159
113 205
114 180
114 196
114 260
114 272
114 289
115 118
115 137
115 150
115 157
115 184
115 193
115 226
115 251
116 122
116 154
116 210
117 127
117 130
117 132
117 258
117 286
118 121
118 127
118 130
118 198
118 292
119 248
120 260
121 146
121 159
121 168
121 218
121 259
121 300
122 152
122 160
123 132
124 129
124 133
124 138
124 142
124 149
124 174
124 176
124 184
124 190
124 194
124 210
125 148
125 223
126 165
126 289
127 146
127 206
127 263
127 267
129 131
129 150
129 225
130 203
130 264
131 160
131 178
131 188
131 190
131 265
131 299
132 144
132 232
132 244
132 274
133 142
133 276
133 295
134 229
134 252
135 149
135 225
135 265
136 164
136 166
136 173
136 176
136 225
137 150
137 158
137 249
139 146
139 147
139 180
139 195
139 215
139 277
139 298
140 250
140 254
141 214
141 237
141 295
142 240
142 275
142 297
143 147
143 154
145 153
146 195
147 179
147 186
147 191
147 202
149 193
149 210
149 249
149 255
150 185
150 192
151 157
151 227
151 231
151 237
151 250
151 278
151 288
152 153
152 168
152 209
152 259
152 276
152 299
153 176
153 203
153 267
153 290
154 160
154 182
154 186
154 208
154 213
154 221
154 230
154 251
154 269
154 293
155 177
155 271
156 200
156 286
157 166
157 168
157 174
157 204
157 252
157 288
157 294
158 160
158 216
158 219
158 226
158 255
158 300
160 178
160 186
160 194
160 214
160 228
160 241
160 255
160 259
160 265
160 267
160 268
160 282
160 288
160 290
160 293
161 180
161 193
161 200
161 201
161 233
161 250
162 197
162 213
162 251
162 265
162 273
162 274
162 279
163 166
163 193
163 194
163 218
163 231
163 246
163 276
163 280
163 284
164 217
165 278
165 296
166 173
166 175
166 189
166 207
166 225
166 252
167 215
168 204
168 252
168 259
169 197
169 205
169 227
169 245
169 247
169 262
170 270
170 296
171 200
172 281
173 189
173 276
174 176
174 203
174 252
175 190
175 195
175 266
176 184
176 268
176 286
177 233
177 268
177 293
178 183
178 195
178 230
178 260
180 289
181 191
181 259
181 263
182 208
182 218
182 235
182 257
182 258
183 230
183 239
183 252
183 260
183 282
184 185
184 192
184 213
184 214
184 248
184 283
184 286
185 213
186 191
186 207
186 212
186 225
186 235
186 244
186 248
186 282
187 207
188 189
188 232
188 252
189 207
189 232
190 198
192 262
192 270
192 286
193 210
193 251
193 276
194 202
194 210
194 223
194 228
194 268
195 289
196 198
196 214
196 225
196 250
196 273
197 227
198 214
198 273
198 289
199 221
199 241
199 248
199 297
200 212
200 223
200 228
200 247
200 250
200 255
201 209
201 212
201 233
201 250
202 210
202 226
202 230
202 236
202 268
203 206
203 216
203 246
203 250
203 275
203 284
204 279
205 224
205 226
205 227
206 218
206 268
206 275
206 293
207 208
207 212
207 248
208 217
208 218
208 229
208 230
208 251
208 257
208 258
209 276
209 280
210 213
210 219
210 228
210 230
210 236
210 237
210 242
210 249
210 268
210 278
210 295
211 215
211 228
211 255
211 264
211 294
212 223
212 229
212 255
212 292
213 242
213 251
214 227
214 248
214 249
214 286
214 297
215 267
215 298
216 219
216 227
216 250
216 261
216 270
216 298
217 229
217 248
217 253
217 272
218 238
218 284
219 230
219 253
219 264
219 270
219 281
219 298
220 281
221 269
222 256
222 261
222 288
223 224
223 228
223 234
223 245
223 259
223 299
224 259
224 264
224 274
224 299
226 236
226 299
227 237
227 245
227 278
228 245
228 253
228 262
228 264
228 293
228 294
229 266
229 285
230 273
231 243
231 246
231 256
231 265
231 272
231 276
231 288
231 292
232 255
233 236
233 250
233 253
235 244
237 278
237 284
237 291
237 294
237 296
238 281
238 284
239 260
239 277
240 241
240 259
240 264
240 285
241 293
241 297
242 245
242 262
242 278
242 291
243 288
244 256
245 247
245 262
245 264
246 250
246 275
246 284
248 249
248 270
248 297
248 298
250 261
250 273
252 282
252 287
253 272
254 285
255 256
255 263
255 284
255 290
255 294
256 288
258 268
259 264
259 265
259 284
259 285
259 293
259 299
260 282
260 287
260 289
262 264
262 286
263 294
265 300
266 273
266 285
267 290
268 293
269 280
269 291
270 279
270 298
274 279
275 290
276 280
276 295
277 280
278 294
278 296
279 298
282 290
282 293
288 290
291 294
298 300
*Classes
1
1
1
1
1
1
1
1
1
1
1
1
1
1
1
1
1
1
1
1
1
1
1
1
1
1
1
1
1
1
1
1
1
1
1
1
1
1
1
1
1
1
1
1
1
1
1
1
1
1
1
1
1
1
1
1
1
1
1
1
1
1
1
1
1
1
1
1
1
1
1
1
1
1
1
1
1
1
1
1
1
1
1
1
1
1
1
1
1
1
1
1
1
1
1
1
1
1
1
1
1
1
1
1
1
1
1
1
1
1
1
1
1
1
1
1
1
1
1
1
1
1
1
1
1
1
1
1
1
1
1
1
1
1
1
1
1
1
1
1
1
1
1
1
1
1
1
1
1
1
2
2
2
2
2
2
2
2
2
2
2
2
2
2
2
2
2
2
2
2
2
2
2
2
2
2
2
2
2
2
2
2
2
2
2
2
2
2
2
2
2
2
2
2
2
2
2
2
2
2
2
2
2
2
2
2
2
2
2
2
2
2
2
2
2
2
2
2
2
2
2
2
2
2
2
2
2
2
2
2
2
2
2
2
2
2
2
2
2
2
2
2
2
2
2
2
2
2
2
2
2
2
2
2
2
2
2
2
2
2
2
2
2
2
2
2
2
2
2
2
2
2
2
2
2
2
2
2
2
2
2
2
2
2
2
2
2
2
2
2
2
2
2
2
2
2
2
2
2
2
