*Vertices 300
*Edges
1 4
1 9
1 25
1 47
1 67
1 73
1 82
1 107
1 111
1 131
1 141
1 146
1 157
1 164
1 194
1 218
1 227
2 8
2 67
2 78
2 82
2 83
2 126
2 138
2 158
2 182
3 13
3 25
3 31
3 38
3 64
3 76
3 82
3 86
3 97
3 119
3 122
3 130
3 131
3 132
3 144
3 151
3 163
3 183
3 250
3 292
4 7
4 9
4 42
4 47
4 82
4 95
4 109
4 138
4 141
5 23
5 198
5 243
6 96
6 104
6 121
6 129
6 130
6 133
6 183
6 192
6 196
6 223
7 61
7 109
7 120
7 138
7 154
7 200
7 222
7 226
8 12
8 67
8 68
8 74
8 114
8 230
8 249
8 271
8 283
9 73
9 77
9 107
9 111
9 153
9 164
9 218
9 219
9 273
10 14
10 29
10 51
10 195
10 211
10 266
10 286
11 54
11 103
11 113
11 116
11 128
11 130
11 160
11 202
11 240
11 259
11 268
12 68
12 106
12 176
12 266
12 272
13 38
13 97
13 119
13 122
13 130
13 163
13 231
13 274
14 28
14 29
14 41
14 51
14 82
14 131
14 203
14 243
15 30
15 190
15 192
15 219
16 140
16 157
16 192
16 200
17 69
17 77
17 184
17 219
17 226
18 37
18 54
18 71
18 113
18 116
18 118
18 128
18 140
18 151
18 272
18 296
19 25
19 45
19 46
19 130
19 233
19 259
19 276
20 61
20 63
20 85
20 88
20 96
20 120
20 127
20 293
21 36
21 39
21 45
21 65
21 93
21 103
21 142
21 174
21 191
21 205
21 217
21 246
22 53
22 58
22 92
22 99
22 149
22 239
22 257
23 123
23 156
23 199
23 291
24 26
24 235
24 289
25 52
25 87
25 130
25 135
25 141
25 185
25 214
25 241
26 28
26 98
26 103
26 249
26 284
27 87
27 104
27 141
27 218
28 82
28 89
28 98
28 101
28 113
28 123
28 128
28 177
28 279
29 31
29 53
29 100
29 130
29 133
29 296
30 94
30 100
30 106
30 218
30 225
31 53
31 60
31 67
31 82
31 136
31 145
31 242
32 63
32 82
32 131
32 163
32 218
32 266
33 67
33 69
33 91
33 100
33 118
33 131
33 135
33 145
33 165
33 199
33 223
33 253
34 59
34 139
34 229
34 248
34 255
34 278
34 294
35 36
35 207
36 45
36 67
36 93
36 96
36 127
36 130
36 188
36 218
36 232
36 284
37 45
37 62
37 65
37 75
37 104
37 114
37 140
37 145
37 148
37 155
37 178
37 187
37 233
37 273
38 80
38 82
38 114
38 122
38 132
38 141
38 144
38 155
38 175
38 284
39 56
39 65
39 197
39 281
40 58
40 61
40 76
40 146
40 150
40 282
40 295
41 55
41 114
41 122
41 123
41 201
41 253
42 176
42 198
42 229
42 258
43 129
43 243
43 277
44 53
44 55
44 78
44 86
44 103
44 108
44 138
44 298
45 65
45 87
45 93
45 94
45 145
45 156
45 184
45 259
46 51
46 54
46 93
46 103
47 111
47 146
47 185
47 258
48 89
48 120
48 123
48 183
48 207
48 224
49 63
49 70
49 86
49 126
49 163
49 169
49 176
49 200
49 220
49 230
49 285
51 72
51 103
51 200
51 224
51 227
51 263
52 84
52 118
52 133
52 141
52 214
52 277
53 58
53 60
53 62
53 81
53 82
53 108
53 221
53 272
54 59
54 103
54 222
54 239
55 66
55 81
55 104
55 117
55 118
55 122
55 124
55 133
55 150
55 218
55 290
56 68
56 130
56 248
57 105
57 190
57 227
58 72
58 76
58 81
58 99
58 124
58 200
58 205
58 225
58 247
58 264
58 282
59 139
59 244
59 271
59 288
59 291
60 215
60 282
60 285
61 63
61 120
61 127
61 172
61 178
61 179
61 183
61 186
61 197
62 81
62 104
62 128
62 129
62 180
63 69
63 70
63 82
63 127
63 131
63 206
63 223
63 293
63 294
64 86
64 97
64 101
64 119
64 138
64 172
64 233
64 251
65 93
66 79
66 155
67 78
67 82
67 91
67 114
67 126
67 237
67 244
67 277
67 300
68 114
68 154
68 187
68 192
68 245
68 256
69 82
69 131
69 180
69 183
69 255
69 276
70 135
70 145
70 294
71 76
71 113
72 81
72 102
72 124
72 250
73 107
73 282
74 208
75 104
75 114
75 195
75 203
76 86
76 251
77 85
77 91
77 102
77 115
77 125
77 158
77 214
77 259
77 284
78 103
78 126
80 235
81 124
81 128
81 132
81 150
81 235
81 257
81 272
81 275
82 97
82 131
82 136
82 145
82 187
82 232
82 279
82 285
83 126
83 177
83 179
83 233
83 285
84 107
84 133
84 223
84 240
84 257
85 107
85 138
85 158
85 180
85 275
85 280
86 108
86 118
86 126
86 144
86 170
87 104
87 259
87 299
88 127
88 175
88 183
88 223
88 234
89 93
89 102
89 123
89 142
89 144
89 200
89 243
89 279
89 296
90 178
90 231
90 256
90 291
91 96
91 130
91 135
91 184
91 190
91 203
91 234
92 135
92 171
92 184
92 244
92 286
93 102
93 103
93 138
93 142
93 168
93 175
94 100
94 106
94 118
94 128
94 135
94 140
94 143
94 145
94 161
94 228
94 249
94 285
94 289
95 184
95 207
96 121
96 127
96 130
96 139
96 152
96 186
96 246
96 265
97 130
97 218
98 101
98 113
98 116
98 160
98 161
98 222
98 236
98 262
98 295
99 180
100 118
100 128
100 135
100 143
100 239
100 253
100 266
101 119
101 149
101 152
101 156
101 190
101 243
101 263
102 123
102 125
102 144
102 146
102 174
102 198
102 243
102 257
103 138
103 244
103 281
104 117
104 118
104 145
104 152
104 169
104 179
104 253
104 285
105 261
105 272
105 286
106 204
106 214
106 215
107 277
107 298
108 117
108 118
108 282
108 283
109 243
110 160
111 238
111 268
111 270
112 134
112 175
112 230
113 114
113 116
113 117
113 118
113 128
113 158
114 116
114 122
114 242
114 269
114 282
115 136
115 215
115 290
116 130
116 133
116 254
117 118
117 140
117 182
117 264
118 124
118 133
118 140
118 148
118 160
118 247
119 123
119 144
119 201
119 235
119 257
119 293
120 123
120 195
120 209
120 234
121 129
121 135
121 201
122 141
122 142
122 147
122 167
122 204
123 201
124 132
124 141
124 150
124 248
124 290
125 146
125 150
125 151
125 208
125 210
125 249
125 275
126 199
126 290
127 247
127 266
128 143
128 145
128 173
128 225
128 231
128 269
129 133
129 224
129 243
130 133
130 139
130 141
130 163
130 270
131 135
131 214
131 251
132 141
132 150
133 210
133 242
134 218
134 282
135 145
135 201
136 184
136 258
137 271
137 296
138 142
138 194
138 195
138 222
138 233
138 239
138 259
138 273
139 165
139 176
139 235
139 261
140 148
140 185
140 206
140 229
141 295
142 144
142 147
142 172
142 260
143 145
143 167
143 197
143 256
144 187
144 229
144 262
144 294
146 150
146 199
146 232
146 281
146 282
147 231
147 234
147 266
147 276
148 164
148 185
148 222
148 229
149 154
149 164
149 243
149 291
150 156
150 261
150 294
151 182
151 194
151 198
151 213
151 235
151 240
151 245
151 246
151 281
152 170
152 206
152 212
152 216
152 257
152 266
153 189
153 230
153 239
153 291
154 158
154 177
154 181
154 191
154 214
154 222
154 254
154 275
154 282
154 285
154 290
155 179
155 186
155 195
155 199
155 241
155 254
155 262
155 268
156 184
156 214
157 179
157 194
157 245
157 287
158 177
158 180
158 190
158 220
158 254
158 263
158 275
159 285
159 289
159 291
160 161
160 172
161 169
161 182
161 197
161 221
161 244
161 299
162 167
162 239
162 264
162 271
162 294
163 167
163 187
163 199
163 205
163 218
163 225
163 272
164 174
164 188
164 193
164 199
164 201
164 290
165 178
165 196
165 205
165 207
165 218
165 224
165 228
165 244
165 272
166 173
166 178
166 200
166 269
166 272
166 273
167 237
167 264
169 197
169 220
169 241
169 252
169 262
169 265
169 276
169 285
170 276
172 228
174 199
174 207
175 178
175 209
175 224
175 237
175 264
175 279
176 183
176 216
176 223
176 226
176 233
176 267
176 272
176 282
176 284
177 187
177 210
177 232
177 254
177 275
177 291
178 183
178 269
178 272
178 299
179 194
179 195
179 202
179 217
179 242
179 244
179 258
179 287
179 293
179 299
180 212
180 249
180 280
181 188
181 193
181 223
181 224
181 250
181 258
181 282
182 194
182 213
182 246
182 256
182 279
182 281
183 205
183 210
183 212
183 213
183 272
183 294
184 207
184 231
184 257
184 261
184 266
184 285
185 186
185 277
186 195
186 222
186 231
186 247
186 254
186 262
186 277
186 282
187 201
187 205
187 232
187 266
188 193
188 215
188 224
188 267
188 269
189 230
189 239
190 203
190 211
190 216
190 227
190 238
190 243
190 253
190 275
190 277
190 283
191 223
191 271
191 282
192 203
192 255
192 279
192 282
192 298
193 247
193 258
193 282
194 226
194 240
194 245
195 202
195 211
195 215
195 258
195 284
196 216
196 225
196 235
197 221
198 281
199 205
199 207
199 218
199 222
199 225
199 262
199 286
199 289
200 262
200 269
200 273
200 284
200 287
200 292
201 211
201 232
201 290
202 215
202 262
202 284
202 298
203 216
203 253
203 282
203 292
205 213
205 228
205 232
205 244
206 216
206 223
206 226
206 234
206 274
207 286
208 211
208 216
208 218
209 224
209 237
209 269
209 283
210 212
210 242
210 291
210 300
211 243
211 275
211 277
211 290
212 257
212 266
212 300
213 256
214 232
214 235
214 254
214 293
215 284
215 298
216 218
216 225
216 226
216 253
216 267
216 275
217 287
218 243
218 264
218 270
218 271
218 272
219 221
219 259
219 263
219 273
220 280
221 222
221 243
221 249
222 229
222 233
222 247
222 249
222 254
222 262
222 268
222 275
222 284
223 245
223 282
224 267
224 269
224 273
224 282
225 235
225 255
225 275
225 276
225 281
225 289
226 234
226 267
226 292
227 283
228 244
228 261
228 287
228 299
230 235
230 239
230 255
231 247
231 261
231 285
232 266
232 271
232 293
232 294
232 299
233 234
233 257
233 262
233 268
233 270
234 257
234 270
234 272
234 274
234 292
235 241
235 252
235 255
235 258
235 265
235 276
235 281
235 293
235 300
237 264
237 279
238 243
239 256
239 264
240 268
241 252
241 254
241 275
241 276
241 279
242 262
242 284
242 287
242 290
243 259
243 264
243 299
244 259
244 287
244 293
244 299
245 282
246 256
246 279
247 282
248 295
250 258
250 276
250 282
252 262
252 265
252 276
252 279
252 293
253 277
253 300
254 262
254 268
254 275
254 290
255 281
256 264
257 266
257 268
257 300
258 276
258 282
258 298
259 299
261 266
262 265
262 279
262 284
264 271
264 279
266 285
267 285
268 297
269 273
270 272
270 290
271 294
272 294
276 281
276 282
277 296
279 298
281 293
284 287
284 292
285 289
285 290
287 299
288 300
293 294
293 299
293 300
*Classes
1
1
1
1
1
1
1
1
1
1
1
1
1
1
1
1
1
1
1
1
1
1
1
1
1
1
1
1
1
1
1
1
1
1
1
1
1
1
1
1
1
1
1
1
1
1
1
1
1
1
1
1
1
1
1
1
1
1
1
1
1
1
1
1
1
1
1
1
1
1
1
1
1
1
1
1
1
1
1
1
1
1
1
1
1
1
1
1
1
1
1
1
1
1
1
1
1
1
1
1
1
1
1
1
1
1
1
1
1
1
1
1
1
1
1
1
1
1
1
1
1
1
1
1
1
1
1
1
1
1
1
1
1
1
1
1
1
1
1
1
1
1
1
1
1
1
1
1
1
1
2
2
2
2
2
2
2
2
2
2
2
2
2
2
2
2
2
2
2
2
2
2
2
2
2
2
2
2
2
2
2
2
2
2
2
2
2
2
2
2
2
2
2
2
2
2
2
2
2
2
2
2
2
2
2
2
2
2
2
2
2
2
2
2
2
2
2
2
2
2
2
2
2
2
2
2
2
2
2
2
2
2
2
2
2
2
2
2
2
2
2
2
2
2
2
2
2
2
2
2
2
2
2
2
2
2
2
2
2
2
2
2
2
2
2
2
2
2
2
2
2
2
2
2
2
2
2
2
2
2
2
2
2
2
2
2
2
2
2
2
2
2
2
2
2
2
2
2
2
2
