*Vertices 300
*Edges
1 25
1 51
1 82
1 157
1 178
1 182
1 205
1 232
1 250
1 253
1 261
1 284
2 69
2 111
3 41
3 75
3 83
3 92
3 100
3 107
3 116
3 130
3 256
4 29
4 52
4 85
4 110
4 116
4 127
4 137
4 206
4 288
5 71
5 85
5 89
5 115
5 143
5 175
5 198
5 235
5 264
6 12
6 23
6 37
6 40
6 48
6 51
6 52
6 62
6 66
6 71
6 77
6 83
6 92
6 101
6 120
6 127
6 153
6 159
6 197
6 212
6 229
6 279
6 282
6 283
7 26
7 30
7 34
7 38
7 43
7 45
7 65
7 77
7 97
7 167
7 168
7 170
7 258
8 17
8 67
8 87
8 109
8 178
9 15
9 32
9 44
9 60
9 83
9 127
9 159
9 170
9 183
9 184
9 210
9 227
9 241
9 254
9 257
10 274
11 14
11 30
11 47
11 48
11 56
11 63
11 76
11 102
11 107
11 108
11 118
11 137
11 143
11 148
11 159
11 160
11 189
11 276
11 295
12 16
12 19
12 40
12 51
12 78
12 91
12 106
12 124
12 181
12 201
12 226
12 241
12 245
13 61
13 130
13 171
14 52
14 54
14 98
14 107
14 148
14 162
14 205
14 281
14 282
15 25
15 29
15 38
15 82
15 90
15 127
15 128
15 159
15 184
15 186
15 191
15 200
15 210
15 241
15 257
15 275
16 60
16 98
16 106
16 115
16 132
16 156
16 174
16 184
16 206
16 209
16 229
16 253
16 284
17 41
17 88
17 104
17 147
17 180
17 187
17 234
18 32
18 52
18 64
18 67
18 77
18 91
18 93
18 94
18 150
18 216
18 220
18 260
18 261
18 262
18 279
18 286
19 25
19 39
19 57
19 60
19 89
19 91
19 103
19 111
19 146
19 170
19 182
19 201
19 244
19 263
19 272
19 284
19 289
20 47
20 145
20 156
20 171
20 191
20 257
20 283
20 295
21 23
21 25
21 34
21 63
21 91
21 114
21 132
21 139
21 143
21 146
21 163
21 176
21 181
21 197
21 204
21 209
21 217
21 223
22 23
22 65
22 126
22 177
22 181
22 210
22 216
22 249
22 265
22 291
23 25
23 26
23 37
23 48
23 62
23 63
23 65
23 77
23 97
23 101
23 139
23 155
23 197
23 223
23 228
23 233
23 260
23 282
24 40
24 53
24 88
24 93
24 178
24 192
24 212
24 229
24 235
24 263
25 38
25 39
25 62
25 82
25 90
25 137
25 181
25 243
25 258
26 37
26 39
26 51
26 88
26 131
26 142
26 154
26 220
26 223
26 283
26 285
26 294
27 74
27 77
27 180
27 214
27 235
27 237
28 37
28 65
28 144
28 152
28 191
28 222
28 262
29 56
29 127
29 288
30 34
30 83
30 125
30 150
30 159
30 170
30 200
30 234
30 247
30 250
31 48
31 53
31 78
31 102
31 132
31 136
31 143
31 177
31 221
31 278
31 282
31 288
31 298
32 44
32 75
32 87
32 113
32 146
32 182
32 218
32 222
32 256
32 257
33 266
34 39
34 68
34 143
34 146
34 159
34 234
34 243
35 107
35 133
35 138
35 177
35 183
35 194
35 206
35 207
35 237
36 58
36 97
36 110
36 115
36 154
36 162
36 181
36 205
36 222
36 285
36 292
36 293
37 61
37 72
37 108
37 130
37 137
37 144
37 155
37 187
37 191
37 212
37 267
38 39
38 44
38 45
38 63
38 90
38 124
38 169
38 187
38 206
38 213
38 244
38 296
39 60
39 76
39 82
39 89
39 136
39 146
39 232
39 273
39 289
39 294
40 51
40 53
40 86
40 118
40 167
40 187
40 235
40 267
40 287
41 48
41 56
41 58
41 86
41 92
41 94
41 95
41 116
41 118
41 132
41 162
41 258
42 83
42 99
42 118
42 186
42 246
42 283
43 45
43 62
43 93
43 100
43 110
43 153
43 182
43 191
43 199
43 252
43 290
44 54
44 60
44 124
44 143
44 147
44 154
44 161
44 169
44 186
44 210
44 213
44 220
44 228
44 229
44 244
44 296
45 62
45 63
45 93
45 168
45 187
45 225
45 260
45 276
46 62
46 80
46 126
46 134
46 165
46 170
46 176
46 190
46 192
46 214
46 231
46 240
46 249
46 250
46 287
46 288
47 48
47 145
47 217
47 238
47 257
47 279
47 283
47 294
48 51
48 62
48 63
48 95
48 107
48 116
48 132
48 166
48 189
48 226
48 255
48 257
48 258
48 265
48 282
48 299
49 50
49 61
49 67
49 73
49 94
49 107
49 178
49 184
49 228
49 298
50 87
50 107
50 192
50 206
50 215
50 262
50 278
50 298
51 62
51 71
51 85
51 95
51 101
51 105
51 127
51 167
51 182
51 209
51 218
51 237
51 260
51 294
52 56
52 77
52 98
52 184
52 206
52 207
52 261
52 264
53 78
53 102
53 118
53 207
54 57
54 148
54 162
54 176
54 186
54 202
54 205
54 222
54 259
55 61
55 115
55 117
55 123
55 141
55 201
55 213
55 216
56 69
56 83
56 92
56 108
56 118
56 125
56 137
56 197
56 206
56 214
56 218
56 223
56 284
57 60
57 61
57 65
57 103
57 113
57 114
57 127
57 143
57 162
57 173
57 197
57 275
58 63
58 70
58 77
58 78
58 92
58 94
58 115
58 157
58 159
58 162
58 163
58 210
58 217
58 233
58 258
58 299
59 119
59 138
59 140
59 159
59 231
59 243
60 61
60 64
60 73
60 93
60 103
60 113
60 130
60 133
60 162
60 170
60 220
60 262
60 268
60 284
60 294
61 76
61 100
61 126
61 128
61 130
61 171
61 213
61 228
61 237
61 241
61 260
61 294
62 66
62 77
62 83
62 145
62 240
62 252
62 258
62 297
63 65
63 77
63 89
63 169
63 182
63 189
63 222
63 233
63 239
63 263
64 73
64 77
64 91
64 103
64 215
64 284
65 97
65 127
65 255
65 260
65 282
66 105
66 106
66 162
66 194
66 218
66 292
67 94
67 171
67 178
67 182
67 216
67 238
67 247
67 271
67 281
68 146
68 270
68 291
69 111
69 120
69 197
69 219
69 284
69 286
69 291
70 102
70 118
70 141
70 210
70 253
71 83
71 101
71 201
71 224
71 279
72 80
72 125
72 176
72 212
72 253
72 296
73 91
73 94
73 150
73 156
73 157
73 170
73 180
73 228
73 241
73 280
74 77
74 153
74 167
75 87
75 134
75 142
75 146
75 158
75 162
75 176
75 220
75 256
75 257
75 274
75 288
76 87
76 100
76 108
76 109
76 137
76 153
76 159
76 162
76 171
76 180
76 241
76 263
76 273
76 274
77 91
77 94
77 114
77 141
77 153
77 157
77 167
77 175
77 191
77 220
77 229
77 235
77 264
77 281
78 91
78 94
78 101
78 118
78 201
79 218
79 293
80 127
80 135
80 192
80 207
80 223
80 231
80 251
80 266
80 271
80 287
80 296
81 95
81 133
81 153
81 218
81 241
81 261
81 263
81 300
82 113
82 157
82 182
82 271
83 86
83 92
83 100
83 116
83 159
83 215
83 254
83 283
84 112
84 120
84 133
84 138
84 148
84 158
84 169
84 245
84 248
84 251
84 268
84 290
85 95
85 110
85 112
85 114
85 121
85 137
85 143
85 183
85 198
85 206
85 258
85 286
86 92
86 116
87 109
87 146
87 159
87 213
87 216
87 298
88 93
88 104
88 147
88 220
88 270
89 93
89 109
89 164
89 172
89 192
89 198
89 212
89 240
89 241
89 259
89 263
90 243
91 114
91 170
91 198
91 201
91 204
91 235
91 241
91 245
91 255
91 297
92 95
92 110
92 115
92 118
92 139
92 190
92 214
92 235
92 264
93 104
93 109
93 111
93 132
93 164
93 198
93 199
93 204
93 212
93 215
93 262
93 264
93 270
94 101
94 115
94 159
94 217
94 222
94 247
94 285
94 288
95 132
95 189
95 263
95 264
95 265
95 287
95 300
96 132
96 169
96 281
96 286
97 167
97 168
97 205
97 285
98 106
98 184
98 271
98 296
99 121
99 202
99 214
100 110
100 150
100 159
100 193
101 103
101 120
101 127
101 133
101 179
101 182
101 192
101 263
101 300
102 108
102 118
102 143
102 158
102 194
102 225
102 268
102 284
103 114
103 133
103 197
103 294
104 147
104 186
104 203
104 268
104 270
104 290
105 108
105 110
105 122
105 147
105 162
105 188
105 213
105 218
105 290
106 156
106 159
106 292
107 189
107 192
107 296
108 116
108 137
108 153
108 160
108 162
108 213
108 216
108 299
109 115
109 216
110 114
110 115
110 150
110 172
110 183
110 189
110 193
110 194
110 199
110 210
110 215
110 275
110 281
110 290
111 115
111 120
111 164
111 178
111 182
111 235
111 237
111 246
111 272
111 290
112 126
112 201
112 205
112 245
112 258
112 260
113 211
113 222
113 239
114 115
114 121
114 125
114 139
114 143
114 157
114 172
114 189
114 190
114 235
114 245
114 297
115 134
115 135
115 171
115 177
115 189
115 190
115 215
115 216
115 229
115 235
115 264
115 281
115 292
116 130
116 137
116 161
116 169
116 180
116 233
117 118
117 122
117 123
117 133
117 183
117 186
117 215
118 143
118 158
118 186
118 225
119 177
119 181
119 196
119 215
119 230
119 243
119 282
119 299
120 133
120 179
120 197
120 219
121 126
121 195
121 210
121 260
122 186
122 250
122 268
122 290
122 293
123 177
123 210
123 227
123 238
124 180
124 181
124 235
125 172
125 176
125 215
125 247
125 248
125 295
126 152
126 176
126 187
126 210
126 221
126 245
126 249
126 258
126 259
126 260
127 170
127 207
127 251
127 294
128 140
128 228
128 257
129 181
129 209
129 228
129 245
129 250
129 268
130 137
130 178
130 194
130 213
130 228
131 188
131 244
131 250
131 285
131 291
131 295
132 139
132 143
132 155
132 156
132 176
132 199
132 204
132 226
132 240
132 254
132 281
132 290
133 138
133 142
133 183
133 196
133 256
133 300
134 143
134 179
134 214
134 261
134 262
134 288
135 154
135 281
136 221
136 232
136 273
136 277
136 289
137 162
137 213
137 258
137 260
138 140
140 159
140 246
141 169
141 177
141 253
141 281
142 159
142 166
142 177
142 196
142 204
142 207
142 246
142 247
142 256
142 294
143 147
143 198
143 209
143 290
143 296
144 191
144 196
144 278
145 160
145 185
145 196
145 240
145 285
145 300
146 152
146 257
147 162
147 182
147 205
147 230
147 296
148 182
148 189
148 202
148 208
148 237
148 259
148 295
149 153
149 273
150 170
150 174
150 187
150 194
150 210
150 256
150 258
150 260
150 262
150 284
150 294
151 161
151 165
151 167
151 196
151 212
151 256
151 279
152 245
152 248
153 182
153 191
153 237
153 240
153 261
153 263
153 273
153 274
153 286
153 290
154 211
154 244
154 283
154 285
155 156
155 197
156 163
156 173
156 245
156 248
157 271
158 169
158 230
158 233
158 239
158 252
158 274
158 277
158 299
159 183
159 192
159 218
159 236
159 247
159 248
159 254
159 273
160 162
160 258
160 260
160 276
160 300
161 165
161 169
161 236
161 274
162 176
162 205
162 238
162 290
163 195
163 212
163 215
163 217
163 245
163 257
163 278
164 188
164 189
164 198
164 210
164 212
164 224
164 234
164 249
164 263
164 264
164 294
165 170
165 196
165 230
165 270
165 299
166 207
166 255
166 282
167 168
167 209
167 216
167 225
167 226
167 247
167 279
167 287
167 290
167 294
169 213
169 227
169 233
169 236
169 239
169 245
169 267
169 281
170 225
170 231
170 241
170 279
171 201
171 208
171 216
171 299
172 182
172 191
172 240
172 248
172 290
172 297
173 233
173 252
174 209
174 284
175 235
175 240
175 265
175 278
175 298
176 219
176 249
176 251
176 297
177 180
177 196
177 201
177 207
177 216
177 256
177 270
177 288
177 291
177 299
178 182
178 194
178 233
178 237
178 271
178 284
179 182
179 259
179 270
179 288
179 290
180 181
180 187
180 196
180 235
180 254
180 280
181 204
181 205
181 223
181 243
181 284
182 209
182 231
182 233
182 237
182 252
182 259
182 261
182 265
182 275
182 282
182 284
182 290
183 264
184 206
184 261
184 262
184 275
184 279
185 285
186 191
186 222
186 268
186 275
187 225
187 235
187 237
187 254
187 260
187 267
187 280
188 198
188 249
188 250
188 280
189 190
189 210
189 227
189 235
189 281
189 294
190 240
190 277
190 297
191 295
192 227
192 247
192 263
193 241
193 263
194 206
194 252
194 267
194 284
194 292
196 216
196 246
196 256
197 232
197 291
198 201
198 259
198 280
199 244
199 253
199 262
199 282
199 284
199 299
200 209
200 222
200 234
200 247
201 202
201 214
201 216
201 241
201 299
202 214
202 222
204 209
204 212
204 247
204 255
204 284
205 238
205 297
206 207
206 261
206 262
206 286
208 216
208 230
208 237
208 249
208 260
208 277
208 289
209 226
209 234
210 227
210 260
210 263
210 270
210 276
211 244
212 217
212 222
212 225
212 227
212 246
212 257
212 271
212 276
212 279
212 296
213 216
215 216
215 245
215 248
215 262
215 268
215 271
215 283
215 287
215 299
216 291
216 299
217 220
217 230
217 245
217 257
217 277
217 289
217 297
218 223
218 253
218 254
218 263
218 284
218 293
219 251
219 286
220 250
220 257
220 268
220 294
222 234
222 239
222 267
222 285
223 228
223 244
223 284
224 270
224 291
224 292
225 279
226 229
226 279
226 291
227 261
227 263
227 267
227 276
227 285
227 294
228 229
228 241
228 284
229 291
229 292
230 252
230 270
230 274
230 277
230 282
230 297
230 299
231 250
231 282
232 284
233 239
233 252
233 282
234 247
235 264
236 254
237 260
237 282
238 290
239 263
241 257
241 263
241 273
242 266
242 291
244 272
244 291
245 247
245 248
245 255
245 268
247 248
247 271
247 295
248 271
248 287
248 295
248 299
249 258
249 259
249 277
249 292
250 251
250 268
250 281
250 295
251 268
252 292
253 284
253 299
254 256
255 282
256 274
256 300
257 288
258 260
258 277
258 294
260 267
260 276
260 279
260 294
261 262
261 276
262 271
262 286
265 290
265 298
267 281
267 284
267 285
267 292
268 281
268 290
268 293
270 291
271 272
271 279
271 296
271 299
273 274
273 277
275 290
277 289
277 292
277 297
277 299
278 298
279 290
279 294
281 282
282 299
283 285
284 293
287 295
288 291
289 297
*Classes
1
1
1
1
1
1
1
1
1
1
1
1
1
1
1
1
1
1
1
1
1
1
1
1
1
1
1
1
1
1
1
1
1
1
1
1
1
1
1
1
1
1
1
1
1
1
1
1
1
1
1
1
1
1
1
1
1
1
1
1
1
1
1
1
1
1
1
1
1
1
1
1
1
1
1
1
1
1
1
1
1
1
1
1
1
1
1
1
1
1
1
1
1
1
1
1
1
1
1
1
1
1
1
1
1
1
1
1
1
1
1
1
1
1
1
1
1
1
1
1
1
1
1
1
1
1
1
1
1
1
1
1
1
1
1
1
1
1
1
1
1
1
1
1
1
1
1
1
1
1
2
2
2
2
2
2
2
2
2
2
2
2
2
2
2
2
2
2
2
2
2
2
2
2
2
2
2
2
2
2
2
2
2
2
2
2
2
2
2
2
2
2
2
2
2
2
2
2
2
2
2
2
2
2
2
2
2
2
2
2
2
2
2
2
2
2
2
2
2
2
2
2
2
2
2
2
2
2
2
2
2
2
2
2
2
2
2
2
2
2
2
2
2
2
2
2
2
2
2
2
2
2
2
2
2
2
2
2
2
2
2
2
2
2
2
2
2
2
2
2
2
2
2
2
2
2
2
2
2
2
2
2
2
2
2
2
2
2
2
2
2
2
2
2
2
2
2
2
2
2
