*Vertices 300
*Edges
1 5
1 23
1 64
1 66
1 68
1 90
1 113
1 200
1 235
1 236
1 257
1 291
2 13
2 29
2 30
2 50
2 56
2 59
2 65
2 71
2 81
2 82
2 87
2 101
2 117
2 118
2 130
2 138
2 141
2 181
2 214
2 252
2 263
2 275
2 283
2 294
2 299
3 16
3 54
3 62
3 63
3 65
3 80
3 86
3 96
3 132
3 147
3 167
3 182
3 185
3 189
3 190
3 223
4 6
4 25
4 71
4 88
4 89
4 94
4 96
4 116
4 139
4 180
4 211
4 249
4 281
4 284
5 60
5 68
5 113
5 138
5 142
5 217
5 238
5 298
5 300
6 54
6 113
6 145
6 180
6 204
6 226
6 255
6 273
6 274
6 281
6 282
7 10
7 16
7 23
7 28
7 63
7 69
7 84
7 95
7 110
7 119
7 129
7 136
7 146
7 153
7 173
7 214
7 249
7 252
7 276
8 33
8 42
8 67
8 71
8 109
8 122
8 128
8 141
8 146
8 239
8 242
8 243
8 249
8 251
8 297
9 43
9 48
9 73
9 124
9 137
9 177
9 198
9 244
10 26
10 35
10 60
10 74
10 78
10 85
10 117
10 119
10 132
10 167
10 193
10 259
10 261
11 23
11 57
11 60
11 109
11 123
11 137
11 141
11 185
11 204
11 229
11 272
11 284
11 287
11 290
12 24
12 37
12 141
12 214
12 255
12 273
12 282
12 289
12 300
13 44
13 81
13 99
13 126
13 130
13 149
13 164
13 209
13 228
14 16
14 70
14 82
14 114
14 138
14 143
14 166
14 168
14 203
14 222
14 227
14 230
15 44
15 76
15 110
15 155
15 197
15 199
15 245
15 254
15 260
15 289
16 58
16 72
16 131
16 168
16 173
16 182
16 244
16 271
17 19
17 55
17 60
17 90
17 106
17 129
17 131
17 153
17 178
17 185
17 252
17 255
18 28
18 94
18 114
18 120
18 133
18 209
18 222
18 231
19 129
19 247
19 289
20 30
20 48
20 70
20 84
20 112
20 133
20 137
20 162
20 188
20 191
20 257
21 53
21 59
21 104
21 146
21 211
21 248
22 135
22 143
22 212
22 262
23 68
23 189
23 213
23 214
23 253
23 256
23 286
24 33
24 37
24 39
24 69
24 110
25 88
25 182
25 242
25 245
26 74
26 82
26 194
26 274
26 290
27 57
27 121
27 126
27 133
27 210
27 238
27 245
27 252
27 299
28 43
28 84
28 86
28 157
28 231
29 73
29 228
29 243
29 252
29 266
30 57
30 70
30 82
30 100
30 112
30 120
30 129
30 138
30 141
30 143
30 144
30 169
30 185
30 224
30 254
30 256
30 285
31 57
31 75
31 91
31 166
32 51
32 124
32 290
33 42
33 69
33 71
33 96
33 103
33 109
33 116
33 122
33 146
33 177
33 231
34 63
34 73
34 76
34 83
34 111
34 159
35 60
35 61
35 119
35 199
36 40
36 48
36 55
36 137
36 165
36 215
36 263
36 280
36 290
36 292
37 277
37 284
37 295
38 41
38 52
38 92
38 130
38 169
38 259
38 288
39 162
40 63
40 67
40 102
40 169
40 173
40 201
40 203
40 212
40 225
40 271
40 284
40 290
40 294
41 53
41 55
41 71
41 73
41 92
41 155
41 174
41 195
41 198
41 202
41 233
41 300
42 52
42 107
42 116
42 123
42 173
42 192
42 219
42 221
42 223
43 84
43 89
43 106
43 129
43 130
43 137
43 139
43 141
43 233
43 249
43 271
43 272
43 281
43 289
44 50
44 57
44 82
44 109
44 110
44 125
44 126
44 154
44 209
44 217
44 250
45 53
45 163
45 174
45 186
45 191
46 69
46 131
46 219
47 74
48 53
48 94
48 108
48 112
48 137
48 159
48 186
48 191
48 257
48 263
48 274
48 290
49 83
49 105
49 114
49 274
50 52
50 61
50 80
50 97
50 110
50 117
50 138
50 144
50 153
50 169
51 67
51 79
51 94
51 106
51 135
51 169
51 200
51 228
51 247
51 251
51 290
52 92
52 107
52 130
52 149
52 156
52 180
52 196
52 199
53 59
53 107
53 124
53 146
53 168
53 191
53 193
53 261
53 275
54 111
54 185
54 195
55 58
55 60
55 68
55 71
55 82
55 92
55 139
55 143
55 161
55 169
55 176
55 280
56 58
56 65
56 97
56 138
56 153
56 159
56 227
56 267
56 272
56 273
57 75
57 91
57 93
57 108
57 109
57 121
57 123
57 126
57 129
57 138
57 166
57 176
57 180
57 192
57 254
58 68
58 69
58 71
58 103
58 116
58 131
58 139
58 168
58 199
58 272
59 98
59 119
59 126
59 128
59 171
59 179
59 263
59 285
60 64
60 122
60 158
60 185
60 238
60 279
60 285
61 69
61 73
61 74
61 83
61 100
61 110
61 111
61 131
61 134
61 155
61 156
61 172
61 242
61 265
61 268
62 75
62 96
62 124
62 128
62 132
62 145
62 167
62 173
62 263
63 76
63 87
63 110
63 124
63 134
63 190
63 249
63 250
63 268
63 287
64 123
64 174
64 185
64 235
64 248
64 284
64 295
65 74
65 78
65 79
65 122
65 181
65 190
65 275
65 290
65 299
66 91
66 113
66 151
66 235
66 248
67 71
67 73
67 74
67 79
67 113
67 228
67 255
67 272
67 292
68 131
68 158
68 213
68 241
68 275
69 82
69 103
69 110
69 131
69 156
69 213
69 289
70 82
70 133
70 135
70 189
70 195
70 251
70 259
70 262
71 73
71 74
71 113
71 118
71 177
71 203
71 272
71 277
71 283
71 284
71 300
72 157
72 162
72 216
72 287
73 83
73 84
73 124
73 139
73 141
73 144
73 177
73 214
73 249
73 252
73 253
73 264
73 278
74 82
74 100
74 112
74 122
74 148
74 193
74 194
74 206
74 235
74 242
75 106
75 108
75 132
75 214
75 225
76 130
76 139
76 203
76 276
76 287
76 289
77 126
77 127
77 215
78 85
78 180
78 205
78 220
78 261
78 294
79 132
79 135
79 179
79 269
80 86
80 94
80 95
80 113
80 229
80 234
81 163
81 252
82 110
82 277
82 294
83 111
83 253
84 119
84 136
84 162
84 188
84 194
84 197
84 219
84 231
84 249
84 253
84 271
85 95
85 98
85 147
85 167
85 184
85 192
85 236
85 270
86 165
86 229
86 260
87 90
87 99
87 100
87 120
87 138
87 210
87 268
87 275
87 300
88 96
88 172
88 180
88 242
88 245
88 268
89 116
89 122
89 153
89 229
89 249
90 92
90 95
90 99
90 105
90 113
90 134
90 157
90 161
90 165
90 241
90 252
90 261
90 287
91 151
91 192
91 197
92 105
92 134
92 165
92 239
93 129
93 178
94 95
94 108
94 125
94 133
94 135
94 292
95 112
95 113
95 125
95 142
95 147
95 153
95 282
96 103
96 150
96 153
96 265
96 268
96 291
97 110
97 138
97 245
97 267
98 119
98 139
98 155
98 170
98 183
98 187
98 192
98 213
98 239
98 265
98 276
99 136
99 157
99 201
99 208
99 209
99 294
99 296
100 112
100 113
100 120
101 103
101 107
101 112
101 199
101 256
101 283
101 293
102 173
102 271
103 107
103 121
103 177
103 199
103 231
103 235
103 250
103 268
103 293
104 108
104 171
104 209
105 159
105 165
105 184
105 218
105 219
105 221
105 274
106 119
106 129
106 132
106 137
106 139
106 154
106 247
106 256
106 258
106 260
106 268
106 299
107 109
107 116
107 123
107 156
107 180
107 192
107 199
107 221
107 236
107 272
107 285
107 298
108 138
108 143
108 171
108 195
109 123
109 208
109 251
109 297
110 117
110 126
110 146
110 147
110 214
110 253
110 277
110 291
111 134
111 159
112 113
112 181
112 204
112 256
113 118
113 151
113 181
113 250
113 283
114 222
114 231
114 238
114 257
115 224
115 271
116 139
116 149
116 164
116 181
116 184
116 215
116 233
116 249
116 289
117 119
117 138
117 146
117 173
117 181
117 263
117 299
118 175
118 181
119 136
119 205
119 259
119 299
120 239
121 129
121 132
121 224
121 268
122 158
122 190
122 249
122 256
122 297
123 166
123 229
123 287
123 298
124 139
124 190
124 191
124 221
124 263
125 141
125 159
125 217
125 250
126 165
126 179
126 215
126 245
127 155
127 160
127 164
127 166
127 194
127 202
127 204
128 132
128 138
128 144
128 242
129 138
129 179
129 180
129 213
129 214
129 236
129 254
129 255
129 265
129 268
130 138
130 139
130 149
130 163
130 172
130 186
130 293
131 156
131 198
132 166
132 173
132 193
132 254
133 150
133 164
133 210
133 238
134 148
134 165
134 194
134 234
134 267
135 147
135 251
136 154
136 201
136 249
136 270
137 141
137 197
137 198
137 208
137 226
137 232
137 263
138 143
138 144
138 151
138 153
138 196
138 211
138 224
138 292
138 300
139 163
139 172
139 181
139 186
139 271
139 276
139 291
140 174
140 209
140 230
140 263
141 155
141 199
141 214
141 217
141 243
141 267
141 274
142 147
142 289
142 300
143 212
144 218
144 291
145 189
145 273
146 168
146 233
146 272
147 161
147 199
147 236
147 251
147 277
147 298
148 194
149 184
149 190
149 195
149 253
150 164
150 228
150 254
150 264
151 170
151 201
151 216
151 229
151 240
151 248
151 296
152 155
152 165
152 190
152 213
152 221
152 294
153 178
153 211
153 220
153 232
153 241
153 249
153 269
153 273
153 283
154 247
154 280
155 156
155 202
155 213
155 228
155 263
155 267
155 270
155 293
155 296
156 180
156 217
156 220
156 279
156 294
157 174
157 186
157 201
157 208
158 225
158 241
158 256
158 263
158 275
158 300
159 183
159 187
159 211
159 249
159 255
159 274
159 276
160 166
161 189
161 226
161 241
161 247
161 250
161 267
161 276
161 279
161 285
161 286
161 296
162 168
162 214
162 216
162 246
163 171
163 172
163 175
163 186
163 226
163 234
163 236
163 248
163 277
163 278
164 228
164 238
165 198
165 203
165 204
165 254
165 258
165 294
166 176
166 180
166 196
166 202
166 248
166 287
167 184
167 198
167 228
167 238
167 254
167 270
168 173
168 203
168 213
168 214
168 246
168 270
168 278
169 185
169 218
169 225
169 228
169 247
169 253
169 256
169 279
169 280
170 213
170 240
170 249
170 293
170 297
170 300
171 172
171 178
171 195
171 209
171 213
171 296
172 188
172 253
172 256
172 268
172 296
173 177
173 181
173 182
173 221
173 224
173 248
173 254
173 271
173 278
174 186
174 284
175 181
175 192
175 226
175 265
176 208
176 254
177 190
177 196
177 248
177 253
177 277
178 283
178 285
178 296
179 236
180 188
180 260
180 294
180 298
181 197
181 205
181 206
181 250
181 275
181 283
181 297
181 299
182 205
182 244
182 262
183 239
183 252
183 276
183 285
184 198
184 228
184 238
184 274
185 220
185 232
185 240
185 251
185 264
186 272
187 265
188 208
188 219
188 249
188 260
188 273
189 248
189 273
189 286
190 221
190 223
190 253
190 265
190 268
191 259
191 274
192 265
192 285
193 259
194 197
194 202
194 204
194 267
194 286
196 215
196 217
196 224
196 248
196 277
196 279
196 285
197 208
197 209
197 214
197 226
197 234
197 250
197 260
197 273
197 275
198 254
198 281
199 201
199 203
199 243
199 254
199 285
199 290
199 294
201 220
201 229
201 253
201 290
201 296
202 226
202 232
202 250
202 256
202 263
203 222
203 294
204 214
204 226
204 245
204 253
204 285
204 286
204 297
204 300
205 206
205 235
205 247
205 267
205 279
205 288
206 223
206 235
206 282
206 283
207 229
207 295
208 226
208 254
208 295
209 227
209 230
209 231
209 263
210 252
210 270
210 292
211 213
211 248
211 249
211 264
212 262
212 284
213 217
213 239
213 249
213 265
213 268
213 270
213 285
213 293
213 296
214 216
214 245
214 264
214 267
214 269
214 273
214 285
214 297
214 300
215 220
215 246
215 280
215 298
216 248
216 254
216 295
217 221
217 239
217 247
217 274
217 279
217 298
218 225
218 246
218 254
219 221
219 258
219 274
220 228
220 232
220 241
220 283
220 290
220 298
221 230
221 247
221 258
221 265
221 279
222 227
224 271
224 277
224 278
225 228
225 245
225 247
225 300
226 235
226 236
226 250
226 273
226 285
227 230
227 246
228 292
228 298
232 240
232 251
232 263
233 249
233 253
233 268
233 271
233 289
234 277
235 248
235 250
236 291
237 251
237 299
239 242
239 265
239 276
241 249
241 283
243 251
243 252
243 266
244 249
244 264
244 288
245 267
245 285
245 290
245 300
246 254
246 255
246 274
246 295
247 256
247 260
247 279
247 286
247 289
248 254
248 277
248 287
249 264
249 298
251 298
252 270
252 276
252 292
253 256
253 268
253 273
253 277
253 291
253 296
254 290
254 295
255 271
255 274
255 282
256 263
258 260
259 288
260 269
260 273
261 275
262 277
264 298
265 268
267 285
267 288
267 297
268 269
268 273
268 293
269 273
270 278
270 283
270 292
270 295
271 281
273 275
273 293
274 279
274 282
275 278
275 297
275 299
276 285
276 291
276 300
277 278
277 284
279 285
279 294
283 293
283 295
284 295
285 288
285 296
285 300
290 296
290 298
290 299
290 300
293 296
297 300
299 300
*Classes
1
1
1
1
1
1
1
1
1
1
1
1
1
1
1
1
1
1
1
1
1
1
1
1
1
1
1
1
1
1
1
1
1
1
1
1
1
1
1
1
1
1
1
1
1
1
1
1
1
1
1
1
1
1
1
1
1
1
1
1
1
1
1
1
1
1
1
1
1
1
1
1
1
1
1
1
1
1
1
1
1
1
1
1
1
1
1
1
1
1
1
1
1
1
1
1
1
1
1
1
1
1
1
1
1
1
1
1
1
1
1
1
1
1
1
1
1
1
1
1
1
1
1
1
1
1
1
1
1
1
1
1
1
1
1
1
1
1
1
1
1
1
1
1
1
1
1
1
1
1
2
2
2
2
2
2
2
2
2
2
2
2
2
2
2
2
2
2
2
2
2
2
2
2
2
2
2
2
2
2
2
2
2
2
2
2
2
2
2
2
2
2
2
2
2
2
2
2
2
2
2
2
2
2
2
2
2
2
2
2
2
2
2
2
2
2
2
2
2
2
2
2
2
2
2
2
2
2
2
2
2
2
2
2
2
2
2
2
2
2
2
2
2
2
2
2
2
2
2
2
2
2
2
2
2
2
2
2
2
2
2
2
2
2
2
2
2
2
2
2
2
2
2
2
2
2
2
2
2
2
2
2
2
2
2
2
2
2
2
2
2
2
2
2
2
2
2
2
2
2
