*Vertices 300
*Edges
1 88
1 122
1 123
1 151
1 249
2 7
2 18
2 45
2 52
2 73
2 76
2 118
2 125
2 129
2 137
2 141
2 194
2 244
3 34
3 56
3 60
3 62
3 183
3 247
3 295
4 18
4 35
4 39
4 71
4 79
4 118
4 129
4 137
5 46
5 54
5 55
5 94
5 114
5 140
5 146
5 176
5 208
5 231
5 248
5 260
6 29
6 74
6 75
6 90
6 99
6 110
6 145
6 183
6 238
6 287
7 37
7 45
7 73
7 99
7 109
7 118
7 127
7 211
7 224
7 235
7 275
7 285
7 290
7 295
8 15
8 200
8 241
8 283
9 23
9 26
9 62
9 88
9 104
9 108
10 24
10 40
10 92
10 117
10 148
10 160
10 221
10 270
10 271
10 297
11 35
11 45
11 73
11 260
12 16
12 34
12 63
12 73
12 91
12 135
12 144
12 153
12 160
12 231
12 233
13 28
13 43
13 49
13 83
13 90
13 104
13 106
13 119
13 123
13 148
13 166
13 235
13 250
14 17
14 18
14 21
14 55
14 183
14 189
14 198
15 21
15 23
15 34
15 42
15 65
15 77
15 134
15 150
15 177
15 228
15 235
15 241
16 73
16 126
16 194
16 201
16 291
17 36
17 144
17 153
17 223
17 251
18 76
18 92
18 125
18 130
18 141
18 183
18 202
18 227
18 263
18 291
19 55
19 85
19 168
19 170
19 212
19 252
20 58
20 64
20 117
20 175
20 207
20 283
21 43
21 51
21 117
21 183
21 205
21 215
21 235
21 247
21 261
21 296
22 135
22 156
22 157
22 164
22 168
23 26
23 76
23 77
23 88
23 89
23 134
23 199
23 209
23 241
23 271
24 96
24 148
24 166
24 171
24 185
24 188
24 207
25 27
25 39
25 63
25 73
25 208
25 297
26 89
26 133
26 253
27 45
27 48
27 63
27 73
27 80
27 104
27 126
27 140
27 144
27 161
27 166
27 172
27 206
27 246
27 273
27 288
28 35
28 41
28 56
28 60
28 65
28 109
28 119
28 148
28 151
28 197
29 41
29 53
29 54
29 95
29 96
29 110
29 127
29 145
29 174
29 299
30 38
30 47
30 57
30 60
30 101
30 171
30 181
30 230
30 261
31 58
31 59
31 134
31 187
31 225
31 269
31 296
32 49
32 108
32 114
32 209
33 87
33 137
33 159
33 160
33 225
33 238
33 240
33 263
33 282
33 285
34 42
34 63
34 247
35 101
35 109
35 129
35 141
35 177
35 218
35 272
36 132
36 144
36 293
37 45
37 99
38 104
38 132
38 133
38 195
38 247
38 256
39 55
39 63
39 67
39 71
39 126
39 173
39 234
40 105
40 121
40 160
40 218
40 231
40 290
41 47
41 52
41 72
41 109
41 127
41 232
41 281
42 48
42 61
42 81
42 90
42 92
42 116
42 188
42 189
42 266
42 277
43 49
43 55
43 81
43 102
43 104
43 108
43 168
43 282
43 295
44 206
44 239
44 240
45 73
45 84
45 85
45 98
45 114
45 137
45 175
45 211
45 235
46 111
46 114
46 127
46 169
47 113
47 127
47 130
47 135
47 158
47 181
47 277
48 52
48 73
48 78
48 90
48 97
48 120
48 145
48 154
48 192
48 197
48 206
48 228
48 241
48 266
48 278
49 64
49 114
49 123
49 208
49 212
49 270
49 283
50 65
50 123
50 172
50 227
50 261
51 58
51 59
51 125
51 204
51 215
51 232
51 245
51 261
52 73
52 90
52 94
52 106
52 127
52 129
52 145
52 181
52 185
52 211
53 60
53 95
53 96
53 135
53 165
53 202
53 238
53 251
53 273
54 55
54 145
54 175
54 200
55 63
55 81
55 126
55 149
55 170
55 189
55 205
55 206
55 218
56 60
56 101
56 125
56 137
56 154
56 280
57 67
57 82
57 85
57 118
57 131
57 156
57 181
57 208
57 246
58 59
58 188
58 232
58 237
58 268
59 189
59 204
59 266
60 101
60 112
60 115
60 140
60 148
60 165
60 295
61 62
61 92
61 93
61 117
61 182
61 184
61 275
62 114
62 220
63 80
63 81
63 121
63 126
63 144
63 149
63 170
63 230
63 239
63 246
63 273
64 103
64 114
64 139
64 148
64 174
64 246
64 277
65 89
65 106
65 119
65 214
65 235
65 284
66 85
66 137
66 184
66 194
67 94
67 143
67 148
67 167
67 179
67 192
67 204
67 208
68 84
68 172
68 174
68 176
68 281
68 284
68 292
69 74
69 82
69 98
69 112
69 118
69 164
69 210
69 243
69 288
70 91
70 102
70 217
70 235
70 263
70 269
71 117
71 136
71 170
71 227
71 230
71 257
71 282
72 109
72 110
72 136
72 147
72 168
72 169
72 183
72 192
72 287
73 79
73 85
73 90
73 98
73 126
73 140
73 172
73 230
73 265
74 144
74 153
74 155
74 201
74 255
74 269
74 287
75 98
75 145
75 148
75 193
75 207
75 268
75 283
75 288
76 81
76 92
76 157
76 199
76 202
77 131
77 226
78 188
78 222
78 228
78 287
78 300
79 137
79 174
79 258
79 265
80 96
80 121
80 137
80 142
80 144
80 149
80 238
80 252
80 291
81 88
81 92
81 103
81 124
81 239
81 295
82 85
82 118
82 131
82 140
82 156
82 173
82 230
82 238
82 295
83 90
83 143
83 148
83 170
83 184
83 232
83 243
84 176
84 193
85 98
85 168
85 170
85 191
85 194
85 217
85 236
85 252
85 271
86 155
86 252
87 160
87 214
87 253
88 239
88 272
88 289
89 106
89 110
89 114
89 136
89 145
90 163
90 170
90 209
90 221
90 235
90 239
90 266
90 281
91 102
91 113
91 177
91 192
91 214
91 234
91 257
91 289
92 94
92 97
92 116
92 117
92 121
92 134
92 161
92 163
92 217
92 226
92 261
93 97
93 295
94 101
94 122
94 125
94 181
94 187
94 208
94 213
94 234
94 242
94 273
94 294
95 98
95 103
95 113
95 135
95 136
95 139
95 165
95 206
95 211
95 215
95 228
95 247
96 171
96 183
96 186
96 188
96 208
96 259
96 284
97 164
97 268
97 295
98 118
98 207
98 217
98 278
98 289
99 127
99 199
99 200
99 275
100 163
100 164
100 191
100 287
101 112
101 183
101 193
101 211
101 257
101 264
102 105
102 243
102 282
103 114
103 124
103 125
103 136
103 240
103 246
103 253
103 297
104 108
104 128
104 132
104 166
105 192
105 218
105 282
106 113
106 166
106 198
106 234
106 250
106 253
106 263
107 108
107 234
108 168
108 234
109 143
109 147
109 151
109 285
110 119
110 136
110 145
110 180
110 246
110 266
110 269
110 275
110 283
110 286
110 287
111 143
111 227
111 241
111 285
112 124
112 138
112 140
112 164
112 188
112 198
112 202
112 214
112 221
113 119
113 135
113 234
113 300
114 127
114 137
114 212
114 246
114 256
114 270
114 273
114 283
115 184
115 192
115 295
116 121
116 189
116 208
117 136
117 148
117 175
117 178
117 240
117 259
118 129
118 141
118 285
119 148
119 157
119 180
119 234
119 235
119 282
119 289
119 296
120 128
120 163
120 182
120 195
120 206
120 284
120 297
120 300
121 131
121 226
121 231
121 241
122 140
122 152
122 205
122 214
122 219
122 265
124 205
125 182
125 200
125 210
125 250
125 275
125 278
125 294
125 296
126 137
126 140
126 220
126 292
127 137
127 174
127 264
127 290
127 299
128 166
128 182
129 141
129 151
129 218
129 223
129 250
129 258
129 269
130 192
130 202
130 203
130 222
130 263
131 157
132 133
132 223
132 292
132 299
133 153
133 257
134 150
134 163
134 209
134 253
134 284
134 295
135 136
135 280
135 283
136 142
136 144
136 145
136 189
136 201
136 215
136 227
137 144
137 154
137 164
137 168
137 184
137 196
137 238
137 276
137 291
138 223
138 225
138 267
139 148
140 146
140 152
140 183
140 193
140 205
140 214
140 228
140 255
140 263
141 151
141 195
141 244
141 297
142 150
142 293
143 232
143 285
144 149
144 153
144 155
144 262
145 154
145 196
146 179
146 248
147 294
148 160
148 163
148 189
148 207
148 215
148 221
148 253
149 228
150 175
150 200
151 192
151 197
151 232
152 173
152 238
152 239
152 249
152 293
153 168
153 230
153 233
153 262
153 271
154 180
154 196
154 197
154 287
154 291
155 252
155 287
156 173
156 258
156 263
156 295
157 168
157 181
157 282
158 161
158 171
158 205
158 213
158 240
158 242
158 271
159 221
159 232
159 241
159 277
159 284
159 300
161 170
161 206
161 209
161 231
161 235
161 242
161 260
161 269
161 287
161 288
162 178
162 199
162 218
162 247
162 274
162 285
162 294
163 165
163 168
163 182
163 191
163 192
163 207
163 213
163 220
163 262
163 284
164 191
164 237
165 189
165 191
165 202
165 215
165 220
165 249
165 256
165 258
165 293
166 171
166 174
166 246
167 216
167 244
167 265
168 192
168 217
168 220
168 226
168 271
169 171
169 177
169 183
169 210
170 206
170 212
170 213
170 222
170 229
170 243
170 278
170 282
171 199
171 212
171 227
171 271
171 281
172 193
172 197
172 199
172 227
173 272
174 176
174 191
174 246
174 266
174 270
175 200
175 202
175 205
175 221
175 240
176 193
176 202
176 208
176 260
177 183
177 228
178 186
178 199
178 256
178 293
178 294
179 258
180 255
180 269
180 271
181 211
181 213
181 230
181 236
181 254
181 271
182 184
182 210
182 220
182 256
182 257
183 189
183 196
183 210
183 220
183 238
183 263
183 267
183 273
183 284
184 192
184 232
184 298
185 186
185 213
185 228
185 262
185 269
185 277
185 279
186 210
186 236
186 259
186 279
186 284
187 232
187 235
187 261
187 269
187 274
187 291
187 293
187 296
187 300
188 189
188 203
188 221
188 228
188 264
188 277
188 300
189 215
190 232
190 275
191 215
191 221
191 231
191 270
191 285
192 197
192 219
192 222
192 234
192 266
192 271
193 255
194 236
194 298
195 212
195 232
195 247
195 275
195 294
195 297
196 247
196 280
196 287
197 232
198 231
198 272
199 227
199 281
200 248
201 235
201 269
202 221
202 227
202 254
203 299
204 225
204 264
204 273
205 240
206 212
206 222
206 257
206 262
206 273
206 278
206 297
207 221
207 253
207 271
207 283
209 235
209 253
209 281
209 289
209 294
210 220
210 250
210 258
210 278
210 279
210 294
211 225
211 228
211 240
211 249
211 258
211 263
212 250
212 270
212 297
213 230
213 234
213 242
213 243
213 262
213 289
214 236
214 257
217 236
217 247
217 269
217 277
217 280
217 289
218 233
218 285
219 222
219 227
219 284
220 256
221 223
221 225
221 232
221 239
221 266
221 285
222 284
223 225
223 275
223 296
225 240
225 276
226 237
226 290
227 282
227 284
228 249
228 277
229 232
229 254
230 242
230 254
230 257
230 271
230 273
231 260
231 272
231 290
232 261
232 275
232 296
233 285
234 289
235 269
235 281
236 254
236 257
237 282
238 251
238 262
238 273
239 246
239 249
239 285
240 253
241 266
241 277
241 284
242 287
244 262
244 265
244 273
244 277
244 297
247 280
247 294
247 299
249 258
249 293
250 258
250 263
251 290
255 284
258 263
259 262
259 284
261 293
261 300
262 273
264 273
265 277
266 278
266 281
266 292
268 293
269 286
269 288
269 293
270 271
270 273
271 283
271 297
272 278
274 281
274 285
274 296
275 286
275 291
275 295
275 296
276 281
278 279
283 289
285 300
286 296
289 294
291 296
294 297
296 300
*Classes
1
1
1
1
1
1
1
1
1
1
1
1
1
1
1
1
1
1
1
1
1
1
1
1
1
1
1
1
1
1
1
1
1
1
1
1
1
1
1
1
1
1
1
1
1
1
1
1
1
1
1
1
1
1
1
1
1
1
1
1
1
1
1
1
1
1
1
1
1
1
1
1
1
1
1
1
1
1
1
1
1
1
1
1
1
1
1
1
1
1
1
1
1
1
1
1
1
1
1
1
1
1
1
1
1
1
1
1
1
1
1
1
1
1
1
1
1
1
1
1
1
1
1
1
1
1
1
1
1
1
1
1
1
1
1
1
1
1
1
1
1
1
1
1
1
1
1
1
1
1
2
2
2
2
2
2
2
2
2
2
2
2
2
2
2
2
2
2
2
2
2
2
2
2
2
2
2
2
2
2
2
2
2
2
2
2
2
2
2
2
2
2
2
2
2
2
2
2
2
2
2
2
2
2
2
2
2
2
2
2
2
2
2
2
2
2
2
2
2
2
2
2
2
2
2
2
2
2
2
2
2
2
2
2
2
2
2
2
2
2
2
2
2
2
2
2
2
2
2
2
2
2
2
2
2
2
2
2
2
2
2
2
2
2
2
2
2
2
2
2
2
2
2
2
2
2
2
2
2
2
2
2
2
2
2
2
2
2
2
2
2
2
2
2
2
2
2
2
2
2
