*Vertices 300
*Edges
1 31
1 40
1 74
1 80
1 86
1 125
1 216
1 261
1 262
2 33
2 153
2 206
3 8
3 39
3 89
3 102
3 128
3 183
3 188
3 195
3 199
3 208
3 237
3 239
3 273
3 282
4 11
4 21
4 23
4 45
4 60
4 97
4 115
4 118
4 142
4 160
4 180
4 214
4 221
4 255
5 15
5 20
5 60
5 158
5 161
5 165
5 169
5 263
6 75
6 131
6 170
6 201
6 202
6 204
6 212
7 15
7 16
7 54
7 65
7 86
7 96
7 99
7 117
7 130
7 172
7 214
7 257
7 268
8 35
8 37
8 68
8 98
8 105
8 128
8 152
8 285
9 48
9 82
9 88
9 94
9 101
9 163
9 172
9 284
10 27
10 43
10 65
10 95
10 124
10 136
10 183
10 212
11 27
11 80
11 102
11 108
11 124
11 160
11 168
11 216
11 231
11 261
11 290
11 295
12 18
12 33
12 148
12 213
12 217
12 236
13 41
13 57
13 59
13 88
13 152
13 240
13 275
14 22
14 43
14 62
14 99
14 109
14 123
14 171
14 208
14 252
14 253
15 20
15 27
15 35
15 69
15 86
15 94
15 96
15 99
15 101
15 109
15 132
15 136
15 158
15 187
15 214
15 235
16 32
16 54
16 130
16 220
16 222
16 273
17 73
17 99
17 173
17 220
17 222
18 63
18 131
18 133
18 148
18 216
18 291
19 51
19 71
19 73
19 99
19 129
19 142
20 25
20 26
20 27
20 43
20 67
20 69
20 76
20 109
20 112
20 124
20 132
20 157
20 158
20 161
20 241
21 118
21 200
21 241
21 252
22 35
22 93
22 109
22 124
22 189
22 202
22 211
22 214
22 268
22 271
22 282
22 297
23 98
23 111
23 142
23 163
23 180
23 193
23 221
23 273
23 289
24 101
24 110
25 56
25 60
25 62
25 73
25 75
25 99
25 105
25 129
25 132
25 171
25 227
26 36
26 44
26 115
26 161
26 177
26 178
26 201
26 270
27 73
27 95
27 112
27 122
27 124
27 129
27 198
27 221
27 262
28 46
28 53
28 64
28 149
28 157
28 181
28 220
28 275
28 290
29 59
29 80
29 146
29 287
30 55
30 73
30 93
30 133
30 148
30 151
30 154
30 200
30 212
30 220
30 250
30 256
31 79
31 80
31 127
31 149
31 252
31 265
31 266
32 54
32 64
32 65
32 95
32 111
32 115
32 268
32 295
33 43
33 109
33 140
33 206
33 236
34 42
34 58
34 68
34 95
34 99
34 104
34 106
34 159
34 186
34 230
34 237
35 76
35 78
35 83
35 89
35 93
35 101
35 105
35 180
35 210
35 247
35 288
36 52
36 76
36 115
36 153
36 189
36 229
37 40
37 94
37 96
37 100
37 136
37 152
37 199
37 238
37 292
38 106
38 246
38 257
38 284
38 290
38 292
39 67
39 91
39 126
39 155
39 160
39 188
39 237
39 282
40 74
40 97
40 100
40 152
40 176
40 199
40 256
40 261
40 262
40 266
40 297
41 45
41 57
41 88
41 185
41 196
41 284
41 285
42 94
42 104
42 136
42 139
42 238
42 276
42 278
43 55
43 66
43 69
43 81
43 109
43 113
43 125
43 136
43 185
43 253
43 268
43 271
44 50
44 95
44 115
44 188
44 278
45 57
45 118
45 153
46 64
46 100
46 130
46 140
46 159
46 214
46 229
46 241
46 242
46 290
47 49
47 61
47 168
47 261
47 295
48 82
48 94
48 250
48 275
48 279
49 147
49 213
49 242
50 85
50 154
50 180
50 188
50 192
50 193
51 115
51 124
51 138
51 142
51 182
51 277
52 76
52 91
52 103
52 211
52 229
52 250
52 277
52 286
53 127
53 181
53 201
53 212
53 218
54 75
54 130
54 134
54 252
55 60
55 66
55 69
55 71
55 73
55 81
55 129
55 211
55 219
55 242
55 260
55 265
55 295
56 227
57 62
57 72
57 73
57 133
57 158
57 185
57 259
57 263
57 298
58 106
58 113
58 136
58 205
58 259
58 293
58 298
59 80
59 95
59 98
59 152
59 155
59 182
59 212
59 225
59 279
59 294
60 73
60 99
60 106
60 165
60 171
60 180
60 198
60 211
60 274
61 138
61 212
61 294
62 99
62 123
62 140
62 158
62 198
62 207
62 253
62 278
63 75
63 92
63 116
63 121
63 126
63 131
63 148
63 150
63 170
63 250
63 254
64 140
64 164
64 207
64 234
64 242
64 269
65 68
65 95
65 130
65 145
65 164
65 285
66 114
66 158
66 166
66 174
66 185
66 199
66 253
67 76
67 91
67 94
67 152
67 155
67 160
67 184
67 203
67 278
67 286
68 87
68 90
68 95
68 98
68 103
68 111
68 122
68 146
68 162
68 214
68 230
68 287
68 296
69 73
69 78
69 101
69 105
69 109
69 144
69 160
69 215
69 236
69 241
69 242
69 266
70 84
70 164
71 73
71 75
71 93
71 116
71 121
71 143
71 174
71 230
72 73
72 80
72 84
72 86
72 133
72 158
72 200
72 226
72 237
72 241
72 291
73 84
73 93
73 99
73 101
73 122
73 124
73 129
73 133
73 138
73 144
73 220
73 266
73 268
73 293
74 190
74 259
74 263
75 121
75 129
75 131
75 214
75 240
75 252
76 93
76 94
76 152
76 155
76 184
76 221
76 229
76 278
76 282
76 293
77 176
77 178
77 185
77 210
77 271
77 298
78 105
78 132
78 137
78 144
78 278
79 164
79 170
79 210
79 217
79 224
79 276
79 296
80 86
80 182
80 231
81 85
81 163
81 172
81 271
82 110
82 170
82 183
82 280
82 285
83 89
83 93
83 94
83 105
83 136
84 86
84 158
84 164
84 204
84 241
84 242
84 282
85 97
85 141
85 228
86 98
86 225
86 261
86 286
86 300
87 90
87 98
87 111
87 113
87 116
87 122
87 184
87 186
87 202
87 214
87 220
87 230
87 248
88 101
88 186
88 220
89 93
89 105
89 132
89 147
89 186
89 209
89 210
89 214
89 237
89 239
89 241
89 264
90 95
90 98
90 103
90 146
90 237
91 92
91 109
91 117
91 224
91 226
91 250
91 256
91 268
91 280
91 286
92 116
92 117
92 121
92 124
92 129
92 197
92 224
92 237
92 280
92 289
93 94
93 109
93 133
93 189
93 210
94 100
94 136
94 139
94 165
94 170
94 276
94 292
95 104
95 130
95 136
95 146
95 155
95 162
95 230
95 268
96 99
96 115
96 199
96 212
96 221
96 246
96 293
97 112
97 118
97 121
97 149
97 228
97 256
98 111
98 128
98 160
98 261
98 286
99 105
99 106
99 171
99 187
99 207
99 277
99 278
100 190
100 236
100 238
100 278
101 109
101 110
101 121
101 161
101 186
101 267
101 284
102 231
103 162
103 273
103 286
104 106
104 139
104 208
104 300
105 165
105 247
105 277
105 291
106 125
106 196
106 217
106 234
106 245
106 255
106 257
106 277
106 283
107 191
107 212
107 223
107 230
107 263
107 266
108 115
108 135
108 226
108 295
109 124
109 125
109 138
109 157
109 161
109 168
109 182
109 215
109 228
109 239
109 261
109 268
109 278
110 116
110 121
110 127
110 205
110 261
110 280
111 134
111 161
111 233
111 257
112 124
112 158
112 184
112 228
112 231
112 262
113 136
113 195
113 202
113 218
113 229
113 230
113 293
114 156
114 299
115 144
115 180
115 246
115 277
115 295
116 121
116 127
116 150
116 205
116 227
117 129
117 172
117 205
117 269
118 191
118 215
118 253
119 254
120 133
120 148
120 185
120 226
120 289
121 127
121 205
122 124
122 126
122 160
122 171
122 184
122 203
122 218
122 220
122 230
122 248
123 160
123 178
123 210
124 126
124 129
124 132
124 138
124 181
124 232
124 235
125 248
125 257
125 272
126 132
126 153
126 184
126 189
126 250
126 281
127 129
127 168
127 205
127 218
127 227
127 266
129 177
129 179
129 197
129 232
129 240
129 251
130 196
130 229
131 150
131 170
132 137
132 138
132 166
132 181
132 199
132 239
132 262
133 144
133 148
133 154
133 226
134 257
134 276
136 165
137 190
137 201
137 238
137 249
137 258
137 283
138 182
138 191
138 294
139 174
139 239
139 240
139 275
140 196
140 198
140 202
141 167
141 212
141 236
141 266
142 161
142 187
142 193
142 217
142 225
142 240
142 275
142 279
143 281
144 157
144 180
144 226
144 277
145 164
145 268
146 254
146 274
146 287
147 167
147 209
147 276
147 283
148 226
148 272
150 270
150 277
151 200
151 235
151 256
151 292
152 183
152 232
152 250
152 275
152 285
153 189
154 180
154 193
154 257
154 258
155 166
155 199
155 203
155 212
155 224
155 261
155 270
155 279
156 228
156 294
156 296
156 299
157 173
157 198
157 200
157 218
157 220
157 227
157 239
157 265
157 285
157 292
158 185
158 198
158 241
159 161
159 202
159 232
159 244
159 250
159 289
159 290
160 173
160 178
160 202
160 203
160 210
160 224
160 236
160 266
160 278
160 286
160 288
161 275
161 278
161 290
162 170
162 183
162 211
162 213
162 217
162 264
162 267
162 276
163 172
163 187
163 283
163 285
164 217
164 229
164 245
165 167
165 172
165 200
165 282
165 291
166 190
166 199
166 224
166 258
167 200
167 212
168 195
168 208
168 238
168 239
168 252
168 261
168 266
169 195
170 183
170 184
170 212
170 224
170 264
170 276
170 285
171 216
171 218
171 230
171 252
171 267
172 173
172 200
172 257
172 268
172 283
172 285
173 176
173 203
173 220
173 222
173 241
173 245
173 257
173 265
173 280
174 230
174 235
174 240
175 176
176 198
176 241
176 260
176 288
176 297
177 179
177 259
177 263
177 270
178 201
178 210
178 224
178 228
178 255
178 294
180 231
180 274
180 277
180 288
180 293
180 295
180 300
181 209
181 217
181 218
181 230
181 234
181 245
181 254
181 270
182 196
182 211
182 213
182 215
182 216
182 242
182 278
182 296
183 221
183 285
184 228
184 248
184 262
184 270
184 276
184 277
185 228
185 237
185 271
185 284
185 289
185 298
186 200
186 204
186 214
186 237
186 243
186 247
186 255
186 256
187 204
187 212
187 240
187 246
187 279
187 285
187 298
188 193
188 207
188 224
188 236
189 191
189 202
189 209
189 269
189 272
189 281
189 286
190 236
190 258
191 212
191 272
191 276
192 271
193 224
193 257
193 258
193 283
194 223
194 296
195 202
195 239
196 227
196 229
196 239
196 240
196 246
196 259
196 285
196 298
197 229
198 241
200 212
200 235
200 237
200 239
200 268
200 282
200 283
200 287
200 292
201 204
201 212
201 249
201 252
201 255
202 203
202 204
202 208
202 212
202 271
202 282
202 289
202 297
203 218
203 220
203 241
204 212
204 231
204 240
204 253
204 276
204 293
205 216
205 219
205 243
205 265
205 266
206 242
208 239
208 243
208 251
208 252
208 255
208 260
208 273
208 297
208 300
209 245
209 272
209 283
209 300
210 224
210 238
210 271
210 274
210 278
210 288
210 289
211 213
211 214
211 232
211 234
211 237
211 267
211 279
212 215
212 231
212 249
212 272
212 276
212 293
212 294
212 297
213 217
213 218
213 232
213 236
213 242
213 267
214 216
214 241
214 242
214 255
214 261
214 279
215 276
215 278
215 281
215 294
216 218
216 243
216 255
216 265
216 267
216 291
217 229
217 236
217 245
217 295
218 265
218 267
218 296
219 260
220 222
221 282
222 236
222 241
222 257
222 265
222 266
222 293
222 297
223 259
223 263
224 256
224 261
224 282
226 233
227 255
227 285
228 276
228 284
228 294
229 286
230 245
231 274
231 293
231 294
231 300
232 244
232 250
232 260
232 290
234 237
234 245
234 269
234 297
235 282
235 287
235 292
236 245
236 266
236 277
236 295
237 243
237 269
237 271
237 289
238 258
238 278
239 262
240 246
240 259
240 263
240 275
240 287
241 242
241 245
241 257
241 260
242 265
242 267
243 251
243 260
244 289
245 254
245 257
245 277
245 297
245 300
246 284
246 295
246 298
247 256
248 272
249 283
250 275
251 297
252 255
252 260
252 265
254 274
255 261
255 265
255 285
256 280
257 283
259 263
259 287
260 288
260 295
265 285
266 274
266 293
266 295
266 297
268 278
270 277
270 279
271 274
271 289
271 293
271 297
272 283
273 297
274 293
276 294
277 295
278 281
278 282
278 288
282 293
284 289
285 298
288 295
290 295
296 299
*Classes
1
1
1
1
1
1
1
1
1
1
1
1
1
1
1
1
1
1
1
1
1
1
1
1
1
1
1
1
1
1
1
1
1
1
1
1
1
1
1
1
1
1
1
1
1
1
1
1
1
1
1
1
1
1
1
1
1
1
1
1
1
1
1
1
1
1
1
1
1
1
1
1
1
1
1
1
1
1
1
1
1
1
1
1
1
1
1
1
1
1
1
1
1
1
1
1
1
1
1
1
1
1
1
1
1
1
1
1
1
1
1
1
1
1
1
1
1
1
1
1
1
1
1
1
1
1
1
1
1
1
1
1
1
1
1
1
1
1
1
1
1
1
1
1
1
1
1
1
1
1
2
2
2
2
2
2
2
2
2
2
2
2
2
2
2
2
2
2
2
2
2
2
2
2
2
2
2
2
2
2
2
2
2
2
2
2
2
2
2
2
2
2
2
2
2
2
2
2
2
2
2
2
2
2
2
2
2
2
2
2
2
2
2
2
2
2
2
2
2
2
2
2
2
2
2
2
2
2
2
2
2
2
2
2
2
2
2
2
2
2
2
2
2
2
2
2
2
2
2
2
2
2
2
2
2
2
2
2
2
2
2
2
2
2
2
2
2
2
2
2
2
2
2
2
2
2
2
2
2
2
2
2
2
2
2
2
2
2
2
2
2
2
2
2
2
2
2
2
2
2
