*Vertices 300
*Edges
1 50
1 72
1 90
1 157
1 164
1 197
1 207
1 212
2 41
2 75
2 116
2 125
2 166
2 167
2 241
2 247
2 252
2 278
2 294
2 295
3 55
3 86
3 100
3 127
3 135
3 144
3 181
3 185
3 198
3 216
4 21
4 36
4 66
4 83
4 143
4 184
4 210
4 212
4 217
4 223
4 253
4 259
4 274
5 8
5 9
5 124
5 153
5 224
5 268
6 32
6 38
6 43
6 61
6 112
6 122
6 131
6 167
6 211
6 235
6 265
6 281
6 295
7 97
7 166
7 176
7 194
7 228
7 237
7 275
7 287
7 293
8 51
8 117
8 139
8 212
8 233
8 236
8 251
8 259
9 34
9 55
9 64
9 114
9 125
9 153
9 159
9 197
9 212
9 218
9 234
9 289
10 67
10 77
10 80
10 120
10 126
10 130
10 138
10 143
10 175
10 201
10 238
10 253
11 27
11 100
11 107
11 111
11 131
11 204
12 40
12 91
12 98
12 161
12 173
12 201
12 225
12 276
13 23
13 27
13 131
13 254
13 287
14 187
14 263
14 293
15 51
15 96
15 103
15 149
15 156
15 183
15 192
15 198
15 290
16 116
16 121
16 134
16 158
16 193
16 235
16 259
17 40
17 97
17 100
17 103
17 109
17 144
17 161
17 164
17 187
17 225
17 279
18 44
18 58
18 106
18 195
18 216
18 228
18 235
18 290
19 30
19 32
19 36
19 55
19 86
19 96
19 101
19 112
19 119
19 138
19 182
19 200
19 229
20 60
20 155
20 167
20 168
20 242
20 249
20 271
21 85
21 86
21 122
21 154
21 217
21 218
21 297
22 33
22 67
22 93
22 103
22 133
22 186
22 198
22 269
22 279
23 27
23 120
23 169
23 214
23 242
23 287
24 112
24 155
24 221
24 246
24 264
24 278
24 285
24 292
25 90
25 119
25 136
25 140
25 145
25 163
25 269
26 37
26 46
26 73
26 74
26 99
26 130
26 147
26 182
26 216
26 228
26 230
26 266
26 283
27 63
27 79
27 110
27 131
27 141
27 163
27 224
27 257
27 287
28 29
28 82
28 83
28 102
28 104
28 111
28 123
28 130
28 165
28 233
28 250
28 268
29 43
29 66
29 97
29 116
29 146
29 166
29 190
29 213
29 233
29 257
29 267
30 47
30 119
30 135
30 140
30 169
30 206
30 224
30 269
30 295
31 103
31 124
31 210
32 34
32 49
32 74
32 75
32 76
32 101
32 112
32 119
32 141
32 179
32 222
32 235
32 254
32 289
33 38
33 93
33 95
33 108
33 160
33 172
33 207
33 258
34 48
34 62
34 114
34 174
34 175
34 184
34 188
34 209
34 221
34 289
35 138
35 145
35 155
35 158
35 204
35 218
35 242
35 247
35 267
35 270
35 271
36 97
36 113
36 118
36 212
36 229
37 87
37 130
37 136
37 146
37 216
37 231
37 296
38 49
38 69
38 108
38 160
38 167
38 267
39 51
39 128
39 202
39 213
39 218
39 238
39 261
39 287
39 296
40 46
40 109
40 114
40 116
40 178
40 204
40 242
40 259
41 48
41 85
41 152
41 205
41 216
41 231
41 295
42 54
42 80
42 81
42 135
42 167
42 228
42 252
42 267
42 269
43 298
44 49
44 54
44 108
44 158
44 164
44 235
44 246
44 275
45 131
45 202
45 253
45 294
46 48
46 66
46 81
46 114
46 176
46 182
46 207
46 233
46 234
46 236
46 259
46 270
46 284
47 71
47 98
47 115
47 117
47 119
47 184
47 217
47 233
47 255
47 267
47 269
48 74
48 107
48 147
48 153
48 162
48 167
48 201
48 202
48 251
48 259
48 267
48 269
48 282
48 297
49 60
49 69
49 78
49 167
49 185
49 196
50 73
50 88
50 155
50 156
51 128
51 139
51 192
51 211
51 233
52 63
52 67
52 79
52 232
52 294
52 297
53 56
53 70
53 91
53 117
53 134
53 143
53 229
53 288
54 84
54 101
54 108
54 135
54 168
54 203
54 215
54 219
54 234
54 260
54 269
54 284
55 73
55 80
55 86
55 119
55 122
55 135
55 138
55 200
55 251
56 82
56 90
56 119
56 132
56 143
56 221
56 234
56 280
57 81
57 107
57 149
57 163
57 194
57 236
57 257
58 71
58 74
58 83
58 91
58 98
58 122
58 125
58 129
58 156
58 191
58 205
58 209
58 213
58 222
58 244
58 259
58 278
58 290
59 117
59 185
59 233
59 254
59 280
60 126
60 167
60 173
60 196
60 215
60 220
60 233
60 249
60 267
60 288
61 166
61 194
61 204
61 242
62 127
62 149
62 151
62 291
62 298
63 94
63 105
63 106
63 138
63 141
63 226
63 243
63 248
63 256
64 96
64 101
64 103
64 125
64 170
64 186
64 200
64 203
65 98
65 102
65 150
65 151
65 193
65 234
65 238
65 269
65 298
66 108
66 146
66 165
66 172
66 178
66 207
66 223
66 227
66 233
66 248
66 298
67 68
67 93
67 175
67 232
68 76
68 93
68 222
69 115
69 164
69 296
70 81
70 104
70 134
70 210
70 238
70 285
70 288
71 75
71 115
71 122
71 139
71 247
72 99
72 106
72 127
72 138
72 207
72 231
72 242
73 78
73 116
73 135
73 153
73 228
73 229
73 230
73 240
73 260
73 266
73 286
74 76
74 92
74 113
74 118
74 131
74 142
74 147
74 150
74 179
74 201
74 215
74 257
74 267
74 282
75 102
75 157
75 205
75 267
75 289
75 294
76 187
76 222
76 245
76 254
77 129
77 139
77 146
77 156
78 152
78 228
78 229
78 270
78 287
79 102
79 110
79 111
79 141
79 142
79 163
79 175
79 203
79 209
79 232
79 239
79 267
79 290
80 135
80 136
80 154
80 233
80 246
80 252
80 267
80 291
81 104
81 107
81 114
81 234
81 279
82 159
82 165
82 234
83 86
83 90
83 102
83 104
83 122
83 130
83 156
83 204
83 212
83 217
83 223
83 259
84 152
84 198
84 273
84 280
85 159
85 264
85 295
86 122
86 124
86 126
86 135
86 154
86 166
86 194
86 198
86 230
86 236
86 243
86 251
87 96
87 103
87 110
87 137
87 193
87 247
88 156
88 166
88 220
88 250
88 265
88 291
89 202
89 296
90 101
90 102
90 119
90 121
90 186
90 221
90 295
91 117
91 205
91 272
92 106
92 126
92 131
92 169
92 257
92 269
92 271
93 95
93 102
93 172
93 266
94 248
95 164
96 103
96 134
96 137
96 142
96 170
96 180
96 182
96 203
96 228
96 247
96 288
97 179
97 213
98 102
98 110
98 119
98 183
98 189
98 191
98 200
98 201
98 228
98 288
99 100
99 123
99 137
99 160
99 169
99 242
99 264
99 275
99 299
100 144
100 181
100 185
100 201
100 223
100 274
100 275
100 294
101 108
101 146
101 186
101 213
101 287
102 221
102 225
102 234
102 266
102 267
103 258
103 279
104 105
104 106
104 123
104 161
104 230
104 279
105 106
105 120
105 220
105 226
105 257
106 126
106 130
106 195
106 228
107 109
107 121
107 135
107 162
107 201
107 204
107 252
108 146
108 164
109 113
109 165
109 265
110 116
110 193
110 200
110 239
110 241
110 259
110 267
111 203
112 121
112 201
112 267
112 269
112 274
113 118
113 129
113 144
113 149
113 165
113 177
113 225
113 248
113 257
113 262
113 275
114 234
114 284
115 118
115 144
115 210
115 227
115 232
115 291
116 132
116 159
116 166
116 204
116 212
116 259
116 260
116 286
117 119
117 139
117 147
117 172
117 210
117 215
117 233
117 240
117 251
117 280
118 142
118 184
118 211
118 232
118 255
118 267
119 136
119 189
119 196
119 200
119 270
119 296
120 129
120 143
120 155
120 166
120 220
120 256
120 258
120 277
120 278
120 279
121 201
121 235
121 265
121 274
122 131
122 133
122 198
122 235
122 281
122 295
123 201
123 263
123 275
123 279
123 299
124 133
124 159
124 173
124 210
124 212
124 227
124 229
124 246
125 136
125 213
125 222
125 233
125 252
125 267
125 283
125 291
125 297
126 129
126 130
126 180
126 199
126 236
126 288
127 151
127 165
127 178
127 291
127 298
127 300
128 149
128 261
129 130
129 139
129 149
129 222
129 266
129 298
130 222
130 259
130 268
131 168
131 220
131 241
131 294
132 166
132 234
133 186
133 187
133 269
133 279
133 293
134 170
134 193
134 285
135 182
135 243
135 252
135 260
135 294
136 140
136 157
136 161
136 218
136 244
136 269
136 291
136 296
137 139
137 160
137 233
137 243
137 264
137 274
138 201
138 226
138 231
138 273
138 274
138 287
139 212
139 259
140 169
140 173
140 180
140 202
140 228
140 235
140 239
140 289
141 212
141 224
141 274
142 157
142 163
142 180
142 188
142 204
142 215
142 228
142 229
142 234
142 255
142 290
143 184
143 252
143 253
143 256
143 279
144 148
144 196
144 223
144 275
144 277
144 278
144 294
145 171
145 254
146 150
146 257
146 281
147 175
147 201
147 240
147 255
148 152
148 258
148 266
148 277
149 198
150 162
150 198
150 211
150 229
150 255
150 264
150 276
150 292
151 179
151 193
151 239
151 264
151 298
152 154
152 159
152 160
152 164
152 177
152 185
152 221
152 258
152 280
152 287
152 295
153 218
153 230
153 251
154 159
154 250
154 267
154 287
155 164
155 210
155 227
155 233
155 271
155 277
155 278
156 159
156 218
156 255
156 260
157 161
157 164
157 205
157 230
157 244
157 251
157 262
157 264
157 268
157 292
158 214
158 219
158 235
158 242
158 245
158 247
158 279
158 284
159 165
159 178
159 212
159 234
159 260
160 163
160 164
160 195
160 206
160 300
161 182
161 218
161 230
161 276
162 177
162 179
162 193
162 225
162 269
162 286
163 195
163 232
163 291
164 184
164 225
164 268
164 282
164 300
165 169
165 178
165 195
165 212
165 234
165 255
166 194
166 217
166 220
166 252
166 255
166 267
166 284
167 180
167 228
167 259
167 267
167 294
168 203
168 241
169 206
169 269
169 289
169 299
170 181
170 288
171 187
171 188
171 214
171 224
171 244
171 248
171 254
171 281
171 290
172 187
172 254
172 280
173 229
173 236
173 284
174 210
174 241
174 289
174 295
175 187
175 215
175 254
175 280
175 285
176 270
176 274
176 275
177 224
177 262
177 287
177 295
177 297
178 200
178 236
178 298
178 300
180 188
180 199
180 228
180 243
180 285
180 289
181 247
181 288
182 196
182 218
182 227
182 230
182 276
182 282
183 200
184 188
184 212
184 215
184 225
184 231
184 234
184 282
184 289
185 196
185 198
185 221
185 254
186 213
186 256
186 268
186 283
187 190
187 254
187 280
187 293
188 209
188 215
188 228
188 243
188 248
189 240
190 233
190 283
190 290
190 291
191 249
191 280
192 290
193 229
193 245
194 230
195 201
195 203
195 216
195 217
195 247
195 255
196 209
196 218
196 270
196 277
197 212
197 258
198 211
199 237
199 287
200 226
200 228
200 236
200 297
201 202
201 229
201 255
201 261
201 275
202 206
202 226
202 229
202 247
202 269
202 278
202 294
202 296
203 260
204 207
204 215
204 231
204 242
204 267
204 271
204 272
205 251
205 262
205 268
205 272
205 273
205 283
206 229
206 258
206 261
207 224
207 227
207 231
207 233
207 249
207 258
208 219
209 218
209 244
209 290
210 211
210 227
210 236
210 295
211 218
211 233
211 235
211 236
211 257
211 259
211 267
212 223
212 274
212 275
213 287
214 226
214 233
214 242
214 252
214 254
214 263
214 267
214 297
215 233
215 234
215 248
215 267
215 271
215 280
216 231
216 263
217 220
217 243
217 255
217 256
217 258
217 279
218 238
218 270
218 276
218 297
219 283
219 284
220 221
220 267
220 279
221 265
221 278
221 295
222 251
222 252
222 253
222 283
224 252
224 258
224 268
224 281
224 290
224 295
225 282
226 229
226 243
226 273
226 281
227 233
228 229
228 239
228 240
228 264
228 267
229 258
229 296
230 244
230 251
230 276
230 282
231 249
232 291
232 297
233 243
233 255
233 267
233 288
235 247
235 275
235 279
236 259
237 261
237 287
238 253
238 281
238 294
239 245
239 256
239 264
240 298
241 243
241 251
242 272
243 256
243 285
244 264
244 270
244 290
245 264
246 254
246 274
246 275
247 255
248 254
248 273
248 280
248 300
250 290
250 291
251 252
251 262
251 272
251 283
252 253
252 267
252 281
252 294
252 297
253 294
253 297
254 275
255 258
255 281
257 271
258 266
258 279
258 281
259 297
262 300
264 265
264 270
264 292
265 278
265 295
266 279
266 298
267 270
268 283
270 296
272 273
274 275
277 292
277 296
278 285
278 290
278 294
279 281
281 295
283 291
285 289
288 294
290 291
292 296
293 295
*Classes
1
1
1
1
1
1
1
1
1
1
1
1
1
1
1
1
1
1
1
1
1
1
1
1
1
1
1
1
1
1
1
1
1
1
1
1
1
1
1
1
1
1
1
1
1
1
1
1
1
1
1
1
1
1
1
1
1
1
1
1
1
1
1
1
1
1
1
1
1
1
1
1
1
1
1
1
1
1
1
1
1
1
1
1
1
1
1
1
1
1
1
1
1
1
1
1
1
1
1
1
1
1
1
1
1
1
1
1
1
1
1
1
1
1
1
1
1
1
1
1
1
1
1
1
1
1
1
1
1
1
1
1
1
1
1
1
1
1
1
1
1
1
1
1
1
1
1
1
1
1
2
2
2
2
2
2
2
2
2
2
2
2
2
2
2
2
2
2
2
2
2
2
2
2
2
2
2
2
2
2
2
2
2
2
2
2
2
2
2
2
2
2
2
2
2
2
2
2
2
2
2
2
2
2
2
2
2
2
2
2
2
2
2
2
2
2
2
2
2
2
2
2
2
2
2
2
2
2
2
2
2
2
2
2
2
2
2
2
2
2
2
2
2
2
2
2
2
2
2
2
2
2
2
2
2
2
2
2
2
2
2
2
2
2
2
2
2
2
2
2
2
2
2
2
2
2
2
2
2
2
2
2
2
2
2
2
2
2
2
2
2
2
2
2
2
2
2
2
2
2
