*Vertices 300
*Edges
1 27
1 63
1 137
1 150
1 158
1 245
1 287
2 4
2 47
2 61
2 97
2 98
2 105
2 120
2 131
2 145
2 150
2 167
2 241
2 248
2 264
2 278
3 4
3 17
3 208
3 212
3 223
3 240
3 250
4 17
4 61
4 129
4 142
4 208
4 286
5 14
5 70
5 126
5 154
5 218
5 239
6 21
6 47
6 71
6 113
6 117
6 130
6 174
6 189
6 211
7 12
7 40
7 54
7 92
7 99
7 135
8 42
8 65
8 71
8 124
8 143
8 162
8 178
8 264
9 39
9 46
9 90
9 135
9 138
9 142
9 164
9 189
10 61
10 103
10 129
10 248
11 115
11 207
12 16
12 20
12 54
12 56
12 75
12 81
12 94
12 95
12 117
12 127
12 161
12 244
12 254
13 46
13 51
13 62
13 81
13 90
13 104
13 133
13 166
13 188
13 229
13 250
13 283
14 48
14 50
14 58
14 125
14 156
14 201
14 218
14 235
14 248
14 282
15 51
15 82
15 179
15 186
15 243
15 289
16 54
16 58
16 81
16 107
16 108
16 117
16 139
17 24
17 31
17 81
17 136
17 150
17 164
17 179
17 208
17 237
17 241
17 255
18 78
18 221
19 38
19 39
19 90
19 102
19 155
19 198
19 291
20 24
20 44
20 81
20 86
20 110
20 115
20 163
20 172
20 174
20 194
20 277
21 110
21 117
21 147
21 222
21 237
21 241
22 51
22 69
22 89
22 91
22 122
22 147
22 175
22 210
22 220
22 225
22 246
22 270
22 283
23 38
23 76
23 99
23 174
23 267
24 75
24 86
24 106
24 140
24 215
25 48
25 49
25 67
25 106
26 67
26 68
26 126
26 142
26 165
26 178
26 240
27 82
27 104
27 118
27 150
27 198
27 237
27 259
28 35
28 103
28 150
28 299
29 31
29 53
29 82
29 129
29 136
30 90
30 151
30 155
30 204
30 284
31 59
31 72
31 106
31 117
31 136
31 148
31 202
31 228
31 232
31 259
32 65
32 112
32 130
32 133
32 144
32 203
32 246
33 51
33 140
33 270
34 60
34 72
34 83
34 98
34 136
34 175
34 179
34 221
34 252
34 262
35 58
35 100
35 103
35 141
35 196
35 251
36 72
36 152
36 162
36 243
36 299
37 92
37 135
37 139
37 190
37 219
37 236
37 262
38 39
38 99
38 102
38 109
38 130
38 146
38 184
38 222
38 292
39 55
39 70
39 90
39 102
39 114
39 235
40 64
40 77
40 80
40 99
40 106
40 174
40 226
41 113
41 116
41 139
41 146
41 184
41 222
42 59
42 72
42 76
42 269
43 75
43 140
43 149
43 199
43 226
44 61
44 115
44 143
44 170
44 196
44 240
44 249
45 91
45 98
45 128
45 165
45 220
46 81
46 100
46 136
46 173
46 189
46 245
46 292
47 71
47 84
47 96
47 211
47 216
47 230
47 241
47 258
48 125
48 296
49 66
49 68
49 106
49 158
49 160
49 193
49 242
49 280
50 99
50 123
50 141
50 255
50 282
51 67
51 91
51 137
51 147
51 153
51 190
51 198
51 200
51 250
52 62
52 98
52 108
52 109
52 146
52 203
52 268
52 290
52 293
53 134
53 258
53 260
53 271
53 277
53 287
53 296
54 88
54 104
54 108
54 110
54 207
55 132
55 160
55 225
55 235
56 66
56 75
56 89
56 191
57 73
57 141
57 147
57 166
57 181
57 204
57 275
58 87
58 93
58 109
58 139
58 152
58 176
58 206
58 251
58 282
59 72
59 92
59 228
60 78
60 118
60 135
60 158
60 243
61 134
61 171
61 177
61 216
61 217
62 102
62 127
62 186
62 256
62 276
62 281
62 293
63 73
63 91
63 110
63 134
63 137
63 158
63 188
63 217
63 224
64 77
64 79
64 110
64 125
64 128
64 183
64 226
64 284
65 92
65 101
65 109
65 124
65 133
65 260
65 263
65 265
66 67
66 106
66 111
66 155
66 272
67 73
67 87
67 181
67 185
67 200
67 223
67 272
68 178
68 198
68 242
69 104
69 122
69 147
69 158
69 199
69 247
70 84
70 126
70 162
70 235
71 84
71 88
71 92
71 116
71 124
71 180
72 92
72 114
72 152
72 294
73 74
73 116
73 181
73 237
73 250
73 252
73 270
74 137
74 156
74 163
74 252
74 296
75 149
75 201
75 215
75 267
76 113
76 224
76 281
76 283
77 94
77 99
77 111
77 125
77 239
77 262
77 280
78 121
78 141
78 160
78 232
79 97
79 100
79 196
79 197
79 206
79 212
79 226
79 291
80 83
80 97
80 98
80 99
80 107
80 130
80 190
80 199
80 213
80 222
80 265
80 271
80 277
81 93
81 99
81 105
81 127
81 130
81 133
81 136
81 140
81 150
81 266
82 85
82 122
82 128
82 212
82 269
82 288
83 131
83 171
83 173
83 231
83 252
83 267
83 269
83 286
84 155
85 134
85 180
85 195
85 269
85 282
86 93
86 139
86 140
86 169
86 173
86 210
86 231
86 262
87 93
87 153
87 185
87 206
88 98
88 108
88 110
88 120
88 125
88 144
88 163
88 188
88 277
88 296
89 122
89 249
90 138
90 149
90 155
90 229
91 98
91 143
91 170
92 116
92 139
92 157
92 263
93 101
93 104
93 140
93 165
93 222
93 247
94 95
94 100
94 230
94 244
94 262
94 267
94 268
94 275
95 244
95 254
95 258
96 112
96 258
97 98
97 100
97 132
97 265
98 109
98 203
98 206
98 221
98 224
98 277
99 106
99 132
99 150
99 174
99 222
99 285
99 297
100 182
100 185
100 202
100 230
100 245
100 251
100 297
101 247
101 263
102 186
102 199
102 265
103 108
103 122
103 129
103 134
103 175
104 144
104 150
104 171
104 192
104 247
104 250
105 145
105 150
105 176
105 223
105 238
106 160
106 232
106 272
107 168
107 231
107 245
107 273
108 117
108 122
108 203
109 146
109 197
109 211
109 268
110 117
110 174
110 183
110 224
110 265
111 123
111 125
111 166
111 185
111 212
112 122
112 144
112 181
112 199
112 203
112 281
113 139
113 146
113 285
113 298
114 130
114 240
114 292
114 294
115 135
115 178
115 207
115 217
115 235
115 236
115 248
115 253
115 257
116 184
116 205
116 263
117 129
117 133
117 144
117 171
117 187
117 196
117 222
117 259
117 262
117 274
118 135
118 173
118 237
118 256
118 266
120 163
120 167
121 141
121 201
122 129
122 134
122 175
122 288
123 140
123 147
123 166
123 255
123 278
123 285
124 143
124 261
125 128
125 144
125 212
125 247
125 296
126 144
126 178
126 260
127 186
127 219
128 143
128 165
128 166
128 212
128 271
128 292
129 130
129 208
129 274
129 276
130 133
130 135
130 138
130 154
130 199
130 219
130 264
130 267
131 144
131 154
131 171
131 248
131 269
131 284
132 214
132 225
132 265
133 245
133 249
133 259
133 289
134 138
134 195
134 217
134 256
134 266
134 272
134 285
134 287
135 138
135 173
135 183
135 225
135 236
136 148
136 153
136 167
136 186
136 228
136 230
136 262
136 282
136 286
136 293
137 152
137 156
137 159
137 177
137 200
137 227
137 299
138 266
139 140
139 173
139 219
140 147
140 174
140 218
140 231
140 293
141 218
141 251
141 269
141 273
142 145
142 208
142 251
143 164
143 170
143 277
143 288
143 292
144 171
144 187
144 260
145 241
145 251
146 184
146 195
146 222
146 263
147 283
147 285
148 161
148 166
148 206
148 293
149 229
149 231
150 172
150 213
150 299
151 244
152 176
152 177
152 271
153 184
153 237
153 241
154 168
154 177
154 195
154 216
154 242
154 244
154 267
154 269
154 279
155 198
155 271
155 274
156 192
156 218
156 291
157 163
157 180
157 193
157 257
157 270
157 279
157 286
158 217
158 249
159 173
159 200
159 239
159 250
159 269
160 186
160 194
160 201
160 259
160 279
161 169
161 206
161 235
161 236
161 250
162 243
162 264
162 286
162 293
163 172
163 217
163 219
163 254
163 257
163 261
163 270
164 180
164 193
164 288
165 175
165 209
165 217
165 222
165 246
165 271
166 178
166 181
166 185
166 203
166 284
167 207
167 262
167 278
168 239
168 245
168 257
169 236
170 240
171 174
171 184
171 280
171 298
172 247
172 277
173 231
173 269
174 241
174 280
174 297
175 217
175 229
175 246
175 252
175 293
176 185
176 204
176 223
176 225
176 237
176 240
176 244
176 264
176 269
176 285
177 200
177 217
177 242
177 280
178 221
178 234
178 240
178 250
178 256
178 264
178 285
179 213
179 243
180 193
180 216
181 182
181 204
181 231
181 237
181 253
181 270
181 297
182 192
182 297
183 225
183 240
183 270
183 290
184 197
184 210
184 222
184 229
184 250
184 266
184 283
184 286
185 205
185 223
186 191
186 193
186 202
186 279
186 282
186 293
187 189
187 196
187 211
188 217
188 265
189 208
189 211
189 248
189 296
190 222
190 223
191 264
192 218
193 257
193 276
193 279
193 297
194 201
194 280
195 202
195 267
195 269
195 273
195 288
196 211
196 226
196 254
196 274
196 286
197 229
197 286
198 202
198 237
198 250
198 269
198 274
198 291
200 227
200 239
200 263
201 218
201 232
201 235
201 239
201 263
201 266
202 228
202 237
202 262
202 273
203 240
203 271
203 284
203 300
204 209
204 251
204 284
205 278
205 298
206 213
206 229
206 235
206 236
206 250
206 258
206 287
207 215
207 238
208 248
208 294
209 269
210 250
210 283
210 290
211 256
212 225
213 229
213 243
213 277
216 267
217 257
217 261
218 226
218 269
218 273
218 291
218 298
219 224
219 250
220 246
220 274
221 228
221 252
221 264
222 236
222 265
223 225
223 272
223 285
225 270
225 277
226 291
227 257
229 246
230 236
230 244
230 256
230 267
230 279
230 286
231 237
231 252
234 235
234 284
235 248
235 250
237 241
237 250
237 253
237 261
237 269
237 273
237 283
238 297
238 298
239 250
239 263
239 280
240 250
240 300
241 297
242 279
242 291
243 289
244 260
244 264
246 270
247 250
247 253
247 260
247 282
248 292
249 253
249 289
250 285
253 267
253 282
253 285
254 267
255 265
256 262
256 285
257 273
258 263
259 274
261 283
262 268
263 266
266 272
267 275
267 285
268 283
269 288
270 286
276 297
277 287
277 288
278 287
280 298
286 293
287 298
289 294
*Classes
1
1
1
1
1
1
1
1
1
1
1
1
1
1
1
1
1
1
1
1
1
1
1
1
1
1
1
1
1
1
1
1
1
1
1
1
1
1
1
1
1
1
1
1
1
1
1
1
1
1
1
1
1
1
1
1
1
1
1
1
1
1
1
1
1
1
1
1
1
1
1
1
1
1
1
1
1
1
1
1
1
1
1
1
1
1
1
1
1
1
1
1
1
1
1
1
1
1
1
1
1
1
1
1
1
1
1
1
1
1
1
1
1
1
1
1
1
1
1
1
1
1
1
1
1
1
1
1
1
1
1
1
1
1
1
1
1
1
1
1
1
1
1
1
1
1
1
1
1
1
2
2
2
2
2
2
2
2
2
2
2
2
2
2
2
2
2
2
2
2
2
2
2
2
2
2
2
2
2
2
2
2
2
2
2
2
2
2
2
2
2
2
2
2
2
2
2
2
2
2
2
2
2
2
2
2
2
2
2
2
2
2
2
2
2
2
2
2
2
2
2
2
2
2
2
2
2
2
2
2
2
2
2
2
2
2
2
2
2
2
2
2
2
2
2
2
2
2
2
2
2
2
2
2
2
2
2
2
2
2
2
2
2
2
2
2
2
2
2
2
2
2
2
2
2
2
2
2
2
2
2
2
2
2
2
2
2
2
2
2
2
2
2
2
2
2
2
2
2
2
