\relax 
\providecommand\hyper@newdestlabel[2]{}
\providecommand\HyperFirstAtBeginDocument{\AtBeginDocument}
\HyperFirstAtBeginDocument{\ifx\hyper@anchor\@undefined
\global\let\oldcontentsline\contentsline
\gdef\contentsline#1#2#3#4{\oldcontentsline{#1}{#2}{#3}}
\global\let\oldnewlabel\newlabel
\gdef\newlabel#1#2{\newlabelxx{#1}#2}
\gdef\newlabelxx#1#2#3#4#5#6{\oldnewlabel{#1}{{#2}{#3}}}
\AtEndDocument{\ifx\hyper@anchor\@undefined
\let\contentsline\oldcontentsline
\let\newlabel\oldnewlabel
\fi}
\fi}
\global\let\hyper@last\relax 
\gdef\HyperFirstAtBeginDocument#1{#1}
\providecommand\HyField@AuxAddToFields[1]{}
\providecommand\HyField@AuxAddToCoFields[2]{}
\bibstyle{agsm}
\citation{watts98,holland71}
\@writefile{toc}{\contentsline {section}{\numberline {1}Transitivity}{1}{section.1}}
\citation{chen16}
\newlabel{fig:locality}{{1}{2}{Transitivity}{section.1}{}}
\@writefile{toc}{\contentsline {section}{\numberline {2}Generative Models}{2}{section.2}}
\newlabel{fig:transitivity}{{2}{4}{Generative Models}{section.2}{}}
\@writefile{toc}{\contentsline {subsection}{\numberline {2.1}Two Stage TSBM}{5}{subsection.2.1}}
\@writefile{toc}{\contentsline {subsection}{\numberline {2.2}TSBM as Aggregated Stochastic Triads}{6}{subsection.2.2}}
\citation{MN:09}
\@writefile{toc}{\contentsline {section}{\numberline {3}Newman Network Generation}{12}{section.3}}
\newlabel{eq:deg_eqns}{{1}{12}{Newman Network Generation}{equation.3.1}{}}
\newlabel{eq:trans_eqns}{{2}{12}{Newman Network Generation}{equation.3.2}{}}
\@writefile{toc}{\contentsline {section}{\numberline {4}Analysis of Third Moments}{13}{section.4}}
\newlabel{eq:btt_entry}{{3}{13}{Analysis of Third Moments}{equation.4.3}{}}
\@writefile{toc}{\contentsline {section}{\numberline {5}Simulated Annealing}{14}{section.5}}
\@writefile{toc}{\contentsline {section}{\numberline {6}Robustness of Generative Models}{14}{section.6}}
\@writefile{toc}{\contentsline {section}{\numberline {7}Optimum value of $\alpha $}{14}{section.7}}
\@writefile{loa}{\contentsline {algorithm}{\numberline {1}{\ignorespaces Simulated Annealing for Network Generation}}{15}{algorithm.1}}
\@writefile{lot}{\contentsline {table}{\numberline {1}{\ignorespaces Mean and standard deviation of parameters across 100 test networks generated via the stochastic block model.}}{15}{table.1}}
\newlabel{tab:network_parameters_sbm}{{1}{15}{Mean and standard deviation of parameters across 100 test networks generated via the stochastic block model}{table.1}{}}
\citation{holland71}
\citation{pvm09}
\bibdata{PB-bib,MH-bib}
\bibcite{chen16}{{1}{2016}{{Chen et~al.}}{{Chen, Kamath, Suh \&\ Tse}}}
\bibcite{holland71}{{2}{1971}{{Holland \&\ Leinhardt}}{{}}}
\bibcite{pvm09}{{3}{2009}{{Mieghem et~al.}}{{Mieghem, Omic \&\ Kooij}}}
\bibcite{MN:09}{{4}{2009}{{Newman}}{{}}}
\bibcite{watts98}{{5}{1998}{{Watts \&\ Strogatz}}{{}}}
\@writefile{lot}{\contentsline {table}{\numberline {2}{\ignorespaces Mean and standard deviation of parameters across 100 test networks generated via simulated annealing.}}{16}{table.2}}
\newlabel{tab:network_parameters_sa}{{2}{16}{Mean and standard deviation of parameters across 100 test networks generated via simulated annealing}{table.2}{}}
